{
  "version": {
    "isContribuable": false,
    "votes_total": 3,
    "arguments_yes_count": 1,
    "arguments_no_count": 2,
    "id": 941,
    "body": "<p>Article 17 - Evolution des missions de la CNIL</p>\n\n<div><p>L&rsquo;article 11&nbsp;de la m&ecirc;me loi est ainsi modifi&eacute;&nbsp;:</p>\n\n<p>1&deg; Il est ajout&eacute; un 1&deg; bis ainsi r&eacute;dig&eacute;&nbsp;:</p>\n\n<p>&laquo;&nbsp;1&deg; bis Elle soutient, dans le cadre de ses missions, le d&eacute;veloppement des technologies respectueuses de la vie priv&eacute;e;</p>\n\n<p>2&deg; Au d) du 2&deg;, apr&egrave;s les mots&nbsp;: &laquo;&nbsp;et conseille&nbsp;&raquo;, sont remplac&eacute;s par les mots &laquo;&nbsp;, conseille et accompagne&nbsp;&raquo;&nbsp;;</p>\n\n<p>3&deg; Le 4&deg; est ainsi modifi&eacute;&nbsp;:</p>\n\n<p>a) Au troisi&egrave;me alin&eacute;a les mots &laquo;&nbsp;relatif &agrave; la protection des personnes &agrave; l&#39;&eacute;gard des traitements automatis&eacute;s&nbsp;&raquo; sont remplac&eacute;s par les mots &laquo;&nbsp;comportant des dispositions relatives &agrave; la protection des donn&eacute;es &agrave; caract&egrave;re personnel ou au traitement de telles donn&eacute;es.&nbsp;&raquo;</p>\n\n<p>b) Apr&egrave;s le troisi&egrave;me alin&eacute;a, il est ajout&eacute; l&rsquo;alin&eacute;a suivant&nbsp;:</p>\n\n<p>&laquo;&nbsp;Le pr&eacute;sident d&#39;une assembl&eacute;e parlementaire peut soumettre &agrave; l&#39;avis de la commission une proposition de loi comportant des dispositions relatives &agrave; la protection des donn&eacute;es &agrave; caract&egrave;re personnel ou au traitement de telles donn&eacute;es, d&eacute;pos&eacute;e par l&#39;un des membres de cette assembl&eacute;e, sauf si ce dernier s&#39;y oppose.&nbsp;&raquo;&nbsp;&nbsp;;</p>\n\n<p>c) Il est ajout&eacute; un e) ainsi r&eacute;dig&eacute;&nbsp;:</p>\n\n<p>&laquo;&nbsp;e) Elle conduit une r&eacute;flexion sur les probl&egrave;mes &eacute;thiques et les questions de soci&eacute;t&eacute; soulev&eacute;s par l&rsquo;&eacute;volution des technologies num&eacute;riques. Un d&eacute;cret pr&eacute;cise les conditions de mise en &oelig;uvre de cette mission, notamment quant aux modalit&eacute;s d&rsquo;implication de personnalit&eacute;s qualifi&eacute;es et d&rsquo;organisation du d&eacute;bat public.&nbsp;&raquo;</p>\n\n<p>d&deg; Il est ajout&eacute; un f) ainsi r&eacute;dig&eacute;:</p>\n\n<p>&quot;f) Dans les entreprises, la fonction de Correspondant Informatique et Libert&eacute;s est compatible avec la fonction de D&eacute;l&eacute;gu&eacute; du Personnel, &eacute;lu du Comit&eacute; d&#39;entreprise ou D&eacute;l&eacute;gu&eacute; Syndical ; elle donne le statut de salari&eacute; prot&eacute;g&eacute; ; elle est incompatible avec toute fonction de direction, afin d&#39;en assurer l&#39;ind&eacute;pendance et d&#39;&eacute;viter tout conflit d&#39;int&eacute;r&ecirc;t&quot;.</p>\n</div>",
    "comment": "<p>Actuellement, la CNIL interdit de son propre chef &agrave; un salari&eacute; &eacute;lu D&eacute;l&eacute;gu&eacute; du Personnel d&#39;&ecirc;tre CIL, correspondant Informatique et Libert&eacute;s, alors que dans les attributions des DP figure la d&eacute;fense des libert&eacute;s individuelles (Code du travail, L.2313-2).</p>\n\n<p>La CNIL pense qu&#39;un DP est inf&eacute;od&eacute; &agrave; un syndicat, et donc a moins d&#39;ind&eacute;pendance vis-&agrave;-vis de sa Direction qu&#39;un chef de service ou un DSI.</p>\n\n<p>Je propose que le poste de CIL soit&nbsp;autoris&eacute; &agrave; un DP mais interdit &agrave; un cadre dirigeant d&#39;une entreprise &agrave; cause des conflits d&#39;int&eacute;r&ecirc;ts possibles, et qu&#39;il soit consid&eacute;r&eacute; comme salari&eacute; prot&eacute;g&eacute; au sens du Code du travail.</p>",
    "author": {
      "username": "patrick raffin",
      "displayName": "patrick raffin",
      "uniqueId": "patrickraffin",
      "isAdmin": false,
      "media": null,
      "vip": false,
      "_links": {
        "profile": "https://www.republique-numerique.fr/profile/patrickraffin",
        "settings": "https://www.republique-numerique.fr/profile/edit-profile"
      }
    },
    "arguments": [
      {
        "isContribuable": false,
        "id": 3868,
        "body": "C'est le RT qui, à l'heure actuel, choisit de désigner un CIL, dont la fonction est rémunérée par l'entreprise. Il existe un conflit d'intérêt à être CIL et IRP: Le CIL doit être neutre et indépendant à l'égard de tous. Cette fonction est incompatible avec le statut d'IRP. Par contre, il faut effectivement qu'on lui garantisse un statut d'indépendance qui peut être renforcé par la qualité de salarié protégé ou de lui permettre de bénéficier de certains des droits du salarié protégé. On pourrait aussi imaginer la mise en place systématique d'une instance d'alerte indépendante et externe en cas de difficultés, hors autorité de contrôle. Ce rôle pourrait par exemple être confié à des tiers certifiés par la CNIL pour leur indépendance, ce qui permettrait de résoudre un grand nombre de situations conflictuelles liées davantage à un problème de communication personnel qu'un réel choix stratégique de refus du RT à se conformer aux préconisations du CIL.",
        "created_at": "2015-10-14T12:35:09+0200",
        "updated_at": "2015-10-14T12:35:09+0200",
        "is_enabled": true,
        "votes_count": 1,
        "type": 0,
        "is_trashed": false,
        "author": {
          "username": "Belotti Caroline",
          "displayName": "Belotti Caroline",
          "uniqueId": "belotticaroline",
          "isAdmin": false,
          "media": null,
          "vip": false,
          "_links": {
            "profile": "https://www.republique-numerique.fr/profile/belotticaroline",
            "settings": "https://www.republique-numerique.fr/profile/edit-profile"
          }
        },
        "_links": {
          "show": "https://www.republique-numerique.fr/consultations/projet-de-loi-numerique/consultation/consultation/opinions/section-1-protection-des-donnees-a-caractere-personnel/article-17-missions-de-la-cnil/versions/independance-des-correspondants-informatique-et-libertes-dans-les-entreprises#arg-3868",
          "edit": "https://www.republique-numerique.fr/consultations/projet-de-loi-numerique/consultation/consultation/opinions/section-1-protection-des-donnees-a-caractere-personnel/article-17-missions-de-la-cnil/arguments/3868/edit",
          "report": "https://www.republique-numerique.fr/consultations/projet-de-loi-numerique/consultation/consultation/opinions/section-1-protection-des-donnees-a-caractere-personnel/article-17-missions-de-la-cnil/arguments/3868/report"
        },
        "has_user_voted": false,
        "has_user_reported": false
      },
      {
        "isContribuable": false,
        "id": 4523,
        "body": "Je ne comprends absolument pas les 2 phrases et leur lien logique : \n\"Il existe un conflit d'intérêt à être CIL et IRP: Le CIL doit être neutre et indépendant à l'égard de tous. Cette fonction est incompatible avec le statut d'IRP\".\nJ'attends des arguments prouvant qu'un Représentant du Personnel n'est pas neutre et indépendant, es-fonctions.\nEst-ce qu'un DSI, qui peut être CIL, est neutre et indépendant de son patron qui le paie ? \nAlors que pendant l'exercice de ses missions, un RP est dégagé de son lien de subordination.\nJe prends cette attitude anti-syndicale de la CNIL pour ce qu'elle est, une posture idéologique pure et sans argumentation.\n",
        "created_at": "2015-10-16T09:11:07+0200",
        "updated_at": "2015-10-16T09:11:07+0200",
        "is_enabled": true,
        "votes_count": 0,
        "type": 1,
        "is_trashed": false,
        "author": {
          "username": "patrick raffin",
          "displayName": "patrick raffin",
          "uniqueId": "patrickraffin",
          "isAdmin": false,
          "media": null,
          "vip": false,
          "_links": {
            "profile": "https://www.republique-numerique.fr/profile/patrickraffin",
            "settings": "https://www.republique-numerique.fr/profile/edit-profile"
          }
        },
        "_links": {
          "show": "https://www.republique-numerique.fr/consultations/projet-de-loi-numerique/consultation/consultation/opinions/section-1-protection-des-donnees-a-caractere-personnel/article-17-missions-de-la-cnil/versions/independance-des-correspondants-informatique-et-libertes-dans-les-entreprises#arg-4523",
          "edit": "https://www.republique-numerique.fr/consultations/projet-de-loi-numerique/consultation/consultation/opinions/section-1-protection-des-donnees-a-caractere-personnel/article-17-missions-de-la-cnil/arguments/4523/edit",
          "report": "https://www.republique-numerique.fr/consultations/projet-de-loi-numerique/consultation/consultation/opinions/section-1-protection-des-donnees-a-caractere-personnel/article-17-missions-de-la-cnil/arguments/4523/report"
        },
        "has_user_voted": false,
        "has_user_reported": false
      },
      {
        "isContribuable": false,
        "id": 4536,
        "body": "cette problématique n'a rien à faire dans cet article de la loi qui ne concerne pas le CIL mais est beaucoup plus général",
        "created_at": "2015-10-16T09:59:33+0200",
        "updated_at": "2015-10-16T09:59:33+0200",
        "is_enabled": true,
        "votes_count": 0,
        "type": 0,
        "is_trashed": false,
        "author": {
          "username": "Clémentine Hutin",
          "displayName": "Clémentine Hutin",
          "uniqueId": "clementinehutin",
          "isAdmin": false,
          "media": null,
          "vip": false,
          "_links": {
            "profile": "https://www.republique-numerique.fr/profile/clementinehutin",
            "settings": "https://www.republique-numerique.fr/profile/edit-profile"
          }
        },
        "_links": {
          "show": "https://www.republique-numerique.fr/consultations/projet-de-loi-numerique/consultation/consultation/opinions/section-1-protection-des-donnees-a-caractere-personnel/article-17-missions-de-la-cnil/versions/independance-des-correspondants-informatique-et-libertes-dans-les-entreprises#arg-4536",
          "edit": "https://www.republique-numerique.fr/consultations/projet-de-loi-numerique/consultation/consultation/opinions/section-1-protection-des-donnees-a-caractere-personnel/article-17-missions-de-la-cnil/arguments/4536/edit",
          "report": "https://www.republique-numerique.fr/consultations/projet-de-loi-numerique/consultation/consultation/opinions/section-1-protection-des-donnees-a-caractere-personnel/article-17-missions-de-la-cnil/arguments/4536/report"
        },
        "has_user_voted": false,
        "has_user_reported": false
      }
    ],
    "sources": [],
    "parent": {
      "isContribuable": false,
      "id": 77,
      "body": "<p>L&rsquo;article 11 de la m&ecirc;me loi est ainsi modifi&eacute;&nbsp;:</p>\r\n\r\n<p>1&deg; Il est ajout&eacute; un 1&deg; bis ainsi r&eacute;dig&eacute;&nbsp;:</p>\r\n\r\n<p>&laquo;&nbsp;1&deg; bis Elle soutient, dans le cadre de ses missions, le d&eacute;veloppement des technologies respectueuses de la vie priv&eacute;e;</p>\r\n\r\n<p>2&deg; Au d) du 2&deg;, apr&egrave;s les mots&nbsp;: &laquo;&nbsp;et conseille&nbsp;&raquo;, sont remplac&eacute;s par les mots &laquo;&nbsp;, conseille et accompagne&nbsp;&raquo;&nbsp;;</p>\r\n\r\n<p>3&deg; Le 4&deg; est ainsi modifi&eacute;&nbsp;:</p>\r\n\r\n<p>a) Au troisi&egrave;me alin&eacute;a les mots &laquo;&nbsp;relatif &agrave; la protection des personnes &agrave; l&#39;&eacute;gard des traitements automatis&eacute;s&nbsp;&raquo; sont remplac&eacute;s par les mots &laquo;&nbsp;comportant des dispositions relatives &agrave; la protection des donn&eacute;es &agrave; caract&egrave;re personnel ou au traitement de telles donn&eacute;es.&nbsp;&raquo;</p>\r\n\r\n<p>b) Apr&egrave;s le troisi&egrave;me alin&eacute;a, il est ajout&eacute; l&rsquo;alin&eacute;a suivant&nbsp;:</p>\r\n\r\n<p>&laquo;&nbsp;Le pr&eacute;sident d&#39;une assembl&eacute;e parlementaire peut soumettre &agrave; l&#39;avis de la commission une proposition de loi comportant des dispositions relatives &agrave; la protection des donn&eacute;es &agrave; caract&egrave;re personnel ou au traitement de telles donn&eacute;es, d&eacute;pos&eacute;e par l&#39;un des membres de cette assembl&eacute;e, sauf si ce dernier s&#39;y oppose.&nbsp;&raquo;&nbsp;&nbsp;;</p>\r\n\r\n<p>c) Il est ajout&eacute; un e) ainsi r&eacute;dig&eacute;&nbsp;:</p>\r\n\r\n<p>&laquo;&nbsp;e) Elle conduit une r&eacute;flexion sur les probl&egrave;mes &eacute;thiques et les questions de soci&eacute;t&eacute; soulev&eacute;s par l&rsquo;&eacute;volution des technologies num&eacute;riques. Un d&eacute;cret pr&eacute;cise les conditions de mise en &oelig;uvre de cette mission, notamment quant aux modalit&eacute;s d&rsquo;implication de personnalit&eacute;s qualifi&eacute;es et d&rsquo;organisation du d&eacute;bat public.&nbsp;&raquo;</p>",
      "type": {
        "id": 99,
        "title": "Section 1",
        "subtitle": "Protection des données à caractère personnel",
        "voteWidgetType": 2,
        "votesHelpText": "Pensez-vous que cette proposition permet d'atteindre les objectifs présentés dans l’explication de l’article ?",
        "commentSystem": 2,
        "color": "blue",
        "versionable": true,
        "sourceable": true,
        "votesThreshold": null,
        "votesThresholdHelpText": null
      },
      "modals": [
        {
          "key": "article 11",
          "before": "<p>La Commission nationale de l'informatique et des libertés est une autorité administrative indépendante. Elle exerce les missions suivantes :</p><p>1° Elle informe toutes les personnes concernées et tous les responsables de traitements de leurs droits et obligations ;</p><p>2° Elle veille à ce que les traitements de données à caractère personnel soient mis en oeuvre conformément aux dispositions de la présente loi.</p><p>...</p><p>d) Elle répond aux demandes d'avis des pouvoirs publics et, le cas échéant, des juridictions, et conseille les personnes et organismes qui mettent en oeuvre ou envisagent de mettre en oeuvre des traitements automatisés de données à caractère personnel ;</p><p>...</p><p>a) Elle est consultée sur tout projet de loi ou de décret relatif à la protection des personnes à l'égard des traitements automatisés.</p><p>A la demande du président de l'une des commissions permanentes prévue à l'article 43 de la Constitution, l'avis de la commission sur tout projet de loi est rendu public ;</p><p>...</p>",
          "after": "<p>La Commission nationale de l'informatique et des libertés est une autorité administrative indépendante. Elle exerce les missions suivantes :</p><p>1° Elle informe toutes les personnes concernées et tous les responsables de traitements de leurs droits et obligations ;</p><p>1° bis : Elle soutient dans le cadre de ces missions, le développement des technologies respectueuses de la vie privée ;</p><p>2° Elle veille à ce que les traitements de données à caractère personnel soient mis en oeuvre conformément aux dispositions de la présente loi.</p><p>...</p><p>d) Elle répond aux demandes d'avis des pouvoirs publics et, le cas échéant, des juridictions, conseille et accompagne les personnes et organismes qui mettent en œuvre ou envisagent de mettre en œuvre des traitements automatisés de données à caractère personnel ;</p><p>...</p><p>a) Elle est consultée sur tout projet de loi ou de décret comportant des dispositions relatives à la protection des données à caractère personnel ou au traitement de telles données.</p><p>A la demande du président de l'une des commissions permanentes prévue à l'article 43 de la Constitution, l'avis de la commission sur tout projet de loi est rendu public ;</p><p>Le président d’une assemblée parlementaire peut soumettre à l’avis de la commission une proposition de loi comportant des dispositions relatives à la protection des données à caractère personnel ou au traitement de telles données, déposée par l’un des membres de cette assemblée, sauf si ce dernier s’y oppose. »</p><p>...</p><p>e) Elle conduit une réflexion sur les problèmes éthiques et les questions de société soulevées par l’évolution des technologies numériques. Un décret précise les conditions de mise en œuvre de cette mission, notamment quant aux modalités d’implication de personnalités qualifiée et d’organisation du débat public.</p>",
          "title": "Article 11 de la loi informatique et libertés n° 78-17 du 17 janvier 1978"
        }
      ],
      "appendices": [
        {
          "body": "<p><strong>Objectif :</strong> Adapter le r&ocirc;le de la CNIL &agrave; l&rsquo;&eacute;conomie du XXI&egrave; si&egrave;cle</p>\r\n\r\n<p><strong>Explication :</strong> La CNIL (Commission nationale pour l&rsquo;informatique et les libert&eacute;s), autorit&eacute; de contr&ocirc;le de la protection des donn&eacute;es personnelles, doit faire &eacute;voluer son r&ocirc;le pour accompagner les entreprises et les &eacute;volutions technologiques. en d&eacute;veloppant son intervention en amont (Privacy by Design). Il semble &eacute;galement important de renforcer son r&ocirc;le aupr&egrave;s des pouvoirs publics en cr&eacute;ant une possibilit&eacute; pour les pr&eacute;sidents des assembl&eacute;es parlementaires de la saisir pour avis en cas de proposition de loi int&eacute;ressant les donn&eacute;es personnelles. Enfin, elle sera charg&eacute;e de conduire une r&eacute;flexion sur les probl&egrave;mes &eacute;thiques et les questions de soci&eacute;t&eacute; soulev&eacute;es par l&rsquo;&eacute;volution des technologies.</p>\r\n\r\n<p><strong>Exemple :</strong> une institution sera charg&eacute;e d&rsquo;organiser les d&eacute;bats &eacute;thiques sur l&rsquo;intelligence artificielle ou la modification du corps humain par la technologie.</p>",
          "type": {
            "title": "Explication de l'article"
          }
        }
      ],
      "title": "Article 17 - Evolution des missions de la CNIL",
      "_links": {
        "show": "https://www.republique-numerique.fr/consultations/projet-de-loi-numerique/consultation/consultation/opinions/section-1-protection-des-donnees-a-caractere-personnel/article-17-missions-de-la-cnil",
        "edit": "https://www.republique-numerique.fr/consultations/projet-de-loi-numerique/consultation/consultation/opinions/section-1-protection-des-donnees-a-caractere-personnel/article-17-missions-de-la-cnil/edit",
        "report": "https://www.republique-numerique.fr/consultations/projet-de-loi-numerique/consultation/consultation/opinions/section-1-protection-des-donnees-a-caractere-personnel/article-17-missions-de-la-cnil/report",
        "type": "https://www.republique-numerique.fr/consultations/projet-de-loi-numerique/consultation/consultation/opinions/section-1-protection-des-donnees-a-caractere-personnel"
      },
      "user_vote": null,
      "has_user_reported": false
    },
    "sources_count": 0,
    "arguments_count": 3,
    "votes": [
      {
        "user": {
          "username": "patrick raffin",
          "displayName": "patrick raffin",
          "uniqueId": "patrickraffin",
          "isAdmin": false,
          "media": null,
          "vip": false,
          "_links": {
            "profile": "https://www.republique-numerique.fr/profile/patrickraffin",
            "settings": "https://www.republique-numerique.fr/profile/edit-profile"
          }
        },
        "value": 1
      },
      {
        "user": {
          "username": "Belotti Caroline",
          "displayName": "Belotti Caroline",
          "uniqueId": "belotticaroline",
          "isAdmin": false,
          "media": null,
          "vip": false,
          "_links": {
            "profile": "https://www.republique-numerique.fr/profile/belotticaroline",
            "settings": "https://www.republique-numerique.fr/profile/edit-profile"
          }
        },
        "value": 0
      },
      {
        "user": {
          "username": "Clémentine Hutin",
          "displayName": "Clémentine Hutin",
          "uniqueId": "clementinehutin",
          "isAdmin": false,
          "media": null,
          "vip": false,
          "_links": {
            "profile": "https://www.republique-numerique.fr/profile/clementinehutin",
            "settings": "https://www.republique-numerique.fr/profile/edit-profile"
          }
        },
        "value": -1
      }
    ],
    "updated_at": "2015-10-13T23:43:43+0200",
    "ranking": 1028,
    "is_trashed": false,
    "title": "Indépendance des Correspondants Informatique et Libertés dans les entreprises",
    "slug": "independance-des-correspondants-informatique-et-libertes-dans-les-entreprises",
    "created_at": "2015-10-13T23:39:37+0200",
    "votes_nok": 1,
    "votes_ok": 1,
    "votes_mitige": 1,
    "_links": {
      "show": "https://www.republique-numerique.fr/consultations/projet-de-loi-numerique/consultation/consultation/opinions/section-1-protection-des-donnees-a-caractere-personnel/article-17-missions-de-la-cnil/versions/independance-des-correspondants-informatique-et-libertes-dans-les-entreprises",
      "report": "https://www.republique-numerique.fr/consultations/projet-de-loi-numerique/consultation/consultation/opinions/section-1-protection-des-donnees-a-caractere-personnel/article-17-missions-de-la-cnil/versions/independance-des-correspondants-informatique-et-libertes-dans-les-entreprises/report"
    },
    "user_vote": null,
    "has_user_reported": false
  },
  "rankingThreshold": null,
  "opinionTerm": 1
}