{
  "version": {
    "isContribuable": false,
    "votes_total": 18,
    "arguments_yes_count": 3,
    "arguments_no_count": 0,
    "id": 65,
    "body": "<p>L&rsquo;article 11 de la m&ecirc;me loi est ainsi modifi&eacute;&nbsp;:</p>\n\n<p>1&deg; Il est ajout&eacute; un 1&deg; bis ainsi r&eacute;dig&eacute;&nbsp;:</p>\n\n<p>&laquo;&nbsp;1&deg; bis Elle soutient, dans le cadre de ses missions, le d&eacute;veloppement des technologies respectueuses de la vie priv&eacute;e;</p>\n\n<p>2&deg; Au d) du 2&deg;, apr&egrave;s les mots&nbsp;: &laquo;&nbsp;et conseille&nbsp;&raquo;, sont remplac&eacute;s par les mots &laquo;&nbsp;, conseille et accompagne&nbsp;&raquo;&nbsp;;</p>\n\n<p>3&deg; Le 4&deg; est ainsi modifi&eacute;&nbsp;:</p>\n\n<p>a) Au troisi&egrave;me alin&eacute;a les mots &laquo;&nbsp;relatif &agrave; la protection des personnes &agrave; l&#39;&eacute;gard des traitements automatis&eacute;s&nbsp;&raquo; sont remplac&eacute;s par les mots &laquo;&nbsp;comportant des dispositions relatives &agrave; la protection des donn&eacute;es &agrave; caract&egrave;re personnel ou au traitement de telles donn&eacute;es.&nbsp;&raquo;</p>\n\n<p>b) Apr&egrave;s le troisi&egrave;me alin&eacute;a, il est ajout&eacute; l&rsquo;alin&eacute;a suivant&nbsp;:</p>\n\n<p>&laquo;&nbsp;Le pr&eacute;sident d&#39;une assembl&eacute;e parlementaire peut soumettre &agrave; l&#39;avis de la commission nationale de l&#39;informatique et des libert&eacute;s une proposition de loi comportant des dispositions relatives &agrave; la protection des donn&eacute;es &agrave; caract&egrave;re personnel ou au traitement de telles donn&eacute;es, d&eacute;pos&eacute;e par l&#39;un des membres de cette assembl&eacute;e.<br />\nLa Commission Nationale de l&#39;Informatique et des Libert&eacute;s peut &eacute;galement &eacute;mettre un avis rendu public concernant l&#39;ensemble des textes comportant des dispositions relatives &agrave; la protection des donn&eacute;es &agrave; caract&egrave;re personnel ou &agrave; leur utilisation.&raquo;&nbsp;&nbsp;;</p>\n\n<p>c) Il est ajout&eacute; un e) ainsi r&eacute;dig&eacute;&nbsp;:</p>\n\n<p>&laquo;&nbsp;e) Elle conduit une r&eacute;flexion sur les probl&egrave;mes &eacute;thiques et les questions de soci&eacute;t&eacute; soulev&eacute;s par l&rsquo;&eacute;volution des technologies num&eacute;riques. Un d&eacute;cret pr&eacute;cise les conditions de mise en &oelig;uvre de cette mission, notamment quant aux modalit&eacute;s d&rsquo;implication de personnalit&eacute;s qualifi&eacute;es et d&rsquo;organisation du d&eacute;bat public.&nbsp;&raquo;</p>",
    "comment": "<p>Ajout de la possibilit&eacute; pour la CNIL de rendre un avis public et ce m&ecirc;me sans &ecirc;tre saisi.</p>\n\n<p>Ceci pourrait s&#39;av&eacute;rer utile pour des lois relatives &agrave; la surveillance pass&eacute;es dans l&#39;urgence par exemple.</p>",
    "author": {
      "username": "Cellular1988",
      "displayName": "Cellular1988",
      "uniqueId": "cellular1988",
      "isAdmin": false,
      "media": null,
      "vip": false,
      "_links": {
        "profile": "https://www.republique-numerique.fr/profile/cellular1988",
        "settings": "https://www.republique-numerique.fr/profile/edit-profile"
      }
    },
    "arguments": [
      {
        "isContribuable": false,
        "id": 2263,
        "body": "d'accord compte tenu des modifications proposées : autosaisine de la cnil etc",
        "created_at": "2015-10-05T12:01:54+0200",
        "updated_at": "2015-10-05T12:01:54+0200",
        "is_enabled": true,
        "votes_count": 0,
        "type": 1,
        "is_trashed": false,
        "author": {
          "username": "Martine Legris Revel",
          "displayName": "Martine Legris Revel",
          "uniqueId": "martinelegrisrevel",
          "isAdmin": false,
          "media": null,
          "vip": false,
          "_links": {
            "profile": "https://www.republique-numerique.fr/profile/martinelegrisrevel",
            "settings": "https://www.republique-numerique.fr/profile/edit-profile"
          }
        },
        "_links": {
          "show": "https://www.republique-numerique.fr/consultations/projet-de-loi-numerique/consultation/consultation/opinions/section-1-protection-des-donnees-a-caractere-personnel/article-17-missions-de-la-cnil/versions/la-cnil-peut-donner-son-avis-sur-tout-texte-relatif-a-un-traitement#arg-2263",
          "edit": "https://www.republique-numerique.fr/consultations/projet-de-loi-numerique/consultation/consultation/opinions/section-1-protection-des-donnees-a-caractere-personnel/article-17-missions-de-la-cnil/arguments/2263/edit",
          "report": "https://www.republique-numerique.fr/consultations/projet-de-loi-numerique/consultation/consultation/opinions/section-1-protection-des-donnees-a-caractere-personnel/article-17-missions-de-la-cnil/arguments/2263/report"
        },
        "has_user_voted": false,
        "has_user_reported": false
      },
      {
        "isContribuable": false,
        "id": 4364,
        "body": "\"Doit\", non pas \"peut\", et cet avis doit être rendu public. Cf. https://www.republique-numerique.fr/consultations/projet-de-loi-numerique/consultation/consultation/opinions/section-1-protection-des-donnees-a-caractere-personnel/article-17-missions-de-la-cnil/versions/rendre-public-l-avis-de-la-cnil-sur-les-projets-de-loi",
        "created_at": "2015-10-15T18:18:54+0200",
        "updated_at": "2015-10-15T18:18:54+0200",
        "is_enabled": true,
        "votes_count": 0,
        "type": 1,
        "is_trashed": false,
        "author": {
          "username": "samson_d",
          "displayName": "samson_d",
          "uniqueId": "samsond",
          "isAdmin": false,
          "media": null,
          "vip": false,
          "_links": {
            "profile": "https://www.republique-numerique.fr/profile/samsond",
            "settings": "https://www.republique-numerique.fr/profile/edit-profile"
          }
        },
        "_links": {
          "show": "https://www.republique-numerique.fr/consultations/projet-de-loi-numerique/consultation/consultation/opinions/section-1-protection-des-donnees-a-caractere-personnel/article-17-missions-de-la-cnil/versions/la-cnil-peut-donner-son-avis-sur-tout-texte-relatif-a-un-traitement#arg-4364",
          "edit": "https://www.republique-numerique.fr/consultations/projet-de-loi-numerique/consultation/consultation/opinions/section-1-protection-des-donnees-a-caractere-personnel/article-17-missions-de-la-cnil/arguments/4364/edit",
          "report": "https://www.republique-numerique.fr/consultations/projet-de-loi-numerique/consultation/consultation/opinions/section-1-protection-des-donnees-a-caractere-personnel/article-17-missions-de-la-cnil/arguments/4364/report"
        },
        "has_user_voted": false,
        "has_user_reported": false
      },
      {
        "isContribuable": false,
        "id": 5664,
        "body": "Renforcement de la mission de la CNIL consistant à publier et faire valoir publiquement son avis sur tout ce qui concerne son domaine : lois, moyens mis en œuvre, problèmes à traiter, ... Renforcement des moyens alloués à cette tâches : la CNIL doit avoir de vrais moyens d'intervention dans les débats, de communication à grande échelle.\n",
        "created_at": "2015-10-18T02:12:31+0200",
        "updated_at": "2015-10-18T02:12:31+0200",
        "is_enabled": true,
        "votes_count": 0,
        "type": 1,
        "is_trashed": false,
        "author": {
          "username": "syll",
          "displayName": "syll",
          "uniqueId": "syll",
          "isAdmin": false,
          "media": null,
          "vip": false,
          "_links": {
            "profile": "https://www.republique-numerique.fr/profile/syll",
            "settings": "https://www.republique-numerique.fr/profile/edit-profile"
          }
        },
        "_links": {
          "show": "https://www.republique-numerique.fr/consultations/projet-de-loi-numerique/consultation/consultation/opinions/section-1-protection-des-donnees-a-caractere-personnel/article-17-missions-de-la-cnil/versions/la-cnil-peut-donner-son-avis-sur-tout-texte-relatif-a-un-traitement#arg-5664",
          "edit": "https://www.republique-numerique.fr/consultations/projet-de-loi-numerique/consultation/consultation/opinions/section-1-protection-des-donnees-a-caractere-personnel/article-17-missions-de-la-cnil/arguments/5664/edit",
          "report": "https://www.republique-numerique.fr/consultations/projet-de-loi-numerique/consultation/consultation/opinions/section-1-protection-des-donnees-a-caractere-personnel/article-17-missions-de-la-cnil/arguments/5664/report"
        },
        "has_user_voted": false,
        "has_user_reported": false
      }
    ],
    "sources": [],
    "parent": {
      "isContribuable": false,
      "id": 77,
      "body": "<p>L&rsquo;article 11 de la m&ecirc;me loi est ainsi modifi&eacute;&nbsp;:</p>\r\n\r\n<p>1&deg; Il est ajout&eacute; un 1&deg; bis ainsi r&eacute;dig&eacute;&nbsp;:</p>\r\n\r\n<p>&laquo;&nbsp;1&deg; bis Elle soutient, dans le cadre de ses missions, le d&eacute;veloppement des technologies respectueuses de la vie priv&eacute;e;</p>\r\n\r\n<p>2&deg; Au d) du 2&deg;, apr&egrave;s les mots&nbsp;: &laquo;&nbsp;et conseille&nbsp;&raquo;, sont remplac&eacute;s par les mots &laquo;&nbsp;, conseille et accompagne&nbsp;&raquo;&nbsp;;</p>\r\n\r\n<p>3&deg; Le 4&deg; est ainsi modifi&eacute;&nbsp;:</p>\r\n\r\n<p>a) Au troisi&egrave;me alin&eacute;a les mots &laquo;&nbsp;relatif &agrave; la protection des personnes &agrave; l&#39;&eacute;gard des traitements automatis&eacute;s&nbsp;&raquo; sont remplac&eacute;s par les mots &laquo;&nbsp;comportant des dispositions relatives &agrave; la protection des donn&eacute;es &agrave; caract&egrave;re personnel ou au traitement de telles donn&eacute;es.&nbsp;&raquo;</p>\r\n\r\n<p>b) Apr&egrave;s le troisi&egrave;me alin&eacute;a, il est ajout&eacute; l&rsquo;alin&eacute;a suivant&nbsp;:</p>\r\n\r\n<p>&laquo;&nbsp;Le pr&eacute;sident d&#39;une assembl&eacute;e parlementaire peut soumettre &agrave; l&#39;avis de la commission une proposition de loi comportant des dispositions relatives &agrave; la protection des donn&eacute;es &agrave; caract&egrave;re personnel ou au traitement de telles donn&eacute;es, d&eacute;pos&eacute;e par l&#39;un des membres de cette assembl&eacute;e, sauf si ce dernier s&#39;y oppose.&nbsp;&raquo;&nbsp;&nbsp;;</p>\r\n\r\n<p>c) Il est ajout&eacute; un e) ainsi r&eacute;dig&eacute;&nbsp;:</p>\r\n\r\n<p>&laquo;&nbsp;e) Elle conduit une r&eacute;flexion sur les probl&egrave;mes &eacute;thiques et les questions de soci&eacute;t&eacute; soulev&eacute;s par l&rsquo;&eacute;volution des technologies num&eacute;riques. Un d&eacute;cret pr&eacute;cise les conditions de mise en &oelig;uvre de cette mission, notamment quant aux modalit&eacute;s d&rsquo;implication de personnalit&eacute;s qualifi&eacute;es et d&rsquo;organisation du d&eacute;bat public.&nbsp;&raquo;</p>",
      "type": {
        "id": 99,
        "title": "Section 1",
        "subtitle": "Protection des données à caractère personnel",
        "voteWidgetType": 2,
        "votesHelpText": "Pensez-vous que cette proposition permet d'atteindre les objectifs présentés dans l’explication de l’article ?",
        "commentSystem": 2,
        "color": "blue",
        "versionable": true,
        "sourceable": true,
        "votesThreshold": null,
        "votesThresholdHelpText": null
      },
      "modals": [
        {
          "key": "article 11",
          "before": "<p>La Commission nationale de l'informatique et des libertés est une autorité administrative indépendante. Elle exerce les missions suivantes :</p><p>1° Elle informe toutes les personnes concernées et tous les responsables de traitements de leurs droits et obligations ;</p><p>2° Elle veille à ce que les traitements de données à caractère personnel soient mis en oeuvre conformément aux dispositions de la présente loi.</p><p>...</p><p>d) Elle répond aux demandes d'avis des pouvoirs publics et, le cas échéant, des juridictions, et conseille les personnes et organismes qui mettent en oeuvre ou envisagent de mettre en oeuvre des traitements automatisés de données à caractère personnel ;</p><p>...</p><p>a) Elle est consultée sur tout projet de loi ou de décret relatif à la protection des personnes à l'égard des traitements automatisés.</p><p>A la demande du président de l'une des commissions permanentes prévue à l'article 43 de la Constitution, l'avis de la commission sur tout projet de loi est rendu public ;</p><p>...</p>",
          "after": "<p>La Commission nationale de l'informatique et des libertés est une autorité administrative indépendante. Elle exerce les missions suivantes :</p><p>1° Elle informe toutes les personnes concernées et tous les responsables de traitements de leurs droits et obligations ;</p><p>1° bis : Elle soutient dans le cadre de ces missions, le développement des technologies respectueuses de la vie privée ;</p><p>2° Elle veille à ce que les traitements de données à caractère personnel soient mis en oeuvre conformément aux dispositions de la présente loi.</p><p>...</p><p>d) Elle répond aux demandes d'avis des pouvoirs publics et, le cas échéant, des juridictions, conseille et accompagne les personnes et organismes qui mettent en œuvre ou envisagent de mettre en œuvre des traitements automatisés de données à caractère personnel ;</p><p>...</p><p>a) Elle est consultée sur tout projet de loi ou de décret comportant des dispositions relatives à la protection des données à caractère personnel ou au traitement de telles données.</p><p>A la demande du président de l'une des commissions permanentes prévue à l'article 43 de la Constitution, l'avis de la commission sur tout projet de loi est rendu public ;</p><p>Le président d’une assemblée parlementaire peut soumettre à l’avis de la commission une proposition de loi comportant des dispositions relatives à la protection des données à caractère personnel ou au traitement de telles données, déposée par l’un des membres de cette assemblée, sauf si ce dernier s’y oppose. »</p><p>...</p><p>e) Elle conduit une réflexion sur les problèmes éthiques et les questions de société soulevées par l’évolution des technologies numériques. Un décret précise les conditions de mise en œuvre de cette mission, notamment quant aux modalités d’implication de personnalités qualifiée et d’organisation du débat public.</p>",
          "title": "Article 11 de la loi informatique et libertés n° 78-17 du 17 janvier 1978"
        }
      ],
      "appendices": [
        {
          "body": "<p><strong>Objectif :</strong> Adapter le r&ocirc;le de la CNIL &agrave; l&rsquo;&eacute;conomie du XXI&egrave; si&egrave;cle</p>\r\n\r\n<p><strong>Explication :</strong> La CNIL (Commission nationale pour l&rsquo;informatique et les libert&eacute;s), autorit&eacute; de contr&ocirc;le de la protection des donn&eacute;es personnelles, doit faire &eacute;voluer son r&ocirc;le pour accompagner les entreprises et les &eacute;volutions technologiques. en d&eacute;veloppant son intervention en amont (Privacy by Design). Il semble &eacute;galement important de renforcer son r&ocirc;le aupr&egrave;s des pouvoirs publics en cr&eacute;ant une possibilit&eacute; pour les pr&eacute;sidents des assembl&eacute;es parlementaires de la saisir pour avis en cas de proposition de loi int&eacute;ressant les donn&eacute;es personnelles. Enfin, elle sera charg&eacute;e de conduire une r&eacute;flexion sur les probl&egrave;mes &eacute;thiques et les questions de soci&eacute;t&eacute; soulev&eacute;es par l&rsquo;&eacute;volution des technologies.</p>\r\n\r\n<p><strong>Exemple :</strong> une institution sera charg&eacute;e d&rsquo;organiser les d&eacute;bats &eacute;thiques sur l&rsquo;intelligence artificielle ou la modification du corps humain par la technologie.</p>",
          "type": {
            "title": "Explication de l'article"
          }
        }
      ],
      "title": "Article 17 - Evolution des missions de la CNIL",
      "_links": {
        "show": "https://www.republique-numerique.fr/consultations/projet-de-loi-numerique/consultation/consultation/opinions/section-1-protection-des-donnees-a-caractere-personnel/article-17-missions-de-la-cnil",
        "edit": "https://www.republique-numerique.fr/consultations/projet-de-loi-numerique/consultation/consultation/opinions/section-1-protection-des-donnees-a-caractere-personnel/article-17-missions-de-la-cnil/edit",
        "report": "https://www.republique-numerique.fr/consultations/projet-de-loi-numerique/consultation/consultation/opinions/section-1-protection-des-donnees-a-caractere-personnel/article-17-missions-de-la-cnil/report",
        "type": "https://www.republique-numerique.fr/consultations/projet-de-loi-numerique/consultation/consultation/opinions/section-1-protection-des-donnees-a-caractere-personnel"
      },
      "user_vote": null,
      "has_user_reported": false
    },
    "sources_count": 0,
    "arguments_count": 3,
    "votes": [
      {
        "user": {
          "username": "Mti131",
          "displayName": "Mti131",
          "uniqueId": "mti131",
          "isAdmin": false,
          "media": {
            "url": "/media/cache/default_avatar/default/0001/01/98_default_avatar.jpg"
          },
          "vip": false,
          "_links": {
            "profile": "https://www.republique-numerique.fr/profile/mti131",
            "settings": "https://www.republique-numerique.fr/profile/edit-profile"
          }
        },
        "value": 1
      },
      {
        "user": {
          "username": "William ASSAL",
          "displayName": "William ASSAL",
          "uniqueId": "williamassal",
          "isAdmin": false,
          "media": null,
          "vip": false,
          "_links": {
            "profile": "https://www.republique-numerique.fr/profile/williamassal",
            "settings": "https://www.republique-numerique.fr/profile/edit-profile"
          }
        },
        "value": 1
      },
      {
        "user": {
          "username": "Jeanne Varasco",
          "displayName": "Jeanne Varasco",
          "uniqueId": "jeannevarasco",
          "isAdmin": false,
          "media": {
            "url": "/media/cache/default_avatar/default/0001/01/139_default_avatar.jpg"
          },
          "vip": false,
          "_links": {
            "profile": "https://www.republique-numerique.fr/profile/jeannevarasco",
            "settings": "https://www.republique-numerique.fr/profile/edit-profile"
          }
        },
        "value": 1
      },
      {
        "user": {
          "username": "Eve Jullien",
          "displayName": "Eve Jullien",
          "uniqueId": "evejullien",
          "isAdmin": false,
          "media": null,
          "vip": false,
          "_links": {
            "profile": "https://www.republique-numerique.fr/profile/evejullien",
            "settings": "https://www.republique-numerique.fr/profile/edit-profile"
          }
        },
        "value": 1
      },
      {
        "user": {
          "username": "Jean-Gabriel Ganascia",
          "displayName": "Jean-Gabriel Ganascia",
          "uniqueId": "jeangabrielganascia",
          "isAdmin": false,
          "media": null,
          "vip": false,
          "_links": {
            "profile": "https://www.republique-numerique.fr/profile/jeangabrielganascia",
            "settings": "https://www.republique-numerique.fr/profile/edit-profile"
          }
        },
        "value": -1
      }
    ],
    "updated_at": "2015-09-26T12:29:20+0200",
    "ranking": 263,
    "is_trashed": false,
    "title": "La CNIL peut donner son avis sur tout texte relatif à un traitement.",
    "slug": "la-cnil-peut-donner-son-avis-sur-tout-texte-relatif-a-un-traitement",
    "created_at": "2015-09-26T12:29:20+0200",
    "votes_nok": 1,
    "votes_ok": 17,
    "votes_mitige": 0,
    "_links": {
      "show": "https://www.republique-numerique.fr/consultations/projet-de-loi-numerique/consultation/consultation/opinions/section-1-protection-des-donnees-a-caractere-personnel/article-17-missions-de-la-cnil/versions/la-cnil-peut-donner-son-avis-sur-tout-texte-relatif-a-un-traitement",
      "report": "https://www.republique-numerique.fr/consultations/projet-de-loi-numerique/consultation/consultation/opinions/section-1-protection-des-donnees-a-caractere-personnel/article-17-missions-de-la-cnil/versions/la-cnil-peut-donner-son-avis-sur-tout-texte-relatif-a-un-traitement/report"
    },
    "user_vote": null,
    "has_user_reported": false
  },
  "rankingThreshold": null,
  "opinionTerm": 1
}