{
  "opinion": {
    "isContribuable": false,
    "votes_total": 777,
    "arguments_yes_count": 13,
    "arguments_no_count": 10,
    "id": 66,
    "created_at": "2015-09-26T02:27:56+0200",
    "updated_at": "2015-09-26T07:30:26+0200",
    "body": "<p>L&rsquo;article 10 de la loi n&deg; 2000-321 du 12 avril 2000 relative aux droits des citoyens dans leurs relations avec les administrations est ainsi modifi&eacute; :</p>\r\n\r\n<p>1&deg; Au cinqui&egrave;me alin&eacute;a, les mots : &laquo; le seuil mentionn&eacute; au troisi&egrave;me alin&eacute;a &raquo; sont remplac&eacute;s par les mots : &laquo; le seuil mentionn&eacute; au quatri&egrave;me alin&eacute;a &raquo; ;</p>\r\n\r\n<p>2&deg; Au sixi&egrave;me alin&eacute;a, il est ajout&eacute; deux phrases ainsi r&eacute;dig&eacute;es :<br />\r\n&laquo; L&#39;autorit&eacute; administrative ou l&#39;organisme charg&eacute; de la gestion d&#39;un service public industriel et commercial mentionn&eacute; au premier alin&eacute;a de l&#39;article 9-1 qui attribue une subvention d&eacute;passant le seuil mentionn&eacute; au quatri&egrave;me alin&eacute;a peut pr&eacute;voir une clause selon laquelle l&rsquo;organisme b&eacute;n&eacute;ficiaire lui fournit, dans un standard ouvert ais&eacute;ment r&eacute;utilisable, les donn&eacute;es et bases de donn&eacute;es collect&eacute;es ou produites dans le cadre de l&rsquo;action subventionn&eacute;e. Cette clause permet &agrave; l&rsquo;autorit&eacute; administrative, ou &agrave; un tiers d&eacute;sign&eacute; par celle-ci, d&rsquo;extraire et d&rsquo;exploiter librement tout ou partie de ces donn&eacute;es et bases de donn&eacute;es notamment en vue de leur mise &agrave; disposition &agrave; titre gratuit &agrave; des fins de r&eacute;utilisation &agrave; titre gratuit ou on&eacute;reux. &raquo; ;</p>\r\n\r\n<p>3&deg; Apr&egrave;s le septi&egrave;me alin&eacute;a, il est ins&eacute;r&eacute; un alin&eacute;a ainsi r&eacute;dig&eacute; :<br />\r\n&laquo; L&#39;autorit&eacute; administrative ou l&#39;organisme charg&eacute; de la gestion d&#39;un service public industriel et commercial mentionn&eacute; au premier alin&eacute;a de l&#39;article 9-1 qui attribue une subvention d&eacute;passant le seuil mentionn&eacute; au quatri&egrave;me alin&eacute;a du pr&eacute;sent article rend accessible, sous un standard ouvert ais&eacute;ment r&eacute;utilisable, les donn&eacute;es essentielles de la convention de subvention, dans des conditions fix&eacute;es par voie r&egrave;glementaire.&nbsp;&raquo;</p>",
    "versions_count": 13,
    "sources_count": 1,
    "arguments_count": 23,
    "author": {
      "username": "Gouvernement",
      "displayName": "Gouvernement",
      "uniqueId": "gouvernement",
      "isAdmin": false,
      "media": {
        "url": "/media/cache/default_avatar/default/0001/01/72_default_avatar.jpg"
      },
      "vip": true,
      "_links": {
        "profile": "https://www.republique-numerique.fr/profile/gouvernement",
        "settings": "https://www.republique-numerique.fr/profile/edit-profile"
      }
    },
    "type": {
      "id": 88,
      "title": "Section 3",
      "subtitle": "Données d’intérêt général",
      "voteWidgetType": 2,
      "votesHelpText": "Pensez-vous que cette proposition permet d'atteindre les objectifs présentés dans l’explication de l’article ?",
      "commentSystem": 2,
      "color": "blue",
      "versionable": true,
      "sourceable": true,
      "votesThreshold": null,
      "votesThresholdHelpText": null
    },
    "sources": [
      {
        "isContribuable": false,
        "id": 405,
        "title": "Associations à qui profitent les subventions?",
        "link": "http://www.lemonde.fr/politique/visuel/2013/07/01/associations-a-qui-profitent-les-subventions_3430228_823448.html",
        "body": "Travail de datavisualisation sur la repartitions des aides et subventions accordées par l'Etat au association en 2011.\n\nPermet un apercu d'ensemble de la politique publique en matière de soutien au association",
        "created_at": "2015-10-18T16:18:42+0200",
        "updated_at": "2015-10-18T16:18:42+0200",
        "author": {
          "username": "Constance de Quatrebarbes",
          "displayName": "Constance de Quatrebarbes",
          "uniqueId": "constancedequatrebarbes",
          "isAdmin": false,
          "media": null,
          "vip": false,
          "_links": {
            "profile": "https://www.republique-numerique.fr/profile/constancedequatrebarbes",
            "settings": "https://www.republique-numerique.fr/profile/edit-profile"
          }
        },
        "category": "Articles de presse",
        "votes_count": 0,
        "_links": {
          "edit": "https://www.republique-numerique.fr/consultations/projet-de-loi-numerique/consultation/consultation/opinions/section-3-donnees-d-interet-general/article-6-ouverture-des-donnees-dans-les-conventions-de-subventions/sources/associations-a-qui-profitent-les-subventions/edit",
          "report": "https://www.republique-numerique.fr/consultations/projet-de-loi-numerique/consultation/consultation/opinions/section-3-donnees-d-interet-general/article-6-ouverture-des-donnees-dans-les-conventions-de-subventions/sources/associations-a-qui-profitent-les-subventions/report"
        },
        "has_user_voted": false,
        "has_user_reported": false
      }
    ],
    "arguments": [
      {
        "isContribuable": false,
        "id": 6146,
        "body": "L'association des journalistes de l'information sociale (Ajis) espère que la section 3 traitant de la circulation et de la diffusion des données d’intérêt général puisse amener à davantage de transparence dans la vie publique. Par exemple, la publication en open data des principales données des subventions versées par les organismes publics devraient faciliter le travail des journalistes qui enquêtent sur ces sujets. ",
        "created_at": "2015-10-18T22:32:14+0200",
        "updated_at": "2015-10-18T22:32:14+0200",
        "is_enabled": true,
        "votes_count": 0,
        "type": 1,
        "is_trashed": false,
        "author": {
          "username": "Véronique Hunsinger",
          "displayName": "Véronique Hunsinger",
          "uniqueId": "veroniquehunsinger",
          "isAdmin": false,
          "media": null,
          "vip": false,
          "_links": {
            "profile": "https://www.republique-numerique.fr/profile/veroniquehunsinger",
            "settings": "https://www.republique-numerique.fr/profile/edit-profile"
          }
        },
        "_links": {
          "show": "https://www.republique-numerique.fr/consultations/projet-de-loi-numerique/consultation/consultation/opinions/section-3-donnees-d-interet-general/article-6-ouverture-des-donnees-dans-les-conventions-de-subventions#arg-6146",
          "edit": "https://www.republique-numerique.fr/consultations/projet-de-loi-numerique/consultation/consultation/opinions/section-3-donnees-d-interet-general/article-6-ouverture-des-donnees-dans-les-conventions-de-subventions/arguments/6146/edit",
          "report": "https://www.republique-numerique.fr/consultations/projet-de-loi-numerique/consultation/consultation/opinions/section-3-donnees-d-interet-general/article-6-ouverture-des-donnees-dans-les-conventions-de-subventions/arguments/6146/report"
        },
        "has_user_voted": false,
        "has_user_reported": false
      },
      {
        "isContribuable": false,
        "id": 5696,
        "body": "Je suis entièrement d'accord, cependant le plafond est beaucoup trop élevé... La majorité des associations obtiennent des subventions d'un montant moins élevé.\nLes subventions aux associations sont la plupart du temps sujet à débats et servent d'arguments de campagne électorale. Il s'agit donc bien d'un besoin impérieux pour la transparence de la conduite des affaires publiques et pour l'assainissement des climats politique locaux. Il serait aussi judicieux en effet de prévoir la publication sur l'utilisation de ces subventions. Cependant, il faut être conscient que les associations n'auront pas nécessairement les ressources (humaines, techniques, etc.) pour publier au bon format ces informations. Cela relèverait-il du Service Public de la donnée ?",
        "created_at": "2015-10-18T10:08:12+0200",
        "updated_at": "2015-10-18T10:08:12+0200",
        "is_enabled": true,
        "votes_count": 0,
        "type": 1,
        "is_trashed": false,
        "author": {
          "username": "Sylvain Gladieux",
          "displayName": "Sylvain Gladieux",
          "uniqueId": "sylvaingladieux",
          "isAdmin": false,
          "media": {
            "url": "/media/cache/default_avatar/default/0001/01/974_default_avatar.jpg"
          },
          "vip": false,
          "_links": {
            "profile": "https://www.republique-numerique.fr/profile/sylvaingladieux",
            "settings": "https://www.republique-numerique.fr/profile/edit-profile"
          }
        },
        "_links": {
          "show": "https://www.republique-numerique.fr/consultations/projet-de-loi-numerique/consultation/consultation/opinions/section-3-donnees-d-interet-general/article-6-ouverture-des-donnees-dans-les-conventions-de-subventions#arg-5696",
          "edit": "https://www.republique-numerique.fr/consultations/projet-de-loi-numerique/consultation/consultation/opinions/section-3-donnees-d-interet-general/article-6-ouverture-des-donnees-dans-les-conventions-de-subventions/arguments/5696/edit",
          "report": "https://www.republique-numerique.fr/consultations/projet-de-loi-numerique/consultation/consultation/opinions/section-3-donnees-d-interet-general/article-6-ouverture-des-donnees-dans-les-conventions-de-subventions/arguments/5696/report"
        },
        "has_user_voted": false,
        "has_user_reported": false
      },
      {
        "isContribuable": false,
        "id": 5504,
        "body": "La publication des données collectées ou produites peut s'avérer lourd pour certaines associations et aussi très hétéroclite !",
        "created_at": "2015-10-17T19:43:12+0200",
        "updated_at": "2015-10-17T19:43:12+0200",
        "is_enabled": true,
        "votes_count": 0,
        "type": 0,
        "is_trashed": false,
        "author": {
          "username": "BRUGIONI Ingrid",
          "displayName": "BRUGIONI Ingrid",
          "uniqueId": "brugioniingrid",
          "isAdmin": false,
          "media": null,
          "vip": false,
          "_links": {
            "profile": "https://www.republique-numerique.fr/profile/brugioniingrid",
            "settings": "https://www.republique-numerique.fr/profile/edit-profile"
          }
        },
        "_links": {
          "show": "https://www.republique-numerique.fr/consultations/projet-de-loi-numerique/consultation/consultation/opinions/section-3-donnees-d-interet-general/article-6-ouverture-des-donnees-dans-les-conventions-de-subventions#arg-5504",
          "edit": "https://www.republique-numerique.fr/consultations/projet-de-loi-numerique/consultation/consultation/opinions/section-3-donnees-d-interet-general/article-6-ouverture-des-donnees-dans-les-conventions-de-subventions/arguments/5504/edit",
          "report": "https://www.republique-numerique.fr/consultations/projet-de-loi-numerique/consultation/consultation/opinions/section-3-donnees-d-interet-general/article-6-ouverture-des-donnees-dans-les-conventions-de-subventions/arguments/5504/report"
        },
        "has_user_voted": false,
        "has_user_reported": false
      },
      {
        "isContribuable": false,
        "id": 5054,
        "body": "Aujourd'hui l'ensemble des subventions est publiques mais si pas dispo en open data. Cependant, certaines subventions présentent un aspect stratégique ou sensible. Si le principe est intéressant, il faut proposer des garde-fous pour éviter des situations dangereuses (perte de compétitivité dans le cas de la recherche.) \n\nPeut-être que publier à la fin du projet ou à la cloture budgétaire...",
        "created_at": "2015-10-16T22:09:27+0200",
        "updated_at": "2015-10-16T22:09:27+0200",
        "is_enabled": true,
        "votes_count": 0,
        "type": 1,
        "is_trashed": false,
        "author": {
          "username": "C. LAMBERT",
          "displayName": "C. LAMBERT",
          "uniqueId": "clambert",
          "isAdmin": false,
          "media": null,
          "vip": false,
          "_links": {
            "profile": "https://www.republique-numerique.fr/profile/clambert",
            "settings": "https://www.republique-numerique.fr/profile/edit-profile"
          }
        },
        "_links": {
          "show": "https://www.republique-numerique.fr/consultations/projet-de-loi-numerique/consultation/consultation/opinions/section-3-donnees-d-interet-general/article-6-ouverture-des-donnees-dans-les-conventions-de-subventions#arg-5054",
          "edit": "https://www.republique-numerique.fr/consultations/projet-de-loi-numerique/consultation/consultation/opinions/section-3-donnees-d-interet-general/article-6-ouverture-des-donnees-dans-les-conventions-de-subventions/arguments/5054/edit",
          "report": "https://www.republique-numerique.fr/consultations/projet-de-loi-numerique/consultation/consultation/opinions/section-3-donnees-d-interet-general/article-6-ouverture-des-donnees-dans-les-conventions-de-subventions/arguments/5054/report"
        },
        "has_user_voted": false,
        "has_user_reported": false
      },
      {
        "isContribuable": false,
        "id": 4899,
        "body": "La recherche est souvent cofinancée par le secteur public et le secteur privé. Pour éviter une perte de compétitivité de la recherche en France, il est important de rappeler que l’ouverture des données des subventions publiques doit se faire dans le respect du secret industriel et commercial et des droits de propriété intellectuelle détenus par des tiers ou les bénéficiaires de la subvention.",
        "created_at": "2015-10-16T17:54:39+0200",
        "updated_at": "2015-10-16T17:54:39+0200",
        "is_enabled": true,
        "votes_count": 0,
        "type": 0,
        "is_trashed": false,
        "author": {
          "username": "Instances numériques du MEDEF",
          "displayName": "Instances numériques du MEDEF",
          "uniqueId": "instancesnumeriquesdumedef",
          "isAdmin": false,
          "media": null,
          "vip": false,
          "_links": {
            "profile": "https://www.republique-numerique.fr/profile/instancesnumeriquesdumedef",
            "settings": "https://www.republique-numerique.fr/profile/edit-profile"
          }
        },
        "_links": {
          "show": "https://www.republique-numerique.fr/consultations/projet-de-loi-numerique/consultation/consultation/opinions/section-3-donnees-d-interet-general/article-6-ouverture-des-donnees-dans-les-conventions-de-subventions#arg-4899",
          "edit": "https://www.republique-numerique.fr/consultations/projet-de-loi-numerique/consultation/consultation/opinions/section-3-donnees-d-interet-general/article-6-ouverture-des-donnees-dans-les-conventions-de-subventions/arguments/4899/edit",
          "report": "https://www.republique-numerique.fr/consultations/projet-de-loi-numerique/consultation/consultation/opinions/section-3-donnees-d-interet-general/article-6-ouverture-des-donnees-dans-les-conventions-de-subventions/arguments/4899/report"
        },
        "has_user_voted": false,
        "has_user_reported": false
      },
      {
        "isContribuable": false,
        "id": 3364,
        "body": "Permet plus de transparence et plus particulièrement sur les sujets de subventions aux médias de masse, dont celles du quai d'Orsay. Le but est de présenter les informations clairement et à un seul endroit (pas dans une tonne de pdfs)",
        "created_at": "2015-10-12T20:26:14+0200",
        "updated_at": "2015-10-12T20:26:14+0200",
        "is_enabled": true,
        "votes_count": 1,
        "type": 1,
        "is_trashed": false,
        "author": {
          "username": "Arnaud Legrand",
          "displayName": "Arnaud Legrand",
          "uniqueId": "arnaudlegrand",
          "isAdmin": false,
          "media": null,
          "vip": false,
          "_links": {
            "profile": "https://www.republique-numerique.fr/profile/arnaudlegrand",
            "settings": "https://www.republique-numerique.fr/profile/edit-profile"
          }
        },
        "_links": {
          "show": "https://www.republique-numerique.fr/consultations/projet-de-loi-numerique/consultation/consultation/opinions/section-3-donnees-d-interet-general/article-6-ouverture-des-donnees-dans-les-conventions-de-subventions#arg-3364",
          "edit": "https://www.republique-numerique.fr/consultations/projet-de-loi-numerique/consultation/consultation/opinions/section-3-donnees-d-interet-general/article-6-ouverture-des-donnees-dans-les-conventions-de-subventions/arguments/3364/edit",
          "report": "https://www.republique-numerique.fr/consultations/projet-de-loi-numerique/consultation/consultation/opinions/section-3-donnees-d-interet-general/article-6-ouverture-des-donnees-dans-les-conventions-de-subventions/arguments/3364/report"
        },
        "has_user_voted": false,
        "has_user_reported": false
      },
      {
        "isContribuable": false,
        "id": 2685,
        "body": "Je suis plutôt pour en ce qui me concerne. Je pense qu'il faudrait également que ces données inclues le projet ou la raison pour lequel a été octroyée la subvention. ",
        "created_at": "2015-10-08T17:03:57+0200",
        "updated_at": "2015-10-08T17:03:57+0200",
        "is_enabled": true,
        "votes_count": 1,
        "type": 1,
        "is_trashed": false,
        "author": {
          "username": "Thibault Liétard",
          "displayName": "Thibault Liétard",
          "uniqueId": "thibaultlietard",
          "isAdmin": false,
          "media": null,
          "vip": false,
          "_links": {
            "profile": "https://www.republique-numerique.fr/profile/thibaultlietard",
            "settings": "https://www.republique-numerique.fr/profile/edit-profile"
          }
        },
        "_links": {
          "show": "https://www.republique-numerique.fr/consultations/projet-de-loi-numerique/consultation/consultation/opinions/section-3-donnees-d-interet-general/article-6-ouverture-des-donnees-dans-les-conventions-de-subventions#arg-2685",
          "edit": "https://www.republique-numerique.fr/consultations/projet-de-loi-numerique/consultation/consultation/opinions/section-3-donnees-d-interet-general/article-6-ouverture-des-donnees-dans-les-conventions-de-subventions/arguments/2685/edit",
          "report": "https://www.republique-numerique.fr/consultations/projet-de-loi-numerique/consultation/consultation/opinions/section-3-donnees-d-interet-general/article-6-ouverture-des-donnees-dans-les-conventions-de-subventions/arguments/2685/report"
        },
        "has_user_voted": false,
        "has_user_reported": false
      },
      {
        "isContribuable": false,
        "id": 2549,
        "body": "Si le 3° est parfaitement légitime, le 2° équivaut - entre autres - à transformer le travail d'associations en données exploitables par des sociétés commerciales (bureaux d'étude en matière d'environnement, etc.). C'est du grand n'importe quoi! ",
        "created_at": "2015-10-07T20:06:27+0200",
        "updated_at": "2015-10-07T20:06:27+0200",
        "is_enabled": true,
        "votes_count": 0,
        "type": 0,
        "is_trashed": false,
        "author": {
          "username": "samson_d",
          "displayName": "samson_d",
          "uniqueId": "samsond",
          "isAdmin": false,
          "media": null,
          "vip": false,
          "_links": {
            "profile": "https://www.republique-numerique.fr/profile/samsond",
            "settings": "https://www.republique-numerique.fr/profile/edit-profile"
          }
        },
        "_links": {
          "show": "https://www.republique-numerique.fr/consultations/projet-de-loi-numerique/consultation/consultation/opinions/section-3-donnees-d-interet-general/article-6-ouverture-des-donnees-dans-les-conventions-de-subventions#arg-2549",
          "edit": "https://www.republique-numerique.fr/consultations/projet-de-loi-numerique/consultation/consultation/opinions/section-3-donnees-d-interet-general/article-6-ouverture-des-donnees-dans-les-conventions-de-subventions/arguments/2549/edit",
          "report": "https://www.republique-numerique.fr/consultations/projet-de-loi-numerique/consultation/consultation/opinions/section-3-donnees-d-interet-general/article-6-ouverture-des-donnees-dans-les-conventions-de-subventions/arguments/2549/report"
        },
        "has_user_voted": false,
        "has_user_reported": false
      },
      {
        "isContribuable": false,
        "id": 2394,
        "body": "Pas de seuil, et pour TOUTE dépense publique, y compris les réserves parlementaire si elles existent encore d'ici là. Ce n'est pas parce que le législatif est soustrait au contrôle de l'executif par souci de la séparation des pouvoirs qu'il doit être soustrait au contrôle citoyen.",
        "created_at": "2015-10-06T16:37:06+0200",
        "updated_at": "2015-10-06T16:37:06+0200",
        "is_enabled": true,
        "votes_count": 1,
        "type": 1,
        "is_trashed": false,
        "author": {
          "username": "Hugues Van Besien",
          "displayName": "Hugues Van Besien",
          "uniqueId": "huguesvanbesien",
          "isAdmin": false,
          "media": null,
          "vip": false,
          "_links": {
            "profile": "https://www.republique-numerique.fr/profile/huguesvanbesien",
            "settings": "https://www.republique-numerique.fr/profile/edit-profile"
          }
        },
        "_links": {
          "show": "https://www.republique-numerique.fr/consultations/projet-de-loi-numerique/consultation/consultation/opinions/section-3-donnees-d-interet-general/article-6-ouverture-des-donnees-dans-les-conventions-de-subventions#arg-2394",
          "edit": "https://www.republique-numerique.fr/consultations/projet-de-loi-numerique/consultation/consultation/opinions/section-3-donnees-d-interet-general/article-6-ouverture-des-donnees-dans-les-conventions-de-subventions/arguments/2394/edit",
          "report": "https://www.republique-numerique.fr/consultations/projet-de-loi-numerique/consultation/consultation/opinions/section-3-donnees-d-interet-general/article-6-ouverture-des-donnees-dans-les-conventions-de-subventions/arguments/2394/report"
        },
        "has_user_voted": false,
        "has_user_reported": false
      },
      {
        "isContribuable": false,
        "id": 2301,
        "body": "Ces donnees doivent etre sur un format que l'on peut analyser, comparer, et transformer en information pour reduire les gaspillages des subventions ou reduire les depenses de l'Etat d'une meilleure facon. Sinon c'est agreger les donnees inutilement.",
        "created_at": "2015-10-05T19:50:46+0200",
        "updated_at": "2015-10-05T19:50:46+0200",
        "is_enabled": true,
        "votes_count": 2,
        "type": 1,
        "is_trashed": false,
        "author": {
          "username": "Jean-Yves Tillier",
          "displayName": "Jean-Yves Tillier",
          "uniqueId": "jeanyvestillier",
          "isAdmin": false,
          "media": null,
          "vip": false,
          "_links": {
            "profile": "https://www.republique-numerique.fr/profile/jeanyvestillier",
            "settings": "https://www.republique-numerique.fr/profile/edit-profile"
          }
        },
        "_links": {
          "show": "https://www.republique-numerique.fr/consultations/projet-de-loi-numerique/consultation/consultation/opinions/section-3-donnees-d-interet-general/article-6-ouverture-des-donnees-dans-les-conventions-de-subventions#arg-2301",
          "edit": "https://www.republique-numerique.fr/consultations/projet-de-loi-numerique/consultation/consultation/opinions/section-3-donnees-d-interet-general/article-6-ouverture-des-donnees-dans-les-conventions-de-subventions/arguments/2301/edit",
          "report": "https://www.republique-numerique.fr/consultations/projet-de-loi-numerique/consultation/consultation/opinions/section-3-donnees-d-interet-general/article-6-ouverture-des-donnees-dans-les-conventions-de-subventions/arguments/2301/report"
        },
        "has_user_voted": false,
        "has_user_reported": false
      },
      {
        "isContribuable": false,
        "id": 2285,
        "body": "Ce n'est ni pour ni contre mais plutôt un doute sur l'avantage que des concurrents non français, européens ou américains, type GAFAs pourrait avoir en accédant à ces données sachant que leurs propres aides dans leurs pays respectifs ne seraient pas disponibles. Du point de vue de l'intelligence économique, j'ai des doutes sur les risques associés à ce souci de transparence, qui part, bien sûr d'une bonne intention citoyenne, là n'est pas la question mais qui pourrait au final donner des avantages à d'autres.",
        "created_at": "2015-10-05T17:33:34+0200",
        "updated_at": "2015-10-05T17:33:34+0200",
        "is_enabled": true,
        "votes_count": 1,
        "type": 0,
        "is_trashed": false,
        "author": {
          "username": "Pierre Danet",
          "displayName": "Pierre Danet",
          "uniqueId": "pierredanet",
          "isAdmin": false,
          "media": null,
          "vip": false,
          "_links": {
            "profile": "https://www.republique-numerique.fr/profile/pierredanet",
            "settings": "https://www.republique-numerique.fr/profile/edit-profile"
          }
        },
        "_links": {
          "show": "https://www.republique-numerique.fr/consultations/projet-de-loi-numerique/consultation/consultation/opinions/section-3-donnees-d-interet-general/article-6-ouverture-des-donnees-dans-les-conventions-de-subventions#arg-2285",
          "edit": "https://www.republique-numerique.fr/consultations/projet-de-loi-numerique/consultation/consultation/opinions/section-3-donnees-d-interet-general/article-6-ouverture-des-donnees-dans-les-conventions-de-subventions/arguments/2285/edit",
          "report": "https://www.republique-numerique.fr/consultations/projet-de-loi-numerique/consultation/consultation/opinions/section-3-donnees-d-interet-general/article-6-ouverture-des-donnees-dans-les-conventions-de-subventions/arguments/2285/report"
        },
        "has_user_voted": false,
        "has_user_reported": false
      },
      {
        "isContribuable": false,
        "id": 2262,
        "body": "Difficile de décider si mon avis est contre ou pour. Je pense au danger, d'une soi disante transparence. rendre public toute subvention quelque soit le seuil ou le niveau d’agrégation des données est aussi un bon moyen de lisser les différences de politiques entre les niveaux de décisions de subventions.",
        "created_at": "2015-10-05T11:55:14+0200",
        "updated_at": "2015-10-05T11:55:14+0200",
        "is_enabled": true,
        "votes_count": 1,
        "type": 0,
        "is_trashed": false,
        "author": {
          "username": "Christophe Lebègue",
          "displayName": "Christophe Lebègue",
          "uniqueId": "christophelebegue",
          "isAdmin": false,
          "media": null,
          "vip": false,
          "_links": {
            "profile": "https://www.republique-numerique.fr/profile/christophelebegue",
            "settings": "https://www.republique-numerique.fr/profile/edit-profile"
          }
        },
        "_links": {
          "show": "https://www.republique-numerique.fr/consultations/projet-de-loi-numerique/consultation/consultation/opinions/section-3-donnees-d-interet-general/article-6-ouverture-des-donnees-dans-les-conventions-de-subventions#arg-2262",
          "edit": "https://www.republique-numerique.fr/consultations/projet-de-loi-numerique/consultation/consultation/opinions/section-3-donnees-d-interet-general/article-6-ouverture-des-donnees-dans-les-conventions-de-subventions/arguments/2262/edit",
          "report": "https://www.republique-numerique.fr/consultations/projet-de-loi-numerique/consultation/consultation/opinions/section-3-donnees-d-interet-general/article-6-ouverture-des-donnees-dans-les-conventions-de-subventions/arguments/2262/report"
        },
        "has_user_voted": false,
        "has_user_reported": false
      },
      {
        "isContribuable": false,
        "id": 2220,
        "body": "pourquoi seulement au-dessus du seuil des 23.000 € ?\net pour les associations, il faut dire que les jaunes budgétaires \"efforts de l'Etat aux associations\" (projet de loi de finances) listent l'ensemble des associations subventionnées par l'Etat et l'objet de l'action.\nde plus, la convention de subventionnement entre l'Etat et l''association (convention annuelle/pluri annuelle d'objectifs quand c'est supérieur à 23.000 €) sont des documents administratifs communicables sur demande au titre de la loi cada, comme les statuts de l'association, les noms des membres du bureau.\npourquoi imposer à toutes les autorités administratives de mettre ça sur internet alors que peu consulteront les documents? et avec quels moyens (qui va scanner ? veut-on embaucher du personnel? avec quel budget?).\naméliorons plutôt le droit d'accès aux documents administratifs!",
        "created_at": "2015-10-04T22:36:35+0200",
        "updated_at": "2015-10-04T22:36:35+0200",
        "is_enabled": true,
        "votes_count": 0,
        "type": 0,
        "is_trashed": false,
        "author": {
          "username": "pas folle la guepe",
          "displayName": "pas folle la guepe",
          "uniqueId": "pasfollelaguepe",
          "isAdmin": false,
          "media": null,
          "vip": false,
          "_links": {
            "profile": "https://www.republique-numerique.fr/profile/pasfollelaguepe",
            "settings": "https://www.republique-numerique.fr/profile/edit-profile"
          }
        },
        "_links": {
          "show": "https://www.republique-numerique.fr/consultations/projet-de-loi-numerique/consultation/consultation/opinions/section-3-donnees-d-interet-general/article-6-ouverture-des-donnees-dans-les-conventions-de-subventions#arg-2220",
          "edit": "https://www.republique-numerique.fr/consultations/projet-de-loi-numerique/consultation/consultation/opinions/section-3-donnees-d-interet-general/article-6-ouverture-des-donnees-dans-les-conventions-de-subventions/arguments/2220/edit",
          "report": "https://www.republique-numerique.fr/consultations/projet-de-loi-numerique/consultation/consultation/opinions/section-3-donnees-d-interet-general/article-6-ouverture-des-donnees-dans-les-conventions-de-subventions/arguments/2220/report"
        },
        "has_user_voted": false,
        "has_user_reported": false
      },
      {
        "isContribuable": false,
        "id": 1606,
        "body": "Pour mais pas besoin de seuil évidemment\n",
        "created_at": "2015-09-30T16:41:13+0200",
        "updated_at": "2015-09-30T16:41:13+0200",
        "is_enabled": true,
        "votes_count": 3,
        "type": 1,
        "is_trashed": false,
        "author": {
          "username": "Samuel Lopez",
          "displayName": "Samuel Lopez",
          "uniqueId": "samuellopez",
          "isAdmin": false,
          "media": null,
          "vip": false,
          "_links": {
            "profile": "https://www.republique-numerique.fr/profile/samuellopez",
            "settings": "https://www.republique-numerique.fr/profile/edit-profile"
          }
        },
        "_links": {
          "show": "https://www.republique-numerique.fr/consultations/projet-de-loi-numerique/consultation/consultation/opinions/section-3-donnees-d-interet-general/article-6-ouverture-des-donnees-dans-les-conventions-de-subventions#arg-1606",
          "edit": "https://www.republique-numerique.fr/consultations/projet-de-loi-numerique/consultation/consultation/opinions/section-3-donnees-d-interet-general/article-6-ouverture-des-donnees-dans-les-conventions-de-subventions/arguments/1606/edit",
          "report": "https://www.republique-numerique.fr/consultations/projet-de-loi-numerique/consultation/consultation/opinions/section-3-donnees-d-interet-general/article-6-ouverture-des-donnees-dans-les-conventions-de-subventions/arguments/1606/report"
        },
        "has_user_voted": false,
        "has_user_reported": false
      },
      {
        "isContribuable": false,
        "id": 1233,
        "body": "Egalement pour et sans seuil !",
        "created_at": "2015-09-29T13:56:45+0200",
        "updated_at": "2015-09-29T13:56:45+0200",
        "is_enabled": true,
        "votes_count": 5,
        "type": 1,
        "is_trashed": false,
        "author": {
          "username": "Lucas Pfister",
          "displayName": "Lucas Pfister",
          "uniqueId": "lucaspfister",
          "isAdmin": false,
          "media": null,
          "vip": false,
          "_links": {
            "profile": "https://www.republique-numerique.fr/profile/lucaspfister",
            "settings": "https://www.republique-numerique.fr/profile/edit-profile"
          }
        },
        "_links": {
          "show": "https://www.republique-numerique.fr/consultations/projet-de-loi-numerique/consultation/consultation/opinions/section-3-donnees-d-interet-general/article-6-ouverture-des-donnees-dans-les-conventions-de-subventions#arg-1233",
          "edit": "https://www.republique-numerique.fr/consultations/projet-de-loi-numerique/consultation/consultation/opinions/section-3-donnees-d-interet-general/article-6-ouverture-des-donnees-dans-les-conventions-de-subventions/arguments/1233/edit",
          "report": "https://www.republique-numerique.fr/consultations/projet-de-loi-numerique/consultation/consultation/opinions/section-3-donnees-d-interet-general/article-6-ouverture-des-donnees-dans-les-conventions-de-subventions/arguments/1233/report"
        },
        "has_user_voted": false,
        "has_user_reported": false
      },
      {
        "isContribuable": false,
        "id": 830,
        "body": "Pour évidemment mais sans seuil. ",
        "created_at": "2015-09-28T12:06:44+0200",
        "updated_at": "2015-09-28T12:06:44+0200",
        "is_enabled": true,
        "votes_count": 8,
        "type": 1,
        "is_trashed": false,
        "author": {
          "username": "Emmanuel Heurtier",
          "displayName": "Emmanuel Heurtier",
          "uniqueId": "emmanuelheurtier",
          "isAdmin": false,
          "media": null,
          "vip": false,
          "_links": {
            "profile": "https://www.republique-numerique.fr/profile/emmanuelheurtier",
            "settings": "https://www.republique-numerique.fr/profile/edit-profile"
          }
        },
        "_links": {
          "show": "https://www.republique-numerique.fr/consultations/projet-de-loi-numerique/consultation/consultation/opinions/section-3-donnees-d-interet-general/article-6-ouverture-des-donnees-dans-les-conventions-de-subventions#arg-830",
          "edit": "https://www.republique-numerique.fr/consultations/projet-de-loi-numerique/consultation/consultation/opinions/section-3-donnees-d-interet-general/article-6-ouverture-des-donnees-dans-les-conventions-de-subventions/arguments/830/edit",
          "report": "https://www.republique-numerique.fr/consultations/projet-de-loi-numerique/consultation/consultation/opinions/section-3-donnees-d-interet-general/article-6-ouverture-des-donnees-dans-les-conventions-de-subventions/arguments/830/report"
        },
        "has_user_voted": false,
        "has_user_reported": false
      },
      {
        "isContribuable": false,
        "id": 770,
        "body": "TOUTES les subventions doivent être disponibles, en effet il ne s'agit ni plus ni moins que de l’argent du peuple, il est juste que celui ci sache à quoi ou à qui servent ses impôts",
        "created_at": "2015-09-28T10:01:32+0200",
        "updated_at": "2015-09-28T10:01:32+0200",
        "is_enabled": true,
        "votes_count": 9,
        "type": 1,
        "is_trashed": false,
        "author": {
          "username": "derambure philippe",
          "displayName": "derambure philippe",
          "uniqueId": "deramburephilippe",
          "isAdmin": false,
          "media": null,
          "vip": false,
          "_links": {
            "profile": "https://www.republique-numerique.fr/profile/deramburephilippe",
            "settings": "https://www.republique-numerique.fr/profile/edit-profile"
          }
        },
        "_links": {
          "show": "https://www.republique-numerique.fr/consultations/projet-de-loi-numerique/consultation/consultation/opinions/section-3-donnees-d-interet-general/article-6-ouverture-des-donnees-dans-les-conventions-de-subventions#arg-770",
          "edit": "https://www.republique-numerique.fr/consultations/projet-de-loi-numerique/consultation/consultation/opinions/section-3-donnees-d-interet-general/article-6-ouverture-des-donnees-dans-les-conventions-de-subventions/arguments/770/edit",
          "report": "https://www.republique-numerique.fr/consultations/projet-de-loi-numerique/consultation/consultation/opinions/section-3-donnees-d-interet-general/article-6-ouverture-des-donnees-dans-les-conventions-de-subventions/arguments/770/report"
        },
        "has_user_voted": false,
        "has_user_reported": false
      },
      {
        "isContribuable": false,
        "id": 666,
        "body": "Dès le 1er euro versé. Étendre l'obligation de diffusion également aux dotations et subventions versées aux collectivités elles-mêmes. ",
        "created_at": "2015-09-27T20:14:30+0200",
        "updated_at": "2015-09-27T20:14:30+0200",
        "is_enabled": true,
        "votes_count": 6,
        "type": 0,
        "is_trashed": false,
        "author": {
          "username": "Massart",
          "displayName": "Massart",
          "uniqueId": "massart",
          "isAdmin": false,
          "media": null,
          "vip": false,
          "_links": {
            "profile": "https://www.republique-numerique.fr/profile/massart",
            "settings": "https://www.republique-numerique.fr/profile/edit-profile"
          }
        },
        "_links": {
          "show": "https://www.republique-numerique.fr/consultations/projet-de-loi-numerique/consultation/consultation/opinions/section-3-donnees-d-interet-general/article-6-ouverture-des-donnees-dans-les-conventions-de-subventions#arg-666",
          "edit": "https://www.republique-numerique.fr/consultations/projet-de-loi-numerique/consultation/consultation/opinions/section-3-donnees-d-interet-general/article-6-ouverture-des-donnees-dans-les-conventions-de-subventions/arguments/666/edit",
          "report": "https://www.republique-numerique.fr/consultations/projet-de-loi-numerique/consultation/consultation/opinions/section-3-donnees-d-interet-general/article-6-ouverture-des-donnees-dans-les-conventions-de-subventions/arguments/666/report"
        },
        "has_user_voted": false,
        "has_user_reported": false
      },
      {
        "isContribuable": false,
        "id": 203,
        "body": "La totalité des subventions publiques accordées sur des fonds publics doivent être publiés, sans seuil de montant.",
        "created_at": "2015-09-26T18:46:00+0200",
        "updated_at": "2015-09-26T18:46:00+0200",
        "is_enabled": true,
        "votes_count": 15,
        "type": 0,
        "is_trashed": false,
        "author": {
          "username": "Openpony",
          "displayName": "Openpony",
          "uniqueId": "openpony",
          "isAdmin": false,
          "media": {
            "url": "/media/cache/default_avatar/default/0001/01/131_default_avatar.jpg"
          },
          "vip": false,
          "_links": {
            "profile": "https://www.republique-numerique.fr/profile/openpony",
            "settings": "https://www.republique-numerique.fr/profile/edit-profile"
          }
        },
        "_links": {
          "show": "https://www.republique-numerique.fr/consultations/projet-de-loi-numerique/consultation/consultation/opinions/section-3-donnees-d-interet-general/article-6-ouverture-des-donnees-dans-les-conventions-de-subventions#arg-203",
          "edit": "https://www.republique-numerique.fr/consultations/projet-de-loi-numerique/consultation/consultation/opinions/section-3-donnees-d-interet-general/article-6-ouverture-des-donnees-dans-les-conventions-de-subventions/arguments/203/edit",
          "report": "https://www.republique-numerique.fr/consultations/projet-de-loi-numerique/consultation/consultation/opinions/section-3-donnees-d-interet-general/article-6-ouverture-des-donnees-dans-les-conventions-de-subventions/arguments/203/report"
        },
        "has_user_voted": false,
        "has_user_reported": false
      },
      {
        "isContribuable": false,
        "id": 123,
        "body": "Les subventions versées aux associations par les collectivités doivent faire l’objet de publicité spécifique en fonction de la collectivité concernée.\nL’article 22 de la loi n° 2006-586 du 23 mai 2006 édicte les personnes morales de droit public doivent tenir à la disposition du public, par voie électronique, le montant des subventions versées.\nPourtant l’État ne peut toutefois contraindre les collectivités territoriales indépendantes à appliquer ce dispositif. En outre leur obligation prend des formes différentes : les communes de moins de 3 500 habitants peuvent satisfaire à l’obligation de tenir à la disposition du public le montant des subventions qu’elles versent par voie électronique ou par affichage. Les autres personnes morales de droit public, et parmi elles les autres communes, doivent publier ces données par voie électronique sur un site Internet ou les transmettre à l’administration de l’État par support numérique (disquette, cédérom, DVD, clé USB, cartes de stockage de données SD, XD, MMC, etc.).\nLe décret n° 2006-887 du 17 juillet 2006 pris en application de cette loi précise que l’obligation de publication porte sur les subventions versées au cours de l’exercice comptable considéré qui relèvent d’une décision discrétionnaire de l’autorité décisionnaire ; sont exclues en conséquence les subventions versées en vertu d’une loi ou d’un règlement qui crée un droit pour l’association ou la fondation qui remplit tous les critères d’éligibilité légaux ou réglementaires dans une logique de guichet. Par ailleurs, l’article 22 pose le principe d’un bilan annuel consolidé et disponible. On peut considérer que l’évolution du « jaune associatif » de l’État, devenu annuel par l’application de l’article 186 de la loi de finances pour 2009, satisfait à cette obligation.\nExtrait La Gazette des Communes",
        "created_at": "2015-09-26T16:14:46+0200",
        "updated_at": "2015-09-26T16:14:46+0200",
        "is_enabled": true,
        "votes_count": 0,
        "type": 1,
        "is_trashed": false,
        "author": {
          "username": "Florence Durand Tornare",
          "displayName": "Florence Durand Tornare",
          "uniqueId": "florencedurandtornare",
          "isAdmin": false,
          "media": null,
          "vip": false,
          "_links": {
            "profile": "https://www.republique-numerique.fr/profile/florencedurandtornare",
            "settings": "https://www.republique-numerique.fr/profile/edit-profile"
          }
        },
        "_links": {
          "show": "https://www.republique-numerique.fr/consultations/projet-de-loi-numerique/consultation/consultation/opinions/section-3-donnees-d-interet-general/article-6-ouverture-des-donnees-dans-les-conventions-de-subventions#arg-123",
          "edit": "https://www.republique-numerique.fr/consultations/projet-de-loi-numerique/consultation/consultation/opinions/section-3-donnees-d-interet-general/article-6-ouverture-des-donnees-dans-les-conventions-de-subventions/arguments/123/edit",
          "report": "https://www.republique-numerique.fr/consultations/projet-de-loi-numerique/consultation/consultation/opinions/section-3-donnees-d-interet-general/article-6-ouverture-des-donnees-dans-les-conventions-de-subventions/arguments/123/report"
        },
        "has_user_voted": false,
        "has_user_reported": false
      },
      {
        "isContribuable": false,
        "id": 108,
        "body": "n'y a t-il pas contradiction avec l'article premier\r\n- si les communes sont exemptées de publication, alors elles n'auront pas à communiquer en opendata les subventions versées. Donc, exclure les communes et les communautés de commune est un non sens.",
        "created_at": "2015-09-26T15:44:22+0200",
        "updated_at": "2015-09-26T15:44:55+0200",
        "is_enabled": true,
        "votes_count": 0,
        "type": 0,
        "is_trashed": false,
        "author": {
          "username": "Laurent Combe",
          "displayName": "Laurent Combe",
          "uniqueId": "laurentcombe",
          "isAdmin": false,
          "media": null,
          "vip": false,
          "_links": {
            "profile": "https://www.republique-numerique.fr/profile/laurentcombe",
            "settings": "https://www.republique-numerique.fr/profile/edit-profile"
          }
        },
        "_links": {
          "show": "https://www.republique-numerique.fr/consultations/projet-de-loi-numerique/consultation/consultation/opinions/section-3-donnees-d-interet-general/article-6-ouverture-des-donnees-dans-les-conventions-de-subventions#arg-108",
          "edit": "https://www.republique-numerique.fr/consultations/projet-de-loi-numerique/consultation/consultation/opinions/section-3-donnees-d-interet-general/article-6-ouverture-des-donnees-dans-les-conventions-de-subventions/arguments/108/edit",
          "report": "https://www.republique-numerique.fr/consultations/projet-de-loi-numerique/consultation/consultation/opinions/section-3-donnees-d-interet-general/article-6-ouverture-des-donnees-dans-les-conventions-de-subventions/arguments/108/report"
        },
        "has_user_voted": false,
        "has_user_reported": false
      },
      {
        "isContribuable": false,
        "id": 49,
        "body": "(Argument « mitigé », en fait.)\n\nIl est regrettable de se limiter aux grosses subventions. Toutes les subventions devraient faire l'objet d'une publicité dans un standard ouvert aisément réutilisable.",
        "created_at": "2015-09-26T13:35:03+0200",
        "updated_at": "2015-09-26T13:35:03+0200",
        "is_enabled": true,
        "votes_count": 15,
        "type": 0,
        "is_trashed": false,
        "author": {
          "username": "Mti131",
          "displayName": "Mti131",
          "uniqueId": "mti131",
          "isAdmin": false,
          "media": {
            "url": "/media/cache/default_avatar/default/0001/01/98_default_avatar.jpg"
          },
          "vip": false,
          "_links": {
            "profile": "https://www.republique-numerique.fr/profile/mti131",
            "settings": "https://www.republique-numerique.fr/profile/edit-profile"
          }
        },
        "_links": {
          "show": "https://www.republique-numerique.fr/consultations/projet-de-loi-numerique/consultation/consultation/opinions/section-3-donnees-d-interet-general/article-6-ouverture-des-donnees-dans-les-conventions-de-subventions#arg-49",
          "edit": "https://www.republique-numerique.fr/consultations/projet-de-loi-numerique/consultation/consultation/opinions/section-3-donnees-d-interet-general/article-6-ouverture-des-donnees-dans-les-conventions-de-subventions/arguments/49/edit",
          "report": "https://www.republique-numerique.fr/consultations/projet-de-loi-numerique/consultation/consultation/opinions/section-3-donnees-d-interet-general/article-6-ouverture-des-donnees-dans-les-conventions-de-subventions/arguments/49/report"
        },
        "has_user_voted": false,
        "has_user_reported": false
      },
      {
        "isContribuable": false,
        "id": 41,
        "body": "Cela permettra une plus grande transparence autour de ces pratiques, c'est très positif.",
        "created_at": "2015-09-26T13:24:44+0200",
        "updated_at": "2015-09-26T13:24:44+0200",
        "is_enabled": true,
        "votes_count": 3,
        "type": 1,
        "is_trashed": false,
        "author": {
          "username": "Sébastien Monchamps",
          "displayName": "Sébastien Monchamps",
          "uniqueId": "sebastienmonchamps",
          "isAdmin": false,
          "media": null,
          "vip": false,
          "_links": {
            "profile": "https://www.republique-numerique.fr/profile/sebastienmonchamps",
            "settings": "https://www.republique-numerique.fr/profile/edit-profile"
          }
        },
        "_links": {
          "show": "https://www.republique-numerique.fr/consultations/projet-de-loi-numerique/consultation/consultation/opinions/section-3-donnees-d-interet-general/article-6-ouverture-des-donnees-dans-les-conventions-de-subventions#arg-41",
          "edit": "https://www.republique-numerique.fr/consultations/projet-de-loi-numerique/consultation/consultation/opinions/section-3-donnees-d-interet-general/article-6-ouverture-des-donnees-dans-les-conventions-de-subventions/arguments/41/edit",
          "report": "https://www.republique-numerique.fr/consultations/projet-de-loi-numerique/consultation/consultation/opinions/section-3-donnees-d-interet-general/article-6-ouverture-des-donnees-dans-les-conventions-de-subventions/arguments/41/report"
        },
        "has_user_voted": false,
        "has_user_reported": false
      }
    ],
    "modals": [
      {
        "key": "article 10",
        "before": "<p>...</p><p>L'autorité administrative ou l'organisme chargé de la gestion d'un service public industriel et commercial mentionné au premier alinéa de l'article 9-1 qui attribue une subvention dépassant le seuil mentionné au troisième alinéa du présent article à une société commerciale peut prévoir, dans les conditions d'utilisation, une clause relative au versement de dividendes, au sens de l'article L. 232-12 du code de commerce, ou au versement de rémunérations ou avantages de toute nature accordés aux mandataires sociaux pendant toute la durée de la convention et jusqu'à trois ans après la fin de la convention. L'autorité ou l'organisme mentionné à la première phrase du présent alinéa peut émettre un titre exécutoire pour obtenir le remboursement de tout ou partie de la subvention si le montant des versements, mentionnés à la première phrase du présent alinéa, effectués par cette société dépasse le montant maximal fixé par la convention. Le montant du remboursement ne peut excéder le montant total de ces versements, effectués depuis le début de la convention.</p><p>Lorsque la subvention est affectée à une dépense déterminée, l'organisme de droit privé bénéficiaire doit produire un compte rendu financier qui atteste de la conformité des dépenses effectuées à l'objet de la subvention. Le compte rendu financier est déposé auprès de l'autorité administrative ou de l'organisme chargé de la gestion d'un service public industriel et commercial mentionné au premier alinéa de l'article 9-1 qui a versé la subvention dans les six mois suivant la fin de l'exercice pour lequel elle a été attribuée.</p><p>Le budget et les comptes de tout organisme de droit privé ayant reçu une subvention, la convention prévue au présent article et le compte rendu financier de la subvention doivent être communiqués à toute personne qui en fait la demande par l'autorité administrative ou l'organisme chargé de la gestion d'un service public industriel et commercial mentionné au premier alinéa de l'article 9-1 ayant attribué la subvention ou par les autorités administratives qui détiennent ces documents, dans les conditions prévues par la loi n° 78-753 du 17 juillet 1978 précitée.</p><p>...</p>",
        "after": "<p>...</p><p>L'autorité administrative ou l'organisme chargé de la gestion d'un service public industriel et commercial mentionné au premier alinéa de l'article 9-1 qui attribue une subvention dépassant le seuil mentionné au quatrième alinéa du présent article à une société commerciale peut prévoir, dans les conditions d'utilisation, une clause relative au versement de dividendes, au sens de l'article L. 232-12 du code de commerce, ou au versement de rémunérations ou avantages de toute nature accordés aux mandataires sociaux pendant toute la durée de la convention et jusqu'à trois ans après la fin de la convention. L'autorité ou l'organisme mentionné à la première phrase du présent alinéa peut émettre un titre exécutoire pour obtenir le remboursement de tout ou partie de la subvention si le montant des versements, mentionnés à la première phrase du présent alinéa, effectués par cette société dépasse le montant maximal fixé par la convention. Le montant du remboursement ne peut excéder le montant total de ces versements, effectués depuis le début de la convention.</p><p>Lorsque la subvention est affectée à une dépense déterminée, l'organisme de droit privé bénéficiaire doit produire un compte rendu financier qui atteste de la conformité des dépenses effectuées à l'objet de la subvention. Le compte rendu financier est déposé auprès de l'autorité administrative ou de l'organisme chargé de la gestion d'un service public industriel et commercial mentionné au premier alinéa de l'article 9-1 qui a versé la subvention dans les six mois suivant la fin de l'exercice pour lequel elle a été attribuée. L'autorité administrative ou l'organisme chargé de la gestion d'un service public industriel et commercial mentionné au premier alinéa de l'article 9-1 qui attribue une subvention dépassant le seuil mentionné au quatrième alinéa peut prévoir une clause selon laquelle l’organisme bénéficiaire lui fournit, dans un standard ouvert aisément réutilisable, les données et bases de données collectées ou produites dans le cadre de l’action subventionnée. Cette clause permet à l’autorité administrative, ou à un tiers désigné par celle-ci, d’extraire et d’exploiter librement tout ou partie de ces données et bases de données notamment en vue de leur mise à disposition à titre gratuit à des fins de réutilisation à titre gratuit ou onéreux.</p><p>Le budget et les comptes de tout organisme de droit privé ayant reçu une subvention, la convention prévue au présent article et le compte rendu financier de la subvention doivent être communiqués à toute personne qui en fait la demande par l'autorité administrative ou l'organisme chargé de la gestion d'un service public industriel et commercial mentionné au premier alinéa de l'article 9-1 ayant attribué la subvention ou par les autorités administratives qui détiennent ces documents, dans les conditions prévues par la loi n° 78-753 du 17 juillet 1978 précitée. L'autorité administrative ou l'organisme chargé de la gestion d'un service public industriel et commercial mentionné au premier alinéa de l'article 9-1 qui attribue une subvention dépassant le seuil mentionné au quatrième alinéa du présent article rend accessible, sous un standard ouvert aisément réutilisable, les données essentielles de la convention de subvention, dans des conditions fixées par voie règlementaire.</p><p>...</p>",
        "title": "Article 10 de la loi n° 2000-321 du 12 avril 2000"
      }
    ],
    "votes": [
      {
        "user": {
          "username": "Gautier Fauquembergue",
          "displayName": "Gautier Fauquembergue",
          "uniqueId": "gautierfauquembergue",
          "isAdmin": false,
          "media": null,
          "vip": false,
          "_links": {
            "profile": "https://www.republique-numerique.fr/profile/gautierfauquembergue",
            "settings": "https://www.republique-numerique.fr/profile/edit-profile"
          }
        }
      },
      {
        "user": {
          "username": "Cellular1988",
          "displayName": "Cellular1988",
          "uniqueId": "cellular1988",
          "isAdmin": false,
          "media": null,
          "vip": false,
          "_links": {
            "profile": "https://www.republique-numerique.fr/profile/cellular1988",
            "settings": "https://www.republique-numerique.fr/profile/edit-profile"
          }
        }
      },
      {
        "user": {
          "username": "Thomas GAY",
          "displayName": "Thomas GAY",
          "uniqueId": "thomasgay",
          "isAdmin": false,
          "media": null,
          "vip": false,
          "_links": {
            "profile": "https://www.republique-numerique.fr/profile/thomasgay",
            "settings": "https://www.republique-numerique.fr/profile/edit-profile"
          }
        }
      },
      {
        "user": {
          "username": "Sabos Mathias",
          "displayName": "Sabos Mathias",
          "uniqueId": "sabosmathias",
          "isAdmin": false,
          "media": null,
          "vip": false,
          "_links": {
            "profile": "https://www.republique-numerique.fr/profile/sabosmathias",
            "settings": "https://www.republique-numerique.fr/profile/edit-profile"
          }
        }
      },
      {
        "user": {
          "username": "Mari Doucet",
          "displayName": "Mari Doucet",
          "uniqueId": "maridoucet",
          "isAdmin": false,
          "media": null,
          "vip": false,
          "_links": {
            "profile": "https://www.republique-numerique.fr/profile/maridoucet",
            "settings": "https://www.republique-numerique.fr/profile/edit-profile"
          }
        }
      }
    ],
    "appendices": [
      {
        "body": "<p><strong>Objectif :</strong> publier en open data les principales donn&eacute;es des subventions vers&eacute;es par les organismes publics.</p>\r\n\r\n<p><strong>Explication :</strong> la loi du 12 avril 2000 a d&eacute;j&agrave; pr&eacute;vu certaines obligations de transparence pour les associations ou entreprises priv&eacute;es qui re&ccedil;oivent des subventions (leur budget et leurs comptes doivent &ecirc;tre communiqu&eacute;s &agrave; toute personne qui en fait la demande). Elle impose en outre que toute subvention d&rsquo;un montant annuel sup&eacute;rieur &agrave; 23 000 euros donne lieu &agrave; une convention de subvention comportant les donn&eacute;es essentielles de la subvention. Alors que ces donn&eacute;es sont aujourd&rsquo;hui communicables sur demande, l&rsquo;article rendra obligatoire leur publication dans un standard ouvert et ais&eacute;ment r&eacute;utilisable. L&rsquo;article ouvre &eacute;galement la possibilit&eacute; de pr&eacute;voir une clause d&rsquo;open data plus large sur les donn&eacute;es issues de l&rsquo;activit&eacute; de l&rsquo;organisme subventionn&eacute;.</p>\r\n\r\n<p><strong>Exemple :</strong> les b&eacute;n&eacute;ficiaires, les montants et la dur&eacute;e des subventions vers&eacute;es par une commune ou un conseil d&eacute;partemental aux associations sportives ou culturelles de leur territoire, devront d&eacute;sormais &ecirc;tre diffus&eacute;s en ligne.</p>",
        "type": {
          "title": "Explication de l'article"
        }
      }
    ],
    "ranking": null,
    "is_trashed": false,
    "title": "Article 6 - Ouverture des données des subventions publiques",
    "votes_nok": 12,
    "votes_ok": 736,
    "votes_mitige": 29,
    "_links": {
      "show": "https://www.republique-numerique.fr/consultations/projet-de-loi-numerique/consultation/consultation/opinions/section-3-donnees-d-interet-general/article-6-ouverture-des-donnees-dans-les-conventions-de-subventions",
      "edit": "https://www.republique-numerique.fr/consultations/projet-de-loi-numerique/consultation/consultation/opinions/section-3-donnees-d-interet-general/article-6-ouverture-des-donnees-dans-les-conventions-de-subventions/edit",
      "report": "https://www.republique-numerique.fr/consultations/projet-de-loi-numerique/consultation/consultation/opinions/section-3-donnees-d-interet-general/article-6-ouverture-des-donnees-dans-les-conventions-de-subventions/report",
      "type": "https://www.republique-numerique.fr/consultations/projet-de-loi-numerique/consultation/consultation/opinions/section-3-donnees-d-interet-general"
    },
    "user_vote": null,
    "has_user_reported": false
  },
  "rankingThreshold": null,
  "opinionTerm": 1
}