{
  "opinion": {
    "isContribuable": false,
    "votes_total": 30,
    "arguments_yes_count": 0,
    "arguments_no_count": 0,
    "id": 465,
    "created_at": "2015-10-07T22:20:03+0200",
    "updated_at": "2015-10-07T22:20:03+0200",
    "body": "<h1>Pr&eacute;ambule</h1>\r\n\r\n<p>Les logiciels vis&eacute;s dans les articles ci-dessous sont tous les codes informatiques fournis lors de l&rsquo;achat ou associ&eacute;s &agrave; un bien mat&eacute;riel qu&rsquo;ils soient int&eacute;gr&eacute;s au bien lui-m&ecirc;me ou y soient associ&eacute;s. Cela comprend sans que cette liste soit exhaustive, les micrologiciels, pilotes de p&eacute;riph&eacute;riques, syst&egrave;mes d&rsquo;exploitation pr&eacute;-install&eacute;s, assistants de configuration.</p>\r\n\r\n<p>Toute d&eacute;faillance de s&eacute;curit&eacute; ou dysfonctionnement logiciels constat&eacute;s durant le cycle de vie d&rsquo;un bien mat&eacute;riel sont consid&eacute;r&eacute;s comme des vices cach&eacute;s. Ils doivent par cons&eacute;quent faire l&rsquo;objet de correction.</p>\r\n\r\n<h1>Forme des correctifs</h1>\r\n\r\n<p>La forme des correctifs fournis par le fabricant et les connaissances techniques et mat&eacute;riels annexes n&eacute;cessaires &agrave; leur mise en &oelig;uvre doivent &ecirc;tre compatible avec le niveau de comp&eacute;tence et de possession d&rsquo;outils moyens de la cible commerciale du bien mat&eacute;riel.</p>\r\n\r\n<p>La fourniture des correctifs et mises &agrave; jour aux clients finaux ne doit pas engendrer de frais autres que les co&ucirc;ts &eacute;ventuels de mise &agrave; disposition.</p>\r\n\r\n<p>La fourniture de correctifs peut s&rsquo;effectuer soit&nbsp;:</p>\r\n\r\n<ul>\r\n\t<li>\r\n\t<p>Par la mise &agrave; disposition de versions compl&egrave;tes des logiciels contenant les correctifs et venant remplacer compl&egrave;tement les &eacute;l&eacute;ments d&eacute;j&agrave; en place. Le syst&egrave;me de mise &agrave; disposition doit alors clairement indiquer quelle est la version la plus &agrave; jour.</p>\r\n\t</li>\r\n\t<li>\r\n\t<p>Par la mise &agrave; disposition de correctifs &eacute;l&eacute;mentaire apportant chacun une ou plusieurs corrections. Le syst&egrave;me de mise &agrave; disposition doit alors permettre au client de clairement identifier la liste des correctifs &agrave; appliquer et l&rsquo;ordre dans lequel le faire.</p>\r\n\t</li>\r\n</ul>\r\n\r\n<h1>Correctifs fonctionnels et normatifs</h1>\r\n\r\n<p>Le fabricant est tenu de mettre &agrave; disposition de ses clients finaux les correctifs de l&rsquo;ensemble des logiciels int&eacute;gr&eacute;s au dispositif vendu ou n&eacute;cessaire &agrave; son fonctionnement d&egrave;s lors qu&rsquo;une d&eacute;faillance fonctionnelle d&rsquo;un de ces &eacute;l&eacute;ments logiciels aura &eacute;t&eacute; port&eacute; &agrave; sa connaissance ou divulgu&eacute;e publiquement, dans un d&eacute;lai de six mois &agrave; compter de la communication de la d&eacute;faillance. Ceci de la date de commercialisation du produit jusqu&rsquo;au 2e anniversaire la fin de commercialisation + 1 mois par palier de 100&nbsp;&euro; du prix public moyen lors de la mise sur la march&eacute;. La correction des fonctions et de leurs effets s&rsquo;entendent dans la limite des capacit&eacute;s du mat&eacute;riel.</p>\r\n\r\n<p>Pour tout objet utilisant ou participant &agrave; un r&eacute;seau de communications &eacute;lectroniques, le fabricant doit mettre &agrave; disposition, au moins une fois par an, aupr&egrave;s des clients finaux, les correctifs des logiciels int&eacute;gr&eacute;s au dispositif ou n&eacute;cessaires au fonctionnement du produit prenant en compte l&rsquo;&eacute;volution des normes et standards &eacute;dict&eacute;s par les organismes normalisateurs de ces r&eacute;seaux de communications &eacute;lectroniques. La prise en compte des normes et de leurs &eacute;volutions s&rsquo;entend dans la limite des capacit&eacute;s du mat&eacute;riel.</p>\r\n\r\n<p>Les mises &agrave; jour correctives et normatives ci-dessus ne sont pas exclusives de la fourniture, on&eacute;reuse ou non, de nouvelles versions des logiciels int&eacute;gr&eacute;s ou n&eacute;cessaires au fonctionnement du dispositif si ces derni&egrave;res apportent de nouvelles fonctions au produit non pr&eacute;sentes ni annonc&eacute;es dans les versions ant&eacute;rieures. Les obligations pr&eacute;c&eacute;dentes s&rsquo;appliquent alors &agrave; toutes les versions commercialis&eacute;es.</p>\r\n\r\n<h1>Mises &agrave; jour de s&eacute;curit&eacute;</h1>\r\n\r\n<p>Le fabricant est tenu de mettre &agrave; disposition des clients finaux une version exempte de d&eacute;fauts de s&eacute;curit&eacute; connus de l&rsquo;ensemble des logiciels int&eacute;gr&eacute;s au dispositif vendu ou n&eacute;cessaires &agrave; son fonctionnement d&egrave;s lors qu&rsquo;un d&eacute;faut de s&eacute;curit&eacute; d&rsquo;un de ses &eacute;l&eacute;ments aura &eacute;t&eacute; port&eacute; &agrave; sa connaissance ou divulgu&eacute; publiquement dans un d&eacute;lai de trois mois &agrave; compter de la communication du d&eacute;faut. Ceci de la date de premi&egrave;re commercialisation du produit, jusqu&rsquo;au 4e anniversaire de la fin de commercialisation + 2 mois par palier de 100&nbsp;&euro; du prix public moyen lors de la mise sur la march&eacute;.</p>\r\n\r\n<p>Au cas o&ugrave; le d&eacute;faut de s&eacute;curit&eacute; aurait pour effet direct ou indirect, de porter atteinte &agrave; l&rsquo;int&eacute;grit&eacute; physique de l&rsquo;utilisateur ou de tiers, le fabricant doit en outre dans un d&eacute;lai d&rsquo;un mois &agrave; compter de la prise de connaissance ou divulgation du d&eacute;faut informer par tout moyen &agrave; sa disposition les acheteurs du risque et des moyens de faire cesser imm&eacute;diatement le danger. Ce moyen pouvant &ecirc;tre en dernier recours l&rsquo;arr&ecirc;t de l&rsquo;utilisation du produit dans l&rsquo;attente d&rsquo;une mise &agrave; jour. Cette obligation d&rsquo;information est valable jusqu&rsquo;au 5e anniversaire de la fin de commercialisation du produit + 3 mois par palier de 100&nbsp;&euro; du prix public moyen lors de la mise sur la march&eacute;.</p>\r\n\r\n<h1>STAD distant</h1>\r\n\r\n<p>our tout mat&eacute;riel dont le fonctionnement n&eacute;cessite un STAD distant, le fabricant devra s&rsquo;assurer que ce dernier est conforme aux r&egrave;gles en vigueur en France, notamment la loi &laquo;&nbsp;informatique et libert&eacute;&nbsp;&raquo;. Le STAD devra &ecirc;tre maintenu en fonctionnement au minimum jusqu&rsquo;au 2e anniversaire de la fin de commercialisation du bien mat&eacute;riel + 1 mois par palier de 100&nbsp;&euro; du prix public moyen lors de la mise sur le march&eacute;.</p>\r\n\r\n<p>En cas d&rsquo;impossibilit&eacute; de maintenir en &eacute;tat de fonctionnement le STAD jusqu&rsquo;&agrave; cette date, des correctifs visant &agrave; permettre la configuration de la destination des communications du bien mat&eacute;riel avec un STAD distant devront &ecirc;tre diffus&eacute;s aupr&egrave;s des clients finaux. L&rsquo;int&eacute;gralit&eacute; des protocoles de communication du bien mat&eacute;riel avec un STAD assurant son fonctionnement devront &eacute;galement &ecirc;tre diffus&eacute;s sous une licence permettant leur r&eacute;utilisation sans contraintes par un tiers.</p>\r\n\r\n<p>Les clients devront &ecirc;tre inform&eacute;s au moins 1 an avant la fermeture du STAD et le fabricant devra leur donner le moyen de reprendre possession de l&rsquo;int&eacute;gralit&eacute; de leurs donn&eacute;es pr&eacute;sentes sur le STAD pendant cette p&eacute;riode.</p>\r\n\r\n<h1>Exceptions</h1>\r\n\r\n<p>Le fabricant n&rsquo;est pas tenu de fournir de correctifs fonctionnels et normatifs des logiciels s&rsquo;il respecte toutes les conditions suivantes&nbsp;:</p>\r\n\r\n<ul>\r\n\t<li>\r\n\t<p>Les logiciels fournis (int&eacute;gr&eacute;s au mat&eacute;riel ou n&eacute;cessaires au fonctionnement) sont libres. C&rsquo;est-&agrave;-dire que la licence ou le contrat d&rsquo;utilisation garantie &agrave; l&rsquo;utilisateur final les droits suivants&nbsp;: la libert&eacute; d&rsquo;ex&eacute;cuter le programme, pour tous les usages&nbsp;; la libert&eacute; d&rsquo;&eacute;tudier le fonctionnement du programme et de l&rsquo;adapter &agrave; ses besoins&nbsp;; la libert&eacute; de redistribuer des copies du programme (ce qui implique la possibilit&eacute; aussi bien de donner que de vendre des copies)&nbsp;; la libert&eacute; d&rsquo;am&eacute;liorer le programme et de distribuer ces am&eacute;liorations au public, pour en faire profiter toute la communaut&eacute;.</p>\r\n\t</li>\r\n\t<li>\r\n\t<p>Le fabricant anime, soutient et participe activement &agrave; une communaut&eacute; d&rsquo;utilisateurs afin que celle-ci soit en mesure de fournir les correctifs dans les d&eacute;lais impos&eacute;s.</p>\r\n\t</li>\r\n\t<li>\r\n\t<p>Le fabricant identifie une version officielle des logiciels dont les correctifs sont fournis par la communaut&eacute; qu&rsquo;il soutient.</p>\r\n\t</li>\r\n\t<li>\r\n\t<p>Le fabricant ne met pas d&rsquo;entrave &agrave; l&rsquo;utilisation de logiciels non officiels sur son mat&eacute;riel ou associ&eacute;s &agrave; celui-ci.</p>\r\n\t</li>\r\n</ul>\r\n\r\n<p>Le fabricant n&rsquo;est pas tenu de fournir de correctifs de s&eacute;curit&eacute; d&rsquo;une partie des logiciels si ceux-ci respectent outre les conditions ci-dessus, toutes les conditions suivantes&nbsp;:</p>\r\n\r\n<ul>\r\n\t<li>\r\n\t<p>Les &eacute;l&eacute;ments logiciels pr&eacute;sentant des d&eacute;fauts de s&eacute;curit&eacute; sont issus de tiers et sont int&eacute;gr&eacute;s sans modifications.</p>\r\n\t</li>\r\n\t<li>\r\n\t<p>L&rsquo;&eacute;diteur de ces &eacute;l&eacute;ments logiciels fournit des correctifs.</p>\r\n\t</li>\r\n\t<li>\r\n\t<p>L&rsquo;application des correctifs n&rsquo;a pas d&rsquo;impact autre que la correction des d&eacute;fauts de s&eacute;curit&eacute; vis&eacute;s.</p>\r\n\t</li>\r\n\t<li>\r\n\t<p>La communaut&eacute; d&rsquo;utilisateurs soutenue par le fabricant est en capacit&eacute; de diffuser une version des logiciels contenant ses correctifs.</p>\r\n\t</li>\r\n</ul>\r\n\r\n<p>Le fabricant n&rsquo;est pas tenu de fournir de correctifs pour les logiciels pr&eacute;install&eacute;s interchangeables dont la maintenance est transf&eacute;r&eacute;e &agrave; l&rsquo;&eacute;diteur de ces derniers &agrave; condition que l&rsquo;&eacute;diteur soit identifiable sans ambigu&iuml;t&eacute; par les clients et en capacit&eacute; d&rsquo;assurer la fourniture des correctifs.</p>\r\n\r\n<p>En cas de cessation d&rsquo;activit&eacute;, le fabricant n&rsquo;est plus tenu de fournir de correctifs, il devra cependant informer les clients finaux de sa cessation d&rsquo;activit&eacute; et de son incapacit&eacute; future &agrave; fournir des correctifs. Il lui est possible de transf&eacute;rer la responsabilit&eacute; de la fourniture des correctifs &agrave; un &eacute;diteur tiers ou de placer les &eacute;l&eacute;ments logiciels sous licence libre et les transmettre &agrave; une communaut&eacute; d&rsquo;utilisateurs.</p>\r\n\r\n<p>Le fabricant n&rsquo;est pas tenu de maintenir un STAD distant &agrave; condition que ce dernier ne prenne en charge que des fonctionnalit&eacute;s mineures du bien et que l&rsquo;utilisateur ait la possibilit&eacute; d&rsquo;utiliser le STAD de son choix pour assurer ces fonctionnalit&eacute;s et qu&rsquo;il ait &agrave; tout moment le moyen de rapatrier ses donn&eacute;es. Les clients devront cependant &ecirc;tre inform&eacute;s au moins 1 an avant la fermeture d&rsquo;un STAD g&eacute;r&eacute; par le fabricant du produit.</p>",
    "versions_count": 0,
    "sources_count": 0,
    "arguments_count": 0,
    "author": {
      "username": "Landry MINOZA",
      "displayName": "Landry MINOZA",
      "uniqueId": "landryminoza",
      "isAdmin": false,
      "media": {
        "url": "/media/cache/default_avatar/default/0001/01/440_default_avatar.svg"
      },
      "vip": false,
      "_links": {
        "profile": "https://www.republique-numerique.fr/profile/landryminoza",
        "settings": "https://www.republique-numerique.fr/profile/edit-profile"
      }
    },
    "type": {
      "id": 97,
      "title": "Section 4",
      "subtitle": "Information des consommateurs",
      "voteWidgetType": 2,
      "votesHelpText": "Pensez-vous que cette proposition permet d'atteindre les objectifs présentés dans l’explication de l’article ?",
      "commentSystem": 2,
      "color": "blue",
      "versionable": true,
      "sourceable": true,
      "votesThreshold": null,
      "votesThresholdHelpText": null
    },
    "sources": [],
    "arguments": [],
    "modals": [],
    "votes": [
      {
        "user": {
          "username": "Emmanuel Florac",
          "displayName": "Emmanuel Florac",
          "uniqueId": "emmanuelflorac",
          "isAdmin": false,
          "media": null,
          "vip": false,
          "_links": {
            "profile": "https://www.republique-numerique.fr/profile/emmanuelflorac",
            "settings": "https://www.republique-numerique.fr/profile/edit-profile"
          }
        }
      },
      {
        "user": {
          "username": "nicole ciry",
          "displayName": "nicole ciry",
          "uniqueId": "nicoleciry",
          "isAdmin": false,
          "media": null,
          "vip": false,
          "_links": {
            "profile": "https://www.republique-numerique.fr/profile/nicoleciry",
            "settings": "https://www.republique-numerique.fr/profile/edit-profile"
          }
        }
      },
      {
        "user": {
          "username": "Laurent Espitallier",
          "displayName": "Laurent Espitallier",
          "uniqueId": "laurentespitallier",
          "isAdmin": false,
          "media": null,
          "vip": false,
          "_links": {
            "profile": "https://www.republique-numerique.fr/profile/laurentespitallier",
            "settings": "https://www.republique-numerique.fr/profile/edit-profile"
          }
        }
      },
      {
        "user": {
          "username": "Vincent Reverdy",
          "displayName": "Vincent Reverdy",
          "uniqueId": "vincentreverdy",
          "isAdmin": false,
          "media": {
            "url": "/media/cache/default_avatar/default/0001/01/268_default_avatar.jpg"
          },
          "vip": false,
          "_links": {
            "profile": "https://www.republique-numerique.fr/profile/vincentreverdy",
            "settings": "https://www.republique-numerique.fr/profile/edit-profile"
          }
        }
      },
      {
        "user": {
          "username": "Loïc Dayot",
          "displayName": "Loïc Dayot",
          "uniqueId": "loicdayot",
          "isAdmin": false,
          "media": {
            "url": "/media/cache/default_avatar/default/0001/01/519_default_avatar.jpg"
          },
          "vip": false,
          "_links": {
            "profile": "https://www.republique-numerique.fr/profile/loicdayot",
            "settings": "https://www.republique-numerique.fr/profile/edit-profile"
          }
        }
      }
    ],
    "appendices": [
      {
        "body": "<h1>Introduction</h1>\r\n\r\n<p>Nous assistons &agrave; une augmentation rapide de la commercialisation de biens mat&eacute;riels int&eacute;grant du code logiciel et pour une partie capable de communiquer sur les r&eacute;seaux &eacute;lectroniques, dits &laquo;&nbsp;objets intelligents&nbsp;&raquo; ou &laquo;&nbsp;objets connect&eacute;s&nbsp;&raquo;.</p>\r\n\r\n<p>Or, il appara&icirc;t que beaucoup de ces objets pr&eacute;sentent lors de leur commercialisation initiale ou durant leur dur&eacute;e de vie attendue, des d&eacute;faillances logicielles qui peuvent &ecirc;tre cat&eacute;goris&eacute;es en trois types&nbsp;:</p>\r\n\r\n<ul>\r\n\t<li>\r\n\t<p>Probl&egrave;mes de s&eacute;curit&eacute;. Il s&rsquo;agit d&rsquo;erreurs de conception ou de mises en &oelig;uvre pouvant entra&icirc;ner soit un danger physique lors de l&rsquo;utilisation du bien, soit permettre ou faciliter l&rsquo;acc&egrave;s et le maintien frauduleux dans un STAD (Syst&egrave;me de Traitement Automatis&eacute; de Donn&eacute;es). Ce dernier pouvant &ecirc;tre l&rsquo;objet lui-m&ecirc;me, appartenir au propri&eacute;taire de l&rsquo;objet ou &agrave; un tiers.</p>\r\n\t</li>\r\n\t<li>\r\n\t<p>Incompatibilit&eacute;s des fonctions de l&rsquo;objet avec ce qui peut en &ecirc;tre raisonnablement attendu ou avec les r&eacute;seaux de communication &eacute;lectroniques auxquels il doit se connecter pour assurer pleinement ces fonctions en raison d&rsquo;erreurs logicielles ou de non-respect des normes et standards des r&eacute;seaux de communication &eacute;lectroniques et de leurs &eacute;volutions.</p>\r\n\t</li>\r\n\t<li>\r\n\t<p>Arr&ecirc;t ou d&eacute;faillances, non anticipables pour le consommateur, des STAD appartenant au vendeur ou ses partenaires et indispensables au fonctionnement complet du bien (cloud).</p>\r\n\t</li>\r\n</ul>\r\n\r\n<p>Les normes et standards soutenant les r&eacute;seaux de communication &eacute;lectroniques &eacute;voluent dans le temps afin de prendre en compte les nouveaux usages, corriger les d&eacute;fauts de s&eacute;curit&eacute; et am&eacute;liorer la qualit&eacute; de ces r&eacute;seaux. La pr&eacute;sence dans ces r&eacute;seaux d&rsquo;&eacute;l&eacute;ments ne suivant pas ces &eacute;volutions ou ne prenant en compte qu&rsquo;une partie minimale des normes ralentissent consid&eacute;rablement les &eacute;volutions des r&eacute;seaux, limitent les innovations et font peser des risques sur l&rsquo;ensemble des acteurs. Ce ph&eacute;nom&egrave;ne est connu sous le nom d&rsquo;ossification d&rsquo;Internet.</p>\r\n\r\n<p>Le remplacement des logiciels int&eacute;gr&eacute;s &agrave; des biens vendus est souvent, volontairement ou non, rendu complexe voir impossible &agrave; r&eacute;aliser par le propri&eacute;taire du bien. Par exemple, en imposant la possession de mat&eacute;riel de connexion co&ucirc;teux et souvent accessible uniquement &agrave; des professionnels partenaires du vendeur.</p>\r\n\r\n<p>Les exemples m&eacute;diatis&eacute;s de telles d&eacute;faillances sont nombreux et courants nous pouvons citer&nbsp;:</p>\r\n\r\n<ul>\r\n\t<li>\r\n\t<p>Des v&eacute;hicules automobiles dont il a &eacute;t&eacute; d&eacute;montr&eacute; que des &eacute;l&eacute;ments de s&eacute;curit&eacute; indispensables (les freins) pouvaient &ecirc;tre d&eacute;sactiv&eacute;s &agrave; distance. De plus, le probl&egrave;me &eacute;tait connu de longue date du constructeur et le manque de facilit&eacute; de remplacement du logiciel a impos&eacute; un rappel du mod&egrave;le concern&eacute;.</p>\r\n\t</li>\r\n\t<li>\r\n\t<p>Plus anecdotique, des r&eacute;frig&eacute;rateurs dits intelligents ont pu &ecirc;tre contr&ocirc;l&eacute;s &agrave; distance au travers d&rsquo;Internet et enr&ocirc;l&eacute;s &agrave; l&rsquo;insu de leurs propri&eacute;taires dans des r&eacute;seaux d&rsquo;envoi massif de messages non sollicit&eacute;s.</p>\r\n\t</li>\r\n\t<li>\r\n\t<p>Il est fr&eacute;quent que des appareils (disques durs en r&eacute;seau, commutateurs, routeurs ou &laquo;&nbsp;boxes&nbsp;&raquo; vendues par les fournisseurs d&rsquo;acc&egrave;s, cam&eacute;ras de s&eacute;curit&eacute;&hellip;) ne soient plus compatibles avec le reste des &eacute;quipements de l&rsquo;utilisateur quelques mois apr&egrave;s leur acquisition, parfois au point o&ugrave; les fonctions ayant entra&icirc;n&eacute; l&rsquo;acte d&rsquo;achat ne soient plus utilisables. Ces biens font &eacute;galement fr&eacute;quemment l&rsquo;objet de d&eacute;faut de s&eacute;curit&eacute; comme la pr&eacute;sence d&rsquo;acc&egrave;s non document&eacute;s, non d&eacute;sactivables ou non s&eacute;curisables (changement du mot de passe) menant &agrave; une utilisation malveillante&nbsp;: utilisation de la connexion de l&rsquo;utilisateur pour des intrusions et maintient dans des STAD, divulgation des donn&eacute;es priv&eacute;es de l&rsquo;utilisateur sur les r&eacute;seaux de communications &eacute;lectroniques, chantage et racket de l&rsquo;utilisateur suite &agrave; l&rsquo;obtention ou la s&eacute;questration de ses donn&eacute;es priv&eacute;es.</p>\r\n\t</li>\r\n\t<li>\r\n\t<p>Un certain nombre d&rsquo;appareils voient leurs fonctions principales g&eacute;r&eacute;es par un STAD n&rsquo;appartenant pas &agrave; l&rsquo;utilisateur, l&rsquo;objet n&rsquo;&eacute;tant alors qu&rsquo;un relais d&rsquo;information. L&rsquo;arr&ecirc;t du STAD distant suite &agrave; une d&eacute;cision du vendeur, sa faillite ou toute autre cause prive r&eacute;guli&egrave;rement les utilisateurs de tels appareils des fonctions ayant entra&icirc;n&eacute; l&rsquo;acte d&rsquo;achat.</p>\r\n\t</li>\r\n</ul>\r\n\r\n<p>L&rsquo;ensemble de ses d&eacute;faillances d&rsquo;origine logicielles sont &eacute;vitables ou peuvent &ecirc;tre corrig&eacute;es par la mise &agrave; disposition des clients de mises &agrave; jour des programmes int&eacute;gr&eacute;s &agrave; ces biens ou fournis avec ceux-ci et n&eacute;cessaires &agrave; leur mise en &oelig;uvre, leur fonctionnement ou leur int&eacute;gration &agrave; un r&eacute;seau de communications &eacute;lectroniques.</p>\r\n\r\n<h1>D&eacute;finitions</h1>\r\n\r\n<p><strong>Logiciel</strong>&nbsp;: ensemble de s&eacute;quences d&rsquo;instructions interpr&eacute;tables par une machine et d&rsquo;un jeu de donn&eacute;es n&eacute;cessaires &agrave; ces op&eacute;rations. Le logiciel d&eacute;termine donc les t&acirc;ches qui peuvent &ecirc;tre effectu&eacute;es par la machine, ordonne son fonctionnement et lui procure ainsi son utilit&eacute; fonctionnelle. Les s&eacute;quences d&rsquo;instructions appel&eacute;es programmes ainsi que les donn&eacute;es du logiciel sont ordinairement structur&eacute;es en fichiers. La mise en &oelig;uvre des instructions du logiciel est appel&eacute;e ex&eacute;cution. (Source Wikip&eacute;dia).</p>\r\n\r\n<p><strong>Logiciel libre</strong>&nbsp;: un logiciel est dit libre si le contrat de licence associ&eacute; garantie &agrave; l&rsquo;acqu&eacute;reur les droits suivants&nbsp;:</p>\r\n\r\n<ol start=\"0\">\r\n\t<li>\r\n\t<p>la libert&eacute; d&rsquo;ex&eacute;cuter le programme, pour tous les usages&nbsp;;</p>\r\n\t</li>\r\n\t<li>\r\n\t<p>la libert&eacute; d&rsquo;&eacute;tudier le fonctionnement du programme et de l&rsquo;adapter &agrave; ses besoins&nbsp;;</p>\r\n\t</li>\r\n\t<li>\r\n\t<p>la libert&eacute; de redistribuer des copies du programme (ce qui implique la possibilit&eacute; aussi bien de donner que de vendre des copies)&nbsp;;</p>\r\n\t</li>\r\n\t<li>\r\n\t<p>la libert&eacute; d&rsquo;am&eacute;liorer le programme et de distribuer ces am&eacute;liorations au public, pour en faire profiter toute la communaut&eacute;.</p>\r\n\t</li>\r\n</ol>\r\n\r\n<p>L&rsquo;acc&egrave;s au code source est une condition d&rsquo;exercice des libert&eacute;s 1 et 3.</p>\r\n\r\n<p>(Source Wikip&eacute;dia)</p>\r\n\r\n<p><strong>Fabricant, constructeur</strong>&nbsp;: personne morale &agrave; l&rsquo;origine de la commercialisation d&rsquo;un bien, qui y appose sa marque. Les revendeurs ne sont pas consid&eacute;r&eacute;s sauf s&rsquo;ils apportent des modifications au bien mat&eacute;riel ou aux logiciels l&rsquo;accompagnant.</p>\r\n\r\n<p><strong>Client</strong>&nbsp;: personne physique ou morale ayant acquis le bien mat&eacute;riel afin d&rsquo;en faire usage selon les fonctions publi&eacute;es.</p>\r\n\r\n<p>Fonctionnalit&eacute;&nbsp;: toute t&acirc;che effectu&eacute;e par le bien mat&eacute;riel et pr&eacute;vue dans la documentation l&rsquo;accompagnant ou dont il est fait publicit&eacute; par le constructeur.</p>\r\n\r\n<p><strong>STAD</strong>&nbsp;: syst&egrave;me de traitement automatis&eacute; de donn&eacute;es.</p>",
        "type": {
          "title": "Explication de l'article"
        }
      }
    ],
    "ranking": 177,
    "is_trashed": false,
    "title": "Protection des consommateurs, lutte contre l’obsolescence programmée et encouragement de l’innovation.",
    "votes_nok": 0,
    "votes_ok": 30,
    "votes_mitige": 0,
    "_links": {
      "show": "https://www.republique-numerique.fr/consultations/projet-de-loi-numerique/consultation/consultation/opinions/section-4-information-des-consommateurs/protection-des-consommateurs-lutte-contre-l-obsolescence-programmee-et-encouragement-de-l-innovation",
      "edit": "https://www.republique-numerique.fr/consultations/projet-de-loi-numerique/consultation/consultation/opinions/section-4-information-des-consommateurs/protection-des-consommateurs-lutte-contre-l-obsolescence-programmee-et-encouragement-de-l-innovation/edit",
      "report": "https://www.republique-numerique.fr/consultations/projet-de-loi-numerique/consultation/consultation/opinions/section-4-information-des-consommateurs/protection-des-consommateurs-lutte-contre-l-obsolescence-programmee-et-encouragement-de-l-innovation/report",
      "type": "https://www.republique-numerique.fr/consultations/projet-de-loi-numerique/consultation/consultation/opinions/section-4-information-des-consommateurs"
    },
    "user_vote": null,
    "has_user_reported": false
  },
  "rankingThreshold": null,
  "opinionTerm": 1
}