{
  "opinion": {
    "isContribuable": false,
    "votes_total": 529,
    "arguments_yes_count": 6,
    "arguments_no_count": 0,
    "id": 394,
    "created_at": "2015-10-02T18:10:58+0200",
    "updated_at": "2015-10-02T18:19:50+0200",
    "body": "<p>&laquo; I.-Les agents de l&#39;Etat investis d&#39;une mission de recherche, auteurs, dans le cadre de recherches<br />\r\nfinanc&eacute;es par des dotations de l&#39;Etat et des collectivit&eacute;s territoriales ou par des subventions d&#39;agences<br />\r\npubliques de financement nationales ou internationales, d&#39;une publication scientifique doivent la d&eacute;poser<br />\r\ndans l&#39;archive institutionnelle de leur &eacute;tablissement ou dans l&#39;archive nationale HAL d&egrave;s la date de premi&egrave;re publication. Les &eacute;tablissements gestionnaires des archives ouvertes o&ugrave; a &eacute;t&eacute; effectu&eacute; le d&eacute;p&ocirc;t assurent la diffusion publique des publications scientifiques dans le respect des conditions pr&eacute;vues &agrave; l&#39;article L. 533-4 du code de la recherche. &raquo;</p>",
    "versions_count": 3,
    "sources_count": 2,
    "arguments_count": 6,
    "author": {
      "username": "Consortium COUPERIN",
      "displayName": "Consortium COUPERIN",
      "uniqueId": "consortiumcouperin",
      "isAdmin": false,
      "media": {
        "url": "/media/cache/default_avatar/default/0001/01/368_default_avatar.jpg"
      },
      "vip": false,
      "_links": {
        "profile": "https://www.republique-numerique.fr/profile/consortiumcouperin",
        "settings": "https://www.republique-numerique.fr/profile/edit-profile"
      }
    },
    "type": {
      "id": 91,
      "title": "Section 2",
      "subtitle": "Travaux de recherche et de statistique",
      "voteWidgetType": 2,
      "votesHelpText": "Pensez-vous que cette proposition permet d'atteindre les objectifs présentés dans l’explication de l’article ?",
      "commentSystem": 2,
      "color": "blue",
      "versionable": true,
      "sourceable": true,
      "votesThreshold": null,
      "votesThresholdHelpText": null
    },
    "sources": [
      {
        "isContribuable": false,
        "id": 260,
        "title": "Proposal for wiki based free-open journals",
        "link": "https://hal.archives-ouvertes.fr/hal-01181142v1",
        "body": "Proposition de schéma de publication scientifique hors circuit propriétaire sur la base des technologies existantes.\n(part de mes travaux sur l'ACV)\n\nLes explorations et expérimentations sont à suivre aux liens suivants :\nhttps://fr.wikiversity.org/wiki/Projet:Journal_scientifique_libre (débat préalable : https://fr.wikiversity.org/wiki/Projet:Wikiversit%C3%A9/Journal_scientifique_libre)\nPour ma thématique (\"Écologie industrielle et Évaluation environnementale\")\nhttp://enipedia.tudelft.nl/wiki/Portal:wiki-based_free_open_journals",
        "created_at": "2015-10-10T14:59:34+0200",
        "updated_at": "2015-10-10T14:59:34+0200",
        "author": {
          "username": "Rudy Patard",
          "displayName": "Rudy Patard",
          "uniqueId": "rudypatard",
          "isAdmin": false,
          "media": null,
          "vip": false,
          "_links": {
            "profile": "https://www.republique-numerique.fr/profile/rudypatard",
            "settings": "https://www.republique-numerique.fr/profile/edit-profile"
          }
        },
        "category": "Autre",
        "votes_count": 1,
        "_links": {
          "edit": "https://www.republique-numerique.fr/consultations/projet-de-loi-numerique/consultation/consultation/opinions/section-2-travaux-de-recherche-et-de-statistique/pour-une-obligation-de-depot-des-publications-scientifiques-dans-une-archive-ouverte/sources/proposal-for-wiki-based-free-open-journals/edit",
          "report": "https://www.republique-numerique.fr/consultations/projet-de-loi-numerique/consultation/consultation/opinions/section-2-travaux-de-recherche-et-de-statistique/pour-une-obligation-de-depot-des-publications-scientifiques-dans-une-archive-ouverte/sources/proposal-for-wiki-based-free-open-journals/report"
        },
        "has_user_voted": false,
        "has_user_reported": false
      },
      {
        "isContribuable": false,
        "id": 259,
        "title": "The Liège ORBi model: Mandatory policy without rights retention but linked to assessment processes",
        "link": "http://orbi.ulg.ac.be/handle/2268/102031",
        "body": "Présentation du modèle de liège.\nAbstract:\nThe decision to build an institutional repository at the University of Liège was taken in 2005. It took 3 years to prepare for a faultless start in November 2008. A strong communication campaign conveyed the Open Access concept to the ULg research community. A name was coined to personalise the concept : ORBi (Open Repository and Bibliography, http://orbi.ulg.ac.be/), suggesting an improved worldwide audience. A special effort in internal communication was devoted to acceptance of the mandate. It appeared essential to make it plain that ORBi would offer an unprecedented increase in readership, but that it would only be valuable if all ULg members would abide by the new rules.\nAny mandate needs some coercitive persuasion. Rather than resting on advocacy, we linked internal assessment to the scientific production stored in ORBi. Those applying for promotion have no choice but to file all their production in full text. This created waves of progression.\nSince then, evidence for a much increased readership (about twice, http://opcit.eprints.org/) has transformed the early participants in strong advocates of the repository. 68,000 items have been filed, 41,000 (60,2%) with full text (only mandatory for documents published later that 2002). According to ROAR (http://roar.eprints.org ), out of 1,568 IRs, ORBi comes 27th for the number of references, 15th for « high activity level » and 1st for « medium activity level » (number of days with 10-99 deposits/day).\nORBi is now considered a success by almost all ULg members. Its advantages to individual authors have become a better incentive than the mandate itself.",
        "created_at": "2015-10-10T14:54:34+0200",
        "updated_at": "2015-10-10T14:54:34+0200",
        "author": {
          "username": "Rudy Patard",
          "displayName": "Rudy Patard",
          "uniqueId": "rudypatard",
          "isAdmin": false,
          "media": null,
          "vip": false,
          "_links": {
            "profile": "https://www.republique-numerique.fr/profile/rudypatard",
            "settings": "https://www.republique-numerique.fr/profile/edit-profile"
          }
        },
        "category": "Article scientifique",
        "votes_count": 0,
        "_links": {
          "edit": "https://www.republique-numerique.fr/consultations/projet-de-loi-numerique/consultation/consultation/opinions/section-2-travaux-de-recherche-et-de-statistique/pour-une-obligation-de-depot-des-publications-scientifiques-dans-une-archive-ouverte/sources/the-liege-orbi-model-mandatory-policy-without-rights-retention-but-linked-to-assessment-processes/edit",
          "report": "https://www.republique-numerique.fr/consultations/projet-de-loi-numerique/consultation/consultation/opinions/section-2-travaux-de-recherche-et-de-statistique/pour-une-obligation-de-depot-des-publications-scientifiques-dans-une-archive-ouverte/sources/the-liege-orbi-model-mandatory-policy-without-rights-retention-but-linked-to-assessment-processes/report"
        },
        "has_user_voted": false,
        "has_user_reported": false
      }
    ],
    "arguments": [
      {
        "isContribuable": false,
        "id": 4603,
        "body": "c'est très bien sur le principe, mais \"l'obligation\" me semble de trop, surtout si ça signifie être accompagné de conséquences (administratives? légales?). On pourrait imaginer que l'administration/l'institution s'en charge, plutôt que de prendre encore du temps au chercheur... ",
        "created_at": "2015-10-16T11:25:14+0200",
        "updated_at": "2015-10-16T11:25:14+0200",
        "is_enabled": true,
        "votes_count": 0,
        "type": 1,
        "is_trashed": false,
        "author": {
          "username": "Hatt Mathieu",
          "displayName": "Hatt Mathieu",
          "uniqueId": "hattmathieu",
          "isAdmin": false,
          "media": null,
          "vip": false,
          "_links": {
            "profile": "https://www.republique-numerique.fr/profile/hattmathieu",
            "settings": "https://www.republique-numerique.fr/profile/edit-profile"
          }
        },
        "_links": {
          "show": "https://www.republique-numerique.fr/consultations/projet-de-loi-numerique/consultation/consultation/opinions/section-2-travaux-de-recherche-et-de-statistique/pour-une-obligation-de-depot-des-publications-scientifiques-dans-une-archive-ouverte#arg-4603",
          "edit": "https://www.republique-numerique.fr/consultations/projet-de-loi-numerique/consultation/consultation/opinions/section-2-travaux-de-recherche-et-de-statistique/pour-une-obligation-de-depot-des-publications-scientifiques-dans-une-archive-ouverte/arguments/4603/edit",
          "report": "https://www.republique-numerique.fr/consultations/projet-de-loi-numerique/consultation/consultation/opinions/section-2-travaux-de-recherche-et-de-statistique/pour-une-obligation-de-depot-des-publications-scientifiques-dans-une-archive-ouverte/arguments/4603/report"
        },
        "has_user_voted": false,
        "has_user_reported": false
      },
      {
        "isContribuable": false,
        "id": 3905,
        "body": "Réuni le 13 octobre 2015, le conseil d'administration de l'université Jean Moulin Lyon 3 a décidé d'apporter le soutien de l'établissement aux trois propositions d'amélioration du texte de projet de loi portées par le consortium Couperin.",
        "created_at": "2015-10-14T14:45:07+0200",
        "updated_at": "2015-10-14T14:45:07+0200",
        "is_enabled": true,
        "votes_count": 2,
        "type": 1,
        "is_trashed": false,
        "author": {
          "username": "Université Jean Moulin Lyon 3",
          "displayName": "Université Jean Moulin Lyon 3",
          "uniqueId": "universitejeanmoulinlyon3",
          "isAdmin": false,
          "media": {
            "url": "/media/cache/default_avatar/default/0001/01/670_default_avatar.jpg"
          },
          "vip": false,
          "_links": {
            "profile": "https://www.republique-numerique.fr/profile/universitejeanmoulinlyon3",
            "settings": "https://www.republique-numerique.fr/profile/edit-profile"
          }
        },
        "_links": {
          "show": "https://www.republique-numerique.fr/consultations/projet-de-loi-numerique/consultation/consultation/opinions/section-2-travaux-de-recherche-et-de-statistique/pour-une-obligation-de-depot-des-publications-scientifiques-dans-une-archive-ouverte#arg-3905",
          "edit": "https://www.republique-numerique.fr/consultations/projet-de-loi-numerique/consultation/consultation/opinions/section-2-travaux-de-recherche-et-de-statistique/pour-une-obligation-de-depot-des-publications-scientifiques-dans-une-archive-ouverte/arguments/3905/edit",
          "report": "https://www.republique-numerique.fr/consultations/projet-de-loi-numerique/consultation/consultation/opinions/section-2-travaux-de-recherche-et-de-statistique/pour-une-obligation-de-depot-des-publications-scientifiques-dans-une-archive-ouverte/arguments/3905/report"
        },
        "has_user_voted": false,
        "has_user_reported": false
      },
      {
        "isContribuable": false,
        "id": 3259,
        "body": "Tout à fait pour. Il serait cependant souhaitable de n'être pas trop franco-francais en contraignant moins la liste des archives autorisées (par ex. ne pas éliminer arxiv).",
        "created_at": "2015-10-12T10:45:28+0200",
        "updated_at": "2015-10-12T10:45:28+0200",
        "is_enabled": true,
        "votes_count": 0,
        "type": 1,
        "is_trashed": false,
        "author": {
          "username": "Nicolas M. Thiéry",
          "displayName": "Nicolas M. Thiéry",
          "uniqueId": "nicolasmthiery",
          "isAdmin": false,
          "media": null,
          "vip": false,
          "_links": {
            "profile": "https://www.republique-numerique.fr/profile/nicolasmthiery",
            "settings": "https://www.republique-numerique.fr/profile/edit-profile"
          }
        },
        "_links": {
          "show": "https://www.republique-numerique.fr/consultations/projet-de-loi-numerique/consultation/consultation/opinions/section-2-travaux-de-recherche-et-de-statistique/pour-une-obligation-de-depot-des-publications-scientifiques-dans-une-archive-ouverte#arg-3259",
          "edit": "https://www.republique-numerique.fr/consultations/projet-de-loi-numerique/consultation/consultation/opinions/section-2-travaux-de-recherche-et-de-statistique/pour-une-obligation-de-depot-des-publications-scientifiques-dans-une-archive-ouverte/arguments/3259/edit",
          "report": "https://www.republique-numerique.fr/consultations/projet-de-loi-numerique/consultation/consultation/opinions/section-2-travaux-de-recherche-et-de-statistique/pour-une-obligation-de-depot-des-publications-scientifiques-dans-une-archive-ouverte/arguments/3259/report"
        },
        "has_user_voted": false,
        "has_user_reported": false
      },
      {
        "isContribuable": false,
        "id": 2940,
        "body": "Une obligation serait une incitation effective sous réserve qu'il existe des conséquences pour les contrevenants. Le modèle de liège me parait pertinent (orbi cf source).\nIl serait bon pour dépasser le stade de l'open access \"voie verte\" d'établir des schémas de publication avec des comités éditoriaux et de revues ouverts et cela sans avoir à passer par des éditeurs privés à but lucratif (cf proposition HAL).",
        "created_at": "2015-10-10T14:51:39+0200",
        "updated_at": "2015-10-10T14:51:39+0200",
        "is_enabled": true,
        "votes_count": 1,
        "type": 1,
        "is_trashed": false,
        "author": {
          "username": "Rudy Patard",
          "displayName": "Rudy Patard",
          "uniqueId": "rudypatard",
          "isAdmin": false,
          "media": null,
          "vip": false,
          "_links": {
            "profile": "https://www.republique-numerique.fr/profile/rudypatard",
            "settings": "https://www.republique-numerique.fr/profile/edit-profile"
          }
        },
        "_links": {
          "show": "https://www.republique-numerique.fr/consultations/projet-de-loi-numerique/consultation/consultation/opinions/section-2-travaux-de-recherche-et-de-statistique/pour-une-obligation-de-depot-des-publications-scientifiques-dans-une-archive-ouverte#arg-2940",
          "edit": "https://www.republique-numerique.fr/consultations/projet-de-loi-numerique/consultation/consultation/opinions/section-2-travaux-de-recherche-et-de-statistique/pour-une-obligation-de-depot-des-publications-scientifiques-dans-une-archive-ouverte/arguments/2940/edit",
          "report": "https://www.republique-numerique.fr/consultations/projet-de-loi-numerique/consultation/consultation/opinions/section-2-travaux-de-recherche-et-de-statistique/pour-une-obligation-de-depot-des-publications-scientifiques-dans-une-archive-ouverte/arguments/2940/report"
        },
        "has_user_voted": false,
        "has_user_reported": false
      },
      {
        "isContribuable": false,
        "id": 2766,
        "body": "Il est nécessaire que les articles puissent être cités en partie, dans le respect du propos. Il serait bien aussi que les figures puissent être reprises dans les mêmes conditions.",
        "created_at": "2015-10-09T10:25:03+0200",
        "updated_at": "2015-10-09T10:25:03+0200",
        "is_enabled": true,
        "votes_count": 1,
        "type": 1,
        "is_trashed": false,
        "author": {
          "username": "Letort",
          "displayName": "Letort",
          "uniqueId": "letort",
          "isAdmin": false,
          "media": null,
          "vip": false,
          "_links": {
            "profile": "https://www.republique-numerique.fr/profile/letort",
            "settings": "https://www.republique-numerique.fr/profile/edit-profile"
          }
        },
        "_links": {
          "show": "https://www.republique-numerique.fr/consultations/projet-de-loi-numerique/consultation/consultation/opinions/section-2-travaux-de-recherche-et-de-statistique/pour-une-obligation-de-depot-des-publications-scientifiques-dans-une-archive-ouverte#arg-2766",
          "edit": "https://www.republique-numerique.fr/consultations/projet-de-loi-numerique/consultation/consultation/opinions/section-2-travaux-de-recherche-et-de-statistique/pour-une-obligation-de-depot-des-publications-scientifiques-dans-une-archive-ouverte/arguments/2766/edit",
          "report": "https://www.republique-numerique.fr/consultations/projet-de-loi-numerique/consultation/consultation/opinions/section-2-travaux-de-recherche-et-de-statistique/pour-une-obligation-de-depot-des-publications-scientifiques-dans-une-archive-ouverte/arguments/2766/report"
        },
        "has_user_voted": false,
        "has_user_reported": false
      },
      {
        "isContribuable": false,
        "id": 2281,
        "body": "Nous partageons ce point de vue, à condition cependant que les publication soient publiées sous des licences libres comportant la clause de partage à l'identique (SA, Share Alike) ",
        "created_at": "2015-10-05T16:59:51+0200",
        "updated_at": "2015-10-05T16:59:51+0200",
        "is_enabled": true,
        "votes_count": 7,
        "type": 1,
        "is_trashed": false,
        "author": {
          "username": "SavoirCom1",
          "displayName": "SavoirCom1",
          "uniqueId": "savoircom1",
          "isAdmin": false,
          "media": {
            "url": "/media/cache/default_avatar/default/0001/01/244_default_avatar.jpg"
          },
          "vip": false,
          "_links": {
            "profile": "https://www.republique-numerique.fr/profile/savoircom1",
            "settings": "https://www.republique-numerique.fr/profile/edit-profile"
          }
        },
        "_links": {
          "show": "https://www.republique-numerique.fr/consultations/projet-de-loi-numerique/consultation/consultation/opinions/section-2-travaux-de-recherche-et-de-statistique/pour-une-obligation-de-depot-des-publications-scientifiques-dans-une-archive-ouverte#arg-2281",
          "edit": "https://www.republique-numerique.fr/consultations/projet-de-loi-numerique/consultation/consultation/opinions/section-2-travaux-de-recherche-et-de-statistique/pour-une-obligation-de-depot-des-publications-scientifiques-dans-une-archive-ouverte/arguments/2281/edit",
          "report": "https://www.republique-numerique.fr/consultations/projet-de-loi-numerique/consultation/consultation/opinions/section-2-travaux-de-recherche-et-de-statistique/pour-une-obligation-de-depot-des-publications-scientifiques-dans-une-archive-ouverte/arguments/2281/report"
        },
        "has_user_voted": false,
        "has_user_reported": false
      }
    ],
    "modals": [],
    "votes": [
      {
        "user": {
          "username": "Consortium COUPERIN",
          "displayName": "Consortium COUPERIN",
          "uniqueId": "consortiumcouperin",
          "isAdmin": false,
          "media": {
            "url": "/media/cache/default_avatar/default/0001/01/368_default_avatar.jpg"
          },
          "vip": false,
          "_links": {
            "profile": "https://www.republique-numerique.fr/profile/consortiumcouperin",
            "settings": "https://www.republique-numerique.fr/profile/edit-profile"
          }
        }
      },
      {
        "user": {
          "username": "Christine Ollendorff",
          "displayName": "Christine Ollendorff",
          "uniqueId": "christineollendorff",
          "isAdmin": false,
          "media": {
            "url": "/media/cache/default_avatar/default/0001/01/469_default_avatar.jpg"
          },
          "vip": false,
          "_links": {
            "profile": "https://www.republique-numerique.fr/profile/christineollendorff",
            "settings": "https://www.republique-numerique.fr/profile/edit-profile"
          }
        }
      },
      {
        "user": {
          "username": "Jean-François Lutz",
          "displayName": "Jean-François Lutz",
          "uniqueId": "jeanfrancoislutz",
          "isAdmin": false,
          "media": null,
          "vip": false,
          "_links": {
            "profile": "https://www.republique-numerique.fr/profile/jeanfrancoislutz",
            "settings": "https://www.republique-numerique.fr/profile/edit-profile"
          }
        }
      },
      {
        "user": {
          "username": "Thierry Fournier",
          "displayName": "Thierry Fournier",
          "uniqueId": "thierryfournier",
          "isAdmin": false,
          "media": null,
          "vip": false,
          "_links": {
            "profile": "https://www.republique-numerique.fr/profile/thierryfournier",
            "settings": "https://www.republique-numerique.fr/profile/edit-profile"
          }
        }
      },
      {
        "user": {
          "username": "Frederique Bordignon",
          "displayName": "Frederique Bordignon",
          "uniqueId": "frederiquebordignon1",
          "isAdmin": false,
          "media": null,
          "vip": false,
          "_links": {
            "profile": "https://www.republique-numerique.fr/profile/frederiquebordignon1",
            "settings": "https://www.republique-numerique.fr/profile/edit-profile"
          }
        }
      }
    ],
    "appendices": [
      {
        "body": "<p>Afin de rendre massivement accessibles les publications scientifiques issues de recherches financ&eacute;es par<br />\r\ndes financements publics, il convient d&#39;instaurer une obligation qui s&#39;appuie sur le droit de diffusion cr&eacute;&eacute; par la nouvelle loi. Cette obligation de d&eacute;p&ocirc;t dans une archive ouverte permettra une valorisation accrue de la recherche fran&ccedil;aise, par la visibilit&eacute; renforc&eacute;e donn&eacute;e &agrave; ces publications. Cette proposition s&#39;inscrit pleinement dans la d&eacute;marche port&eacute;e par la Commission Europ&eacute;enne qui a d&eacute;j&agrave; instaur&eacute; l&rsquo;obligation de libre acc&egrave;s aux publications issues des recherches financ&eacute;es par l&#39;UE. L&#39;acc&egrave;s par la voie verte (archive ouverte) est l&#39;une des voies possibles, elle est aujourd&#39;hui la solution la moins co&ucirc;teuse et peut s&#39;appuyer sur des infrastructures locales, nationales et internationales existantes (les archives institutionnelles<br />\r\nd&#39;&eacute;tablissements, HAL et les archives th&eacute;matiques comme ArXiv)</p>",
        "type": {
          "title": "Explication de l'article"
        }
      }
    ],
    "ranking": 18,
    "is_trashed": false,
    "title": "Obligation de dépôt des publications scientifiques dans une archive ouverte",
    "votes_nok": 19,
    "votes_ok": 503,
    "votes_mitige": 7,
    "_links": {
      "show": "https://www.republique-numerique.fr/consultations/projet-de-loi-numerique/consultation/consultation/opinions/section-2-travaux-de-recherche-et-de-statistique/pour-une-obligation-de-depot-des-publications-scientifiques-dans-une-archive-ouverte",
      "edit": "https://www.republique-numerique.fr/consultations/projet-de-loi-numerique/consultation/consultation/opinions/section-2-travaux-de-recherche-et-de-statistique/pour-une-obligation-de-depot-des-publications-scientifiques-dans-une-archive-ouverte/edit",
      "report": "https://www.republique-numerique.fr/consultations/projet-de-loi-numerique/consultation/consultation/opinions/section-2-travaux-de-recherche-et-de-statistique/pour-une-obligation-de-depot-des-publications-scientifiques-dans-une-archive-ouverte/report",
      "type": "https://www.republique-numerique.fr/consultations/projet-de-loi-numerique/consultation/consultation/opinions/section-2-travaux-de-recherche-et-de-statistique"
    },
    "user_vote": null,
    "has_user_reported": false
  },
  "rankingThreshold": null,
  "opinionTerm": 1
}