{
  "version": {
    "isContribuable": false,
    "votes_total": 1,
    "arguments_yes_count": 0,
    "arguments_no_count": 0,
    "id": 1162,
    "body": "<p>&laquo; I.-Les agents de l&#39;Etat investis d&#39;une mission de recherche, auteurs, dans le cadre de recherches<br />\nfinanc&eacute;es par des dotations de l&#39;Etat et des collectivit&eacute;s territoriales ou par des subventions d&#39;agences<br />\npubliques de financement nationales ou internationales, d&#39;une publication scientifique doivent la fournir &agrave; leur services administratifs afin que ceux-ci puissent se charger de la d&eacute;poser<br />\ndans l&#39;archive institutionnelle de leur &eacute;tablissement ou dans l&#39;archive nationale HAL d&egrave;s la date de premi&egrave;re publication. Les &eacute;tablissements gestionnaires des archives ouvertes o&ugrave; a &eacute;t&eacute; effectu&eacute; le d&eacute;p&ocirc;t assurent la diffusion publique des publications scientifiques dans le respect des conditions pr&eacute;vues &agrave; l&#39;article L. 533-4 du code de la recherche. &raquo;</p>",
    "comment": "Certains chercheurs (je le fais) prennent d&eacute;j&agrave; le temps de le faire, d&#39;autre non. On pourrait imaginer que cette t&acirc;che soit &quot;encourag&eacute;e&quot; pour les chercheurs et &quot;obligatoire&quot; pour les institutions et les services de support administratifs, plut&ocirc;t que de rajouter encore une charge/obligation administrative suppl&eacute;mentaire aux chercheurs, qui en ont d&eacute;j&agrave; bien assez (r&eacute;daction de projets, aller chercher les sous, etc.), et dont la mission, rappelons le, est de faire de la recherche en premier lieu.",
    "author": {
      "username": "Hatt Mathieu",
      "displayName": "Hatt Mathieu",
      "uniqueId": "hattmathieu",
      "isAdmin": false,
      "media": null,
      "vip": false,
      "_links": {
        "profile": "https://www.republique-numerique.fr/profile/hattmathieu",
        "settings": "https://www.republique-numerique.fr/profile/edit-profile"
      }
    },
    "arguments": [],
    "sources": [],
    "parent": {
      "isContribuable": false,
      "id": 394,
      "body": "<p>&laquo; I.-Les agents de l&#39;Etat investis d&#39;une mission de recherche, auteurs, dans le cadre de recherches<br />\r\nfinanc&eacute;es par des dotations de l&#39;Etat et des collectivit&eacute;s territoriales ou par des subventions d&#39;agences<br />\r\npubliques de financement nationales ou internationales, d&#39;une publication scientifique doivent la d&eacute;poser<br />\r\ndans l&#39;archive institutionnelle de leur &eacute;tablissement ou dans l&#39;archive nationale HAL d&egrave;s la date de premi&egrave;re publication. Les &eacute;tablissements gestionnaires des archives ouvertes o&ugrave; a &eacute;t&eacute; effectu&eacute; le d&eacute;p&ocirc;t assurent la diffusion publique des publications scientifiques dans le respect des conditions pr&eacute;vues &agrave; l&#39;article L. 533-4 du code de la recherche. &raquo;</p>",
      "type": {
        "id": 91,
        "title": "Section 2",
        "subtitle": "Travaux de recherche et de statistique",
        "voteWidgetType": 2,
        "votesHelpText": "Pensez-vous que cette proposition permet d'atteindre les objectifs présentés dans l’explication de l’article ?",
        "commentSystem": 2,
        "color": "blue",
        "versionable": true,
        "sourceable": true,
        "votesThreshold": null,
        "votesThresholdHelpText": null
      },
      "modals": [],
      "appendices": [
        {
          "body": "<p>Afin de rendre massivement accessibles les publications scientifiques issues de recherches financ&eacute;es par<br />\r\ndes financements publics, il convient d&#39;instaurer une obligation qui s&#39;appuie sur le droit de diffusion cr&eacute;&eacute; par la nouvelle loi. Cette obligation de d&eacute;p&ocirc;t dans une archive ouverte permettra une valorisation accrue de la recherche fran&ccedil;aise, par la visibilit&eacute; renforc&eacute;e donn&eacute;e &agrave; ces publications. Cette proposition s&#39;inscrit pleinement dans la d&eacute;marche port&eacute;e par la Commission Europ&eacute;enne qui a d&eacute;j&agrave; instaur&eacute; l&rsquo;obligation de libre acc&egrave;s aux publications issues des recherches financ&eacute;es par l&#39;UE. L&#39;acc&egrave;s par la voie verte (archive ouverte) est l&#39;une des voies possibles, elle est aujourd&#39;hui la solution la moins co&ucirc;teuse et peut s&#39;appuyer sur des infrastructures locales, nationales et internationales existantes (les archives institutionnelles<br />\r\nd&#39;&eacute;tablissements, HAL et les archives th&eacute;matiques comme ArXiv)</p>",
          "type": {
            "title": "Explication de l'article"
          }
        }
      ],
      "title": "Obligation de dépôt des publications scientifiques dans une archive ouverte",
      "_links": {
        "show": "https://www.republique-numerique.fr/consultations/projet-de-loi-numerique/consultation/consultation/opinions/section-2-travaux-de-recherche-et-de-statistique/pour-une-obligation-de-depot-des-publications-scientifiques-dans-une-archive-ouverte",
        "edit": "https://www.republique-numerique.fr/consultations/projet-de-loi-numerique/consultation/consultation/opinions/section-2-travaux-de-recherche-et-de-statistique/pour-une-obligation-de-depot-des-publications-scientifiques-dans-une-archive-ouverte/edit",
        "report": "https://www.republique-numerique.fr/consultations/projet-de-loi-numerique/consultation/consultation/opinions/section-2-travaux-de-recherche-et-de-statistique/pour-une-obligation-de-depot-des-publications-scientifiques-dans-une-archive-ouverte/report",
        "type": "https://www.republique-numerique.fr/consultations/projet-de-loi-numerique/consultation/consultation/opinions/section-2-travaux-de-recherche-et-de-statistique"
      },
      "user_vote": null,
      "has_user_reported": false
    },
    "sources_count": 0,
    "arguments_count": 0,
    "votes": [
      {
        "user": {
          "username": "Hatt Mathieu",
          "displayName": "Hatt Mathieu",
          "uniqueId": "hattmathieu",
          "isAdmin": false,
          "media": null,
          "vip": false,
          "_links": {
            "profile": "https://www.republique-numerique.fr/profile/hattmathieu",
            "settings": "https://www.republique-numerique.fr/profile/edit-profile"
          }
        },
        "value": 1
      }
    ],
    "updated_at": "2015-10-16T11:28:32+0200",
    "ranking": 1028,
    "is_trashed": false,
    "title": "obligation pour les institutions qui doivent en organiser la partie administrative!",
    "slug": "obligation-pour-les-institutions-qui-doivent-en-organiser-la-partie-administrative",
    "created_at": "2015-10-16T11:28:32+0200",
    "votes_nok": 0,
    "votes_ok": 1,
    "votes_mitige": 0,
    "_links": {
      "show": "https://www.republique-numerique.fr/consultations/projet-de-loi-numerique/consultation/consultation/opinions/section-2-travaux-de-recherche-et-de-statistique/pour-une-obligation-de-depot-des-publications-scientifiques-dans-une-archive-ouverte/versions/obligation-pour-les-institutions-qui-doivent-en-organiser-la-partie-administrative",
      "report": "https://www.republique-numerique.fr/consultations/projet-de-loi-numerique/consultation/consultation/opinions/section-2-travaux-de-recherche-et-de-statistique/pour-une-obligation-de-depot-des-publications-scientifiques-dans-une-archive-ouverte/versions/obligation-pour-les-institutions-qui-doivent-en-organiser-la-partie-administrative/report"
    },
    "user_vote": null,
    "has_user_reported": false
  },
  "rankingThreshold": null,
  "opinionTerm": 1
}