{
  "opinion": {
    "isContribuable": false,
    "votes_total": 24,
    "arguments_yes_count": 0,
    "arguments_no_count": 2,
    "id": 528,
    "created_at": "2015-10-11T03:54:44+0200",
    "updated_at": "2015-10-11T04:14:00+0200",
    "body": "<p>Les donn&eacute;es ayant &eacute;t&eacute; transmises par un lanceur d&#39;alerte ou de facon anonyme sont consider&eacute;es comme des donn&eacute;es d&#39;interets general et ne peuvent appartenir &agrave; une personne morale ou physique, (gouvernement, presse etc).Ces donn&eacute;es sont mises &agrave; la disposition du public, si au format numerique sur une plateforme ou un espace dedi&eacute;e par exemple sur le site des services publics.<br />\r\nToute personne refusant de les transmettre au public et &agrave; la justice sera condamn&eacute;e pour retention de preuves et entrave &agrave; la justice.</p>",
    "versions_count": 0,
    "sources_count": 1,
    "arguments_count": 2,
    "author": {
      "username": "Maltese Nadine",
      "displayName": "Maltese Nadine",
      "uniqueId": "maltesenadine",
      "isAdmin": false,
      "media": {
        "url": "/media/cache/default_avatar/default/0001/01/113_default_avatar.png"
      },
      "vip": false,
      "_links": {
        "profile": "https://www.republique-numerique.fr/profile/maltesenadine",
        "settings": "https://www.republique-numerique.fr/profile/edit-profile"
      }
    },
    "type": {
      "id": 88,
      "title": "Section 3",
      "subtitle": "Données d’intérêt général",
      "voteWidgetType": 2,
      "votesHelpText": "Pensez-vous que cette proposition permet d'atteindre les objectifs présentés dans l’explication de l’article ?",
      "commentSystem": 2,
      "color": "blue",
      "versionable": true,
      "sourceable": true,
      "votesThreshold": null,
      "votesThresholdHelpText": null
    },
    "sources": [
      {
        "isContribuable": false,
        "id": 400,
        "title": "Edward Snowden ne doit pas être persécuté",
        "link": "https://www.amnesty.org/fr/latest/news/2013/07/usa-must-not-persecute-whistleblower-edward-snowden/",
        "body": "« Nul ne devrait être inculpé, à quelque titre que ce soit, pour avoir dévoilé des informations concernant des violations des droits humains. De telles révélations sont protégées par les droits à l'information et à la liberté d'expression. »",
        "created_at": "2015-10-18T09:52:39+0200",
        "updated_at": "2015-10-18T09:52:39+0200",
        "author": {
          "username": "Maltese Nadine",
          "displayName": "Maltese Nadine",
          "uniqueId": "maltesenadine",
          "isAdmin": false,
          "media": {
            "url": "/media/cache/default_avatar/default/0001/01/113_default_avatar.png"
          },
          "vip": false,
          "_links": {
            "profile": "https://www.republique-numerique.fr/profile/maltesenadine",
            "settings": "https://www.republique-numerique.fr/profile/edit-profile"
          }
        },
        "category": "Site internet",
        "votes_count": 0,
        "_links": {
          "edit": "https://www.republique-numerique.fr/consultations/projet-de-loi-numerique/consultation/consultation/opinions/section-3-donnees-d-interet-general/les-donnees-des-lanceurs-d-alerte-doivent-devenir-des-donnees-publiques/sources/edward-snowden-ne-doit-pas-etre-persecute/edit",
          "report": "https://www.republique-numerique.fr/consultations/projet-de-loi-numerique/consultation/consultation/opinions/section-3-donnees-d-interet-general/les-donnees-des-lanceurs-d-alerte-doivent-devenir-des-donnees-publiques/sources/edward-snowden-ne-doit-pas-etre-persecute/report"
        },
        "has_user_voted": false,
        "has_user_reported": false
      }
    ],
    "arguments": [
      {
        "isContribuable": false,
        "id": 5322,
        "body": "Confusion des genres...",
        "created_at": "2015-10-17T15:56:40+0200",
        "updated_at": "2015-10-17T15:56:40+0200",
        "is_enabled": true,
        "votes_count": 0,
        "type": 0,
        "is_trashed": false,
        "author": {
          "username": "Tanéléo",
          "displayName": "Tanéléo",
          "uniqueId": "taneleo",
          "isAdmin": false,
          "media": null,
          "vip": false,
          "_links": {
            "profile": "https://www.republique-numerique.fr/profile/taneleo",
            "settings": "https://www.republique-numerique.fr/profile/edit-profile"
          }
        },
        "_links": {
          "show": "https://www.republique-numerique.fr/consultations/projet-de-loi-numerique/consultation/consultation/opinions/section-3-donnees-d-interet-general/les-donnees-des-lanceurs-d-alerte-doivent-devenir-des-donnees-publiques#arg-5322",
          "edit": "https://www.republique-numerique.fr/consultations/projet-de-loi-numerique/consultation/consultation/opinions/section-3-donnees-d-interet-general/les-donnees-des-lanceurs-d-alerte-doivent-devenir-des-donnees-publiques/arguments/5322/edit",
          "report": "https://www.republique-numerique.fr/consultations/projet-de-loi-numerique/consultation/consultation/opinions/section-3-donnees-d-interet-general/les-donnees-des-lanceurs-d-alerte-doivent-devenir-des-donnees-publiques/arguments/5322/report"
        },
        "has_user_voted": false,
        "has_user_reported": false
      },
      {
        "isContribuable": false,
        "id": 3813,
        "body": "S'il suffit de crier au feu pour dévoiler des données non anonymisées... La justice devrait pouvoir récupérer ces données, pas la presse.",
        "created_at": "2015-10-14T10:38:46+0200",
        "updated_at": "2015-10-14T10:38:46+0200",
        "is_enabled": true,
        "votes_count": 0,
        "type": 0,
        "is_trashed": false,
        "author": {
          "username": "Pierre Lavayssière",
          "displayName": "Pierre Lavayssière",
          "uniqueId": "pierrelavayssiere",
          "isAdmin": false,
          "media": null,
          "vip": false,
          "_links": {
            "profile": "https://www.republique-numerique.fr/profile/pierrelavayssiere",
            "settings": "https://www.republique-numerique.fr/profile/edit-profile"
          }
        },
        "_links": {
          "show": "https://www.republique-numerique.fr/consultations/projet-de-loi-numerique/consultation/consultation/opinions/section-3-donnees-d-interet-general/les-donnees-des-lanceurs-d-alerte-doivent-devenir-des-donnees-publiques#arg-3813",
          "edit": "https://www.republique-numerique.fr/consultations/projet-de-loi-numerique/consultation/consultation/opinions/section-3-donnees-d-interet-general/les-donnees-des-lanceurs-d-alerte-doivent-devenir-des-donnees-publiques/arguments/3813/edit",
          "report": "https://www.republique-numerique.fr/consultations/projet-de-loi-numerique/consultation/consultation/opinions/section-3-donnees-d-interet-general/les-donnees-des-lanceurs-d-alerte-doivent-devenir-des-donnees-publiques/arguments/3813/report"
        },
        "has_user_voted": false,
        "has_user_reported": false
      }
    ],
    "modals": [],
    "votes": [
      {
        "user": {
          "username": "Maltese Nadine",
          "displayName": "Maltese Nadine",
          "uniqueId": "maltesenadine",
          "isAdmin": false,
          "media": {
            "url": "/media/cache/default_avatar/default/0001/01/113_default_avatar.png"
          },
          "vip": false,
          "_links": {
            "profile": "https://www.republique-numerique.fr/profile/maltesenadine",
            "settings": "https://www.republique-numerique.fr/profile/edit-profile"
          }
        }
      },
      {
        "user": {
          "username": "crozet",
          "displayName": "crozet",
          "uniqueId": "crozet",
          "isAdmin": false,
          "media": null,
          "vip": false,
          "_links": {
            "profile": "https://www.republique-numerique.fr/profile/crozet",
            "settings": "https://www.republique-numerique.fr/profile/edit-profile"
          }
        }
      },
      {
        "user": {
          "username": "Jeanne Varasco",
          "displayName": "Jeanne Varasco",
          "uniqueId": "jeannevarasco",
          "isAdmin": false,
          "media": {
            "url": "/media/cache/default_avatar/default/0001/01/139_default_avatar.jpg"
          },
          "vip": false,
          "_links": {
            "profile": "https://www.republique-numerique.fr/profile/jeannevarasco",
            "settings": "https://www.republique-numerique.fr/profile/edit-profile"
          }
        }
      },
      {
        "user": {
          "username": "CURSOLLE",
          "displayName": "CURSOLLE",
          "uniqueId": "cursolle",
          "isAdmin": false,
          "media": null,
          "vip": false,
          "_links": {
            "profile": "https://www.republique-numerique.fr/profile/cursolle",
            "settings": "https://www.republique-numerique.fr/profile/edit-profile"
          }
        }
      },
      {
        "user": {
          "username": "didier denoual",
          "displayName": "didier denoual",
          "uniqueId": "didierdenoual",
          "isAdmin": false,
          "media": null,
          "vip": false,
          "_links": {
            "profile": "https://www.republique-numerique.fr/profile/didierdenoual",
            "settings": "https://www.republique-numerique.fr/profile/edit-profile"
          }
        }
      }
    ],
    "appendices": [
      {
        "body": "<blockquote>\r\n<p>4 avril 2013 : Les secrets des offshore<br />\r\n2,5 millions de documents - 130.000 noms d&eacute;voil&eacute;s dans 140 pays<br />\r\n<br />\r\n&quot;Il y a plus d&rsquo;un an, un paquet a &eacute;t&eacute; envoy&eacute; anonymement par la poste &agrave; une adresse en Australie. Le disque dur qui se trouvait &agrave; l&#39;int&eacute;rieur a ensuite &eacute;t&eacute; transmis &agrave; l&rsquo;ICIJ.<br />\r\nLes millions de donn&eacute;es qu&rsquo;il contenait des contrats et des fax num&eacute;ris&eacute;s, des copies de passeports, des emails, de la correspondance bancaire et de nombreux autres documents sont issus de deux soci&eacute;t&eacute;s sp&eacute;cialis&eacute;es dans les domiciliations offshore: Commonwealth Trust Limited, &agrave; Tortola, dans les &Icirc;les Vierges britanniques et Portcullis Trustnet. Bas&eacute;e &agrave; Singapour, cette derni&egrave;re est active dans une douzaine de juridictions, comme les &Icirc;les Cook, les &Icirc;les Ca&iuml;man ou Samoa. Ces juridictions offshore comptent parmi les plus opaques du monde.<br />\r\nDepuis plusieurs mois, plus de quatre vingts journalistes du monde entier travaillent sur cette gigantesque masse de donn&eacute;es. Il s&rsquo;agit notamment de d&eacute;cortiquer les montages financiers internationaux, souvent complexes, et de mettre en contexte ces informations. Les pistes &agrave; suivre son innombrables, car les donn&eacute;es concernent environ 122&rsquo;000 entit&eacute;s (soci&eacute;t&eacute;s, trusts, etc.). Celles ci sont reli&eacute;es &agrave; plus de 130&rsquo;000 personnes dans 140 pays. Pr&egrave;s de 12&rsquo;000 interm&eacute;diaires ont contribu&eacute; &agrave; cr&eacute;er ces entit&eacute;s, le plus souvent pour le compte de leurs clients.<br />\r\n<br />\r\nUne partie de ces soci&eacute;t&eacute;s offshore et de ces trusts a clairement servi &agrave; placer des avoirs &agrave; l&rsquo;abri des autorit&eacute;s fiscales.<br />\r\nPlus de 35 m&eacute;dias de toute la plan&egrave;te d&eacute;voilent d&egrave;s aujourd&rsquo;hui leurs investigations sur les Offshore Leaks. Parmi eux, The Wahington Post, BBC, The Guardian, Le Monde, Die S&uuml;ddeutsche Zeitung, Asahi Shimbun, Matin Dimanche, SonntagsZeitung ont eu acc&egrave;s &agrave; l&rsquo;ensemble de ces donn&eacute;es..&quot;1<br />\r\n<br />\r\n4 avril 2013 : coup d&rsquo;envoi mondial donn&eacute; aujourd&rsquo;hui &agrave; l&rsquo;op&eacute;ration <a class=\"_58cn\" href=\"https://www.facebook.com/hashtag/offshoreleaks\">#offshoreleaks</a><br />\r\n<br />\r\nSources :<br />\r\n- ICJ : <a href=\"http://www.icij.org/offshore/secret-files-expose-offshores-global-impact\" rel=\"nofollow nofollow\" target=\"_blank\">http://www.icij.org/offshore/secret-files-expose-offshores-global-impact</a><br />\r\n-<a href=\"http://www.guardian.co.uk/uk/2013/apr/03/offshore\" rel=\"nofollow nofollow\" target=\"_blank\">http://www.guardian.co.uk/uk/2013/apr/03/offshore</a>-secrets-offshore-tax-haven<br />\r\n- <a href=\"http://www.radio-canada.ca/nouvelles/Economie/2013/04/03/010-fuite-documents-paradis-fiscaux-ombre-cocotiers.shtml\" rel=\"nofollow nofollow\" target=\"_blank\">http://www.radio-canada.ca/nouvelles/Economie/2013/04/03/010-fuite-documents-paradis-fiscaux-ombre-cocotiers.shtml</a></p>\r\n</blockquote>\r\n\r\n<p>&nbsp;</p>\r\n\r\n<p>Operation #offshoreleaks<br />\r\n2, 5 millions de donn&eacute;es offertes par un lanceur d&#39;alerte qui devaient bouleverser le monde sont aujourd&#39;hui entre les mains de 35 medias. Est il besoin de rappeler les classements chaque ann&eacute;e par RSF sur la libert&eacute; de la presse ? a qui appartiennent ces medias, pour la plupart des banques, hommes d&#39;affaire, lobbystes ou proche du pouvoir.<br />\r\nCette affaire est un des exemples les plus incroyables des donn&eacute;es qui offertes par un lanceur d&#39;alerte,&nbsp; aujourd&#39;hui dans les mains des medias, ont &eacute;t&eacute; refus&eacute; &agrave; la justice.&nbsp; Ils ont alors argu&eacute; le secret des sources. ( <a href=\"http://www.lemonde.fr/economie/article/2013/04/09/offshore-leaks-m-cazeneuve-demande-a-la-presse-de-remettre-les-fichiers-a-la-justice_3156795_3234.html#2xum9I1sXx5rCbsv.99\" target=\"_blank\">cf : La France, comme d&#39;autres etats demandent les donn&eacute;es &agrave; l&#39;ICJ</a>) .<br />\r\nMais quid ? Le code de deontologie de la presse rappelle qu&#39;un journaliste ne doit pas se prendre pour un justicier ou un policier. Evoquer ici le secret des sources, mais lesquel ? sachant que le disque a &eacute;t&eacute; envoy&eacute; dans un paquet anonyme.<br />\r\n<br />\r\nCet article rendra toutes donn&eacute;es ayant &eacute;t&eacute; transmises par un lanceur d&#39;alerte comme donn&eacute;es d&#39;interet general.<br />\r\nSi une personne morale ou physique detient des informations, refuse que ces donn&eacute;es soient transmises &agrave; la justice et au grand public, les personnes seraient alors condamn&eacute;es pour entrave &agrave; la justice. Si les journalistes sont libres de poursuivre leurs investigations au nom de la libert&eacute; de la presse, ils ne peuvent&nbsp; evoquer le secret des sources quand il n&#39;existe pas. Il y a des derives actuellement qui serait bon d&#39;evoquer, ou encadrer.</p>",
        "type": {
          "title": "Explication de l'article"
        }
      }
    ],
    "ranking": 216,
    "is_trashed": false,
    "title": "Les données des lanceurs d'alerte doivent devenir des données d'interet general",
    "votes_nok": 1,
    "votes_ok": 21,
    "votes_mitige": 2,
    "_links": {
      "show": "https://www.republique-numerique.fr/consultations/projet-de-loi-numerique/consultation/consultation/opinions/section-3-donnees-d-interet-general/les-donnees-des-lanceurs-d-alerte-doivent-devenir-des-donnees-publiques",
      "edit": "https://www.republique-numerique.fr/consultations/projet-de-loi-numerique/consultation/consultation/opinions/section-3-donnees-d-interet-general/les-donnees-des-lanceurs-d-alerte-doivent-devenir-des-donnees-publiques/edit",
      "report": "https://www.republique-numerique.fr/consultations/projet-de-loi-numerique/consultation/consultation/opinions/section-3-donnees-d-interet-general/les-donnees-des-lanceurs-d-alerte-doivent-devenir-des-donnees-publiques/report",
      "type": "https://www.republique-numerique.fr/consultations/projet-de-loi-numerique/consultation/consultation/opinions/section-3-donnees-d-interet-general"
    },
    "user_vote": null,
    "has_user_reported": false
  },
  "rankingThreshold": null,
  "opinionTerm": 1
}