{
  "opinion": {
    "isContribuable": false,
    "votes_total": 13,
    "arguments_yes_count": 0,
    "arguments_no_count": 0,
    "id": 441,
    "created_at": "2015-10-06T12:00:34+0200",
    "updated_at": "2015-10-06T12:00:34+0200",
    "body": "<p>Lorsque une adresse de courriel est collect&eacute;e, elle doit obligatoirement faire l&#39;objet d&#39;une validation par l&#39;envoi sur cette m&ecirc;me adresse d&#39;un lien de confirmation permettant de s&#39;assurer qu&#39;elle appartient &agrave; la personne l&#39;ayant renseign&eacute;e. Sans cette validation, l&#39;adresse ne peut faire l&#39;objet d&#39;aucune exploitation ni d&#39;un stockage en base de donn&eacute;es au-del&agrave; d&#39;un d&eacute;lai de 24 heures et pour la seule fonction de permettre sa validation.</p>",
    "versions_count": 1,
    "sources_count": 0,
    "arguments_count": 0,
    "author": {
      "username": "François Nonnenmacher",
      "displayName": "François Nonnenmacher",
      "uniqueId": "francoisnonnenmacher",
      "isAdmin": false,
      "media": null,
      "vip": false,
      "_links": {
        "profile": "https://www.republique-numerique.fr/profile/francoisnonnenmacher",
        "settings": "https://www.republique-numerique.fr/profile/edit-profile"
      }
    },
    "type": {
      "id": 99,
      "title": "Section 1",
      "subtitle": "Protection des données à caractère personnel",
      "voteWidgetType": 2,
      "votesHelpText": "Pensez-vous que cette proposition permet d'atteindre les objectifs présentés dans l’explication de l’article ?",
      "commentSystem": 2,
      "color": "blue",
      "versionable": true,
      "sourceable": true,
      "votesThreshold": null,
      "votesThresholdHelpText": null
    },
    "sources": [],
    "arguments": [],
    "modals": [],
    "votes": [
      {
        "user": {
          "username": "François Nonnenmacher",
          "displayName": "François Nonnenmacher",
          "uniqueId": "francoisnonnenmacher",
          "isAdmin": false,
          "media": null,
          "vip": false,
          "_links": {
            "profile": "https://www.republique-numerique.fr/profile/francoisnonnenmacher",
            "settings": "https://www.republique-numerique.fr/profile/edit-profile"
          }
        }
      },
      {
        "user": {
          "username": "Aurélien David",
          "displayName": "Aurélien David",
          "uniqueId": "aureliendavid",
          "isAdmin": false,
          "media": null,
          "vip": false,
          "_links": {
            "profile": "https://www.republique-numerique.fr/profile/aureliendavid",
            "settings": "https://www.republique-numerique.fr/profile/edit-profile"
          }
        }
      },
      {
        "user": {
          "username": "Guillaume MESNARD",
          "displayName": "Guillaume MESNARD",
          "uniqueId": "guillaumemesnard",
          "isAdmin": false,
          "media": null,
          "vip": false,
          "_links": {
            "profile": "https://www.republique-numerique.fr/profile/guillaumemesnard",
            "settings": "https://www.republique-numerique.fr/profile/edit-profile"
          }
        }
      },
      {
        "user": {
          "username": "Nicolas Hoizey",
          "displayName": "Nicolas Hoizey",
          "uniqueId": "nicolashoizey",
          "isAdmin": false,
          "media": null,
          "vip": false,
          "_links": {
            "profile": "https://www.republique-numerique.fr/profile/nicolashoizey",
            "settings": "https://www.republique-numerique.fr/profile/edit-profile"
          }
        }
      },
      {
        "user": {
          "username": "Jeanne Varasco",
          "displayName": "Jeanne Varasco",
          "uniqueId": "jeannevarasco",
          "isAdmin": false,
          "media": {
            "url": "/media/cache/default_avatar/default/0001/01/139_default_avatar.jpg"
          },
          "vip": false,
          "_links": {
            "profile": "https://www.republique-numerique.fr/profile/jeannevarasco",
            "settings": "https://www.republique-numerique.fr/profile/edit-profile"
          }
        }
      }
    ],
    "appendices": [
      {
        "body": "<p>De tr&egrave;s nombreux services en ligne ne proc&egrave;dent &agrave; aucune validation des adresses de courriel qu&#39;ils collectent, et s&#39;en servent pour envoyer des courriels non sollicit&eacute;s &agrave; des personnes qui ne se sont jamais inscrites sur ces services. La plupart d&#39;entre eux ne permettent pas de r&eacute;soudre ce probl&egrave;me et il est souvent p&eacute;nible voire impossible de faire supprimer son adresse de leur base de donn&eacute;es.</p>\r\n\r\n<p>A contrario, la bonne pratique impose la validation d&#39;une adresse de courriel imm&eacute;diatement apr&egrave;s son renseignement, par l&#39;envoi d&#39;un courriel comportant un lien permettant de s&#39;assurer que la personne l&#39;ayant fournie y a &eacute;galement acc&egrave;s. Le site de republique-numerique.fr, par exemple, suit parfaitement cette bonne pratique, qui doit devenir obligatoire afin de prot&eacute;ger cette donn&eacute;e personnelle.</p>",
        "type": {
          "title": "Explication de l'article"
        }
      }
    ],
    "ranking": 287,
    "is_trashed": false,
    "title": "Validation obligatoire d'une adresse de courriel avant enregistrement dans une base de données",
    "votes_nok": 0,
    "votes_ok": 13,
    "votes_mitige": 0,
    "_links": {
      "show": "https://www.republique-numerique.fr/consultations/projet-de-loi-numerique/consultation/consultation/opinions/section-1-protection-des-donnees-a-caractere-personnel/validation-obligatoire-d-une-adresse-de-courriel-avant-enregistrement-dans-une-base-de-donnees",
      "edit": "https://www.republique-numerique.fr/consultations/projet-de-loi-numerique/consultation/consultation/opinions/section-1-protection-des-donnees-a-caractere-personnel/validation-obligatoire-d-une-adresse-de-courriel-avant-enregistrement-dans-une-base-de-donnees/edit",
      "report": "https://www.republique-numerique.fr/consultations/projet-de-loi-numerique/consultation/consultation/opinions/section-1-protection-des-donnees-a-caractere-personnel/validation-obligatoire-d-une-adresse-de-courriel-avant-enregistrement-dans-une-base-de-donnees/report",
      "type": "https://www.republique-numerique.fr/consultations/projet-de-loi-numerique/consultation/consultation/opinions/section-1-protection-des-donnees-a-caractere-personnel"
    },
    "user_vote": null,
    "has_user_reported": false
  },
  "rankingThreshold": null,
  "opinionTerm": 1
}