{
  "version": {
    "isContribuable": false,
    "votes_total": 123,
    "arguments_yes_count": 3,
    "arguments_no_count": 2,
    "id": 133,
    "body": "<p>Au chapitre 3 du titre 3 du livre V du code de la recherche, il est ins&eacute;r&eacute; un article L. 533-4 ainsi r&eacute;dig&eacute;&nbsp;:</p>\n\n<p>&laquo;Art. L. 533-4 &ndash;<br />\nI. Tout &eacute;crit scientifique, issu d&rsquo;une activit&eacute; de recherche financ&eacute;e au moins pour moiti&eacute; par des fonds publics et publi&eacute; dans un p&eacute;riodique, un ouvrage paraissant au moins une fois par an, des actes de congr&egrave;s ou de colloques ou des recueils de m&eacute;langes, doit &ecirc;tre disponible gratuitement sous une forme num&eacute;rique, sous r&eacute;serve des droits des &eacute;ventuels coauteurs, soit dans la version publi&eacute;e soit dans la derni&egrave;re version accept&eacute;e de son manuscrit par son &eacute;diteur, au plus tard dans un d&eacute;lai de trois mois &agrave; compter de date de la premi&egrave;re publication. Les auteurs de la publications s&#39;assurent de cette mise &agrave; disposition et l&#39;&eacute;diteurs ne peut s&#39;y opposer.</p>\n\n<p>&laquo;&nbsp;II. &ndash; Les dispositions du pr&eacute;sent article sont d&rsquo;ordre public et toute clause contraire &agrave; celles-ci est r&eacute;put&eacute;e non &eacute;crite. Elles ne s&rsquo;appliquent pas aux contrats en cours.&nbsp;&raquo;</p>",
    "comment": "<p>Le progr&egrave;s de la connaissance reposent largement sur la communication des id&eacute;es entre les chercheuses et chercheur. Alors que les &eacute;diteurs ont longtemps &eacute;t&eacute; les acteurs de la diffusion de ces id&eacute;es &agrave; travers la publications d&#39;articles de recherche, dans l&#39;&egrave;re internet le mod&egrave;le &eacute;conomique de l&#39;abonnement les a amen&eacute; &agrave; diriger leurs efforts (techniques et politiques) vers la dissimulations de ces m&ecirc;mes articles : ils ne maintiennent leurs abonnements qu&#39;en travaillent activement &agrave; emp&ecirc;cher d&#39;acc&eacute;der aux articles toute personne n&#39;&eacute;tant pas abonn&eacute;e. Ceci inclut une bonne partie des chercheuses et chercheurs, puisque presque aucune biblioth&egrave;que universitaire, ni m&ecirc;me le CNRS, ne peuvent s&#39;abonner &agrave; toutes les revues de qualit&eacute;.</p>\n\n<p>Les chercheuses et les chercheurs ont le devoir de s&#39;appuyer, et donc de conna&icirc;tre, les travaux de leurs coll&egrave;gues &agrave; travers le monde. Ce devoir implique en retour que ces travaux soient aussi largement diffus&eacute;s et facile &agrave; consulter que les techniques actuelles le permette. Que ceci mette en danger le mod&egrave;le &eacute;conomique dominant de l&#39;&eacute;dition scientifique est un probl&egrave;me qui doit &ecirc;tre r&eacute;solu par cette industrie, qui doit s&#39;adapter afin de redevenir une aide plus qu&#39;un frein &agrave; la diffusion de la connaissance. &Agrave; d&eacute;faut, un service publique de la publication des travaux de recherche devrait &ecirc;tre mis en place.</p>\n\n<p>Enfin, la soci&eacute;t&eacute; civile b&eacute;nificierait directement de la publication ouverte des travaux de recherche. &Agrave; titre d&#39;exemple parmi bien d&#39;autres, les associations regroupant les personnes atteinte d&#39;une maladie rare et leur familles pourraient appuyer leur action sur les dernier r&eacute;sultats de la recherche.</p>",
    "author": {
      "username": "Benoît R. Kloeckner",
      "displayName": "Benoît R. Kloeckner",
      "uniqueId": "benoitrkloeckner",
      "isAdmin": false,
      "media": null,
      "vip": false,
      "_links": {
        "profile": "https://www.republique-numerique.fr/profile/benoitrkloeckner",
        "settings": "https://www.republique-numerique.fr/profile/edit-profile"
      }
    },
    "arguments": [
      {
        "isContribuable": false,
        "id": 432,
        "body": "Le principe même d'embargo est incompatible avec l'esprit du projet de loi.",
        "created_at": "2015-09-27T10:07:08+0200",
        "updated_at": "2015-09-27T10:07:08+0200",
        "is_enabled": true,
        "votes_count": 4,
        "type": 1,
        "is_trashed": false,
        "author": {
          "username": "Albert Cohen",
          "displayName": "Albert Cohen",
          "uniqueId": "albertcohen",
          "isAdmin": false,
          "media": null,
          "vip": false,
          "_links": {
            "profile": "https://www.republique-numerique.fr/profile/albertcohen",
            "settings": "https://www.republique-numerique.fr/profile/edit-profile"
          }
        },
        "_links": {
          "show": "https://www.republique-numerique.fr/consultations/projet-de-loi-numerique/consultation/consultation/opinions/section-2-travaux-de-recherche-et-de-statistique/article-9-acces-aux-travaux-de-la-recherche-financee-par-des-fonds-publics/versions/toute-restriction-a-l-acces-aux-publications-scientifiques-est-nefaste-et-couteuse#arg-432",
          "edit": "https://www.republique-numerique.fr/consultations/projet-de-loi-numerique/consultation/consultation/opinions/section-2-travaux-de-recherche-et-de-statistique/article-9-acces-aux-travaux-de-la-recherche-financee-par-des-fonds-publics/arguments/432/edit",
          "report": "https://www.republique-numerique.fr/consultations/projet-de-loi-numerique/consultation/consultation/opinions/section-2-travaux-de-recherche-et-de-statistique/article-9-acces-aux-travaux-de-la-recherche-financee-par-des-fonds-publics/arguments/432/report"
        },
        "has_user_voted": false,
        "has_user_reported": false
      },
      {
        "isContribuable": false,
        "id": 785,
        "body": "Une obligation sans sanction, comme celle proposée ici, est inefficace. Il serait plus pertinent de reconnaître ce droit à l'auteur tout en modifiant par exemple les conditions d'évaluation des enseignants-chercheurs pour préciser que seuls les travaux diffusés en open access à l'issue du délai légal sont pris en compte au moment de l'attribution des promotions.",
        "created_at": "2015-09-28T10:43:56+0200",
        "updated_at": "2015-09-28T10:43:56+0200",
        "is_enabled": true,
        "votes_count": 2,
        "type": 0,
        "is_trashed": false,
        "author": {
          "username": "CBernault",
          "displayName": "CBernault",
          "uniqueId": "cbernault",
          "isAdmin": false,
          "media": null,
          "vip": false,
          "_links": {
            "profile": "https://www.republique-numerique.fr/profile/cbernault",
            "settings": "https://www.republique-numerique.fr/profile/edit-profile"
          }
        },
        "_links": {
          "show": "https://www.republique-numerique.fr/consultations/projet-de-loi-numerique/consultation/consultation/opinions/section-2-travaux-de-recherche-et-de-statistique/article-9-acces-aux-travaux-de-la-recherche-financee-par-des-fonds-publics/versions/toute-restriction-a-l-acces-aux-publications-scientifiques-est-nefaste-et-couteuse#arg-785",
          "edit": "https://www.republique-numerique.fr/consultations/projet-de-loi-numerique/consultation/consultation/opinions/section-2-travaux-de-recherche-et-de-statistique/article-9-acces-aux-travaux-de-la-recherche-financee-par-des-fonds-publics/arguments/785/edit",
          "report": "https://www.republique-numerique.fr/consultations/projet-de-loi-numerique/consultation/consultation/opinions/section-2-travaux-de-recherche-et-de-statistique/article-9-acces-aux-travaux-de-la-recherche-financee-par-des-fonds-publics/arguments/785/report"
        },
        "has_user_voted": false,
        "has_user_reported": false
      },
      {
        "isContribuable": false,
        "id": 1315,
        "body": "En réponse à CBernault: effectivement l'obligation « molle » de dépôt peut être inefficace. Toutefois il s'agit ici d'un projet de *loi*, et il me semble que la question des mandats excluant toute publication non librement disponible des évaluations relève plutôt de décrets d'application. Elle n'est pas tranchée par la présente proposition, et pose tout de même des questions sérieuses (toutes les disciplines ne peuvent pas, à l'heure actuelle, satisfaire de tels mandats).",
        "created_at": "2015-09-29T17:54:43+0200",
        "updated_at": "2015-09-29T17:54:43+0200",
        "is_enabled": true,
        "votes_count": 1,
        "type": 1,
        "is_trashed": false,
        "author": {
          "username": "Benoît R. Kloeckner",
          "displayName": "Benoît R. Kloeckner",
          "uniqueId": "benoitrkloeckner",
          "isAdmin": false,
          "media": null,
          "vip": false,
          "_links": {
            "profile": "https://www.republique-numerique.fr/profile/benoitrkloeckner",
            "settings": "https://www.republique-numerique.fr/profile/edit-profile"
          }
        },
        "_links": {
          "show": "https://www.republique-numerique.fr/consultations/projet-de-loi-numerique/consultation/consultation/opinions/section-2-travaux-de-recherche-et-de-statistique/article-9-acces-aux-travaux-de-la-recherche-financee-par-des-fonds-publics/versions/toute-restriction-a-l-acces-aux-publications-scientifiques-est-nefaste-et-couteuse#arg-1315",
          "edit": "https://www.republique-numerique.fr/consultations/projet-de-loi-numerique/consultation/consultation/opinions/section-2-travaux-de-recherche-et-de-statistique/article-9-acces-aux-travaux-de-la-recherche-financee-par-des-fonds-publics/arguments/1315/edit",
          "report": "https://www.republique-numerique.fr/consultations/projet-de-loi-numerique/consultation/consultation/opinions/section-2-travaux-de-recherche-et-de-statistique/article-9-acces-aux-travaux-de-la-recherche-financee-par-des-fonds-publics/arguments/1315/report"
        },
        "has_user_voted": false,
        "has_user_reported": false
      },
      {
        "isContribuable": false,
        "id": 2110,
        "body": "Très bonne proposition ! Notons qu'elle revient à faire ce qui a été fait au Royaume-Uni : imposer la publication en Open Access de toute recherche menée sur fonds publics. ",
        "created_at": "2015-10-03T16:33:12+0200",
        "updated_at": "2015-10-03T16:33:12+0200",
        "is_enabled": true,
        "votes_count": 4,
        "type": 1,
        "is_trashed": false,
        "author": {
          "username": "Olivier Morin",
          "displayName": "Olivier Morin",
          "uniqueId": "oliviermorin1",
          "isAdmin": false,
          "media": {
            "url": "/media/cache/default_avatar/default/0001/01/386_default_avatar.jpg"
          },
          "vip": false,
          "_links": {
            "profile": "https://www.republique-numerique.fr/profile/oliviermorin1",
            "settings": "https://www.republique-numerique.fr/profile/edit-profile"
          }
        },
        "_links": {
          "show": "https://www.republique-numerique.fr/consultations/projet-de-loi-numerique/consultation/consultation/opinions/section-2-travaux-de-recherche-et-de-statistique/article-9-acces-aux-travaux-de-la-recherche-financee-par-des-fonds-publics/versions/toute-restriction-a-l-acces-aux-publications-scientifiques-est-nefaste-et-couteuse#arg-2110",
          "edit": "https://www.republique-numerique.fr/consultations/projet-de-loi-numerique/consultation/consultation/opinions/section-2-travaux-de-recherche-et-de-statistique/article-9-acces-aux-travaux-de-la-recherche-financee-par-des-fonds-publics/arguments/2110/edit",
          "report": "https://www.republique-numerique.fr/consultations/projet-de-loi-numerique/consultation/consultation/opinions/section-2-travaux-de-recherche-et-de-statistique/article-9-acces-aux-travaux-de-la-recherche-financee-par-des-fonds-publics/arguments/2110/report"
        },
        "has_user_voted": false,
        "has_user_reported": false
      },
      {
        "isContribuable": false,
        "id": 2340,
        "body": "Il faudrait encore éliminer le \"sous réserve des droits des éventuels coauteurs\", qui risque de rendre l'article inopérant dans la plupart des cas. (Ou ai-je mal compris cette clause?) ",
        "created_at": "2015-10-05T23:26:37+0200",
        "updated_at": "2015-10-05T23:26:37+0200",
        "is_enabled": true,
        "votes_count": 0,
        "type": 0,
        "is_trashed": false,
        "author": {
          "username": "Sylvain Ribault",
          "displayName": "Sylvain Ribault",
          "uniqueId": "sylvainribault",
          "isAdmin": false,
          "media": null,
          "vip": false,
          "_links": {
            "profile": "https://www.republique-numerique.fr/profile/sylvainribault",
            "settings": "https://www.republique-numerique.fr/profile/edit-profile"
          }
        },
        "_links": {
          "show": "https://www.republique-numerique.fr/consultations/projet-de-loi-numerique/consultation/consultation/opinions/section-2-travaux-de-recherche-et-de-statistique/article-9-acces-aux-travaux-de-la-recherche-financee-par-des-fonds-publics/versions/toute-restriction-a-l-acces-aux-publications-scientifiques-est-nefaste-et-couteuse#arg-2340",
          "edit": "https://www.republique-numerique.fr/consultations/projet-de-loi-numerique/consultation/consultation/opinions/section-2-travaux-de-recherche-et-de-statistique/article-9-acces-aux-travaux-de-la-recherche-financee-par-des-fonds-publics/arguments/2340/edit",
          "report": "https://www.republique-numerique.fr/consultations/projet-de-loi-numerique/consultation/consultation/opinions/section-2-travaux-de-recherche-et-de-statistique/article-9-acces-aux-travaux-de-la-recherche-financee-par-des-fonds-publics/arguments/2340/report"
        },
        "has_user_voted": false,
        "has_user_reported": false
      }
    ],
    "sources": [],
    "parent": {
      "isContribuable": false,
      "id": 69,
      "body": "<p>Au chapitre 3 du titre 3 du livre V du code de la recherche, il est ins&eacute;r&eacute; un article L. 533-4 ainsi r&eacute;dig&eacute;&nbsp;:</p>\r\n\r\n<p>&laquo;Art. L. 533-4 &ndash;<br />\r\nI. Lorsque un &eacute;crit scientifique, issu d&rsquo;une activit&eacute; de recherche financ&eacute;e au moins pour moiti&eacute; par des fonds publics, est publi&eacute; dans un p&eacute;riodique, un ouvrage paraissant au moins une fois par an, des actes de congr&egrave;s ou de colloques ou des recueils de m&eacute;langes, son auteur, m&ecirc;me en cas de cession exclusive &agrave; un &eacute;diteur, dispose du droit de mettre &agrave; disposition gratuitement sous une forme num&eacute;rique, sous r&eacute;serve des droits des &eacute;ventuels coauteurs, la derni&egrave;re version accept&eacute;e de son manuscrit par son &eacute;diteur et &agrave; l&rsquo;exclusion du travail de mise en forme qui incombe &agrave; ce dernier, au terme d&rsquo;un d&eacute;lai de douze mois pour les sciences, la technique et la m&eacute;decine et de vingt-quatre mois pour les sciences humaines et sociales, &agrave; compter de date de la premi&egrave;re publication. Cette mise &agrave; disposition ne peut donner lieu &agrave; aucune exploitation commerciale.</p>\r\n\r\n<p>&laquo;&nbsp;II. &ndash; Les dispositions du pr&eacute;sent article sont d&rsquo;ordre public et toute clause contraire &agrave; celles-ci est r&eacute;put&eacute;e non &eacute;crite. Elles ne s&rsquo;appliquent pas aux contrats en cours.&nbsp;&raquo;</p>",
      "type": {
        "id": 91,
        "title": "Section 2",
        "subtitle": "Travaux de recherche et de statistique",
        "voteWidgetType": 2,
        "votesHelpText": "Pensez-vous que cette proposition permet d'atteindre les objectifs présentés dans l’explication de l’article ?",
        "commentSystem": 2,
        "color": "blue",
        "versionable": true,
        "sourceable": true,
        "votesThreshold": null,
        "votesThresholdHelpText": null
      },
      "modals": [
        {
          "key": "article L. 533-4",
          "before": "",
          "after": "<p>I. Lorsque un écrit scientifique, issu d’une activité de recherche financée au moins pour moitié par des fonds publics est publié dans un périodique, un ouvrage paraissant au moins une fois par an, des actes de congrès ou de colloques ou des recueils de mélanges,  son auteur, même en cas de cession exclusive à un éditeur, dispose du  droit de mettre à disposition gratuitement sous une forme numérique, sous réserve des droits des éventuels co-auteurs, la dernière version acceptée de son manuscrit par son éditeur et à l’exclusion du travail de mise en forme qui incombe à ce dernier, au terme d’un délai de douze mois pour les sciences, la technique et la médecine et de vingt-quatre mois pour les sciences humaines et sociales, à compter de date de la première publication. Cette mise à disposition ne peut donner lieu à aucune exploitation commerciale.</p><p>« II. – Les dispositions du présent article sont d’ordre public et toute clause contraire à celles-ci est réputée non écrite. Elles ne s’appliquent pas aux contrats en cours. »</p>",
          "title": "Création du nouvel article L 533-4 du code de la recherche (Livre V, Titre III, Chapitre 3)"
        }
      ],
      "appendices": [
        {
          "body": "<p><strong>Objectif :</strong> favoriser le libre acc&egrave;s aux travaux de recherche publique.</p>\r\n\r\n<p><strong>Explication :</strong> Le monde acad&eacute;mique dispose d&rsquo;un ensemble consid&eacute;rable d&rsquo;informations scientifiques dont l&rsquo;acc&egrave;s reste compliqu&eacute; par les droits d&rsquo;exclusivit&eacute; d&eacute;tenus par certaines revues et &eacute;diteurs. Le projet de loi propose de favoriser la diffusion en libre acc&egrave;s des r&eacute;sultats de la recherche pour favoriser la circulation du savoir et donc l&rsquo;innovation.<br />\r\nIl est propos&eacute; d&rsquo;inscrire dans la loi, un droit de valorisation secondaire pour les publications scientifiques. L&rsquo;auteur pourra ainsi rendre sa cr&eacute;ation publiquement accessible apr&egrave;s un d&eacute;lai de 12 mois pour les &oelig;uvres scientifiques, techniques et m&eacute;dicales et de 24 mois pour les &oelig;uvres des sciences humaines et sociales.</p>\r\n\r\n<p><strong>Exemple :</strong> les scientifiques de la recherche publique auront d&eacute;sormais le droit de publier leurs articles sur des sites ouverts accessibles &agrave; tous, notamment les archives publiques sp&eacute;cialis&eacute;es, apr&egrave;s un court d&eacute;lai d&rsquo;embargo.</p>",
          "type": {
            "title": "Explication de l'article"
          }
        }
      ],
      "title": "Article 9 - Libre accès aux publications scientifiques de la recherche publique",
      "_links": {
        "show": "https://www.republique-numerique.fr/consultations/projet-de-loi-numerique/consultation/consultation/opinions/section-2-travaux-de-recherche-et-de-statistique/article-9-acces-aux-travaux-de-la-recherche-financee-par-des-fonds-publics",
        "edit": "https://www.republique-numerique.fr/consultations/projet-de-loi-numerique/consultation/consultation/opinions/section-2-travaux-de-recherche-et-de-statistique/article-9-acces-aux-travaux-de-la-recherche-financee-par-des-fonds-publics/edit",
        "report": "https://www.republique-numerique.fr/consultations/projet-de-loi-numerique/consultation/consultation/opinions/section-2-travaux-de-recherche-et-de-statistique/article-9-acces-aux-travaux-de-la-recherche-financee-par-des-fonds-publics/report",
        "type": "https://www.republique-numerique.fr/consultations/projet-de-loi-numerique/consultation/consultation/opinions/section-2-travaux-de-recherche-et-de-statistique"
      },
      "user_vote": null,
      "has_user_reported": false
    },
    "sources_count": 0,
    "arguments_count": 5,
    "votes": [
      {
        "user": {
          "username": "Benoît R. Kloeckner",
          "displayName": "Benoît R. Kloeckner",
          "uniqueId": "benoitrkloeckner",
          "isAdmin": false,
          "media": null,
          "vip": false,
          "_links": {
            "profile": "https://www.republique-numerique.fr/profile/benoitrkloeckner",
            "settings": "https://www.republique-numerique.fr/profile/edit-profile"
          }
        },
        "value": 1
      },
      {
        "user": {
          "username": "Aurélien David",
          "displayName": "Aurélien David",
          "uniqueId": "aureliendavid",
          "isAdmin": false,
          "media": null,
          "vip": false,
          "_links": {
            "profile": "https://www.republique-numerique.fr/profile/aureliendavid",
            "settings": "https://www.republique-numerique.fr/profile/edit-profile"
          }
        },
        "value": 1
      },
      {
        "user": {
          "username": "Christopher Rovera",
          "displayName": "Christopher Rovera",
          "uniqueId": "christopherrovera",
          "isAdmin": false,
          "media": null,
          "vip": false,
          "_links": {
            "profile": "https://www.republique-numerique.fr/profile/christopherrovera",
            "settings": "https://www.republique-numerique.fr/profile/edit-profile"
          }
        },
        "value": 1
      },
      {
        "user": {
          "username": "Jonathan Crequer",
          "displayName": "Jonathan Crequer",
          "uniqueId": "jonathancrequer",
          "isAdmin": false,
          "media": null,
          "vip": false,
          "_links": {
            "profile": "https://www.republique-numerique.fr/profile/jonathancrequer",
            "settings": "https://www.republique-numerique.fr/profile/edit-profile"
          }
        },
        "value": 1
      },
      {
        "user": {
          "username": "François Battail",
          "displayName": "François Battail",
          "uniqueId": "francoisbattail",
          "isAdmin": false,
          "media": null,
          "vip": false,
          "_links": {
            "profile": "https://www.republique-numerique.fr/profile/francoisbattail",
            "settings": "https://www.republique-numerique.fr/profile/edit-profile"
          }
        },
        "value": 1
      }
    ],
    "updated_at": "2015-09-26T16:15:43+0200",
    "ranking": 48,
    "is_trashed": false,
    "title": "Toute restriction à l'accès aux publications scientifiques est néfaste et coûteuse.",
    "slug": "toute-restriction-a-l-acces-aux-publications-scientifiques-est-nefaste-et-couteuse",
    "created_at": "2015-09-26T16:15:43+0200",
    "votes_nok": 23,
    "votes_ok": 100,
    "votes_mitige": 0,
    "_links": {
      "show": "https://www.republique-numerique.fr/consultations/projet-de-loi-numerique/consultation/consultation/opinions/section-2-travaux-de-recherche-et-de-statistique/article-9-acces-aux-travaux-de-la-recherche-financee-par-des-fonds-publics/versions/toute-restriction-a-l-acces-aux-publications-scientifiques-est-nefaste-et-couteuse",
      "report": "https://www.republique-numerique.fr/consultations/projet-de-loi-numerique/consultation/consultation/opinions/section-2-travaux-de-recherche-et-de-statistique/article-9-acces-aux-travaux-de-la-recherche-financee-par-des-fonds-publics/versions/toute-restriction-a-l-acces-aux-publications-scientifiques-est-nefaste-et-couteuse/report"
    },
    "user_vote": null,
    "has_user_reported": false
  },
  "rankingThreshold": null,
  "opinionTerm": 1
}