{
  "version": {
    "isContribuable": false,
    "votes_total": 1511,
    "arguments_yes_count": 27,
    "arguments_no_count": 3,
    "id": 717,
    "body": "<p>Au chapitre 3 du titre 3 du livre V du code de la recherche, il est ins&eacute;r&eacute; un article L. 533-4 ainsi r&eacute;dig&eacute;&nbsp;:</p>\n\n<p>&laquo;Art. L. 533-4 &ndash;<br />\nI. Lorsque un &eacute;crit scientifique<s>, issu d&rsquo;une activit&eacute; de recherche financ&eacute;e au moins pour moiti&eacute; par des fonds publics,</s> est publi&eacute; dans un p&eacute;riodique, un ouvrage paraissant au moins une fois par an, des actes de congr&egrave;s ou de colloques ou des recueils de m&eacute;langes, <strong>sans r&eacute;mun&eacute;ration de</strong> son auteur, <s>m&ecirc;me en cas</s>&nbsp;<strong>la</strong>&nbsp;<s>de</s> cession exclusive <strong>de droits</strong> &agrave; <s>un</s>&nbsp;<strong>l&#39;</strong>&eacute;diteur <strong>n&#39;est pas admise</strong>.<s>&nbsp;dispose du droit de mettre &agrave; disposition gratuitement sous une forme num&eacute;rique, sous r&eacute;serve des droits des &eacute;ventuels coauteurs, la derni&egrave;re version accept&eacute;e de son manuscrit par son &eacute;diteur et &agrave; l&rsquo;exclusion du travail de mise en forme qui incombe &agrave; ce dernier, au terme d&rsquo;un d&eacute;lai de douze mois pour les sciences, la technique et la m&eacute;decine et de vingt-quatre mois pour les sciences humaines et sociales, &agrave; compter de date de la premi&egrave;re publication. Cette mise &agrave; disposition ne peut donner lieu &agrave; aucune exploitation commerciale.</s></p>\n\n<p>&laquo;&nbsp;II. &ndash; Les dispositions du pr&eacute;sent article sont d&rsquo;ordre public et toute clause contraire &agrave; celles-ci est r&eacute;put&eacute;e non &eacute;crite. <s>Elles ne s&rsquo;appliquent pas aux contrats en cours.</s>&nbsp;&raquo;</p>",
    "comment": "<p>Il est important en France, pays qui est &agrave; l&#39;origine de la notion moderne de droit d&#39;auteur, de r&eacute;affirmer la protection des auteurs contre les contrats l&eacute;onins impos&eacute;s dans le cadre de l&#39;&eacute;dition scientifique, et restituer aux l&eacute;gitimes propri&eacute;taires des articles scientifiques le droit de les diffuser le plus largement possible, afin de porter les r&eacute;sultats de leur recherche &agrave; la connaissance du plus grand nombre,&nbsp;dans l&#39;int&eacute;r&ecirc;t direct des auteurs, qui en gagneront en visibilit&eacute; et prestige, et de toute la soci&eacute;t&eacute;, qui verra le progr&eacute;s scientifique s&#39;acc&eacute;lerer, et la connaissance scientifique rendues accessible &agrave; tous.</p>\n\n<p>Le maintien de la pratique ancienne de cession exclusive des droits d&#39;auteur aux &eacute;diteurs pour les articles de recherche, publique ou pas, porte un grave atteinte au droit des auteurs, qui ne re&ccedil;oivent en &eacute;change aucune r&eacute;mun&eacute;ration, mais se voient spoli&eacute;s du fruit de leur travail, qu&#39;il ne peuvent r&eacute;utiliser ou diffuser ailleurs.</p>\n\n<p>Il n&#39;y a de ce point de vue aucune distinction entre auteurs financ&eacute;s sur fonds publics ou sur fonds priv&eacute;s: tous les auteurs doivent voir leur droits reconnus, et les clauses abusives des contrats d&#39;&eacute;dition supprim&eacute;es.</p>\n\n<p>Pour les auteurs de la recherche publique, cette r&eacute;affirmation du droit permettra de lever tout obstacle &agrave; la mise &agrave; disposition massive des r&eacute;sultats de recherche sur les plateformes d&#39;Open Access.</p>\n\n<p>&nbsp;</p>",
    "author": {
      "username": "Roberto Di Cosmo",
      "displayName": "Roberto Di Cosmo",
      "uniqueId": "robertodicosmo",
      "isAdmin": false,
      "media": null,
      "vip": false,
      "_links": {
        "profile": "https://www.republique-numerique.fr/profile/robertodicosmo",
        "settings": "https://www.republique-numerique.fr/profile/edit-profile"
      }
    },
    "arguments": [
      {
        "isContribuable": false,
        "id": 2786,
        "body": "Cette proposition reprend les positions du  CNRS sur la publication scientifique .. http://www.cil.cnrs.fr/CIL/spip.php?article2789 en supprimant simplement la distinction basee sur le financement de l'activite de recherche, qui n'est pas pertinente.",
        "created_at": "2015-10-09T12:17:42+0200",
        "updated_at": "2015-10-09T12:17:42+0200",
        "is_enabled": true,
        "votes_count": 64,
        "type": 1,
        "is_trashed": false,
        "author": {
          "username": "Roberto Di Cosmo",
          "displayName": "Roberto Di Cosmo",
          "uniqueId": "robertodicosmo",
          "isAdmin": false,
          "media": null,
          "vip": false,
          "_links": {
            "profile": "https://www.republique-numerique.fr/profile/robertodicosmo",
            "settings": "https://www.republique-numerique.fr/profile/edit-profile"
          }
        },
        "_links": {
          "show": "https://www.republique-numerique.fr/consultations/projet-de-loi-numerique/consultation/consultation/opinions/section-2-travaux-de-recherche-et-de-statistique/article-9-acces-aux-travaux-de-la-recherche-financee-par-des-fonds-publics/versions/proteger-le-droit-des-auteurs-d-articles-scientifiques-pour-permettre-le-libre-acces-a-la-recherche-scientifique#arg-2786",
          "edit": "https://www.republique-numerique.fr/consultations/projet-de-loi-numerique/consultation/consultation/opinions/section-2-travaux-de-recherche-et-de-statistique/article-9-acces-aux-travaux-de-la-recherche-financee-par-des-fonds-publics/arguments/2786/edit",
          "report": "https://www.republique-numerique.fr/consultations/projet-de-loi-numerique/consultation/consultation/opinions/section-2-travaux-de-recherche-et-de-statistique/article-9-acces-aux-travaux-de-la-recherche-financee-par-des-fonds-publics/arguments/2786/report"
        },
        "has_user_voted": false,
        "has_user_reported": false
      },
      {
        "isContribuable": false,
        "id": 3280,
        "body": "Voilà qui a l'avantage d'être clair. Et concis. +1",
        "created_at": "2015-10-12T12:50:54+0200",
        "updated_at": "2015-10-12T12:50:54+0200",
        "is_enabled": true,
        "votes_count": 22,
        "type": 1,
        "is_trashed": false,
        "author": {
          "username": "Vincent Battesti",
          "displayName": "Vincent Battesti",
          "uniqueId": "vincentbattesti",
          "isAdmin": false,
          "media": {
            "url": "/media/cache/default_avatar/default/0001/01/530_default_avatar.jpg"
          },
          "vip": false,
          "_links": {
            "profile": "https://www.republique-numerique.fr/profile/vincentbattesti",
            "settings": "https://www.republique-numerique.fr/profile/edit-profile"
          }
        },
        "_links": {
          "show": "https://www.republique-numerique.fr/consultations/projet-de-loi-numerique/consultation/consultation/opinions/section-2-travaux-de-recherche-et-de-statistique/article-9-acces-aux-travaux-de-la-recherche-financee-par-des-fonds-publics/versions/proteger-le-droit-des-auteurs-d-articles-scientifiques-pour-permettre-le-libre-acces-a-la-recherche-scientifique#arg-3280",
          "edit": "https://www.republique-numerique.fr/consultations/projet-de-loi-numerique/consultation/consultation/opinions/section-2-travaux-de-recherche-et-de-statistique/article-9-acces-aux-travaux-de-la-recherche-financee-par-des-fonds-publics/arguments/3280/edit",
          "report": "https://www.republique-numerique.fr/consultations/projet-de-loi-numerique/consultation/consultation/opinions/section-2-travaux-de-recherche-et-de-statistique/article-9-acces-aux-travaux-de-la-recherche-financee-par-des-fonds-publics/arguments/3280/report"
        },
        "has_user_voted": false,
        "has_user_reported": false
      },
      {
        "isContribuable": false,
        "id": 3402,
        "body": "Tres bien",
        "created_at": "2015-10-12T21:56:56+0200",
        "updated_at": "2015-10-12T21:56:56+0200",
        "is_enabled": true,
        "votes_count": 10,
        "type": 1,
        "is_trashed": false,
        "author": {
          "username": "Stéphane Ducasse",
          "displayName": "Stéphane Ducasse",
          "uniqueId": "stephaneducasse",
          "isAdmin": false,
          "media": null,
          "vip": false,
          "_links": {
            "profile": "https://www.republique-numerique.fr/profile/stephaneducasse",
            "settings": "https://www.republique-numerique.fr/profile/edit-profile"
          }
        },
        "_links": {
          "show": "https://www.republique-numerique.fr/consultations/projet-de-loi-numerique/consultation/consultation/opinions/section-2-travaux-de-recherche-et-de-statistique/article-9-acces-aux-travaux-de-la-recherche-financee-par-des-fonds-publics/versions/proteger-le-droit-des-auteurs-d-articles-scientifiques-pour-permettre-le-libre-acces-a-la-recherche-scientifique#arg-3402",
          "edit": "https://www.republique-numerique.fr/consultations/projet-de-loi-numerique/consultation/consultation/opinions/section-2-travaux-de-recherche-et-de-statistique/article-9-acces-aux-travaux-de-la-recherche-financee-par-des-fonds-publics/arguments/3402/edit",
          "report": "https://www.republique-numerique.fr/consultations/projet-de-loi-numerique/consultation/consultation/opinions/section-2-travaux-de-recherche-et-de-statistique/article-9-acces-aux-travaux-de-la-recherche-financee-par-des-fonds-publics/arguments/3402/report"
        },
        "has_user_voted": false,
        "has_user_reported": false
      },
      {
        "isContribuable": false,
        "id": 3408,
        "body": "Cf. http://thecostofknowledge.com/",
        "created_at": "2015-10-12T22:10:12+0200",
        "updated_at": "2015-10-12T22:10:12+0200",
        "is_enabled": true,
        "votes_count": 11,
        "type": 1,
        "is_trashed": false,
        "author": {
          "username": "Stefane Fermigier",
          "displayName": "Stefane Fermigier",
          "uniqueId": "stefanefermigier",
          "isAdmin": false,
          "media": {
            "url": "/media/cache/default_avatar/default/0001/01/563_default_avatar.jpg"
          },
          "vip": false,
          "_links": {
            "profile": "https://www.republique-numerique.fr/profile/stefanefermigier",
            "settings": "https://www.republique-numerique.fr/profile/edit-profile"
          }
        },
        "_links": {
          "show": "https://www.republique-numerique.fr/consultations/projet-de-loi-numerique/consultation/consultation/opinions/section-2-travaux-de-recherche-et-de-statistique/article-9-acces-aux-travaux-de-la-recherche-financee-par-des-fonds-publics/versions/proteger-le-droit-des-auteurs-d-articles-scientifiques-pour-permettre-le-libre-acces-a-la-recherche-scientifique#arg-3408",
          "edit": "https://www.republique-numerique.fr/consultations/projet-de-loi-numerique/consultation/consultation/opinions/section-2-travaux-de-recherche-et-de-statistique/article-9-acces-aux-travaux-de-la-recherche-financee-par-des-fonds-publics/arguments/3408/edit",
          "report": "https://www.republique-numerique.fr/consultations/projet-de-loi-numerique/consultation/consultation/opinions/section-2-travaux-de-recherche-et-de-statistique/article-9-acces-aux-travaux-de-la-recherche-financee-par-des-fonds-publics/arguments/3408/report"
        },
        "has_user_voted": false,
        "has_user_reported": false
      },
      {
        "isContribuable": false,
        "id": 3416,
        "body": "La loi ne peut en aucun cas être en régression par rapport aux pratiques actuelles. La publication des preprint ne regarde que leurs auteurs et ayants droit.",
        "created_at": "2015-10-12T22:24:45+0200",
        "updated_at": "2015-10-12T22:24:45+0200",
        "is_enabled": true,
        "votes_count": 18,
        "type": 1,
        "is_trashed": false,
        "author": {
          "username": "Albert Cohen",
          "displayName": "Albert Cohen",
          "uniqueId": "albertcohen1",
          "isAdmin": false,
          "media": null,
          "vip": false,
          "_links": {
            "profile": "https://www.republique-numerique.fr/profile/albertcohen1",
            "settings": "https://www.republique-numerique.fr/profile/edit-profile"
          }
        },
        "_links": {
          "show": "https://www.republique-numerique.fr/consultations/projet-de-loi-numerique/consultation/consultation/opinions/section-2-travaux-de-recherche-et-de-statistique/article-9-acces-aux-travaux-de-la-recherche-financee-par-des-fonds-publics/versions/proteger-le-droit-des-auteurs-d-articles-scientifiques-pour-permettre-le-libre-acces-a-la-recherche-scientifique#arg-3416",
          "edit": "https://www.republique-numerique.fr/consultations/projet-de-loi-numerique/consultation/consultation/opinions/section-2-travaux-de-recherche-et-de-statistique/article-9-acces-aux-travaux-de-la-recherche-financee-par-des-fonds-publics/arguments/3416/edit",
          "report": "https://www.republique-numerique.fr/consultations/projet-de-loi-numerique/consultation/consultation/opinions/section-2-travaux-de-recherche-et-de-statistique/article-9-acces-aux-travaux-de-la-recherche-financee-par-des-fonds-publics/arguments/3416/report"
        },
        "has_user_voted": false,
        "has_user_reported": false
      },
      {
        "isContribuable": false,
        "id": 3421,
        "body": "Halte à l'expoliation du droit d'auteur des chercheurs.",
        "created_at": "2015-10-12T22:42:49+0200",
        "updated_at": "2015-10-12T22:42:49+0200",
        "is_enabled": true,
        "votes_count": 15,
        "type": 1,
        "is_trashed": false,
        "author": {
          "username": "Virginia Aponte",
          "displayName": "Virginia Aponte",
          "uniqueId": "virginiaaponte",
          "isAdmin": false,
          "media": null,
          "vip": false,
          "_links": {
            "profile": "https://www.republique-numerique.fr/profile/virginiaaponte",
            "settings": "https://www.republique-numerique.fr/profile/edit-profile"
          }
        },
        "_links": {
          "show": "https://www.republique-numerique.fr/consultations/projet-de-loi-numerique/consultation/consultation/opinions/section-2-travaux-de-recherche-et-de-statistique/article-9-acces-aux-travaux-de-la-recherche-financee-par-des-fonds-publics/versions/proteger-le-droit-des-auteurs-d-articles-scientifiques-pour-permettre-le-libre-acces-a-la-recherche-scientifique#arg-3421",
          "edit": "https://www.republique-numerique.fr/consultations/projet-de-loi-numerique/consultation/consultation/opinions/section-2-travaux-de-recherche-et-de-statistique/article-9-acces-aux-travaux-de-la-recherche-financee-par-des-fonds-publics/arguments/3421/edit",
          "report": "https://www.republique-numerique.fr/consultations/projet-de-loi-numerique/consultation/consultation/opinions/section-2-travaux-de-recherche-et-de-statistique/article-9-acces-aux-travaux-de-la-recherche-financee-par-des-fonds-publics/arguments/3421/report"
        },
        "has_user_voted": false,
        "has_user_reported": false
      },
      {
        "isContribuable": false,
        "id": 3423,
        "body": "Libre accès après 12 mois ?!? Pourquoi ne pas bloquer aussi toute communication écrite / orale sur le sujet pendant ce temps ?!? Les éditeurs eux-mêmes autorisent pour l'instant la publication non commerciale de la version non éditée en parallèle de la publication en journal / conférence. Qu'est-ce qui peut justifier cette abdication des intérêts des chercheurs, des industriels (dont je suis) et de la société devant les éditeurs ? rien.",
        "created_at": "2015-10-12T22:48:05+0200",
        "updated_at": "2015-10-12T22:48:05+0200",
        "is_enabled": true,
        "votes_count": 16,
        "type": 1,
        "is_trashed": false,
        "author": {
          "username": "Yannick Moy",
          "displayName": "Yannick Moy",
          "uniqueId": "yannickmoy",
          "isAdmin": false,
          "media": null,
          "vip": false,
          "_links": {
            "profile": "https://www.republique-numerique.fr/profile/yannickmoy",
            "settings": "https://www.republique-numerique.fr/profile/edit-profile"
          }
        },
        "_links": {
          "show": "https://www.republique-numerique.fr/consultations/projet-de-loi-numerique/consultation/consultation/opinions/section-2-travaux-de-recherche-et-de-statistique/article-9-acces-aux-travaux-de-la-recherche-financee-par-des-fonds-publics/versions/proteger-le-droit-des-auteurs-d-articles-scientifiques-pour-permettre-le-libre-acces-a-la-recherche-scientifique#arg-3423",
          "edit": "https://www.republique-numerique.fr/consultations/projet-de-loi-numerique/consultation/consultation/opinions/section-2-travaux-de-recherche-et-de-statistique/article-9-acces-aux-travaux-de-la-recherche-financee-par-des-fonds-publics/arguments/3423/edit",
          "report": "https://www.republique-numerique.fr/consultations/projet-de-loi-numerique/consultation/consultation/opinions/section-2-travaux-de-recherche-et-de-statistique/article-9-acces-aux-travaux-de-la-recherche-financee-par-des-fonds-publics/arguments/3423/report"
        },
        "has_user_voted": false,
        "has_user_reported": false
      },
      {
        "isContribuable": false,
        "id": 3473,
        "body": "Deux points pour soutenir encore la proposition et qui devraient faire réfléchir la classe politique  \n1) Le définition de droit d'auteur en France\nhttp://www.inpi.fr/fr/l-inpi/la-propriete-industrielle/comment-proteger-vos-creations/le-droit-d-auteur.html\n2) Le poids économique du lobby derrière l'embargo.\nExemple, une éditoriale (hollandaise, très connue) publie par an (ordre de grandeur) = 1000 journaux x 100 articles chaque x 2 rapporteurs x 1000 euros (expertise) = 200 mE que la communié scientifique (et donc les sources de financement) \"donne\" chaque année à l'éditeur ... et qui doit payer (les organismes de recherche français via les subscriptions) pour se lire elle même. ",
        "created_at": "2015-10-13T09:21:22+0200",
        "updated_at": "2015-10-13T09:21:22+0200",
        "is_enabled": true,
        "votes_count": 19,
        "type": 1,
        "is_trashed": false,
        "author": {
          "username": "Jose Maria Fullana",
          "displayName": "Jose Maria Fullana",
          "uniqueId": "josemariafullana",
          "isAdmin": false,
          "media": null,
          "vip": false,
          "_links": {
            "profile": "https://www.republique-numerique.fr/profile/josemariafullana",
            "settings": "https://www.republique-numerique.fr/profile/edit-profile"
          }
        },
        "_links": {
          "show": "https://www.republique-numerique.fr/consultations/projet-de-loi-numerique/consultation/consultation/opinions/section-2-travaux-de-recherche-et-de-statistique/article-9-acces-aux-travaux-de-la-recherche-financee-par-des-fonds-publics/versions/proteger-le-droit-des-auteurs-d-articles-scientifiques-pour-permettre-le-libre-acces-a-la-recherche-scientifique#arg-3473",
          "edit": "https://www.republique-numerique.fr/consultations/projet-de-loi-numerique/consultation/consultation/opinions/section-2-travaux-de-recherche-et-de-statistique/article-9-acces-aux-travaux-de-la-recherche-financee-par-des-fonds-publics/arguments/3473/edit",
          "report": "https://www.republique-numerique.fr/consultations/projet-de-loi-numerique/consultation/consultation/opinions/section-2-travaux-de-recherche-et-de-statistique/article-9-acces-aux-travaux-de-la-recherche-financee-par-des-fonds-publics/arguments/3473/report"
        },
        "has_user_voted": false,
        "has_user_reported": false
      },
      {
        "isContribuable": false,
        "id": 3526,
        "body": "Contrairement à ce qu'affirme M. Gimbert dans les avis \"contre\", le texte non amendé supprime totalement le beau principe du libre accès aux fruits de la recherche (publique ou non) puisqu'il interdit implicitement de diffuser l'article lui-même, seulement une version préliminaire et après un délai parfaitement injustifié au regard du service quasi-nul rendu par l'éditeur.\r\n\r\nPar ailleurs actuellement ce sont les éditeurs qui peuvent monnayer à titre privé la diffusion de connaissance, en quoi serait-ce mieux? Cet amendement permet à l'éditeur ET à l'auteur de diffuser la connaissance (de la manière qu'il jugeront la meilleure).\r\n\r\nConcernant la recherche publique j'irai plus loin: les articles devraient être versés dans le domaine publique à brève échéance. C'est d'ailleurs ce que font certaines conférence et journaux, se passer complètement d'éditeur est souvent la meilleure solution.",
        "created_at": "2015-10-13T11:19:06+0200",
        "updated_at": "2015-10-13T11:34:44+0200",
        "is_enabled": true,
        "votes_count": 25,
        "type": 1,
        "is_trashed": false,
        "author": {
          "username": "Pierre Courtieu",
          "displayName": "Pierre Courtieu",
          "uniqueId": "pierrecourtieu",
          "isAdmin": false,
          "media": null,
          "vip": false,
          "_links": {
            "profile": "https://www.republique-numerique.fr/profile/pierrecourtieu",
            "settings": "https://www.republique-numerique.fr/profile/edit-profile"
          }
        },
        "_links": {
          "show": "https://www.republique-numerique.fr/consultations/projet-de-loi-numerique/consultation/consultation/opinions/section-2-travaux-de-recherche-et-de-statistique/article-9-acces-aux-travaux-de-la-recherche-financee-par-des-fonds-publics/versions/proteger-le-droit-des-auteurs-d-articles-scientifiques-pour-permettre-le-libre-acces-a-la-recherche-scientifique#arg-3526",
          "edit": "https://www.republique-numerique.fr/consultations/projet-de-loi-numerique/consultation/consultation/opinions/section-2-travaux-de-recherche-et-de-statistique/article-9-acces-aux-travaux-de-la-recherche-financee-par-des-fonds-publics/arguments/3526/edit",
          "report": "https://www.republique-numerique.fr/consultations/projet-de-loi-numerique/consultation/consultation/opinions/section-2-travaux-de-recherche-et-de-statistique/article-9-acces-aux-travaux-de-la-recherche-financee-par-des-fonds-publics/arguments/3526/report"
        },
        "has_user_voted": false,
        "has_user_reported": false
      },
      {
        "isContribuable": false,
        "id": 3775,
        "body": "Séparer enfin la question de principe (la science est un bien commun, le savoir n'est pas une marchandise) de questions d'arrière-boutique sortirait enfin ce débat de querelles complètement stériles. Sortir la gestion des droits sur les articles scientifiques du périmètre des droits d'auteurs et de la tutelle du ministère de la culture serait aussi une bénédiction.\nSur les principes, le texte de référence le plus abouti est la recommandation de l'ICSU\nhttp://www.icsu.org/general-assembly/news/press-release-2013-international-council-for-science-endorses-open-access-to-scientific-record-cautions-against-misuse-of-metrics",
        "created_at": "2015-10-14T09:23:49+0200",
        "updated_at": "2015-10-14T09:23:49+0200",
        "is_enabled": true,
        "votes_count": 8,
        "type": 1,
        "is_trashed": false,
        "author": {
          "username": "Thierry Bouche",
          "displayName": "Thierry Bouche",
          "uniqueId": "thierrybouche",
          "isAdmin": false,
          "media": null,
          "vip": false,
          "_links": {
            "profile": "https://www.republique-numerique.fr/profile/thierrybouche",
            "settings": "https://www.republique-numerique.fr/profile/edit-profile"
          }
        },
        "_links": {
          "show": "https://www.republique-numerique.fr/consultations/projet-de-loi-numerique/consultation/consultation/opinions/section-2-travaux-de-recherche-et-de-statistique/article-9-acces-aux-travaux-de-la-recherche-financee-par-des-fonds-publics/versions/proteger-le-droit-des-auteurs-d-articles-scientifiques-pour-permettre-le-libre-acces-a-la-recherche-scientifique#arg-3775",
          "edit": "https://www.republique-numerique.fr/consultations/projet-de-loi-numerique/consultation/consultation/opinions/section-2-travaux-de-recherche-et-de-statistique/article-9-acces-aux-travaux-de-la-recherche-financee-par-des-fonds-publics/arguments/3775/edit",
          "report": "https://www.republique-numerique.fr/consultations/projet-de-loi-numerique/consultation/consultation/opinions/section-2-travaux-de-recherche-et-de-statistique/article-9-acces-aux-travaux-de-la-recherche-financee-par-des-fonds-publics/arguments/3775/report"
        },
        "has_user_voted": false,
        "has_user_reported": false
      },
      {
        "isContribuable": false,
        "id": 3789,
        "body": "Bravo !",
        "created_at": "2015-10-14T09:59:44+0200",
        "updated_at": "2015-10-14T09:59:44+0200",
        "is_enabled": true,
        "votes_count": 3,
        "type": 1,
        "is_trashed": false,
        "author": {
          "username": "Pierre Crescenzo",
          "displayName": "Pierre Crescenzo",
          "uniqueId": "pierrecrescenzo",
          "isAdmin": false,
          "media": {
            "url": "/media/cache/default_avatar/default/0001/01/662_default_avatar.jpg"
          },
          "vip": false,
          "_links": {
            "profile": "https://www.republique-numerique.fr/profile/pierrecrescenzo",
            "settings": "https://www.republique-numerique.fr/profile/edit-profile"
          }
        },
        "_links": {
          "show": "https://www.republique-numerique.fr/consultations/projet-de-loi-numerique/consultation/consultation/opinions/section-2-travaux-de-recherche-et-de-statistique/article-9-acces-aux-travaux-de-la-recherche-financee-par-des-fonds-publics/versions/proteger-le-droit-des-auteurs-d-articles-scientifiques-pour-permettre-le-libre-acces-a-la-recherche-scientifique#arg-3789",
          "edit": "https://www.republique-numerique.fr/consultations/projet-de-loi-numerique/consultation/consultation/opinions/section-2-travaux-de-recherche-et-de-statistique/article-9-acces-aux-travaux-de-la-recherche-financee-par-des-fonds-publics/arguments/3789/edit",
          "report": "https://www.republique-numerique.fr/consultations/projet-de-loi-numerique/consultation/consultation/opinions/section-2-travaux-de-recherche-et-de-statistique/article-9-acces-aux-travaux-de-la-recherche-financee-par-des-fonds-publics/arguments/3789/report"
        },
        "has_user_voted": false,
        "has_user_reported": false
      },
      {
        "isContribuable": false,
        "id": 3800,
        "body": "J'apprécie la concision et la large portée du texte proposé. Une question tout de même : n'y a-t-il un pas un risque de contournement de la loi si, par exemple, les éditeurs mettent en place une rémunération \"symbolique\" des auteurs (genre 1€ par article) et maintiennent les pratiques d'exclusivité ?",
        "created_at": "2015-10-14T10:15:56+0200",
        "updated_at": "2015-10-14T10:15:56+0200",
        "is_enabled": true,
        "votes_count": 12,
        "type": 1,
        "is_trashed": false,
        "author": {
          "username": "Godefroy Beauvallet",
          "displayName": "Godefroy Beauvallet",
          "uniqueId": "godefroybeauvallet",
          "isAdmin": false,
          "media": null,
          "vip": false,
          "_links": {
            "profile": "https://www.republique-numerique.fr/profile/godefroybeauvallet",
            "settings": "https://www.republique-numerique.fr/profile/edit-profile"
          }
        },
        "_links": {
          "show": "https://www.republique-numerique.fr/consultations/projet-de-loi-numerique/consultation/consultation/opinions/section-2-travaux-de-recherche-et-de-statistique/article-9-acces-aux-travaux-de-la-recherche-financee-par-des-fonds-publics/versions/proteger-le-droit-des-auteurs-d-articles-scientifiques-pour-permettre-le-libre-acces-a-la-recherche-scientifique#arg-3800",
          "edit": "https://www.republique-numerique.fr/consultations/projet-de-loi-numerique/consultation/consultation/opinions/section-2-travaux-de-recherche-et-de-statistique/article-9-acces-aux-travaux-de-la-recherche-financee-par-des-fonds-publics/arguments/3800/edit",
          "report": "https://www.republique-numerique.fr/consultations/projet-de-loi-numerique/consultation/consultation/opinions/section-2-travaux-de-recherche-et-de-statistique/article-9-acces-aux-travaux-de-la-recherche-financee-par-des-fonds-publics/arguments/3800/report"
        },
        "has_user_voted": false,
        "has_user_reported": false
      },
      {
        "isContribuable": false,
        "id": 3845,
        "body": "Je me demande si le rédacteur du projet initial n'avait pas confondu \"éditeur\", qui se traduit en anglais par \"publisher\", avec \"rédacteur-en-chef\", qui se traduit en anglais par \"editor\". Que ce soit volontaire ou que ce soit dû à une incompétence, cette confusion n'est qu'un aspect mineur du problème, et le texte est à revoir.",
        "created_at": "2015-10-14T11:36:42+0200",
        "updated_at": "2015-10-14T11:36:42+0200",
        "is_enabled": true,
        "votes_count": 2,
        "type": 1,
        "is_trashed": false,
        "author": {
          "username": "PETITJEAN Michel",
          "displayName": "PETITJEAN Michel",
          "uniqueId": "petitjeanmichel",
          "isAdmin": false,
          "media": null,
          "vip": false,
          "_links": {
            "profile": "https://www.republique-numerique.fr/profile/petitjeanmichel",
            "settings": "https://www.republique-numerique.fr/profile/edit-profile"
          }
        },
        "_links": {
          "show": "https://www.republique-numerique.fr/consultations/projet-de-loi-numerique/consultation/consultation/opinions/section-2-travaux-de-recherche-et-de-statistique/article-9-acces-aux-travaux-de-la-recherche-financee-par-des-fonds-publics/versions/proteger-le-droit-des-auteurs-d-articles-scientifiques-pour-permettre-le-libre-acces-a-la-recherche-scientifique#arg-3845",
          "edit": "https://www.republique-numerique.fr/consultations/projet-de-loi-numerique/consultation/consultation/opinions/section-2-travaux-de-recherche-et-de-statistique/article-9-acces-aux-travaux-de-la-recherche-financee-par-des-fonds-publics/arguments/3845/edit",
          "report": "https://www.republique-numerique.fr/consultations/projet-de-loi-numerique/consultation/consultation/opinions/section-2-travaux-de-recherche-et-de-statistique/article-9-acces-aux-travaux-de-la-recherche-financee-par-des-fonds-publics/arguments/3845/report"
        },
        "has_user_voted": false,
        "has_user_reported": false
      },
      {
        "isContribuable": false,
        "id": 4070,
        "body": "L'accès libre et complet à la connaissance c'est la garantie du progres, et l'une des bases essentielles de la démocratie. ",
        "created_at": "2015-10-14T23:17:24+0200",
        "updated_at": "2015-10-14T23:17:24+0200",
        "is_enabled": true,
        "votes_count": 4,
        "type": 1,
        "is_trashed": false,
        "author": {
          "username": "gressier-soudan",
          "displayName": "gressier-soudan",
          "uniqueId": "gressiersoudan",
          "isAdmin": false,
          "media": null,
          "vip": false,
          "_links": {
            "profile": "https://www.republique-numerique.fr/profile/gressiersoudan",
            "settings": "https://www.republique-numerique.fr/profile/edit-profile"
          }
        },
        "_links": {
          "show": "https://www.republique-numerique.fr/consultations/projet-de-loi-numerique/consultation/consultation/opinions/section-2-travaux-de-recherche-et-de-statistique/article-9-acces-aux-travaux-de-la-recherche-financee-par-des-fonds-publics/versions/proteger-le-droit-des-auteurs-d-articles-scientifiques-pour-permettre-le-libre-acces-a-la-recherche-scientifique#arg-4070",
          "edit": "https://www.republique-numerique.fr/consultations/projet-de-loi-numerique/consultation/consultation/opinions/section-2-travaux-de-recherche-et-de-statistique/article-9-acces-aux-travaux-de-la-recherche-financee-par-des-fonds-publics/arguments/4070/edit",
          "report": "https://www.republique-numerique.fr/consultations/projet-de-loi-numerique/consultation/consultation/opinions/section-2-travaux-de-recherche-et-de-statistique/article-9-acces-aux-travaux-de-la-recherche-financee-par-des-fonds-publics/arguments/4070/report"
        },
        "has_user_voted": false,
        "has_user_reported": false
      },
      {
        "isContribuable": false,
        "id": 4083,
        "body": " \"la  cession exclusive de droits à l'éditeur ,n'est pas admise \" ???\n\ncela veut il dire que l'on sera hors la loi après avoir signé le fameux 'accord pour les droits d’exclusivité aux revues' ? car cet accord, on le donne pour pouvoir publier : on n'a pas vraiment le choix.\n\nsi la loi disait : 'l'état vous protège en cas de litige avec une revue' alors je signe.",
        "created_at": "2015-10-15T00:27:58+0200",
        "updated_at": "2015-10-15T00:27:58+0200",
        "is_enabled": true,
        "votes_count": 1,
        "type": 0,
        "is_trashed": false,
        "author": {
          "username": "André Schroder",
          "displayName": "André Schroder",
          "uniqueId": "andreschroder",
          "isAdmin": false,
          "media": null,
          "vip": false,
          "_links": {
            "profile": "https://www.republique-numerique.fr/profile/andreschroder",
            "settings": "https://www.republique-numerique.fr/profile/edit-profile"
          }
        },
        "_links": {
          "show": "https://www.republique-numerique.fr/consultations/projet-de-loi-numerique/consultation/consultation/opinions/section-2-travaux-de-recherche-et-de-statistique/article-9-acces-aux-travaux-de-la-recherche-financee-par-des-fonds-publics/versions/proteger-le-droit-des-auteurs-d-articles-scientifiques-pour-permettre-le-libre-acces-a-la-recherche-scientifique#arg-4083",
          "edit": "https://www.republique-numerique.fr/consultations/projet-de-loi-numerique/consultation/consultation/opinions/section-2-travaux-de-recherche-et-de-statistique/article-9-acces-aux-travaux-de-la-recherche-financee-par-des-fonds-publics/arguments/4083/edit",
          "report": "https://www.republique-numerique.fr/consultations/projet-de-loi-numerique/consultation/consultation/opinions/section-2-travaux-de-recherche-et-de-statistique/article-9-acces-aux-travaux-de-la-recherche-financee-par-des-fonds-publics/arguments/4083/report"
        },
        "has_user_voted": false,
        "has_user_reported": false
      },
      {
        "isContribuable": false,
        "id": 4106,
        "body": "@AndreSchroder: il est conseille de *lire* en entier la proposition.\nElle se termine par \"Les dispositions du présent article sont d’ordre public et toute clause contraire à celles-ci est réputée non écrite.\"\nCela veut dire que meme si le contrat editeur que vous signez mentionne une cession exclusive, cette cession exclusive est nulle. Il n'y a pas de litige: la loi est plus forte qu'on contrat prive.",
        "created_at": "2015-10-15T09:04:48+0200",
        "updated_at": "2015-10-15T09:04:48+0200",
        "is_enabled": true,
        "votes_count": 13,
        "type": 1,
        "is_trashed": false,
        "author": {
          "username": "Roberto Di Cosmo",
          "displayName": "Roberto Di Cosmo",
          "uniqueId": "robertodicosmo",
          "isAdmin": false,
          "media": null,
          "vip": false,
          "_links": {
            "profile": "https://www.republique-numerique.fr/profile/robertodicosmo",
            "settings": "https://www.republique-numerique.fr/profile/edit-profile"
          }
        },
        "_links": {
          "show": "https://www.republique-numerique.fr/consultations/projet-de-loi-numerique/consultation/consultation/opinions/section-2-travaux-de-recherche-et-de-statistique/article-9-acces-aux-travaux-de-la-recherche-financee-par-des-fonds-publics/versions/proteger-le-droit-des-auteurs-d-articles-scientifiques-pour-permettre-le-libre-acces-a-la-recherche-scientifique#arg-4106",
          "edit": "https://www.republique-numerique.fr/consultations/projet-de-loi-numerique/consultation/consultation/opinions/section-2-travaux-de-recherche-et-de-statistique/article-9-acces-aux-travaux-de-la-recherche-financee-par-des-fonds-publics/arguments/4106/edit",
          "report": "https://www.republique-numerique.fr/consultations/projet-de-loi-numerique/consultation/consultation/opinions/section-2-travaux-de-recherche-et-de-statistique/article-9-acces-aux-travaux-de-la-recherche-financee-par-des-fonds-publics/arguments/4106/report"
        },
        "has_user_voted": false,
        "has_user_reported": false
      },
      {
        "isContribuable": false,
        "id": 4107,
        "body": "@GodefroyBeauvallet : c'est une bonne remarque. Idealement, on aimerait supprimer le \"sans remuneration de son auteur\". A noter pour le debat legislatif.",
        "created_at": "2015-10-15T09:06:13+0200",
        "updated_at": "2015-10-15T09:06:13+0200",
        "is_enabled": true,
        "votes_count": 6,
        "type": 1,
        "is_trashed": false,
        "author": {
          "username": "Roberto Di Cosmo",
          "displayName": "Roberto Di Cosmo",
          "uniqueId": "robertodicosmo",
          "isAdmin": false,
          "media": null,
          "vip": false,
          "_links": {
            "profile": "https://www.republique-numerique.fr/profile/robertodicosmo",
            "settings": "https://www.republique-numerique.fr/profile/edit-profile"
          }
        },
        "_links": {
          "show": "https://www.republique-numerique.fr/consultations/projet-de-loi-numerique/consultation/consultation/opinions/section-2-travaux-de-recherche-et-de-statistique/article-9-acces-aux-travaux-de-la-recherche-financee-par-des-fonds-publics/versions/proteger-le-droit-des-auteurs-d-articles-scientifiques-pour-permettre-le-libre-acces-a-la-recherche-scientifique#arg-4107",
          "edit": "https://www.republique-numerique.fr/consultations/projet-de-loi-numerique/consultation/consultation/opinions/section-2-travaux-de-recherche-et-de-statistique/article-9-acces-aux-travaux-de-la-recherche-financee-par-des-fonds-publics/arguments/4107/edit",
          "report": "https://www.republique-numerique.fr/consultations/projet-de-loi-numerique/consultation/consultation/opinions/section-2-travaux-de-recherche-et-de-statistique/article-9-acces-aux-travaux-de-la-recherche-financee-par-des-fonds-publics/arguments/4107/report"
        },
        "has_user_voted": false,
        "has_user_reported": false
      },
      {
        "isContribuable": false,
        "id": 4108,
        "body": "La condition « sans rémunération de son auteur » est dangereuse : les éditeurs vont proposer une rémunération de 1€ aux auteurs publiés.",
        "created_at": "2015-10-15T09:06:47+0200",
        "updated_at": "2015-10-15T09:06:47+0200",
        "is_enabled": true,
        "votes_count": 14,
        "type": 0,
        "is_trashed": false,
        "author": {
          "username": "Adrien Cordonnier",
          "displayName": "Adrien Cordonnier",
          "uniqueId": "adriencordonnier",
          "isAdmin": false,
          "media": null,
          "vip": false,
          "_links": {
            "profile": "https://www.republique-numerique.fr/profile/adriencordonnier",
            "settings": "https://www.republique-numerique.fr/profile/edit-profile"
          }
        },
        "_links": {
          "show": "https://www.republique-numerique.fr/consultations/projet-de-loi-numerique/consultation/consultation/opinions/section-2-travaux-de-recherche-et-de-statistique/article-9-acces-aux-travaux-de-la-recherche-financee-par-des-fonds-publics/versions/proteger-le-droit-des-auteurs-d-articles-scientifiques-pour-permettre-le-libre-acces-a-la-recherche-scientifique#arg-4108",
          "edit": "https://www.republique-numerique.fr/consultations/projet-de-loi-numerique/consultation/consultation/opinions/section-2-travaux-de-recherche-et-de-statistique/article-9-acces-aux-travaux-de-la-recherche-financee-par-des-fonds-publics/arguments/4108/edit",
          "report": "https://www.republique-numerique.fr/consultations/projet-de-loi-numerique/consultation/consultation/opinions/section-2-travaux-de-recherche-et-de-statistique/article-9-acces-aux-travaux-de-la-recherche-financee-par-des-fonds-publics/arguments/4108/report"
        },
        "has_user_voted": false,
        "has_user_reported": false
      },
      {
        "isContribuable": false,
        "id": 4109,
        "body": "Entièrement d'accord avec cette proposition. En ces temps de disette budgétaire de l'ESR, la confiscation du savoir et le racket des universités et des laboratoires par les éditeurs scientifiques, qui nous revendent chèrement l'accès à nos propres travaux, a assez duré. Leur modèle économique hérité de l'ère pré-numérique, où l'impression et la distribution physique des articles étaient nécessaires, n'a plus lieu d'être. Les archives ouvertes et gratuites sont l'unique source de salut pour l'avenir de la recherche. La loi doit aller sans ambiguïté dans ce sens. ",
        "created_at": "2015-10-15T09:09:39+0200",
        "updated_at": "2015-10-15T09:09:39+0200",
        "is_enabled": true,
        "votes_count": 5,
        "type": 1,
        "is_trashed": false,
        "author": {
          "username": "Thibault Cholez",
          "displayName": "Thibault Cholez",
          "uniqueId": "thibaultcholez",
          "isAdmin": false,
          "media": null,
          "vip": false,
          "_links": {
            "profile": "https://www.republique-numerique.fr/profile/thibaultcholez",
            "settings": "https://www.republique-numerique.fr/profile/edit-profile"
          }
        },
        "_links": {
          "show": "https://www.republique-numerique.fr/consultations/projet-de-loi-numerique/consultation/consultation/opinions/section-2-travaux-de-recherche-et-de-statistique/article-9-acces-aux-travaux-de-la-recherche-financee-par-des-fonds-publics/versions/proteger-le-droit-des-auteurs-d-articles-scientifiques-pour-permettre-le-libre-acces-a-la-recherche-scientifique#arg-4109",
          "edit": "https://www.republique-numerique.fr/consultations/projet-de-loi-numerique/consultation/consultation/opinions/section-2-travaux-de-recherche-et-de-statistique/article-9-acces-aux-travaux-de-la-recherche-financee-par-des-fonds-publics/arguments/4109/edit",
          "report": "https://www.republique-numerique.fr/consultations/projet-de-loi-numerique/consultation/consultation/opinions/section-2-travaux-de-recherche-et-de-statistique/article-9-acces-aux-travaux-de-la-recherche-financee-par-des-fonds-publics/arguments/4109/report"
        },
        "has_user_voted": false,
        "has_user_reported": false
      },
      {
        "isContribuable": false,
        "id": 4126,
        "body": "L'État a trop longtemps payé deux fois : d'abord ses employé-e-s des instituts de recherche qui font le travail de sélection et de compilation des articles pour les revues et journaux, puis les éditeurs pour simplement accéder aux fruits de ce travail.  Et tout cela avec un coût supplémentaire : celui de rendre les travaux de recherche pourtant payés par les impôts inaccessibles aux contribuables.\n\nCette contribution va aider à corriger cette faute.",
        "created_at": "2015-10-15T10:09:53+0200",
        "updated_at": "2015-10-15T10:09:53+0200",
        "is_enabled": true,
        "votes_count": 7,
        "type": 1,
        "is_trashed": false,
        "author": {
          "username": "Ludovic Courtès",
          "displayName": "Ludovic Courtès",
          "uniqueId": "ludoviccourtes",
          "isAdmin": false,
          "media": null,
          "vip": false,
          "_links": {
            "profile": "https://www.republique-numerique.fr/profile/ludoviccourtes",
            "settings": "https://www.republique-numerique.fr/profile/edit-profile"
          }
        },
        "_links": {
          "show": "https://www.republique-numerique.fr/consultations/projet-de-loi-numerique/consultation/consultation/opinions/section-2-travaux-de-recherche-et-de-statistique/article-9-acces-aux-travaux-de-la-recherche-financee-par-des-fonds-publics/versions/proteger-le-droit-des-auteurs-d-articles-scientifiques-pour-permettre-le-libre-acces-a-la-recherche-scientifique#arg-4126",
          "edit": "https://www.republique-numerique.fr/consultations/projet-de-loi-numerique/consultation/consultation/opinions/section-2-travaux-de-recherche-et-de-statistique/article-9-acces-aux-travaux-de-la-recherche-financee-par-des-fonds-publics/arguments/4126/edit",
          "report": "https://www.republique-numerique.fr/consultations/projet-de-loi-numerique/consultation/consultation/opinions/section-2-travaux-de-recherche-et-de-statistique/article-9-acces-aux-travaux-de-la-recherche-financee-par-des-fonds-publics/arguments/4126/report"
        },
        "has_user_voted": false,
        "has_user_reported": false
      },
      {
        "isContribuable": false,
        "id": 4137,
        "body": "D'accord avec la proposition qui me semble la plus progressiste. Attention cependant à l'ajout de \"sans rémunération\" qui pourrait être mal interprété (cf. argument contre d'Adrien Cordonnier). ",
        "created_at": "2015-10-15T11:07:13+0200",
        "updated_at": "2015-10-15T11:07:13+0200",
        "is_enabled": true,
        "votes_count": 3,
        "type": 1,
        "is_trashed": false,
        "author": {
          "username": "Francis Lazarus",
          "displayName": "Francis Lazarus",
          "uniqueId": "francislazarus",
          "isAdmin": false,
          "media": null,
          "vip": false,
          "_links": {
            "profile": "https://www.republique-numerique.fr/profile/francislazarus",
            "settings": "https://www.republique-numerique.fr/profile/edit-profile"
          }
        },
        "_links": {
          "show": "https://www.republique-numerique.fr/consultations/projet-de-loi-numerique/consultation/consultation/opinions/section-2-travaux-de-recherche-et-de-statistique/article-9-acces-aux-travaux-de-la-recherche-financee-par-des-fonds-publics/versions/proteger-le-droit-des-auteurs-d-articles-scientifiques-pour-permettre-le-libre-acces-a-la-recherche-scientifique#arg-4137",
          "edit": "https://www.republique-numerique.fr/consultations/projet-de-loi-numerique/consultation/consultation/opinions/section-2-travaux-de-recherche-et-de-statistique/article-9-acces-aux-travaux-de-la-recherche-financee-par-des-fonds-publics/arguments/4137/edit",
          "report": "https://www.republique-numerique.fr/consultations/projet-de-loi-numerique/consultation/consultation/opinions/section-2-travaux-de-recherche-et-de-statistique/article-9-acces-aux-travaux-de-la-recherche-financee-par-des-fonds-publics/arguments/4137/report"
        },
        "has_user_voted": false,
        "has_user_reported": false
      },
      {
        "isContribuable": false,
        "id": 4143,
        "body": "Un accès immédiat et sans lien avec les sources de financement est conforme à nombre de recommandations, y compris celles du CNRS.\n\nUn exemple (parmi d'autres !) où un tel accès serait particulièrement important est le secteur de la médecine. Les médecins sans affiliation universitaire n'ont pas accès aux articles de recherche originaux, seulement aux résumés de la presse ou aux versions filtrées par les laboratoires. Un tel amendement leur permettrait de puiser leur information à la source.\n\nDe nombreuses universités doivent en outre, à cause de difficultés budgétaires, annuler certains abonnements particulièrement onéreux. Leurs chercheurs perdent l'accès à une partie des publications.",
        "created_at": "2015-10-15T11:18:59+0200",
        "updated_at": "2015-10-15T11:18:59+0200",
        "is_enabled": true,
        "votes_count": 7,
        "type": 1,
        "is_trashed": false,
        "author": {
          "username": "hipparkhos",
          "displayName": "hipparkhos",
          "uniqueId": "hipparkhos",
          "isAdmin": false,
          "media": null,
          "vip": false,
          "_links": {
            "profile": "https://www.republique-numerique.fr/profile/hipparkhos",
            "settings": "https://www.republique-numerique.fr/profile/edit-profile"
          }
        },
        "_links": {
          "show": "https://www.republique-numerique.fr/consultations/projet-de-loi-numerique/consultation/consultation/opinions/section-2-travaux-de-recherche-et-de-statistique/article-9-acces-aux-travaux-de-la-recherche-financee-par-des-fonds-publics/versions/proteger-le-droit-des-auteurs-d-articles-scientifiques-pour-permettre-le-libre-acces-a-la-recherche-scientifique#arg-4143",
          "edit": "https://www.republique-numerique.fr/consultations/projet-de-loi-numerique/consultation/consultation/opinions/section-2-travaux-de-recherche-et-de-statistique/article-9-acces-aux-travaux-de-la-recherche-financee-par-des-fonds-publics/arguments/4143/edit",
          "report": "https://www.republique-numerique.fr/consultations/projet-de-loi-numerique/consultation/consultation/opinions/section-2-travaux-de-recherche-et-de-statistique/article-9-acces-aux-travaux-de-la-recherche-financee-par-des-fonds-publics/arguments/4143/report"
        },
        "has_user_voted": false,
        "has_user_reported": false
      },
      {
        "isContribuable": false,
        "id": 4167,
        "body": "Je viens de recevoir une suggestion tres pertinente: changer \"remuneration\" en \"juste remuneration\", si on ne peut pas supprimer remuneration tout court",
        "created_at": "2015-10-15T12:20:10+0200",
        "updated_at": "2015-10-15T12:20:10+0200",
        "is_enabled": true,
        "votes_count": 11,
        "type": 1,
        "is_trashed": false,
        "author": {
          "username": "Roberto Di Cosmo",
          "displayName": "Roberto Di Cosmo",
          "uniqueId": "robertodicosmo",
          "isAdmin": false,
          "media": null,
          "vip": false,
          "_links": {
            "profile": "https://www.republique-numerique.fr/profile/robertodicosmo",
            "settings": "https://www.republique-numerique.fr/profile/edit-profile"
          }
        },
        "_links": {
          "show": "https://www.republique-numerique.fr/consultations/projet-de-loi-numerique/consultation/consultation/opinions/section-2-travaux-de-recherche-et-de-statistique/article-9-acces-aux-travaux-de-la-recherche-financee-par-des-fonds-publics/versions/proteger-le-droit-des-auteurs-d-articles-scientifiques-pour-permettre-le-libre-acces-a-la-recherche-scientifique#arg-4167",
          "edit": "https://www.republique-numerique.fr/consultations/projet-de-loi-numerique/consultation/consultation/opinions/section-2-travaux-de-recherche-et-de-statistique/article-9-acces-aux-travaux-de-la-recherche-financee-par-des-fonds-publics/arguments/4167/edit",
          "report": "https://www.republique-numerique.fr/consultations/projet-de-loi-numerique/consultation/consultation/opinions/section-2-travaux-de-recherche-et-de-statistique/article-9-acces-aux-travaux-de-la-recherche-financee-par-des-fonds-publics/arguments/4167/report"
        },
        "has_user_voted": false,
        "has_user_reported": false
      },
      {
        "isContribuable": false,
        "id": 4229,
        "body": "Bonjour\nOk sur le principe mais il me semble que les droits d'auteurs des chercheurs qui produisent un travail dans le cadre de leur emploi (public ou non) ne devraient pas leur appartenir exclusivement, mais appartenir aussi à leur employeur, en général, donc, l'Etat. Et que l'Etat devrait tout simplement ne pas avoir le droit de les céder, dans la mesure où c'est la collectivité qui a financé les travaux. Seule l'exploitation devrait pouvoir être cédée, cf les restrictions pour les employés publics américains ou les employés des universités britanniques.",
        "created_at": "2015-10-15T14:47:25+0200",
        "updated_at": "2015-10-15T14:47:25+0200",
        "is_enabled": true,
        "votes_count": 8,
        "type": 0,
        "is_trashed": false,
        "author": {
          "username": "Antonin Chambolle",
          "displayName": "Antonin Chambolle",
          "uniqueId": "antoninchambolle",
          "isAdmin": false,
          "media": null,
          "vip": false,
          "_links": {
            "profile": "https://www.republique-numerique.fr/profile/antoninchambolle",
            "settings": "https://www.republique-numerique.fr/profile/edit-profile"
          }
        },
        "_links": {
          "show": "https://www.republique-numerique.fr/consultations/projet-de-loi-numerique/consultation/consultation/opinions/section-2-travaux-de-recherche-et-de-statistique/article-9-acces-aux-travaux-de-la-recherche-financee-par-des-fonds-publics/versions/proteger-le-droit-des-auteurs-d-articles-scientifiques-pour-permettre-le-libre-acces-a-la-recherche-scientifique#arg-4229",
          "edit": "https://www.republique-numerique.fr/consultations/projet-de-loi-numerique/consultation/consultation/opinions/section-2-travaux-de-recherche-et-de-statistique/article-9-acces-aux-travaux-de-la-recherche-financee-par-des-fonds-publics/arguments/4229/edit",
          "report": "https://www.republique-numerique.fr/consultations/projet-de-loi-numerique/consultation/consultation/opinions/section-2-travaux-de-recherche-et-de-statistique/article-9-acces-aux-travaux-de-la-recherche-financee-par-des-fonds-publics/arguments/4229/report"
        },
        "has_user_voted": false,
        "has_user_reported": false
      },
      {
        "isContribuable": false,
        "id": 4520,
        "body": "@AntoninChambolle c'est bien la position des US et des UK pour les fonctionnaires, mais en France on est très attachés au droit d'auteur, et on a au contraire élargi les droits des auteurs dans la fonction publique.\r\nIl ne faut pas que cela serve simplement a facilite la captation de notre travail, gratuitement de plus, par des entreprises privés qui n'apportent rien à la société.",
        "created_at": "2015-10-16T09:03:50+0200",
        "updated_at": "2015-10-16T09:04:32+0200",
        "is_enabled": true,
        "votes_count": 3,
        "type": 1,
        "is_trashed": false,
        "author": {
          "username": "Roberto Di Cosmo",
          "displayName": "Roberto Di Cosmo",
          "uniqueId": "robertodicosmo",
          "isAdmin": false,
          "media": null,
          "vip": false,
          "_links": {
            "profile": "https://www.republique-numerique.fr/profile/robertodicosmo",
            "settings": "https://www.republique-numerique.fr/profile/edit-profile"
          }
        },
        "_links": {
          "show": "https://www.republique-numerique.fr/consultations/projet-de-loi-numerique/consultation/consultation/opinions/section-2-travaux-de-recherche-et-de-statistique/article-9-acces-aux-travaux-de-la-recherche-financee-par-des-fonds-publics/versions/proteger-le-droit-des-auteurs-d-articles-scientifiques-pour-permettre-le-libre-acces-a-la-recherche-scientifique#arg-4520",
          "edit": "https://www.republique-numerique.fr/consultations/projet-de-loi-numerique/consultation/consultation/opinions/section-2-travaux-de-recherche-et-de-statistique/article-9-acces-aux-travaux-de-la-recherche-financee-par-des-fonds-publics/arguments/4520/edit",
          "report": "https://www.republique-numerique.fr/consultations/projet-de-loi-numerique/consultation/consultation/opinions/section-2-travaux-de-recherche-et-de-statistique/article-9-acces-aux-travaux-de-la-recherche-financee-par-des-fonds-publics/arguments/4520/report"
        },
        "has_user_voted": false,
        "has_user_reported": false
      },
      {
        "isContribuable": false,
        "id": 5310,
        "body": "Ces embargos sont vraiment handicapants pour les chercheurs",
        "created_at": "2015-10-17T15:47:29+0200",
        "updated_at": "2015-10-17T15:47:55+0200",
        "is_enabled": true,
        "votes_count": 0,
        "type": 1,
        "is_trashed": false,
        "author": {
          "username": "Anthony Masure",
          "displayName": "Anthony Masure",
          "uniqueId": "anthonymasure",
          "isAdmin": false,
          "media": null,
          "vip": false,
          "_links": {
            "profile": "https://www.republique-numerique.fr/profile/anthonymasure",
            "settings": "https://www.republique-numerique.fr/profile/edit-profile"
          }
        },
        "_links": {
          "show": "https://www.republique-numerique.fr/consultations/projet-de-loi-numerique/consultation/consultation/opinions/section-2-travaux-de-recherche-et-de-statistique/article-9-acces-aux-travaux-de-la-recherche-financee-par-des-fonds-publics/versions/proteger-le-droit-des-auteurs-d-articles-scientifiques-pour-permettre-le-libre-acces-a-la-recherche-scientifique#arg-5310",
          "edit": "https://www.republique-numerique.fr/consultations/projet-de-loi-numerique/consultation/consultation/opinions/section-2-travaux-de-recherche-et-de-statistique/article-9-acces-aux-travaux-de-la-recherche-financee-par-des-fonds-publics/arguments/5310/edit",
          "report": "https://www.republique-numerique.fr/consultations/projet-de-loi-numerique/consultation/consultation/opinions/section-2-travaux-de-recherche-et-de-statistique/article-9-acces-aux-travaux-de-la-recherche-financee-par-des-fonds-publics/arguments/5310/report"
        },
        "has_user_voted": false,
        "has_user_reported": false
      },
      {
        "isContribuable": false,
        "id": 5540,
        "body": "Merci pour cette réécriture claire, sans compromis et qui reflète la nature du travail de recherche.",
        "created_at": "2015-10-17T21:01:57+0200",
        "updated_at": "2015-10-17T21:01:57+0200",
        "is_enabled": true,
        "votes_count": 1,
        "type": 1,
        "is_trashed": false,
        "author": {
          "username": "Pierre-Louis Curien",
          "displayName": "Pierre-Louis Curien",
          "uniqueId": "pierrelouiscurien",
          "isAdmin": false,
          "media": null,
          "vip": false,
          "_links": {
            "profile": "https://www.republique-numerique.fr/profile/pierrelouiscurien",
            "settings": "https://www.republique-numerique.fr/profile/edit-profile"
          }
        },
        "_links": {
          "show": "https://www.republique-numerique.fr/consultations/projet-de-loi-numerique/consultation/consultation/opinions/section-2-travaux-de-recherche-et-de-statistique/article-9-acces-aux-travaux-de-la-recherche-financee-par-des-fonds-publics/versions/proteger-le-droit-des-auteurs-d-articles-scientifiques-pour-permettre-le-libre-acces-a-la-recherche-scientifique#arg-5540",
          "edit": "https://www.republique-numerique.fr/consultations/projet-de-loi-numerique/consultation/consultation/opinions/section-2-travaux-de-recherche-et-de-statistique/article-9-acces-aux-travaux-de-la-recherche-financee-par-des-fonds-publics/arguments/5540/edit",
          "report": "https://www.republique-numerique.fr/consultations/projet-de-loi-numerique/consultation/consultation/opinions/section-2-travaux-de-recherche-et-de-statistique/article-9-acces-aux-travaux-de-la-recherche-financee-par-des-fonds-publics/arguments/5540/report"
        },
        "has_user_voted": false,
        "has_user_reported": false
      },
      {
        "isContribuable": false,
        "id": 6079,
        "body": "d'accord pour empêcher la cession exclusive, mais pourquoi juste pour celles qui ne prévoient pas de rémunération ?",
        "created_at": "2015-10-18T20:40:17+0200",
        "updated_at": "2015-10-18T20:40:17+0200",
        "is_enabled": true,
        "votes_count": 0,
        "type": 1,
        "is_trashed": false,
        "author": {
          "username": "melanie dulong de rosnay",
          "displayName": "melanie dulong de rosnay",
          "uniqueId": "melaniedulongderosnay",
          "isAdmin": false,
          "media": {
            "url": "/media/cache/default_avatar/default/0001/02/1033_default_avatar.jpg"
          },
          "vip": false,
          "_links": {
            "profile": "https://www.republique-numerique.fr/profile/melaniedulongderosnay",
            "settings": "https://www.republique-numerique.fr/profile/edit-profile"
          }
        },
        "_links": {
          "show": "https://www.republique-numerique.fr/consultations/projet-de-loi-numerique/consultation/consultation/opinions/section-2-travaux-de-recherche-et-de-statistique/article-9-acces-aux-travaux-de-la-recherche-financee-par-des-fonds-publics/versions/proteger-le-droit-des-auteurs-d-articles-scientifiques-pour-permettre-le-libre-acces-a-la-recherche-scientifique#arg-6079",
          "edit": "https://www.republique-numerique.fr/consultations/projet-de-loi-numerique/consultation/consultation/opinions/section-2-travaux-de-recherche-et-de-statistique/article-9-acces-aux-travaux-de-la-recherche-financee-par-des-fonds-publics/arguments/6079/edit",
          "report": "https://www.republique-numerique.fr/consultations/projet-de-loi-numerique/consultation/consultation/opinions/section-2-travaux-de-recherche-et-de-statistique/article-9-acces-aux-travaux-de-la-recherche-financee-par-des-fonds-publics/arguments/6079/report"
        },
        "has_user_voted": false,
        "has_user_reported": false
      },
      {
        "isContribuable": false,
        "id": 6084,
        "body": "La présence d'un embargo de dépôt signale une confusion entre la communication scientifique, d'une part, et les intérêts commerciaux de maisons d'édition, d'autre part. Si l'on a en tête la nécessité de favoriser la communication scientifique pour permettre le progrès scientifique le plus rapide et le plus efficace, il faut tout simplement placer les besoins de la communication scientifique clairement en priorité absolue. Ensuite on peut commencer à imaginer le chemin qui permet de passer de la situation actuelle à une situation meilleure et différente. À ce sujet, des infrastructures en Amérique latine comme SciELO et Redalyc peuvent donner des exemples de communication scientifique où le coût de la validation et de la dissémination de la recherche est pris en chage par des fonds publics (tout en préservant la liberté éditorial des vecteurs de dissémination).\n\nVu du Canada, cette question d'embargos est totalement contre-productive pour la culture d'expression française. La plupart des revues sérieuses publiées en France sont confidentielles ou presque. Les cacher derrière une barrière pécuniaire alors que la langue française elle-même ne dispose plus de cette universalité qui en faisait la force au XIXe et début du XXe siècle, signifie que la production intellectuelle de France va se trouver marginalisée encore plus rapidement qu'elle ne l,est actuellement.\n\nRenforcer revues. org et, pour ouvrir le jeu, susciter la création d'une ou deux autres plates-formes autres pour accueillir les revues françaises, et soutenir cela avec des règles d'autonomie éditoriale et de sécurité financière claires permettrait à toute la production intellectuelle française de briller dans le monde. Il en résulterait aussi de sérieuses économie pour le gouvernement français puisqu'il subventionne déjà des revues gérées par des entreprises commerciales, et il absorbe en plus le poids de profits souvent excessifs.\n\n",
        "created_at": "2015-10-18T20:49:14+0200",
        "updated_at": "2015-10-18T20:49:14+0200",
        "is_enabled": true,
        "votes_count": 0,
        "type": 1,
        "is_trashed": false,
        "author": {
          "username": "Jean-Claude Guédon",
          "displayName": "Jean-Claude Guédon",
          "uniqueId": "jeanclaudeguedon",
          "isAdmin": false,
          "media": null,
          "vip": false,
          "_links": {
            "profile": "https://www.republique-numerique.fr/profile/jeanclaudeguedon",
            "settings": "https://www.republique-numerique.fr/profile/edit-profile"
          }
        },
        "_links": {
          "show": "https://www.republique-numerique.fr/consultations/projet-de-loi-numerique/consultation/consultation/opinions/section-2-travaux-de-recherche-et-de-statistique/article-9-acces-aux-travaux-de-la-recherche-financee-par-des-fonds-publics/versions/proteger-le-droit-des-auteurs-d-articles-scientifiques-pour-permettre-le-libre-acces-a-la-recherche-scientifique#arg-6084",
          "edit": "https://www.republique-numerique.fr/consultations/projet-de-loi-numerique/consultation/consultation/opinions/section-2-travaux-de-recherche-et-de-statistique/article-9-acces-aux-travaux-de-la-recherche-financee-par-des-fonds-publics/arguments/6084/edit",
          "report": "https://www.republique-numerique.fr/consultations/projet-de-loi-numerique/consultation/consultation/opinions/section-2-travaux-de-recherche-et-de-statistique/article-9-acces-aux-travaux-de-la-recherche-financee-par-des-fonds-publics/arguments/6084/report"
        },
        "has_user_voted": false,
        "has_user_reported": false
      },
      {
        "isContribuable": false,
        "id": 6179,
        "body": "L'article 9 tel qu'écrit dans le projet de loi représente une régression inacceptable des droits des chercheurs.",
        "created_at": "2015-10-18T23:07:48+0200",
        "updated_at": "2015-10-18T23:07:48+0200",
        "is_enabled": true,
        "votes_count": 0,
        "type": 1,
        "is_trashed": false,
        "author": {
          "username": "Marie DEBACQ",
          "displayName": "Marie DEBACQ",
          "uniqueId": "mariedebacq1",
          "isAdmin": false,
          "media": null,
          "vip": false,
          "_links": {
            "profile": "https://www.republique-numerique.fr/profile/mariedebacq1",
            "settings": "https://www.republique-numerique.fr/profile/edit-profile"
          }
        },
        "_links": {
          "show": "https://www.republique-numerique.fr/consultations/projet-de-loi-numerique/consultation/consultation/opinions/section-2-travaux-de-recherche-et-de-statistique/article-9-acces-aux-travaux-de-la-recherche-financee-par-des-fonds-publics/versions/proteger-le-droit-des-auteurs-d-articles-scientifiques-pour-permettre-le-libre-acces-a-la-recherche-scientifique#arg-6179",
          "edit": "https://www.republique-numerique.fr/consultations/projet-de-loi-numerique/consultation/consultation/opinions/section-2-travaux-de-recherche-et-de-statistique/article-9-acces-aux-travaux-de-la-recherche-financee-par-des-fonds-publics/arguments/6179/edit",
          "report": "https://www.republique-numerique.fr/consultations/projet-de-loi-numerique/consultation/consultation/opinions/section-2-travaux-de-recherche-et-de-statistique/article-9-acces-aux-travaux-de-la-recherche-financee-par-des-fonds-publics/arguments/6179/report"
        },
        "has_user_voted": false,
        "has_user_reported": false
      }
    ],
    "sources": [
      {
        "isContribuable": false,
        "id": 304,
        "title": "The Cost of Knowledge",
        "link": "https://gowers.files.wordpress.com/2012/02/elsevierstatementfinal.pdf",
        "body": "\"This is an attempt to describe some of the background to the current boycott of Elsevier by many mathematicians (and other academics) at http://thecostofknowledge.com, and to present some of the issues that confront the boycott movement. Although the movement is anything but monolithic, we believe that the points we make here will resonate with many of the signatories to the boycott.\"\n\nCf. aussi: http://thecostofknowledge.com/",
        "created_at": "2015-10-13T09:06:41+0200",
        "updated_at": "2015-10-13T09:06:41+0200",
        "author": {
          "username": "Stefane Fermigier",
          "displayName": "Stefane Fermigier",
          "uniqueId": "stefanefermigier",
          "isAdmin": false,
          "media": {
            "url": "/media/cache/default_avatar/default/0001/01/563_default_avatar.jpg"
          },
          "vip": false,
          "_links": {
            "profile": "https://www.republique-numerique.fr/profile/stefanefermigier",
            "settings": "https://www.republique-numerique.fr/profile/edit-profile"
          }
        },
        "category": "Rapport / Étude",
        "votes_count": 4,
        "_links": {
          "edit": "https://www.republique-numerique.fr/consultations/projet-de-loi-numerique/consultation/consultation/opinions/section-2-travaux-de-recherche-et-de-statistique/article-9-acces-aux-travaux-de-la-recherche-financee-par-des-fonds-publics/sources/the-cost-of-knowledge/edit",
          "report": "https://www.republique-numerique.fr/consultations/projet-de-loi-numerique/consultation/consultation/opinions/section-2-travaux-de-recherche-et-de-statistique/article-9-acces-aux-travaux-de-la-recherche-financee-par-des-fonds-publics/sources/the-cost-of-knowledge/report"
        },
        "has_user_voted": false,
        "has_user_reported": false
      },
      {
        "isContribuable": false,
        "id": 321,
        "title": "Analyse de l'article 9 dans sa version originaire, et explication de l'amendement propose",
        "link": "http://www.dicosmo.org/MyOpinions/index.php/2015/10/14/140-reprenons-nos-droits-sur-nos-articles-scientifiques",
        "body": "Une analyse detaillee des limitations de la redaction actuelle de l'article 9, et une explication des motivations pour l'amentement ici propose.",
        "created_at": "2015-10-14T21:16:24+0200",
        "updated_at": "2015-10-14T21:16:24+0200",
        "author": {
          "username": "Roberto Di Cosmo",
          "displayName": "Roberto Di Cosmo",
          "uniqueId": "robertodicosmo",
          "isAdmin": false,
          "media": null,
          "vip": false,
          "_links": {
            "profile": "https://www.republique-numerique.fr/profile/robertodicosmo",
            "settings": "https://www.republique-numerique.fr/profile/edit-profile"
          }
        },
        "category": "Billet de blog",
        "votes_count": 2,
        "_links": {
          "edit": "https://www.republique-numerique.fr/consultations/projet-de-loi-numerique/consultation/consultation/opinions/section-2-travaux-de-recherche-et-de-statistique/article-9-acces-aux-travaux-de-la-recherche-financee-par-des-fonds-publics/sources/analyse-de-l-article-9-dans-sa-version-originaire-et-explication-de-l-amendement-propose/edit",
          "report": "https://www.republique-numerique.fr/consultations/projet-de-loi-numerique/consultation/consultation/opinions/section-2-travaux-de-recherche-et-de-statistique/article-9-acces-aux-travaux-de-la-recherche-financee-par-des-fonds-publics/sources/analyse-de-l-article-9-dans-sa-version-originaire-et-explication-de-l-amendement-propose/report"
        },
        "has_user_voted": false,
        "has_user_reported": false
      },
      {
        "isContribuable": false,
        "id": 322,
        "title": "Publication scientifique: le rôle des États dans l'ère des TIC",
        "link": "http://www.dicosmo.org/FSP/index.html",
        "body": "Article datant de 2005, fruit de nombreuses discussions avec des bibliotecaires, des collegues informaticiens, mathematiciens, et autres.\nContient une analyse detaillee du fonctionnement de la publication scientifique, et de comment le mariage entre auteurs et editeurs scientifiques, cimenté par une claire communauté d'intérêts à l'ère du livre papier, a viré au divorce sanglant avec l'arrivée du numérique.\nPropose une approche (la suppression du droit patrimonial sur les articles scientifiques finances sur fonds publics) calquée sur l'approche Américaine ou Britannique.\nCette approche paraît aujourd'hui inappropriée par rapport à la tradition du droit d'auteur Française, et est donc supplantée par la proposition d'amendement presentée ici. Mais tout le reste de l'analyse reste d'une puissante actualité.",
        "created_at": "2015-10-14T21:23:40+0200",
        "updated_at": "2015-10-14T21:23:40+0200",
        "author": {
          "username": "Roberto Di Cosmo",
          "displayName": "Roberto Di Cosmo",
          "uniqueId": "robertodicosmo",
          "isAdmin": false,
          "media": null,
          "vip": false,
          "_links": {
            "profile": "https://www.republique-numerique.fr/profile/robertodicosmo",
            "settings": "https://www.republique-numerique.fr/profile/edit-profile"
          }
        },
        "category": "Article scientifique",
        "votes_count": 2,
        "_links": {
          "edit": "https://www.republique-numerique.fr/consultations/projet-de-loi-numerique/consultation/consultation/opinions/section-2-travaux-de-recherche-et-de-statistique/article-9-acces-aux-travaux-de-la-recherche-financee-par-des-fonds-publics/sources/publication-scientifique-le-role-des-etats-dans-l-ere-des-tic/edit",
          "report": "https://www.republique-numerique.fr/consultations/projet-de-loi-numerique/consultation/consultation/opinions/section-2-travaux-de-recherche-et-de-statistique/article-9-acces-aux-travaux-de-la-recherche-financee-par-des-fonds-publics/sources/publication-scientifique-le-role-des-etats-dans-l-ere-des-tic/report"
        },
        "has_user_voted": false,
        "has_user_reported": false
      }
    ],
    "parent": {
      "isContribuable": false,
      "id": 69,
      "body": "<p>Au chapitre 3 du titre 3 du livre V du code de la recherche, il est ins&eacute;r&eacute; un article L. 533-4 ainsi r&eacute;dig&eacute;&nbsp;:</p>\r\n\r\n<p>&laquo;Art. L. 533-4 &ndash;<br />\r\nI. Lorsque un &eacute;crit scientifique, issu d&rsquo;une activit&eacute; de recherche financ&eacute;e au moins pour moiti&eacute; par des fonds publics, est publi&eacute; dans un p&eacute;riodique, un ouvrage paraissant au moins une fois par an, des actes de congr&egrave;s ou de colloques ou des recueils de m&eacute;langes, son auteur, m&ecirc;me en cas de cession exclusive &agrave; un &eacute;diteur, dispose du droit de mettre &agrave; disposition gratuitement sous une forme num&eacute;rique, sous r&eacute;serve des droits des &eacute;ventuels coauteurs, la derni&egrave;re version accept&eacute;e de son manuscrit par son &eacute;diteur et &agrave; l&rsquo;exclusion du travail de mise en forme qui incombe &agrave; ce dernier, au terme d&rsquo;un d&eacute;lai de douze mois pour les sciences, la technique et la m&eacute;decine et de vingt-quatre mois pour les sciences humaines et sociales, &agrave; compter de date de la premi&egrave;re publication. Cette mise &agrave; disposition ne peut donner lieu &agrave; aucune exploitation commerciale.</p>\r\n\r\n<p>&laquo;&nbsp;II. &ndash; Les dispositions du pr&eacute;sent article sont d&rsquo;ordre public et toute clause contraire &agrave; celles-ci est r&eacute;put&eacute;e non &eacute;crite. Elles ne s&rsquo;appliquent pas aux contrats en cours.&nbsp;&raquo;</p>",
      "type": {
        "id": 91,
        "title": "Section 2",
        "subtitle": "Travaux de recherche et de statistique",
        "voteWidgetType": 2,
        "votesHelpText": "Pensez-vous que cette proposition permet d'atteindre les objectifs présentés dans l’explication de l’article ?",
        "commentSystem": 2,
        "color": "blue",
        "versionable": true,
        "sourceable": true,
        "votesThreshold": null,
        "votesThresholdHelpText": null
      },
      "modals": [
        {
          "key": "article L. 533-4",
          "before": "",
          "after": "<p>I. Lorsque un écrit scientifique, issu d’une activité de recherche financée au moins pour moitié par des fonds publics est publié dans un périodique, un ouvrage paraissant au moins une fois par an, des actes de congrès ou de colloques ou des recueils de mélanges,  son auteur, même en cas de cession exclusive à un éditeur, dispose du  droit de mettre à disposition gratuitement sous une forme numérique, sous réserve des droits des éventuels co-auteurs, la dernière version acceptée de son manuscrit par son éditeur et à l’exclusion du travail de mise en forme qui incombe à ce dernier, au terme d’un délai de douze mois pour les sciences, la technique et la médecine et de vingt-quatre mois pour les sciences humaines et sociales, à compter de date de la première publication. Cette mise à disposition ne peut donner lieu à aucune exploitation commerciale.</p><p>« II. – Les dispositions du présent article sont d’ordre public et toute clause contraire à celles-ci est réputée non écrite. Elles ne s’appliquent pas aux contrats en cours. »</p>",
          "title": "Création du nouvel article L 533-4 du code de la recherche (Livre V, Titre III, Chapitre 3)"
        }
      ],
      "appendices": [
        {
          "body": "<p><strong>Objectif :</strong> favoriser le libre acc&egrave;s aux travaux de recherche publique.</p>\r\n\r\n<p><strong>Explication :</strong> Le monde acad&eacute;mique dispose d&rsquo;un ensemble consid&eacute;rable d&rsquo;informations scientifiques dont l&rsquo;acc&egrave;s reste compliqu&eacute; par les droits d&rsquo;exclusivit&eacute; d&eacute;tenus par certaines revues et &eacute;diteurs. Le projet de loi propose de favoriser la diffusion en libre acc&egrave;s des r&eacute;sultats de la recherche pour favoriser la circulation du savoir et donc l&rsquo;innovation.<br />\r\nIl est propos&eacute; d&rsquo;inscrire dans la loi, un droit de valorisation secondaire pour les publications scientifiques. L&rsquo;auteur pourra ainsi rendre sa cr&eacute;ation publiquement accessible apr&egrave;s un d&eacute;lai de 12 mois pour les &oelig;uvres scientifiques, techniques et m&eacute;dicales et de 24 mois pour les &oelig;uvres des sciences humaines et sociales.</p>\r\n\r\n<p><strong>Exemple :</strong> les scientifiques de la recherche publique auront d&eacute;sormais le droit de publier leurs articles sur des sites ouverts accessibles &agrave; tous, notamment les archives publiques sp&eacute;cialis&eacute;es, apr&egrave;s un court d&eacute;lai d&rsquo;embargo.</p>",
          "type": {
            "title": "Explication de l'article"
          }
        }
      ],
      "title": "Article 9 - Libre accès aux publications scientifiques de la recherche publique",
      "_links": {
        "show": "https://www.republique-numerique.fr/consultations/projet-de-loi-numerique/consultation/consultation/opinions/section-2-travaux-de-recherche-et-de-statistique/article-9-acces-aux-travaux-de-la-recherche-financee-par-des-fonds-publics",
        "edit": "https://www.republique-numerique.fr/consultations/projet-de-loi-numerique/consultation/consultation/opinions/section-2-travaux-de-recherche-et-de-statistique/article-9-acces-aux-travaux-de-la-recherche-financee-par-des-fonds-publics/edit",
        "report": "https://www.republique-numerique.fr/consultations/projet-de-loi-numerique/consultation/consultation/opinions/section-2-travaux-de-recherche-et-de-statistique/article-9-acces-aux-travaux-de-la-recherche-financee-par-des-fonds-publics/report",
        "type": "https://www.republique-numerique.fr/consultations/projet-de-loi-numerique/consultation/consultation/opinions/section-2-travaux-de-recherche-et-de-statistique"
      },
      "user_vote": null,
      "has_user_reported": false
    },
    "sources_count": 3,
    "arguments_count": 30,
    "votes": [
      {
        "user": {
          "username": "Roberto Di Cosmo",
          "displayName": "Roberto Di Cosmo",
          "uniqueId": "robertodicosmo",
          "isAdmin": false,
          "media": null,
          "vip": false,
          "_links": {
            "profile": "https://www.republique-numerique.fr/profile/robertodicosmo",
            "settings": "https://www.republique-numerique.fr/profile/edit-profile"
          }
        },
        "value": 1
      },
      {
        "user": {
          "username": "Dominique Geffroy",
          "displayName": "Dominique Geffroy",
          "uniqueId": "dominiquegeffroy",
          "isAdmin": false,
          "media": null,
          "vip": false,
          "_links": {
            "profile": "https://www.republique-numerique.fr/profile/dominiquegeffroy",
            "settings": "https://www.republique-numerique.fr/profile/edit-profile"
          }
        },
        "value": 1
      },
      {
        "user": {
          "username": "Yann Cochard",
          "displayName": "Yann Cochard",
          "uniqueId": "yanncochard",
          "isAdmin": false,
          "media": {
            "url": "/media/cache/default_avatar/default/0001/01/428_default_avatar.png"
          },
          "vip": false,
          "_links": {
            "profile": "https://www.republique-numerique.fr/profile/yanncochard",
            "settings": "https://www.republique-numerique.fr/profile/edit-profile"
          }
        },
        "value": 1
      },
      {
        "user": {
          "username": "Sof Dem",
          "displayName": "Sof Dem",
          "uniqueId": "sofdem",
          "isAdmin": false,
          "media": null,
          "vip": false,
          "_links": {
            "profile": "https://www.republique-numerique.fr/profile/sofdem",
            "settings": "https://www.republique-numerique.fr/profile/edit-profile"
          }
        },
        "value": 1
      },
      {
        "user": {
          "username": "Pablo Rauzy",
          "displayName": "Pablo Rauzy",
          "uniqueId": "pablorauzy",
          "isAdmin": false,
          "media": null,
          "vip": false,
          "_links": {
            "profile": "https://www.republique-numerique.fr/profile/pablorauzy",
            "settings": "https://www.republique-numerique.fr/profile/edit-profile"
          }
        },
        "value": 1
      }
    ],
    "updated_at": "2015-10-08T14:19:25+0200",
    "ranking": 6,
    "is_trashed": false,
    "title": "Protéger le droit des auteurs d'articles scientifiques, pour permettre le libre accès à la recherche scientifique",
    "slug": "proteger-le-droit-des-auteurs-d-articles-scientifiques-pour-permettre-le-libre-acces-a-la-recherche-scientifique",
    "created_at": "2015-10-08T14:19:25+0200",
    "votes_nok": 6,
    "votes_ok": 1498,
    "votes_mitige": 7,
    "_links": {
      "show": "https://www.republique-numerique.fr/consultations/projet-de-loi-numerique/consultation/consultation/opinions/section-2-travaux-de-recherche-et-de-statistique/article-9-acces-aux-travaux-de-la-recherche-financee-par-des-fonds-publics/versions/proteger-le-droit-des-auteurs-d-articles-scientifiques-pour-permettre-le-libre-acces-a-la-recherche-scientifique",
      "report": "https://www.republique-numerique.fr/consultations/projet-de-loi-numerique/consultation/consultation/opinions/section-2-travaux-de-recherche-et-de-statistique/article-9-acces-aux-travaux-de-la-recherche-financee-par-des-fonds-publics/versions/proteger-le-droit-des-auteurs-d-articles-scientifiques-pour-permettre-le-libre-acces-a-la-recherche-scientifique/report"
    },
    "user_vote": null,
    "has_user_reported": false
  },
  "rankingThreshold": null,
  "opinionTerm": 1
}