{
  "version": {
    "isContribuable": false,
    "votes_total": 63,
    "arguments_yes_count": 1,
    "arguments_no_count": 1,
    "id": 1038,
    "body": "<p>Au chapitre 3 du titre 3 du livre V du code de la recherche, il est ins&eacute;r&eacute; un article L. 533-4 ainsi r&eacute;dig&eacute;&nbsp;:</p>\r\n\r\n<p>&laquo;Art. L. 533-4 &ndash;<br />\r\nI. Lorsque un &eacute;crit scientifique, issu d&rsquo;une activit&eacute; de recherche financ&eacute;e au moins pour moiti&eacute; par des fonds publics, est publi&eacute; dans un p&eacute;riodique, un ouvrage paraissant au moins une fois par an, des actes de congr&egrave;s ou de colloques ou des recueils de m&eacute;langes, son auteur, m&ecirc;me en cas de cession exclusive &agrave; un &eacute;diteur, dispose du droit de mettre &agrave; disposition gratuitement sous une forme num&eacute;rique, sous r&eacute;serve des droits des &eacute;ventuels coauteurs, la derni&egrave;re version accept&eacute;e de son manuscrit par son &eacute;diteur et &agrave; l&rsquo;exclusion du travail de mise en forme qui incombe &agrave; ce dernier, au terme d&rsquo;un d&eacute;lai de douze mois pour les sciences, la technique et la m&eacute;decine et de vingt-quatre mois pour les sciences humaines et sociales, &agrave; compter de date de la premi&egrave;re publication. Cette mise &agrave; disposition ne peut donner lieu &agrave; aucune exploitation commerciale.</p>\r\n\r\n<p>&laquo;&nbsp;II. &ndash; Les dispositions du pr&eacute;sent article sont d&rsquo;ordre public et toute clause contraire &agrave; celles-ci est r&eacute;put&eacute;e non &eacute;crite. Elles ne s&rsquo;appliquent pas aux contrats en cours.&nbsp;&raquo;</p>",
    "comment": "<p>1. Les dur&eacute;es d&#39;embargo pr&eacute;vues dans l&#39;article 9 sont trop longues : elles constituent un handicap pour la recherche fran&ccedil;aise par rapport aux dispositions prises au niveau europ&eacute;en.</p>\n\n<p>L&#39;Union Europ&eacute;enne, pour les projets de recherche qu&#39;elle finance, pr&eacute;voit des dur&eacute;es d&#39;embargo maximales de 6 mois pour les STM et de 12 mois pour les SHS. Par ailleurs, le rapport &quot;Les revues de sciences humaines et sociales en France : libre acc&egrave;s et audience&quot; de l&#39;Institut des Politiques Publiques montre bien que les revues en sciences humaines perdent de l&#39;audience d&egrave;s que leurs dur&eacute;es d&#39;embargo sont sup&eacute;rieures &agrave; douze mois. Ce rapport pr&eacute;conise l&#39;instauration de dur&eacute;es d&#39;embargo courtes, ce qui facilite le d&eacute;p&ocirc;t des publications en archive ouverte. C&#39;est pourquoi nous approuvons totalement les propositions de Christine Ollendorff (ENSAM) et de Renaud Fabre (DIST CNRS) d&#39;aligner les dur&eacute;es d&#39;embargo sur celles de l&#39;Union Europ&eacute;enne.</p>\n\n<p>2. La loi doit permettre le libre acc&egrave;s aux donn&eacute;es de la recherche :</p>\n\n<p>Les dispositions de l&#39;article 9 doivent s&#39;appliquer aux jeux de donn&eacute;es brutes qui accompagnent une publication scientifique et qui en permettent la validation. Conform&eacute;ment &agrave; la recommandation de la Commission Europ&eacute;enne du 17 juillet 2012 et aux positions de la LERU (Ligue Europ&eacute;enne des Universit&eacute;s de Recherche) en faveur du libre acc&egrave;s aux donn&eacute;es de la recherche, nous soutenons que la diffusion en libre acc&egrave;s des donn&eacute;es de la recherche pr&eacute;sente des b&eacute;n&eacute;fices consid&eacute;rables : processus de recherche plus transparent et plus rapide, partage et r&eacute;utilisation des r&eacute;sultats, possibilit&eacute; de renouveler les exp&eacute;riences et de r&eacute;-analyser les r&eacute;sultats, collaborations enrichies entre les institutions.</p>\n\n<p>3. La loi doit autoriser le text &amp; data mining :</p>\n\n<p>Conform&eacute;ment aux positions de la LERU, nous affirmons que les services de fouilles de donn&eacute;es (text &amp; data mining) ne doivent pas &ecirc;tre entrav&eacute;s par des int&eacute;r&ecirc;ts commerciaux et ne sauraient faire l&#39;objet de dispositifs contractuels entre un chercheur et un &eacute;diteur. L&#39;article &quot;Is Europe falling behind in data mining? Copyright impact on data mining in academic research&quot; d&eacute;montre que l&#39;absence d&#39;exception au droit d&#39;auteur pour le TDM p&eacute;nalise la recherche europ&eacute;enne. Il est capital pour le d&eacute;veloppement et la comp&eacute;titivit&eacute; mondiale de la recherche fran&ccedil;aise que la pr&eacute;sente loi int&egrave;gre le TDM dans son p&eacute;rim&egrave;tre et interdise la privatisation des donn&eacute;es n&eacute;cessaires au TDM par un &eacute;diteur.</p>\n\n<p>&nbsp;</p>",
    "author": {
      "username": "Alain Beretz - Président de l'Université de Strasbourg",
      "displayName": "Alain Beretz - Président de l'Université de Strasbourg",
      "uniqueId": "alainberetzpresidentdeluniversitedestrasbourg",
      "isAdmin": false,
      "media": null,
      "vip": false,
      "_links": {
        "profile": "https://www.republique-numerique.fr/profile/alainberetzpresidentdeluniversitedestrasbourg",
        "settings": "https://www.republique-numerique.fr/profile/edit-profile"
      }
    },
    "arguments": [
      {
        "isContribuable": false,
        "id": 5106,
        "body": "Pour",
        "created_at": "2015-10-17T08:02:49+0200",
        "updated_at": "2015-10-17T08:02:49+0200",
        "is_enabled": true,
        "votes_count": 1,
        "type": 1,
        "is_trashed": false,
        "author": {
          "username": "Anne Laurence Boutillier",
          "displayName": "Anne Laurence Boutillier",
          "uniqueId": "annelaurenceboutillier",
          "isAdmin": false,
          "media": null,
          "vip": false,
          "_links": {
            "profile": "https://www.republique-numerique.fr/profile/annelaurenceboutillier",
            "settings": "https://www.republique-numerique.fr/profile/edit-profile"
          }
        },
        "_links": {
          "show": "https://www.republique-numerique.fr/consultations/projet-de-loi-numerique/consultation/consultation/opinions/section-2-travaux-de-recherche-et-de-statistique/article-9-acces-aux-travaux-de-la-recherche-financee-par-des-fonds-publics/versions/pour-l-acces-libre-aux-resultats-de-la-recherche-scientifique#arg-5106",
          "edit": "https://www.republique-numerique.fr/consultations/projet-de-loi-numerique/consultation/consultation/opinions/section-2-travaux-de-recherche-et-de-statistique/article-9-acces-aux-travaux-de-la-recherche-financee-par-des-fonds-publics/arguments/5106/edit",
          "report": "https://www.republique-numerique.fr/consultations/projet-de-loi-numerique/consultation/consultation/opinions/section-2-travaux-de-recherche-et-de-statistique/article-9-acces-aux-travaux-de-la-recherche-financee-par-des-fonds-publics/arguments/5106/report"
        },
        "has_user_voted": false,
        "has_user_reported": false
      },
      {
        "isContribuable": false,
        "id": 5148,
        "body": "Aucune raison d'avoir un embargo.",
        "created_at": "2015-10-17T10:33:42+0200",
        "updated_at": "2015-10-17T10:33:42+0200",
        "is_enabled": true,
        "votes_count": 1,
        "type": 0,
        "is_trashed": false,
        "author": {
          "username": "Julien Narboux",
          "displayName": "Julien Narboux",
          "uniqueId": "juliennarboux",
          "isAdmin": false,
          "media": null,
          "vip": false,
          "_links": {
            "profile": "https://www.republique-numerique.fr/profile/juliennarboux",
            "settings": "https://www.republique-numerique.fr/profile/edit-profile"
          }
        },
        "_links": {
          "show": "https://www.republique-numerique.fr/consultations/projet-de-loi-numerique/consultation/consultation/opinions/section-2-travaux-de-recherche-et-de-statistique/article-9-acces-aux-travaux-de-la-recherche-financee-par-des-fonds-publics/versions/pour-l-acces-libre-aux-resultats-de-la-recherche-scientifique#arg-5148",
          "edit": "https://www.republique-numerique.fr/consultations/projet-de-loi-numerique/consultation/consultation/opinions/section-2-travaux-de-recherche-et-de-statistique/article-9-acces-aux-travaux-de-la-recherche-financee-par-des-fonds-publics/arguments/5148/edit",
          "report": "https://www.republique-numerique.fr/consultations/projet-de-loi-numerique/consultation/consultation/opinions/section-2-travaux-de-recherche-et-de-statistique/article-9-acces-aux-travaux-de-la-recherche-financee-par-des-fonds-publics/arguments/5148/report"
        },
        "has_user_voted": false,
        "has_user_reported": false
      }
    ],
    "sources": [
      {
        "isContribuable": false,
        "id": 355,
        "title": "La LERU (Ligue des Universités de Recherche Européennes) demande une attitude cohérente sur ce sujet",
        "link": "http://www.leru.org/index.php/public/extra/signtheLERUstatement/",
        "body": "Signez  cet appel, pour demander qu'une législation européenne vienne enfin à l'appui de nos demandes",
        "created_at": "2015-10-16T16:35:29+0200",
        "updated_at": "2015-10-16T16:35:29+0200",
        "author": {
          "username": "Alain Beretz - Président de l'Université de Strasbourg",
          "displayName": "Alain Beretz - Président de l'Université de Strasbourg",
          "uniqueId": "alainberetzpresidentdeluniversitedestrasbourg",
          "isAdmin": false,
          "media": null,
          "vip": false,
          "_links": {
            "profile": "https://www.republique-numerique.fr/profile/alainberetzpresidentdeluniversitedestrasbourg",
            "settings": "https://www.republique-numerique.fr/profile/edit-profile"
          }
        },
        "category": "Rapport / Étude",
        "votes_count": 1,
        "_links": {
          "edit": "https://www.republique-numerique.fr/consultations/projet-de-loi-numerique/consultation/consultation/opinions/section-2-travaux-de-recherche-et-de-statistique/article-9-acces-aux-travaux-de-la-recherche-financee-par-des-fonds-publics/sources/la-leru-ligue-des-universites-de-recherche-europeennes-demande-une-attitude-coherente-sur-ce-sujet-au-niveau-europeen/edit",
          "report": "https://www.republique-numerique.fr/consultations/projet-de-loi-numerique/consultation/consultation/opinions/section-2-travaux-de-recherche-et-de-statistique/article-9-acces-aux-travaux-de-la-recherche-financee-par-des-fonds-publics/sources/la-leru-ligue-des-universites-de-recherche-europeennes-demande-une-attitude-coherente-sur-ce-sujet-au-niveau-europeen/report"
        },
        "has_user_voted": false,
        "has_user_reported": false
      },
      {
        "isContribuable": false,
        "id": 366,
        "title": "Is Europe Falling Behind in Data Mining? Copyright's Impact on Data Mining in Academic Research",
        "link": "http://dx.doi.org/10.2139/ssrn.2608513",
        "body": "This empirical paper discusses how copyright affects data mining (DM) by academic researchers. Based on bibliometric data, we show that where DM for academic research requires the express consent of rights holders: (1) DM makes up a significantly lower share of total research output; and (2) stronger rule-of-law is associated with less DM research. To our knowledge, this is the first time that an empirical study bears out a significant negative association between copyright protection and innovation.",
        "created_at": "2015-10-16T23:29:13+0200",
        "updated_at": "2015-10-16T23:29:13+0200",
        "author": {
          "username": "Alain Beretz - Président de l'Université de Strasbourg",
          "displayName": "Alain Beretz - Président de l'Université de Strasbourg",
          "uniqueId": "alainberetzpresidentdeluniversitedestrasbourg",
          "isAdmin": false,
          "media": null,
          "vip": false,
          "_links": {
            "profile": "https://www.republique-numerique.fr/profile/alainberetzpresidentdeluniversitedestrasbourg",
            "settings": "https://www.republique-numerique.fr/profile/edit-profile"
          }
        },
        "category": "Article scientifique",
        "votes_count": 1,
        "_links": {
          "edit": "https://www.republique-numerique.fr/consultations/projet-de-loi-numerique/consultation/consultation/opinions/section-2-travaux-de-recherche-et-de-statistique/article-9-acces-aux-travaux-de-la-recherche-financee-par-des-fonds-publics/sources/is-europe-falling-behind-in-data-mining-copyright-s-impact-on-data-mining-in-academic-research/edit",
          "report": "https://www.republique-numerique.fr/consultations/projet-de-loi-numerique/consultation/consultation/opinions/section-2-travaux-de-recherche-et-de-statistique/article-9-acces-aux-travaux-de-la-recherche-financee-par-des-fonds-publics/sources/is-europe-falling-behind-in-data-mining-copyright-s-impact-on-data-mining-in-academic-research/report"
        },
        "has_user_voted": false,
        "has_user_reported": false
      },
      {
        "isContribuable": false,
        "id": 367,
        "title": "Les revues de sciences humaines et sociales en France: libre accès et audience",
        "link": "http://www.ipp.eu/wp-content/uploads/2015/07/revues-shs-rapport-IPP-juillet2015.pdf",
        "body": "Cette étude a pour objet de questionner le bien-fondé de la mise en œuvre d’un principe de libre accès sur les recherches en sciences humaines et sociales (SHS) en France, à partir d’une étude de ses effets sur la consultation des articles. Il s’agit de savoir si une politique de libre accès améliore la visibilité des recherches ; pour ce faire, nous étudions l’impact du délai de mise en libre accès sur l’audience des revues. \n(...)\nCe que montre nos travaux c’est que l’existence d’une barrière à la diffusion fait perdre de l’audience à la revue, et ce dès une durée d’un an. Nos résultats objectivent donc la mise en place d’une durée d’embargo relativement courte relativement aux durées évoquées dans le débat public pour les SHS.",
        "created_at": "2015-10-16T23:33:52+0200",
        "updated_at": "2015-10-16T23:33:52+0200",
        "author": {
          "username": "Alain Beretz - Président de l'Université de Strasbourg",
          "displayName": "Alain Beretz - Président de l'Université de Strasbourg",
          "uniqueId": "alainberetzpresidentdeluniversitedestrasbourg",
          "isAdmin": false,
          "media": null,
          "vip": false,
          "_links": {
            "profile": "https://www.republique-numerique.fr/profile/alainberetzpresidentdeluniversitedestrasbourg",
            "settings": "https://www.republique-numerique.fr/profile/edit-profile"
          }
        },
        "category": "Article scientifique",
        "votes_count": 1,
        "_links": {
          "edit": "https://www.republique-numerique.fr/consultations/projet-de-loi-numerique/consultation/consultation/opinions/section-2-travaux-de-recherche-et-de-statistique/article-9-acces-aux-travaux-de-la-recherche-financee-par-des-fonds-publics/sources/les-revues-de-sciences-humaines-et-sociales-en-france-libre-acces-et-audience-3/edit",
          "report": "https://www.republique-numerique.fr/consultations/projet-de-loi-numerique/consultation/consultation/opinions/section-2-travaux-de-recherche-et-de-statistique/article-9-acces-aux-travaux-de-la-recherche-financee-par-des-fonds-publics/sources/les-revues-de-sciences-humaines-et-sociales-en-france-libre-acces-et-audience-3/report"
        },
        "has_user_voted": false,
        "has_user_reported": false
      }
    ],
    "parent": {
      "isContribuable": false,
      "id": 69,
      "body": "<p>Au chapitre 3 du titre 3 du livre V du code de la recherche, il est ins&eacute;r&eacute; un article L. 533-4 ainsi r&eacute;dig&eacute;&nbsp;:</p>\r\n\r\n<p>&laquo;Art. L. 533-4 &ndash;<br />\r\nI. Lorsque un &eacute;crit scientifique, issu d&rsquo;une activit&eacute; de recherche financ&eacute;e au moins pour moiti&eacute; par des fonds publics, est publi&eacute; dans un p&eacute;riodique, un ouvrage paraissant au moins une fois par an, des actes de congr&egrave;s ou de colloques ou des recueils de m&eacute;langes, son auteur, m&ecirc;me en cas de cession exclusive &agrave; un &eacute;diteur, dispose du droit de mettre &agrave; disposition gratuitement sous une forme num&eacute;rique, sous r&eacute;serve des droits des &eacute;ventuels coauteurs, la derni&egrave;re version accept&eacute;e de son manuscrit par son &eacute;diteur et &agrave; l&rsquo;exclusion du travail de mise en forme qui incombe &agrave; ce dernier, au terme d&rsquo;un d&eacute;lai de douze mois pour les sciences, la technique et la m&eacute;decine et de vingt-quatre mois pour les sciences humaines et sociales, &agrave; compter de date de la premi&egrave;re publication. Cette mise &agrave; disposition ne peut donner lieu &agrave; aucune exploitation commerciale.</p>\r\n\r\n<p>&laquo;&nbsp;II. &ndash; Les dispositions du pr&eacute;sent article sont d&rsquo;ordre public et toute clause contraire &agrave; celles-ci est r&eacute;put&eacute;e non &eacute;crite. Elles ne s&rsquo;appliquent pas aux contrats en cours.&nbsp;&raquo;</p>",
      "type": {
        "id": 91,
        "title": "Section 2",
        "subtitle": "Travaux de recherche et de statistique",
        "voteWidgetType": 2,
        "votesHelpText": "Pensez-vous que cette proposition permet d'atteindre les objectifs présentés dans l’explication de l’article ?",
        "commentSystem": 2,
        "color": "blue",
        "versionable": true,
        "sourceable": true,
        "votesThreshold": null,
        "votesThresholdHelpText": null
      },
      "modals": [
        {
          "key": "article L. 533-4",
          "before": "",
          "after": "<p>I. Lorsque un écrit scientifique, issu d’une activité de recherche financée au moins pour moitié par des fonds publics est publié dans un périodique, un ouvrage paraissant au moins une fois par an, des actes de congrès ou de colloques ou des recueils de mélanges,  son auteur, même en cas de cession exclusive à un éditeur, dispose du  droit de mettre à disposition gratuitement sous une forme numérique, sous réserve des droits des éventuels co-auteurs, la dernière version acceptée de son manuscrit par son éditeur et à l’exclusion du travail de mise en forme qui incombe à ce dernier, au terme d’un délai de douze mois pour les sciences, la technique et la médecine et de vingt-quatre mois pour les sciences humaines et sociales, à compter de date de la première publication. Cette mise à disposition ne peut donner lieu à aucune exploitation commerciale.</p><p>« II. – Les dispositions du présent article sont d’ordre public et toute clause contraire à celles-ci est réputée non écrite. Elles ne s’appliquent pas aux contrats en cours. »</p>",
          "title": "Création du nouvel article L 533-4 du code de la recherche (Livre V, Titre III, Chapitre 3)"
        }
      ],
      "appendices": [
        {
          "body": "<p><strong>Objectif :</strong> favoriser le libre acc&egrave;s aux travaux de recherche publique.</p>\r\n\r\n<p><strong>Explication :</strong> Le monde acad&eacute;mique dispose d&rsquo;un ensemble consid&eacute;rable d&rsquo;informations scientifiques dont l&rsquo;acc&egrave;s reste compliqu&eacute; par les droits d&rsquo;exclusivit&eacute; d&eacute;tenus par certaines revues et &eacute;diteurs. Le projet de loi propose de favoriser la diffusion en libre acc&egrave;s des r&eacute;sultats de la recherche pour favoriser la circulation du savoir et donc l&rsquo;innovation.<br />\r\nIl est propos&eacute; d&rsquo;inscrire dans la loi, un droit de valorisation secondaire pour les publications scientifiques. L&rsquo;auteur pourra ainsi rendre sa cr&eacute;ation publiquement accessible apr&egrave;s un d&eacute;lai de 12 mois pour les &oelig;uvres scientifiques, techniques et m&eacute;dicales et de 24 mois pour les &oelig;uvres des sciences humaines et sociales.</p>\r\n\r\n<p><strong>Exemple :</strong> les scientifiques de la recherche publique auront d&eacute;sormais le droit de publier leurs articles sur des sites ouverts accessibles &agrave; tous, notamment les archives publiques sp&eacute;cialis&eacute;es, apr&egrave;s un court d&eacute;lai d&rsquo;embargo.</p>",
          "type": {
            "title": "Explication de l'article"
          }
        }
      ],
      "title": "Article 9 - Libre accès aux publications scientifiques de la recherche publique",
      "_links": {
        "show": "https://www.republique-numerique.fr/consultations/projet-de-loi-numerique/consultation/consultation/opinions/section-2-travaux-de-recherche-et-de-statistique/article-9-acces-aux-travaux-de-la-recherche-financee-par-des-fonds-publics",
        "edit": "https://www.republique-numerique.fr/consultations/projet-de-loi-numerique/consultation/consultation/opinions/section-2-travaux-de-recherche-et-de-statistique/article-9-acces-aux-travaux-de-la-recherche-financee-par-des-fonds-publics/edit",
        "report": "https://www.republique-numerique.fr/consultations/projet-de-loi-numerique/consultation/consultation/opinions/section-2-travaux-de-recherche-et-de-statistique/article-9-acces-aux-travaux-de-la-recherche-financee-par-des-fonds-publics/report",
        "type": "https://www.republique-numerique.fr/consultations/projet-de-loi-numerique/consultation/consultation/opinions/section-2-travaux-de-recherche-et-de-statistique"
      },
      "user_vote": null,
      "has_user_reported": false
    },
    "sources_count": 3,
    "arguments_count": 2,
    "votes": [
      {
        "user": {
          "username": "ABHARMACH",
          "displayName": "ABHARMACH",
          "uniqueId": "abharmach",
          "isAdmin": false,
          "media": null,
          "vip": false,
          "_links": {
            "profile": "https://www.republique-numerique.fr/profile/abharmach",
            "settings": "https://www.republique-numerique.fr/profile/edit-profile"
          }
        },
        "value": 1
      },
      {
        "user": {
          "username": "S Bauin",
          "displayName": "S Bauin",
          "uniqueId": "sbauin",
          "isAdmin": false,
          "media": null,
          "vip": false,
          "_links": {
            "profile": "https://www.republique-numerique.fr/profile/sbauin",
            "settings": "https://www.republique-numerique.fr/profile/edit-profile"
          }
        },
        "value": 1
      },
      {
        "user": {
          "username": "PERRY",
          "displayName": "PERRY",
          "uniqueId": "perry",
          "isAdmin": false,
          "media": null,
          "vip": false,
          "_links": {
            "profile": "https://www.republique-numerique.fr/profile/perry",
            "settings": "https://www.republique-numerique.fr/profile/edit-profile"
          }
        },
        "value": 1
      },
      {
        "user": {
          "username": "Adeline Rege - Université de Strasbourg",
          "displayName": "Adeline Rege - Université de Strasbourg",
          "uniqueId": "adelineregeuniversitedestrasbourg",
          "isAdmin": false,
          "media": null,
          "vip": false,
          "_links": {
            "profile": "https://www.republique-numerique.fr/profile/adelineregeuniversitedestrasbourg",
            "settings": "https://www.republique-numerique.fr/profile/edit-profile"
          }
        },
        "value": 1
      },
      {
        "user": {
          "username": "Olivier Le Gall",
          "displayName": "Olivier Le Gall",
          "uniqueId": "olivierlegall1",
          "isAdmin": false,
          "media": {
            "url": "/media/cache/default_avatar/default/0001/01/675_default_avatar.jpg"
          },
          "vip": false,
          "_links": {
            "profile": "https://www.republique-numerique.fr/profile/olivierlegall1",
            "settings": "https://www.republique-numerique.fr/profile/edit-profile"
          }
        },
        "value": 1
      }
    ],
    "updated_at": "2015-10-15T12:28:59+0200",
    "ranking": 82,
    "is_trashed": false,
    "title": "Pour l'accès libre aux résultats de la recherche scientifique",
    "slug": "pour-l-acces-libre-aux-resultats-de-la-recherche-scientifique",
    "created_at": "2015-10-15T12:28:59+0200",
    "votes_nok": 2,
    "votes_ok": 60,
    "votes_mitige": 1,
    "_links": {
      "show": "https://www.republique-numerique.fr/consultations/projet-de-loi-numerique/consultation/consultation/opinions/section-2-travaux-de-recherche-et-de-statistique/article-9-acces-aux-travaux-de-la-recherche-financee-par-des-fonds-publics/versions/pour-l-acces-libre-aux-resultats-de-la-recherche-scientifique",
      "report": "https://www.republique-numerique.fr/consultations/projet-de-loi-numerique/consultation/consultation/opinions/section-2-travaux-de-recherche-et-de-statistique/article-9-acces-aux-travaux-de-la-recherche-financee-par-des-fonds-publics/versions/pour-l-acces-libre-aux-resultats-de-la-recherche-scientifique/report"
    },
    "user_vote": null,
    "has_user_reported": false
  },
  "rankingThreshold": null,
  "opinionTerm": 1
}