{
  "version": {
    "isContribuable": false,
    "votes_total": 274,
    "arguments_yes_count": 4,
    "arguments_no_count": 4,
    "id": 742,
    "body": "<p>Au chapitre 3 du titre 3 du livre V du code de la recherche, il est ins&eacute;r&eacute; un article L. 533-4 ainsi r&eacute;dig&eacute;&nbsp;:</p>\n\n<p>&laquo;Art. L. 533-4 &ndash;<br />\nI. Lorsque un &eacute;crit scientifique, issu d&rsquo;une activit&eacute; de recherche financ&eacute;e au moins pour moiti&eacute; par des fonds publics, est publi&eacute; dans un p&eacute;riodique, un ouvrage paraissant au moins une fois par an, des actes de congr&egrave;s ou de colloques ou des recueils de m&eacute;langes, son auteur, m&ecirc;me en cas de cession exclusive &agrave; un &eacute;diteur, dispose du droit de mettre &agrave; disposition gratuitement sous une forme num&eacute;rique, sous r&eacute;serve des droits des &eacute;ventuels coauteurs, la derni&egrave;re version accept&eacute;e de son manuscrit par son &eacute;diteur et &agrave; l&rsquo;exclusion du travail de mise en forme qui incombe &agrave; ce dernier, au terme d&rsquo;un d&eacute;lai de douze mois pour les sciences, la technique et la m&eacute;decine et de vingt-quatre mois pour les sciences humaines et sociales, &agrave; compter de date de la premi&egrave;re publication. Cette mise &agrave; disposition ne peut donner lieu &agrave; aucune exploitation commerciale.</p>\n\n<p>&laquo;&nbsp;II. &ndash; Les dispositions du pr&eacute;sent article sont d&rsquo;ordre public et toute clause contraire &agrave; celles-ci est r&eacute;put&eacute;e non &eacute;crite. Elles ne s&rsquo;appliquent pas aux contrats en cours.&nbsp;&raquo;</p>\n\n<p>LES MEMBRES DE BSN4 ET BSN7 PROPOSENT LA R&Eacute;DACTION ALTERNATIVE SUIVANTE :</p>\n\n<p>&laquo;Art. L. 533-4 &ndash;<br />\nI. Lorsque un &eacute;crit scientifique, issu d&rsquo;une activit&eacute; de recherche financ&eacute;e pour partie par des fonds publics, est publi&eacute; dans le cadre d&#39;une publication en s&eacute;rie, d&#39;actes de congr&egrave;s ou de colloques ou de recueils de m&eacute;langes, &agrave; l&#39;exception des monographies, son auteur, m&ecirc;me s&rsquo;il a c&eacute;d&eacute; un droit d&rsquo;exploitation exclusif &agrave; l&rsquo;&eacute;diteur, doit mettre imm&eacute;diatement en d&eacute;p&ocirc;t dans une archive ouverte publique p&eacute;renne (nationale, institutionnelle ou th&eacute;matique) la derni&egrave;re version de son manuscrit accept&eacute;e pour publication par l&#39;&eacute;diteur afin de la diffuser en acc&egrave;s ouvert imm&eacute;diatement ou au terme d&rsquo;un d&eacute;lai maximum de six mois, &agrave; compter de la date de sa premi&egrave;re publication, pour les sciences et techniques et la m&eacute;decine et de douze mois pour les sciences humaines et sociales.</p>\n\n<p>&laquo; II. &ndash; Les dispositions du pr&eacute;sent article sont d&rsquo;ordre public et toute clause contraire &agrave; celles-ci est r&eacute;put&eacute;e non &eacute;crite.&raquo;</p>",
    "comment": "<p><strong>SIGNATAIRES :</strong></p>\n\n<p><strong>Les membres de BSN4 (groupe travaillant sur </strong><em><strong>l&#39;open access</strong></em><strong>) et BSN7 (groupe travaillant sur </strong><em><strong>l&#39;&eacute;dition scientifique)</strong></em><strong>, s&#39;exprimant &agrave; titre individuel.</strong></p>\n\n<p>Les groupes BSN4 et BSN7, compos&eacute;s de repr&eacute;sentants d&rsquo;institutions publiques et d&#39;experts, sont deux des dix segments th&eacute;matiques de la Biblioth&egrave;que scientifique num&eacute;rique (BSN). Cr&eacute;&eacute;e en 2009, &agrave; l&rsquo;initiative du minist&egrave;re de l&rsquo;enseignement sup&eacute;rieur et de la recherche en f&eacute;d&eacute;rant de nombreux acteurs des universit&eacute;s et organismes de recherche, la Biblioth&egrave;que scientifique num&eacute;rique (BSN) veille &agrave; ce que tout enseignant-chercheur, chercheur et &eacute;tudiant dispose d&rsquo;une information scientifique pertinente et d&rsquo;outils les plus performants possibles. En accord avec les orientations de la Commission europ&eacute;enne, la BSN privil&eacute;gie l&rsquo;acc&egrave;s ouvert aux documents scientifiques sous diff&eacute;rentes formes reposant sur des innovations, des n&eacute;gociations avec les &eacute;diteurs ou le soutien aux archives ouvertes, en tenant compte des diff&eacute;rences entre les disciplines. BSN facilite &eacute;galement l&rsquo;acc&egrave;s aux ressources scientifiques documentaires en rendant plus visible le paysage. La coordination des acteurs de l&rsquo;enseignement sup&eacute;rieur et de la recherche est &agrave; la base de BSN. Un <a href=\"http://www.bibliothequescientifiquenumerique.fr/?Nouvel-article,49\">comit&eacute; de pilotage</a>, compos&eacute; des directeurs d&rsquo;organismes de recherche, de la <a href=\"http://www.cpu.fr/\">conf&eacute;rence des pr&eacute;sidents d&rsquo;universit&eacute;</a> et de la <a href=\"http://www.cge.asso.fr/\">conf&eacute;rence des grandes &eacute;coles</a>, prend les d&eacute;cisions. Elles lui sont propos&eacute;es par les acteurs r&eacute;unis au sein des dix segments de BSN.</p>\n\n<p><strong>ARGUMENTAIRE</strong> :</p>\n\n<p>Cette proposition alternative de r&eacute;daction de l&#39;article 9 (titre 1er / chapitre 2 / section 2) vise &agrave; :</p>\n\n<p>- 1 &ndash; ramener les <em>d&eacute;lais d&#39;embargo maximaux</em> &agrave; 6 mois pour les STM et 12 mois pour les SHS, contre respectivement 12 et 24 propos&eacute;s dans le texte du pr&eacute;-projet. Ces d&eacute;lais nous paraissent en effet&nbsp;:</p>\n\n<p>a) raisonnables et r&eacute;alistes. Des d&eacute;lais plus longs constitueraient un handicap pour la recherche fran&ccedil;aise et sa diffusion face aux autres pays. De plus, une r&eacute;cente &eacute;tude de l&#39;IPP, command&eacute;e par le MESR, montre que la visibilité des publications en SHS s&#39;érode significativement au bout d&#39;une ann&eacute;e (référence <a class=\"sdendnoteanc\" href=\"#sdendnote1sym\" name=\"sdendnote1anc\">i</a>).</p>\n\n<p>b) conformes aux recommandations de la Commission Europ&eacute;enne qui a instauré une <em>obligation de dépôt </em>avec des embargos <em>maximaux </em>de 6 et 12 mois dans son programme H2020 pour les contrats financ&eacute;s par la Commission (référence <a class=\"sdendnoteanc\" href=\"#sdendnote2sym\" name=\"sdendnote2anc\">ii</a>) et recommand&eacute; aux &eacute;tats membres de mettre en place des politiques de m&ecirc;me nature (référence <a class=\"sdendnoteanc\" href=\"#sdendnote3sym\" name=\"sdendnote3anc\">iii</a>).</p>\n\n<p>- 2 - garantir le d&eacute;p&ocirc;t et la diffusion des publications dans et &agrave; partir d&#39;archives ouvertes ayant pour vocation le recueil, la pr&eacute;servation et la mise en acc&egrave;s ouvert de la production scientifique et qui r&eacute;pondent &agrave; des standards internationaux. D&#39;o&ugrave; la pr&eacute;cision que nous apportons d&#39;<em>archive ouverte publique p&eacute;renne (nationale, institutionnelle ou th&eacute;matique)</em>.</p>\n\n<p>- 3 &ndash; bien distinguer le <em>d&eacute;p&ocirc;t</em> de l&#39;&eacute;crit dans l&#39;archive, de sa <em>diffusion en acc&egrave;s ouvert</em>. En effet, nous estimons que le <em>d&eacute;p&ocirc;t en archive</em> doit s&#39;imposer <em>d&egrave;s</em> la publication de l&#39;&eacute;crit (cf. la r&eacute;f&eacute;rence ii &agrave; l&#39;obligation de d&eacute;p&ocirc;t de la CE au point 1b). Ce qui signifie que la notice relative &agrave; cet &eacute;crit, contenant notamment les m&eacute;tadonn&eacute;es, devient alors publique. Tandis que la <em>diffusion en acc&egrave;s ouvert</em> de l&#39;ensemble de l&#39;&eacute;crit, dans sa version manuscrit-auteur accept&eacute; pour publication par l&#39;&eacute;diteur, peut &ecirc;tre faite, depuis cette archive, imm&eacute;diatement ou au plus tard dans les d&eacute;lais pr&eacute;cis&eacute;s plus haut.</p>\n\n<p>- 4 - &eacute;largir l&#39;activit&eacute; de recherche &agrave; l&#39;origine de la publication &agrave; toute activit&eacute; <em>financ&eacute;e m&ecirc;me partiellement par des fonds publics</em>. Les salaires des chercheurs, bien s&ucirc;r inclus dans ces montants, repr&eacute;sentant souvent la plus forte part.</p>\n\n<p>- 5 &ndash; pr&eacute;ciser et simplifier le p&eacute;rim&egrave;tre des publications en excluant clairement les monographies.</p>\n\n<p>- 6 &ndash; simplifier certains d&eacute;veloppements &agrave; notre avis inutiles&nbsp;:</p>\n\n<p>a) le terme <em>derni&egrave;re version de son manuscrit accept&eacute;e pour publication par l&#39;&eacute;diteur</em> ne pr&eacute;sente aucune ambigu&iuml;t&eacute; et &eacute;vite une dissertation sur la plus-value apport&eacute;e par l&#39;&eacute;diteur avec sa mise en forme finale.</p>\n\n<p>b) nous avons supprim&eacute; la phrase C<em>ette mise &agrave; disposition ne peut donner lieu &agrave; aucune exploitation commerciale</em> qui est extr&ecirc;mement ambigu&euml; dans la mesure o&ugrave; elle semble empi&eacute;ter sur les possibilit&eacute;s d&#39;exploitation commerciale des r&eacute;sultats de la recherche (publique et/ou priv&eacute;e) qui sont d&eacute;j&agrave; r&eacute;gies par un ensemble de r&egrave;gles et de lois et par des contrats sp&eacute;cifiques. Si le r&eacute;dacteur voulait entendre <em>exploitation publicitaire de l&#39;&eacute;crit</em>, il devra le mentionner plus clairement.</p>\n\n<p>c) Nous avons supprim&eacute; la phrase <em>Elles ne s&rsquo;appliquent pas aux contrats en cours</em>, la proposition nous semblant &eacute;vidente, vu la non-r&eacute;troactivit&eacute; des lois, sauf tr&egrave;s rares exceptions.</p>\n\n<p>&nbsp;</p>\n\n<p>Nous tenons, avant de conclure, &agrave; rappeler ici les grandes &eacute;tapes qui ont jalonn&eacute; cette marche inexorable de la France vers le libre-acc&egrave;s aux r&eacute;sultats de l&#39;activit&eacute; scientifique&nbsp;:</p>\n\n<ul><li><p>le 11 d&eacute;cembre 2013 : La Commission Europ&eacute;enne instaure une <em>obligation de d&eacute;p&ocirc;t</em>&nbsp;avec des embargos <em>maximaux</em> de 6 et 12 mois pour les publications financ&eacute;es par la Commission (r&eacute;f&eacute;rence&nbsp;<u>ii</u>),</p>\n</li>\n<li><p>apr&egrave;s avoir recommand&eacute; aux Etats Membres, d&egrave;s juillet 2012, de mettre en place des politiques de m&ecirc;me nature (r&eacute;f&eacute;rence&nbsp;iii).</p>\n</li>\n<li><p>Dans un discours prononc&eacute; en janvier 2013 (r&eacute;f&eacute;rence:<a class=\"sdendnoteanc\" href=\"#sdendnote4sym\" name=\"sdendnote4anc\">iv</a>)&nbsp;la ministre de l&rsquo;Enseignement Sup&eacute;rieur et de la Recherche annonce une telle politique, avec la n&eacute;cessit&eacute; d&rsquo;une r&eacute;flexion sur les d&eacute;lais d&rsquo;embargo.</p>\n</li>\n<li><p>Dans la foul&eacute;e, une convention de partenariat en faveur des archives ouvertes est sign&eacute;e par l&rsquo;ensembles des acteurs de la recherche publique (r&eacute;f&eacute;rence <a class=\"sdendnoteanc\" href=\"#sdendnote5sym\" name=\"sdendnote5anc\">v</a>), assurant l&rsquo;infrastructure n&eacute;cessaire &agrave; la mis en &oelig;uvre de cette politique.</p>\n</li>\n<li><p>Enfin, le 25 septembre dernier, le Conseil Scientifique (CS) du CNRS publie une motion (r&eacute;f&eacute;rence <a class=\"sdendnoteanc\" href=\"#sdendnote6sym\" name=\"sdendnote6anc\">vi</a>) dans laquelle il r&eacute;affirme son attachement au libre-acc&egrave;s aux r&eacute;sultats de l&#39;activit&eacute; scientifique (articles et donn&eacute;es) et exprime son inqui&eacute;tude quant aux reculs en termes d&#39;embargo et de libre-acc&egrave;s qui risqueraient d&#39;intervenir dans le projet de loi. Le CS prend notamment clairement parti pour une mise &agrave; disposition gratuite et sans p&eacute;riode d&#39;embargo des &eacute;crits et des donn&eacute;es r&eacute;sultant de toute activit&eacute; de recherche financ&eacute;e <em>en partie</em> par des fonds publics.</p>\n</li>\n</ul>\n\n<p>&nbsp;</p>\n\n<p>Les membres de BSN 4 et BSN 7, auteurs de la pr&eacute;sente proposition d&#39;amendement au texte du projet de loi, affirment leur accord avec les positions prises par le Conseil Scientifique du CNRS et soulignent l&#39;absence de coh&eacute;rence entre le texte de l&#39;article 9 du projet de loi et les obligations et recommandations faites par la Commission Europ&eacute;enne, alors que l&rsquo;ensemble des actions men&eacute;es par le MESR montre la n&eacute;cessit&eacute; de suivre l&rsquo;exemple de H2020.</p>\n\n<p>Les signataires souhaitent vivement que la version amend&eacute;e qu&#39;ils proposent de l&#39;article 9 du projet de loi soit reprise dans le projet final sans recul sur les points qu&#39;ils consid&egrave;rent comme essentiels et qui ont &eacute;t&eacute; argument&eacute;s plus haut.</p>\n\n<div><p><a class=\"sdendnotesym\" href=\"#sdendnote1anc\" name=\"sdendnote1sym\">i</a>\u0002 <u><a href=\"http://www.ipp.eu/wp-content/uploads/2015/07/revues-shs-rapport-IPP-juillet2015.pdf\">http://www.ipp.eu/wp-content/uploads/2015/07/revues-shs-rapport-IPP-juillet2015.pdf</a></u></p>\n</div>\n\n<div><p><a class=\"sdendnotesym\" href=\"#sdendnote2anc\" name=\"sdendnote2sym\">ii</a>\u0002 <u><a href=\"http://ec.europa.eu/research/participants/data/ref/h2020/grants_manual/hi/oa_pilot/h2020-hi-oa-pilot-guide_en.pdf\">http://ec.europa.eu/research/participants/data/ref/h2020/grants_manual/hi/oa_pilot/h2020-hi-oa-pilot-guide_en.pdf</a></u></p>\n</div>\n\n<div><p><a class=\"sdendnotesym\" href=\"#sdendnote3anc\" name=\"sdendnote3sym\">iii</a>\u0002 <u><a href=\"http://eur-lex.europa.eu/legal-content/EN/TXT/PDF/?uri=CELEX:32012H0417&amp;rid=1\">http://eur-lex.europa.eu/legal-content/EN/TXT/PDF/?uri=CELEX:32012H0417&amp;rid=1</a></u></p>\n</div>\n\n<div><p><a class=\"sdendnotesym\" href=\"#sdendnote4anc\" name=\"sdendnote4sym\">iv</a>\u0002 <u><a href=\"http://www.enseignementsup-recherche.gouv.fr/cid66992/discours-de-genevieve-fioraso-lors-des-5e-journees-open-access.html\">http://www.enseignementsup-recherche.gouv.fr/cid66992/discours-de-genevieve-fioraso-lors-des-5e-journees-open-access.html</a></u></p>\n</div>\n\n<div><p><a class=\"sdendnotesym\" href=\"#sdendnote5anc\" name=\"sdendnote5sym\">v</a>\u0002 <u><a href=\"http://www.enseignementsup-recherche.gouv.fr/cid71277/partenariat-en-faveur-des-archives-ouvertes-plateforme-mutualisee-hal.html\">http://www.enseignementsup-recherche.gouv.fr/cid71277/partenariat-en-faveur-des-archives-ouvertes-plateforme-mutualisee-hal.html</a></u></p>\n</div>\n\n<div><p><a class=\"sdendnotesym\" href=\"#sdendnote6anc\" name=\"sdendnote6sym\">vi</a>\u0002 <a href=\"http://www.cnrs.fr/dist/z-outils/documents/Motion Conseil Scientifique CNRS 25092015.pdf\">http://www.cnrs.fr/dist/z-outils/documents/Motion Conseil Scientifique CNRS 25092015.pdf</a></p>\n</div>\n\n<p style=\"margin-left:4.5cm; margin-right:-0cm\">&nbsp;</p>",
    "author": {
      "username": "Membres BSN4 et BSN7",
      "displayName": "Membres BSN4 et BSN7",
      "uniqueId": "membresbsn4etbsn7",
      "isAdmin": false,
      "media": null,
      "vip": false,
      "_links": {
        "profile": "https://www.republique-numerique.fr/profile/membresbsn4etbsn7",
        "settings": "https://www.republique-numerique.fr/profile/edit-profile"
      }
    },
    "arguments": [
      {
        "isContribuable": false,
        "id": 3143,
        "body": "Les études citées démontrent les effets négatifs d'embargos trop longs alors qu'a l'inverse, rien ne prouve qu'un embargo limité à 6 ou 12 mois remettrait en cause la diffusion sur abonnement par des éditeurs commerciaux. En systématisant le signalement dans des archives ouvertes, cet amendement limite la dissémination de versions non définitives des articles, captés par des réseaux sociaux académiques à vocation commerciale. En outre, un embargo court aura l'avantage de limiter le développer de la publication avec frais d'auteurs (APC) qui s'est révélée un modèle dévastateur en termes de coûts et profondément inégalitaire.",
        "created_at": "2015-10-11T15:08:08+0200",
        "updated_at": "2015-10-11T15:08:08+0200",
        "is_enabled": true,
        "votes_count": 8,
        "type": 1,
        "is_trashed": false,
        "author": {
          "username": "Benjamin Guichard",
          "displayName": "Benjamin Guichard",
          "uniqueId": "benjaminguichard",
          "isAdmin": false,
          "media": null,
          "vip": false,
          "_links": {
            "profile": "https://www.republique-numerique.fr/profile/benjaminguichard",
            "settings": "https://www.republique-numerique.fr/profile/edit-profile"
          }
        },
        "_links": {
          "show": "https://www.republique-numerique.fr/consultations/projet-de-loi-numerique/consultation/consultation/opinions/section-2-travaux-de-recherche-et-de-statistique/article-9-acces-aux-travaux-de-la-recherche-financee-par-des-fonds-publics/versions/pour-une-garantie-de-diffusion-en-acces-ouvert#arg-3143",
          "edit": "https://www.republique-numerique.fr/consultations/projet-de-loi-numerique/consultation/consultation/opinions/section-2-travaux-de-recherche-et-de-statistique/article-9-acces-aux-travaux-de-la-recherche-financee-par-des-fonds-publics/arguments/3143/edit",
          "report": "https://www.republique-numerique.fr/consultations/projet-de-loi-numerique/consultation/consultation/opinions/section-2-travaux-de-recherche-et-de-statistique/article-9-acces-aux-travaux-de-la-recherche-financee-par-des-fonds-publics/arguments/3143/report"
        },
        "has_user_voted": false,
        "has_user_reported": false
      },
      {
        "isContribuable": false,
        "id": 3223,
        "body": "L'importance de déposer dans une archive publique pérenne est fondamental. Il ne faut pas que la loi pousse les auteurs d'articles vers ResearchGate ou Academia, qui sont des structures privées dont les intérêts à court, moyen et long terme ne convergent pas avec ceux de la diffusion universelle du savoir. Par ailleurs, le dépôt sur les sites personnels des chercheurs ne serait ni visible, ni pérenne. Il faut donc privilégier les archives ouvertes publiques.",
        "created_at": "2015-10-11T21:13:28+0200",
        "updated_at": "2015-10-11T21:13:28+0200",
        "is_enabled": true,
        "votes_count": 14,
        "type": 1,
        "is_trashed": false,
        "author": {
          "username": "Marin Dacos",
          "displayName": "Marin Dacos",
          "uniqueId": "marindacos",
          "isAdmin": false,
          "media": {
            "url": "/media/cache/default_avatar/default/0001/01/464_default_avatar.png"
          },
          "vip": false,
          "_links": {
            "profile": "https://www.republique-numerique.fr/profile/marindacos",
            "settings": "https://www.republique-numerique.fr/profile/edit-profile"
          }
        },
        "_links": {
          "show": "https://www.republique-numerique.fr/consultations/projet-de-loi-numerique/consultation/consultation/opinions/section-2-travaux-de-recherche-et-de-statistique/article-9-acces-aux-travaux-de-la-recherche-financee-par-des-fonds-publics/versions/pour-une-garantie-de-diffusion-en-acces-ouvert#arg-3223",
          "edit": "https://www.republique-numerique.fr/consultations/projet-de-loi-numerique/consultation/consultation/opinions/section-2-travaux-de-recherche-et-de-statistique/article-9-acces-aux-travaux-de-la-recherche-financee-par-des-fonds-publics/arguments/3223/edit",
          "report": "https://www.republique-numerique.fr/consultations/projet-de-loi-numerique/consultation/consultation/opinions/section-2-travaux-de-recherche-et-de-statistique/article-9-acces-aux-travaux-de-la-recherche-financee-par-des-fonds-publics/arguments/3223/report"
        },
        "has_user_voted": false,
        "has_user_reported": false
      },
      {
        "isContribuable": false,
        "id": 3254,
        "body": "Aucune une archive ouverte publique n'est actuellement techniquement capable d'archiver les nouvelles formes d'ouvrages numériques dynamiques, c'est à dire  conçus d’emblée pour être riche d’images, sons et vidéos (produits ad hoc ou dupliqués par importation du web), d’outils de visualisation de données (timelines, cartographies géographiques dynamiques, cartographies du web sémantique, collectes documentaires, outils de curation, chapitrage analytique de vidéos ou bandes sons, syndication de contenus...), d’articulations aux réseaux sociaux (fils RSS, Twitter, comptes spécifiques sur plateformes dédiées de type Facebook, dispositifs d’annotations partagées, mutualisations de signets, curations communautaires des sources réticulaires, etc...), d’interactivité (par des écritoires collaboratifs, wiki,  forums, outils d’annotations individuels ou partagés, jeux et activités, services liés à la géolocalisation de l’utilisateur...) et d’évolutivité  (révisions en fonction des interactions favorisant les actualisations partielles et successives). Et aucune une archive ouverte publique pérenne, n'est en capacité d'archiver la série potentiellement infinie des modifications apportées par les auteurs ou par la communauté de co-auteurs à un ouvrage numérique... évolutif. En l'état la proposition revient à interdire aux auteurs financés sur fonds publics toute innovation dans l'éditorialisation numérique des travaux et, de ce fait, toute créativité & recherche sur les formes émergentes.\n",
        "created_at": "2015-10-12T09:02:36+0200",
        "updated_at": "2015-10-12T09:02:36+0200",
        "is_enabled": true,
        "votes_count": 3,
        "type": 0,
        "is_trashed": false,
        "author": {
          "username": "Jérôme Valluy",
          "displayName": "Jérôme Valluy",
          "uniqueId": "jeromevalluy",
          "isAdmin": false,
          "media": null,
          "vip": false,
          "_links": {
            "profile": "https://www.republique-numerique.fr/profile/jeromevalluy",
            "settings": "https://www.republique-numerique.fr/profile/edit-profile"
          }
        },
        "_links": {
          "show": "https://www.republique-numerique.fr/consultations/projet-de-loi-numerique/consultation/consultation/opinions/section-2-travaux-de-recherche-et-de-statistique/article-9-acces-aux-travaux-de-la-recherche-financee-par-des-fonds-publics/versions/pour-une-garantie-de-diffusion-en-acces-ouvert#arg-3254",
          "edit": "https://www.republique-numerique.fr/consultations/projet-de-loi-numerique/consultation/consultation/opinions/section-2-travaux-de-recherche-et-de-statistique/article-9-acces-aux-travaux-de-la-recherche-financee-par-des-fonds-publics/arguments/3254/edit",
          "report": "https://www.republique-numerique.fr/consultations/projet-de-loi-numerique/consultation/consultation/opinions/section-2-travaux-de-recherche-et-de-statistique/article-9-acces-aux-travaux-de-la-recherche-financee-par-des-fonds-publics/arguments/3254/report"
        },
        "has_user_voted": false,
        "has_user_reported": false
      },
      {
        "isContribuable": false,
        "id": 3374,
        "body": "Première partie sur 3\n*Cette proposition introduirait, sous la forme d'une \"archive ouverte\", une obligation et un monopole de publication dont les modalités (et les possibilités techniques) restent dans l'ombre.\n*Elle oblitère totalement le travail éditorial (mise en forme, vérification des références, élaboration technique des documents, cartes et illustrations, propositions d'harmonisation dans le cadre d'un ouvrage collectif, etc.) effectué après que les manuscrits ont été \"acceptés pour publication\". Ce travail est donc soit compté pour rien, soit remis entièrement entre les mains de l'auteur lui-même, appelé à être son propre éditeur. Et à l'être séance tenante: quelles sanctions seraient prévues pour ceux d'entre les chercheurs qui négligeraient l'injonction \"doit mettre immédiatement en dépôt...\"?\n*En établissant une diffusion parallèle et immédiate (car rien dans l'amendement ne permet de savoir selon quels critères un manuscrit serait diffusé \"immédiatement\" ou \"au terme d'un délai maximal de douze mois\"), elle compromet gravement toutes les formes actuelles de publication et leur modèle économique, déjà très fragile. Si bien qu'à terme la notion même d'\"acceptation pour publication\" risque de disparaître, faute qu'existent encore des revues et des éditeurs susceptibles de publier les textes des chercheurs SHS. Que deviendra alors l'idée de validation scientifique?\n\n",
        "created_at": "2015-10-12T20:46:49+0200",
        "updated_at": "2015-10-12T20:46:49+0200",
        "is_enabled": true,
        "votes_count": 3,
        "type": 0,
        "is_trashed": false,
        "author": {
          "username": "Duhamelle Christophe",
          "displayName": "Duhamelle Christophe",
          "uniqueId": "duhamellechristophe",
          "isAdmin": false,
          "media": null,
          "vip": false,
          "_links": {
            "profile": "https://www.republique-numerique.fr/profile/duhamellechristophe",
            "settings": "https://www.republique-numerique.fr/profile/edit-profile"
          }
        },
        "_links": {
          "show": "https://www.republique-numerique.fr/consultations/projet-de-loi-numerique/consultation/consultation/opinions/section-2-travaux-de-recherche-et-de-statistique/article-9-acces-aux-travaux-de-la-recherche-financee-par-des-fonds-publics/versions/pour-une-garantie-de-diffusion-en-acces-ouvert#arg-3374",
          "edit": "https://www.republique-numerique.fr/consultations/projet-de-loi-numerique/consultation/consultation/opinions/section-2-travaux-de-recherche-et-de-statistique/article-9-acces-aux-travaux-de-la-recherche-financee-par-des-fonds-publics/arguments/3374/edit",
          "report": "https://www.republique-numerique.fr/consultations/projet-de-loi-numerique/consultation/consultation/opinions/section-2-travaux-de-recherche-et-de-statistique/article-9-acces-aux-travaux-de-la-recherche-financee-par-des-fonds-publics/arguments/3374/report"
        },
        "has_user_voted": false,
        "has_user_reported": false
      },
      {
        "isContribuable": false,
        "id": 3375,
        "body": "Deuxième partie sur 3\n*La proposition néglige totalement les systèmes existants, fruits de négociations équilibrées, et dont la rédaction actuelle du projet de loi permet une évolution raisonnable. La diversité de ces systèmes est une garantie de pluralisme qu'il est inquiétant de ne pas prendre en compte. Utiliser le terme d'\"embargo\" pour le système de la barrière mobile est un abus de vocabulaire; un accès payant reste un accès, comme le montre d'ailleurs l'existence des formules \"freemium\", \"premium\" et autres, à qui il n'y a pas lieu d'attribuer une sorte de privilège de liberté. En revanche, en \"réputant non écrit\" tout contrat d'édition pour tout texte n'étant pas une monographie, la proposition introduit une restriction extrêmement forte dont la compatibilité avec les modalités du copyright en droit français n'est pas précisée.\n*Les arguments sur lesquels repose la proposition sont fallacieux. Il se trouve peut-être des études pour \"montrer que la visibilité des publications en SHS s'érode significativement au bout d'une année\", mais cette affirmation ne correspond pas, et heureusement, aux pratiques des chercheurs; l'étude citée, il est vrai, fait reposer ses conclusions sur le \"nombre de vues\", ce qui ne dit pas grand-chose de la lecture, de l'utilisation et de l'impact scientifique à long terme, et attribue à la \"visibilité\" une valeur d'évaluation scientifique qui, pour le moins, demande à être débattue. Quant à l'argument du \"handicap... face aux autres pays\", il repose sur une méconnaissance de la situation de nos voisins. Un système comme Cairn offre, dans le respect des revues et de leurs éditeurs, une diffusion électronique immédiate, et rapidement gratuite, qui est infiniment plus ouverte et performante que ce que proposent, par exemple, les revues SHS allemandes -- un pays qui ne semble pourtant pas être particulièrement handicapé dans le domaine scientifique.\n",
        "created_at": "2015-10-12T20:48:03+0200",
        "updated_at": "2015-10-12T20:48:03+0200",
        "is_enabled": true,
        "votes_count": 3,
        "type": 0,
        "is_trashed": false,
        "author": {
          "username": "Duhamelle Christophe",
          "displayName": "Duhamelle Christophe",
          "uniqueId": "duhamellechristophe",
          "isAdmin": false,
          "media": null,
          "vip": false,
          "_links": {
            "profile": "https://www.republique-numerique.fr/profile/duhamellechristophe",
            "settings": "https://www.republique-numerique.fr/profile/edit-profile"
          }
        },
        "_links": {
          "show": "https://www.republique-numerique.fr/consultations/projet-de-loi-numerique/consultation/consultation/opinions/section-2-travaux-de-recherche-et-de-statistique/article-9-acces-aux-travaux-de-la-recherche-financee-par-des-fonds-publics/versions/pour-une-garantie-de-diffusion-en-acces-ouvert#arg-3375",
          "edit": "https://www.republique-numerique.fr/consultations/projet-de-loi-numerique/consultation/consultation/opinions/section-2-travaux-de-recherche-et-de-statistique/article-9-acces-aux-travaux-de-la-recherche-financee-par-des-fonds-publics/arguments/3375/edit",
          "report": "https://www.republique-numerique.fr/consultations/projet-de-loi-numerique/consultation/consultation/opinions/section-2-travaux-de-recherche-et-de-statistique/article-9-acces-aux-travaux-de-la-recherche-financee-par-des-fonds-publics/arguments/3375/report"
        },
        "has_user_voted": false,
        "has_user_reported": false
      },
      {
        "isContribuable": false,
        "id": 3376,
        "body": "Troisième partie sur 3\n*Enfin, la proposition ne répond pas à la question: qui paiera? Comment sera financé un système dont, à terme, pour les raisons exposées ci-dessus, se retireront les éditeurs? Espérer une prise en charge de l'intégralité des coûts de la publication scientifique par la puissance publique semble relever du voeu pieux. Les revues qui vivent au prix d'un fort investissement personnel des chercheurs -- et qui sont également soutenues par des institutions publiques comme l'EHESS et le CNRS -- assurent aux travaux sur financement public des conditions de sélection, d'accompagnement, de stratégie scientifique de diffusion et d'indépendance dont, au-delà des nécessaires évolutions, il serait désastreux de signer la disparition au profit d'un système dont aucune des modalités (technique; éditoriale; financière; scientifique) n'est clairement définie.",
        "created_at": "2015-10-12T20:48:41+0200",
        "updated_at": "2015-10-12T20:48:41+0200",
        "is_enabled": true,
        "votes_count": 3,
        "type": 0,
        "is_trashed": false,
        "author": {
          "username": "Duhamelle Christophe",
          "displayName": "Duhamelle Christophe",
          "uniqueId": "duhamellechristophe",
          "isAdmin": false,
          "media": null,
          "vip": false,
          "_links": {
            "profile": "https://www.republique-numerique.fr/profile/duhamellechristophe",
            "settings": "https://www.republique-numerique.fr/profile/edit-profile"
          }
        },
        "_links": {
          "show": "https://www.republique-numerique.fr/consultations/projet-de-loi-numerique/consultation/consultation/opinions/section-2-travaux-de-recherche-et-de-statistique/article-9-acces-aux-travaux-de-la-recherche-financee-par-des-fonds-publics/versions/pour-une-garantie-de-diffusion-en-acces-ouvert#arg-3376",
          "edit": "https://www.republique-numerique.fr/consultations/projet-de-loi-numerique/consultation/consultation/opinions/section-2-travaux-de-recherche-et-de-statistique/article-9-acces-aux-travaux-de-la-recherche-financee-par-des-fonds-publics/arguments/3376/edit",
          "report": "https://www.republique-numerique.fr/consultations/projet-de-loi-numerique/consultation/consultation/opinions/section-2-travaux-de-recherche-et-de-statistique/article-9-acces-aux-travaux-de-la-recherche-financee-par-des-fonds-publics/arguments/3376/report"
        },
        "has_user_voted": false,
        "has_user_reported": false
      },
      {
        "isContribuable": false,
        "id": 3497,
        "body": "mais pourquoi 12 mois pour les sciences humaines au lieu de 6 pour la médecine etc.? Je me demande comment on peut être contre la publication des résultats de recherche et de recherche publique en particulier. C'est l'essence même de la sciences de partager les savoirs (ce qui ne veut pas dire les piller) ",
        "created_at": "2015-10-13T10:41:24+0200",
        "updated_at": "2015-10-13T10:41:24+0200",
        "is_enabled": true,
        "votes_count": 2,
        "type": 1,
        "is_trashed": false,
        "author": {
          "username": "Bernard Ludwig",
          "displayName": "Bernard Ludwig",
          "uniqueId": "bernardludwig",
          "isAdmin": false,
          "media": null,
          "vip": false,
          "_links": {
            "profile": "https://www.republique-numerique.fr/profile/bernardludwig",
            "settings": "https://www.republique-numerique.fr/profile/edit-profile"
          }
        },
        "_links": {
          "show": "https://www.republique-numerique.fr/consultations/projet-de-loi-numerique/consultation/consultation/opinions/section-2-travaux-de-recherche-et-de-statistique/article-9-acces-aux-travaux-de-la-recherche-financee-par-des-fonds-publics/versions/pour-une-garantie-de-diffusion-en-acces-ouvert#arg-3497",
          "edit": "https://www.republique-numerique.fr/consultations/projet-de-loi-numerique/consultation/consultation/opinions/section-2-travaux-de-recherche-et-de-statistique/article-9-acces-aux-travaux-de-la-recherche-financee-par-des-fonds-publics/arguments/3497/edit",
          "report": "https://www.republique-numerique.fr/consultations/projet-de-loi-numerique/consultation/consultation/opinions/section-2-travaux-de-recherche-et-de-statistique/article-9-acces-aux-travaux-de-la-recherche-financee-par-des-fonds-publics/arguments/3497/report"
        },
        "has_user_voted": false,
        "has_user_reported": false
      },
      {
        "isContribuable": false,
        "id": 6058,
        "body": "@Duhamelle Christophe : il ne faut pas mettre tous les éditeurs dans le même panier. Ceux dont vous parlez, qui sont soutenus par l'EHESS, se sont en SHS, et sont les plus fragiles. Mais en STM, les grands éditeurs internationaux font d'énormes profits et c'est inacceptable. Le travail d'accompagnement et de diffusion, secrétariat, etc... peut être externalisé comme une prestation de service sur appels d'offres publics auxquels les éditeurs pourraient répondre. Ils ont leur rôle dans le système.",
        "created_at": "2015-10-18T20:10:13+0200",
        "updated_at": "2015-10-18T20:10:13+0200",
        "is_enabled": true,
        "votes_count": 0,
        "type": 1,
        "is_trashed": false,
        "author": {
          "username": "C Kounelis",
          "displayName": "C Kounelis",
          "uniqueId": "ckounelis",
          "isAdmin": false,
          "media": null,
          "vip": false,
          "_links": {
            "profile": "https://www.republique-numerique.fr/profile/ckounelis",
            "settings": "https://www.republique-numerique.fr/profile/edit-profile"
          }
        },
        "_links": {
          "show": "https://www.republique-numerique.fr/consultations/projet-de-loi-numerique/consultation/consultation/opinions/section-2-travaux-de-recherche-et-de-statistique/article-9-acces-aux-travaux-de-la-recherche-financee-par-des-fonds-publics/versions/pour-une-garantie-de-diffusion-en-acces-ouvert#arg-6058",
          "edit": "https://www.republique-numerique.fr/consultations/projet-de-loi-numerique/consultation/consultation/opinions/section-2-travaux-de-recherche-et-de-statistique/article-9-acces-aux-travaux-de-la-recherche-financee-par-des-fonds-publics/arguments/6058/edit",
          "report": "https://www.republique-numerique.fr/consultations/projet-de-loi-numerique/consultation/consultation/opinions/section-2-travaux-de-recherche-et-de-statistique/article-9-acces-aux-travaux-de-la-recherche-financee-par-des-fonds-publics/arguments/6058/report"
        },
        "has_user_voted": false,
        "has_user_reported": false
      }
    ],
    "sources": [
      {
        "isContribuable": false,
        "id": 287,
        "title": "Pratiques de l’édition numérique",
        "link": "http://parcoursnumeriques-pum.ca/introduction-20",
        "body": "Ceci est un ouvrage numérique dynamique, entrant dans le champ d'application de cette proposition... et qui serait totalement impossible à déposer (avec la totalité des données intégrées par liens ou d'autres moyens au texte) dans une \"archive publique pérenne\" telles qu'elles existent actuellement en France : aucune n'est en capacité technique de recevoir les nouvelles formes d'éditorialisation numérique. En l'état une telle proposition reviendrait à une interdiction radicale à toute forme d'innovation.\n\nAutre exemple d'innovation : https://candide.bnf.fr/\n\nBibliographie sur le sujet : http://www.costech.utc.fr/spip.php?article85",
        "created_at": "2015-10-12T09:07:57+0200",
        "updated_at": "2015-10-12T09:07:57+0200",
        "author": {
          "username": "Jérôme Valluy",
          "displayName": "Jérôme Valluy",
          "uniqueId": "jeromevalluy",
          "isAdmin": false,
          "media": null,
          "vip": false,
          "_links": {
            "profile": "https://www.republique-numerique.fr/profile/jeromevalluy",
            "settings": "https://www.republique-numerique.fr/profile/edit-profile"
          }
        },
        "category": "Article scientifique",
        "votes_count": 0,
        "_links": {
          "edit": "https://www.republique-numerique.fr/consultations/projet-de-loi-numerique/consultation/consultation/opinions/section-2-travaux-de-recherche-et-de-statistique/article-9-acces-aux-travaux-de-la-recherche-financee-par-des-fonds-publics/sources/pratiques-de-l-edition-numerique/edit",
          "report": "https://www.republique-numerique.fr/consultations/projet-de-loi-numerique/consultation/consultation/opinions/section-2-travaux-de-recherche-et-de-statistique/article-9-acces-aux-travaux-de-la-recherche-financee-par-des-fonds-publics/sources/pratiques-de-l-edition-numerique/report"
        },
        "has_user_voted": false,
        "has_user_reported": false
      }
    ],
    "parent": {
      "isContribuable": false,
      "id": 69,
      "body": "<p>Au chapitre 3 du titre 3 du livre V du code de la recherche, il est ins&eacute;r&eacute; un article L. 533-4 ainsi r&eacute;dig&eacute;&nbsp;:</p>\r\n\r\n<p>&laquo;Art. L. 533-4 &ndash;<br />\r\nI. Lorsque un &eacute;crit scientifique, issu d&rsquo;une activit&eacute; de recherche financ&eacute;e au moins pour moiti&eacute; par des fonds publics, est publi&eacute; dans un p&eacute;riodique, un ouvrage paraissant au moins une fois par an, des actes de congr&egrave;s ou de colloques ou des recueils de m&eacute;langes, son auteur, m&ecirc;me en cas de cession exclusive &agrave; un &eacute;diteur, dispose du droit de mettre &agrave; disposition gratuitement sous une forme num&eacute;rique, sous r&eacute;serve des droits des &eacute;ventuels coauteurs, la derni&egrave;re version accept&eacute;e de son manuscrit par son &eacute;diteur et &agrave; l&rsquo;exclusion du travail de mise en forme qui incombe &agrave; ce dernier, au terme d&rsquo;un d&eacute;lai de douze mois pour les sciences, la technique et la m&eacute;decine et de vingt-quatre mois pour les sciences humaines et sociales, &agrave; compter de date de la premi&egrave;re publication. Cette mise &agrave; disposition ne peut donner lieu &agrave; aucune exploitation commerciale.</p>\r\n\r\n<p>&laquo;&nbsp;II. &ndash; Les dispositions du pr&eacute;sent article sont d&rsquo;ordre public et toute clause contraire &agrave; celles-ci est r&eacute;put&eacute;e non &eacute;crite. Elles ne s&rsquo;appliquent pas aux contrats en cours.&nbsp;&raquo;</p>",
      "type": {
        "id": 91,
        "title": "Section 2",
        "subtitle": "Travaux de recherche et de statistique",
        "voteWidgetType": 2,
        "votesHelpText": "Pensez-vous que cette proposition permet d'atteindre les objectifs présentés dans l’explication de l’article ?",
        "commentSystem": 2,
        "color": "blue",
        "versionable": true,
        "sourceable": true,
        "votesThreshold": null,
        "votesThresholdHelpText": null
      },
      "modals": [
        {
          "key": "article L. 533-4",
          "before": "",
          "after": "<p>I. Lorsque un écrit scientifique, issu d’une activité de recherche financée au moins pour moitié par des fonds publics est publié dans un périodique, un ouvrage paraissant au moins une fois par an, des actes de congrès ou de colloques ou des recueils de mélanges,  son auteur, même en cas de cession exclusive à un éditeur, dispose du  droit de mettre à disposition gratuitement sous une forme numérique, sous réserve des droits des éventuels co-auteurs, la dernière version acceptée de son manuscrit par son éditeur et à l’exclusion du travail de mise en forme qui incombe à ce dernier, au terme d’un délai de douze mois pour les sciences, la technique et la médecine et de vingt-quatre mois pour les sciences humaines et sociales, à compter de date de la première publication. Cette mise à disposition ne peut donner lieu à aucune exploitation commerciale.</p><p>« II. – Les dispositions du présent article sont d’ordre public et toute clause contraire à celles-ci est réputée non écrite. Elles ne s’appliquent pas aux contrats en cours. »</p>",
          "title": "Création du nouvel article L 533-4 du code de la recherche (Livre V, Titre III, Chapitre 3)"
        }
      ],
      "appendices": [
        {
          "body": "<p><strong>Objectif :</strong> favoriser le libre acc&egrave;s aux travaux de recherche publique.</p>\r\n\r\n<p><strong>Explication :</strong> Le monde acad&eacute;mique dispose d&rsquo;un ensemble consid&eacute;rable d&rsquo;informations scientifiques dont l&rsquo;acc&egrave;s reste compliqu&eacute; par les droits d&rsquo;exclusivit&eacute; d&eacute;tenus par certaines revues et &eacute;diteurs. Le projet de loi propose de favoriser la diffusion en libre acc&egrave;s des r&eacute;sultats de la recherche pour favoriser la circulation du savoir et donc l&rsquo;innovation.<br />\r\nIl est propos&eacute; d&rsquo;inscrire dans la loi, un droit de valorisation secondaire pour les publications scientifiques. L&rsquo;auteur pourra ainsi rendre sa cr&eacute;ation publiquement accessible apr&egrave;s un d&eacute;lai de 12 mois pour les &oelig;uvres scientifiques, techniques et m&eacute;dicales et de 24 mois pour les &oelig;uvres des sciences humaines et sociales.</p>\r\n\r\n<p><strong>Exemple :</strong> les scientifiques de la recherche publique auront d&eacute;sormais le droit de publier leurs articles sur des sites ouverts accessibles &agrave; tous, notamment les archives publiques sp&eacute;cialis&eacute;es, apr&egrave;s un court d&eacute;lai d&rsquo;embargo.</p>",
          "type": {
            "title": "Explication de l'article"
          }
        }
      ],
      "title": "Article 9 - Libre accès aux publications scientifiques de la recherche publique",
      "_links": {
        "show": "https://www.republique-numerique.fr/consultations/projet-de-loi-numerique/consultation/consultation/opinions/section-2-travaux-de-recherche-et-de-statistique/article-9-acces-aux-travaux-de-la-recherche-financee-par-des-fonds-publics",
        "edit": "https://www.republique-numerique.fr/consultations/projet-de-loi-numerique/consultation/consultation/opinions/section-2-travaux-de-recherche-et-de-statistique/article-9-acces-aux-travaux-de-la-recherche-financee-par-des-fonds-publics/edit",
        "report": "https://www.republique-numerique.fr/consultations/projet-de-loi-numerique/consultation/consultation/opinions/section-2-travaux-de-recherche-et-de-statistique/article-9-acces-aux-travaux-de-la-recherche-financee-par-des-fonds-publics/report",
        "type": "https://www.republique-numerique.fr/consultations/projet-de-loi-numerique/consultation/consultation/opinions/section-2-travaux-de-recherche-et-de-statistique"
      },
      "user_vote": null,
      "has_user_reported": false
    },
    "sources_count": 1,
    "arguments_count": 8,
    "votes": [
      {
        "user": {
          "username": "Marin Dacos",
          "displayName": "Marin Dacos",
          "uniqueId": "marindacos",
          "isAdmin": false,
          "media": {
            "url": "/media/cache/default_avatar/default/0001/01/464_default_avatar.png"
          },
          "vip": false,
          "_links": {
            "profile": "https://www.republique-numerique.fr/profile/marindacos",
            "settings": "https://www.republique-numerique.fr/profile/edit-profile"
          }
        },
        "value": 1
      },
      {
        "user": {
          "username": "Olivier Jacquot",
          "displayName": "Olivier Jacquot",
          "uniqueId": "olivierjacquot",
          "isAdmin": false,
          "media": null,
          "vip": false,
          "_links": {
            "profile": "https://www.republique-numerique.fr/profile/olivierjacquot",
            "settings": "https://www.republique-numerique.fr/profile/edit-profile"
          }
        },
        "value": 1
      },
      {
        "user": {
          "username": "Christine Ollendorff",
          "displayName": "Christine Ollendorff",
          "uniqueId": "christineollendorff",
          "isAdmin": false,
          "media": {
            "url": "/media/cache/default_avatar/default/0001/01/469_default_avatar.jpg"
          },
          "vip": false,
          "_links": {
            "profile": "https://www.republique-numerique.fr/profile/christineollendorff",
            "settings": "https://www.republique-numerique.fr/profile/edit-profile"
          }
        },
        "value": 1
      },
      {
        "user": {
          "username": "S Bauin",
          "displayName": "S Bauin",
          "uniqueId": "sbauin",
          "isAdmin": false,
          "media": null,
          "vip": false,
          "_links": {
            "profile": "https://www.republique-numerique.fr/profile/sbauin",
            "settings": "https://www.republique-numerique.fr/profile/edit-profile"
          }
        },
        "value": 1
      },
      {
        "user": {
          "username": "Benoît P I E R",
          "displayName": "Benoît P I E R",
          "uniqueId": "benoitpier1",
          "isAdmin": false,
          "media": null,
          "vip": false,
          "_links": {
            "profile": "https://www.republique-numerique.fr/profile/benoitpier1",
            "settings": "https://www.republique-numerique.fr/profile/edit-profile"
          }
        },
        "value": 1
      }
    ],
    "updated_at": "2015-10-09T12:22:12+0200",
    "ranking": 19,
    "is_trashed": false,
    "title": "POUR UNE GARANTIE DE DIFFUSION EN ACCÈS OUVERT",
    "slug": "pour-une-garantie-de-diffusion-en-acces-ouvert",
    "created_at": "2015-10-09T12:22:12+0200",
    "votes_nok": 17,
    "votes_ok": 253,
    "votes_mitige": 4,
    "_links": {
      "show": "https://www.republique-numerique.fr/consultations/projet-de-loi-numerique/consultation/consultation/opinions/section-2-travaux-de-recherche-et-de-statistique/article-9-acces-aux-travaux-de-la-recherche-financee-par-des-fonds-publics/versions/pour-une-garantie-de-diffusion-en-acces-ouvert",
      "report": "https://www.republique-numerique.fr/consultations/projet-de-loi-numerique/consultation/consultation/opinions/section-2-travaux-de-recherche-et-de-statistique/article-9-acces-aux-travaux-de-la-recherche-financee-par-des-fonds-publics/versions/pour-une-garantie-de-diffusion-en-acces-ouvert/report"
    },
    "user_vote": null,
    "has_user_reported": false
  },
  "rankingThreshold": null,
  "opinionTerm": 1
}