{
  "version": {
    "isContribuable": false,
    "votes_total": 11,
    "arguments_yes_count": 1,
    "arguments_no_count": 1,
    "id": 1188,
    "body": "<p>Au chapitre 3 du titre 3 du livre V du code de la recherche, il est ins&eacute;r&eacute; un article L. 533-4 ainsi r&eacute;dig&eacute;&nbsp;:</p>\n\n<p>&laquo;Art. L. 533-4 &ndash;<br />\nI. Lorsque un &eacute;crit scientifique, issu d&rsquo;une activit&eacute; de recherche financ&eacute;e au moins pour moiti&eacute; par des fonds publics, est publi&eacute; dans un p&eacute;riodique, un ouvrage paraissant au moins une fois par an, des actes de congr&egrave;s ou de colloques ou des recueils de m&eacute;langes, son auteur, m&ecirc;me en cas de cession exclusive &agrave; un &eacute;diteur, dispose du droit de mettre imm&eacute;diatement &agrave; disposition gratuitement sous une forme num&eacute;rique, sous r&eacute;serve des droits des &eacute;ventuels coauteurs, la derni&egrave;re version accept&eacute;e de son manuscrit par son &eacute;diteur et &agrave; l&rsquo;exclusion du travail de mise en forme qui incombe &agrave; ce dernier. Cette mise &agrave; disposition ne peut donner lieu &agrave; aucune exploitation commerciale. Au terme d&rsquo;un d&eacute;lai de douze mois pour les sciences, la technique et la m&eacute;decine et de vingt-quatre mois pour les sciences humaines et sociales, &agrave; compter de date de la premi&egrave;re publication, l&#39;auteur dispose du droit de mettre &agrave; disposition gratuitement sous une forme num&eacute;rique, sous r&eacute;serve des droits des &eacute;ventuels coauteurs, la derni&egrave;re version accept&eacute;e de son manuscrit par son &eacute;diteur y compris le travail de mise en forme qui incombe &agrave; ce dernier.</p>\n\n<p>&laquo;&nbsp;II. &ndash; Les dispositions du pr&eacute;sent article sont d&rsquo;ordre public et toute clause contraire &agrave; celles-ci est r&eacute;put&eacute;e non &eacute;crite. Elles ne s&rsquo;appliquent pas aux contrats en cours.&nbsp;&raquo;</p>",
    "comment": "1) a) Puisqu&#39;il s&#39;agit de travaux r&eacute;alis&eacute;s sur fond public (l&#39;&eacute;diteur n&#39;a&nbsp;aucune contribution sur&nbsp;le contenu), qui ont &eacute;t&eacute; relus, &eacute;valu&eacute;s, et corrig&eacute;s par les <em>pairs</em> (l&#39;&eacute;diteur a organis&eacute; l&#39;&eacute;valution mais ne l&#39;a pas financ&eacute;e),<br />\nJe ne vois pas pourquoi l&#39;auteur ne pourrait mettre dans le domaine public <strong>imm&eacute;diatement </strong>&quot;<em>la derni&egrave;re version accept&eacute;e de son manuscrit par son &eacute;diteur et<u> &agrave; l&rsquo;exclusion du travail de mise en forme qui incombe &agrave; ce dernier</u></em>&quot; (termes de l&#39;article 9), puisque le <u>seul </u>travail qui constitue une valeur ajout&eacute;e &agrave; l&#39;article, apport&eacute;e par l&rsquo;&eacute;diteur c&#39;est justement &quot;le travail de mise en forme&quot;. L&#39;auteur ne ferait qu&#39;utiliser comme bon lui semble le fruit de son travail. Pourquoi donnerait-on un droit de 12 mois &agrave; l&#39;&eacute;diteur sur quelque-chose auquel il n&#39;a contribu&eacute; A RIEN (z&eacute;ro-virgule-z&eacute;ro), ni financi&egrave;rement ni en valeur-ajout&eacute;e, et retirerait-on tout droit &agrave; l&#39;auteur qui a tout fait, et aux pouvoirs publics qui ont financ&eacute;, puisqu&#39;il s&#39;agit ici de tout sauf de la contribution&nbsp;de l&#39;&eacute;diteur ?<br />\n<br />\n1) b) Bien s&ucirc;r, il ne s&#39;agit pas de retirer tout droit ou protections aux &eacute;diteurs. Pour que l&#39;&eacute;diteur puisse voir son travail de mise en forme valoris&eacute; et qu&#39;il puisse en faire l&#39;exploitation commerciale pendant une p&eacute;riode d&#39;embargo &agrave; d&eacute;finir, on pourrait par ailleurs permettre que &quot;l&#39;auteur, m&ecirc;me en cas de cession exclusive &agrave; un &eacute;diteur, dispose du droit de mettre &agrave; disposition gratuitement sous une forme num&eacute;rique, sous r&eacute;serve des droits des &eacute;ventuels coauteurs, la derni&egrave;re version accept&eacute;e de son manuscrit par son &eacute;diteur<strong> Y COMPRIS</strong> le travail de mise en forme qui incombe &agrave; ce dernier, au terme d&#39;un d&eacute;lai de 12 mois pour les sciences.....&quot;<br />\n<br />\nCela me semblerait juste: l&#39;&eacute;diteur verrait son travail de mise en forme valoris&eacute; pendant une p&eacute;riode de 12 ou 24&nbsp;mois pendant laquelle il pourrait en faire l&#39;exploitation commerciale. Et apr&egrave;s cette p&eacute;riode d&#39;embargo, m&ecirc;me le travail de l&#39;&eacute;diteur (la mise en forme) tombe dans le domaine public, ce qui n&#39;est pas choquant car ce serait la contrepartie du fait que l&#39;&eacute;diteur a fait une exploitation commerciale pendant 12 ou 24&nbsp;mois d&#39;une production r&eacute;alis&eacute;e et financ&eacute;e par d&#39;autres.<br />\n<br />\n2) En conclusion, je propose un amendement de cet article qui se subdivise en 2 parties:<br />\na) l&#39;auteur peut mettre dans le domaine public <strong>imm&eacute;diatement </strong>son manuscript<strong> &agrave; l&#39;exclusion du travail de l&#39;&eacute;diteur</strong>.<br />\nb) l&#39;auteur peut mettre dans le domaine public son manuscript <strong>y compris </strong><strong>le travail de l&#39;&eacute;diteur</strong>, au terme d&#39;un <strong>d&eacute;lai de 12 mois</strong> pour les sciences, etc.<br />\n&nbsp;&nbsp;",
    "author": {
      "username": "Alain Lecavelier",
      "displayName": "Alain Lecavelier",
      "uniqueId": "alainlecavelier",
      "isAdmin": false,
      "media": null,
      "vip": false,
      "_links": {
        "profile": "https://www.republique-numerique.fr/profile/alainlecavelier",
        "settings": "https://www.republique-numerique.fr/profile/edit-profile"
      }
    },
    "arguments": [
      {
        "isContribuable": false,
        "id": 6153,
        "body": "A l'ère du numérique le travail de mise en forme est réduit à zéro : des fichiers modèles sous word ou open/libreoffice ou des fichiers .sty sous LaTeX  font que  l'éditeur n'a plus de travail de mise en forme à effectuer. Et à l'ère du numérique en réseau je pense que les chercheurs devraient pouvoir publier directement en ligne sans passer par la notion de fichier... Plus généralement, pour se passer des \"revues prestigieuses\" des éditeurs (le prestige étant du à la qualité des chercheurs qui y ont publié d'ailleurs... pas à l'éditeur ), des plateformes comme http://www.episciences.org/ du CCSD du CNRS  vont dans le bon sens.",
        "created_at": "2015-10-18T22:39:57+0200",
        "updated_at": "2015-10-18T22:39:57+0200",
        "is_enabled": true,
        "votes_count": 0,
        "type": 1,
        "is_trashed": false,
        "author": {
          "username": "Isabelle Ramade",
          "displayName": "Isabelle Ramade",
          "uniqueId": "isabelleramade",
          "isAdmin": false,
          "media": null,
          "vip": false,
          "_links": {
            "profile": "https://www.republique-numerique.fr/profile/isabelleramade",
            "settings": "https://www.republique-numerique.fr/profile/edit-profile"
          }
        },
        "_links": {
          "show": "https://www.republique-numerique.fr/consultations/projet-de-loi-numerique/consultation/consultation/opinions/section-2-travaux-de-recherche-et-de-statistique/article-9-acces-aux-travaux-de-la-recherche-financee-par-des-fonds-publics/versions/pour-une-redaction-equilibree-qui-reconnaisse-la-contribution-de-chacun-auteurs-fonds-publics-et-editeurs-et-les-droits-qui-y-sont-associes-a-l-auteur-peut-mettre-dans-le-domaine-public-immediatement-son-manuscript-a-l-exclusion-du-travail-de-l-editeur-b-#arg-6153",
          "edit": "https://www.republique-numerique.fr/consultations/projet-de-loi-numerique/consultation/consultation/opinions/section-2-travaux-de-recherche-et-de-statistique/article-9-acces-aux-travaux-de-la-recherche-financee-par-des-fonds-publics/arguments/6153/edit",
          "report": "https://www.republique-numerique.fr/consultations/projet-de-loi-numerique/consultation/consultation/opinions/section-2-travaux-de-recherche-et-de-statistique/article-9-acces-aux-travaux-de-la-recherche-financee-par-des-fonds-publics/arguments/6153/report"
        },
        "has_user_voted": false,
        "has_user_reported": false
      },
      {
        "isContribuable": false,
        "id": 6154,
        "body": "A l'ère du numérique le travail de mise en forme est réduit à zéro : des fichiers modèles sous word ou open/libreoffice ou des fichiers .sty sous LaTeX  font que  l'éditeur n'a plus de travail de mise en forme à effectuer. Et à l'ère du numérique en réseau je pense que les chercheurs devraient pouvoir publier directement en ligne sans passer par la notion de fichier... Plus généralement, pour se passer des \"revues prestigieuses\" des éditeurs (le prestige étant du à la qualité des chercheurs qui y ont publié d'ailleurs... pas à l'éditeur ), des plateformes comme http://www.episciences.org/ du CCSD du CNRS  vont dans le bon sens.",
        "created_at": "2015-10-18T22:40:01+0200",
        "updated_at": "2015-10-18T22:40:01+0200",
        "is_enabled": true,
        "votes_count": 0,
        "type": 0,
        "is_trashed": false,
        "author": {
          "username": "Isabelle Ramade",
          "displayName": "Isabelle Ramade",
          "uniqueId": "isabelleramade",
          "isAdmin": false,
          "media": null,
          "vip": false,
          "_links": {
            "profile": "https://www.republique-numerique.fr/profile/isabelleramade",
            "settings": "https://www.republique-numerique.fr/profile/edit-profile"
          }
        },
        "_links": {
          "show": "https://www.republique-numerique.fr/consultations/projet-de-loi-numerique/consultation/consultation/opinions/section-2-travaux-de-recherche-et-de-statistique/article-9-acces-aux-travaux-de-la-recherche-financee-par-des-fonds-publics/versions/pour-une-redaction-equilibree-qui-reconnaisse-la-contribution-de-chacun-auteurs-fonds-publics-et-editeurs-et-les-droits-qui-y-sont-associes-a-l-auteur-peut-mettre-dans-le-domaine-public-immediatement-son-manuscript-a-l-exclusion-du-travail-de-l-editeur-b-#arg-6154",
          "edit": "https://www.republique-numerique.fr/consultations/projet-de-loi-numerique/consultation/consultation/opinions/section-2-travaux-de-recherche-et-de-statistique/article-9-acces-aux-travaux-de-la-recherche-financee-par-des-fonds-publics/arguments/6154/edit",
          "report": "https://www.republique-numerique.fr/consultations/projet-de-loi-numerique/consultation/consultation/opinions/section-2-travaux-de-recherche-et-de-statistique/article-9-acces-aux-travaux-de-la-recherche-financee-par-des-fonds-publics/arguments/6154/report"
        },
        "has_user_voted": false,
        "has_user_reported": false
      }
    ],
    "sources": [],
    "parent": {
      "isContribuable": false,
      "id": 69,
      "body": "<p>Au chapitre 3 du titre 3 du livre V du code de la recherche, il est ins&eacute;r&eacute; un article L. 533-4 ainsi r&eacute;dig&eacute;&nbsp;:</p>\r\n\r\n<p>&laquo;Art. L. 533-4 &ndash;<br />\r\nI. Lorsque un &eacute;crit scientifique, issu d&rsquo;une activit&eacute; de recherche financ&eacute;e au moins pour moiti&eacute; par des fonds publics, est publi&eacute; dans un p&eacute;riodique, un ouvrage paraissant au moins une fois par an, des actes de congr&egrave;s ou de colloques ou des recueils de m&eacute;langes, son auteur, m&ecirc;me en cas de cession exclusive &agrave; un &eacute;diteur, dispose du droit de mettre &agrave; disposition gratuitement sous une forme num&eacute;rique, sous r&eacute;serve des droits des &eacute;ventuels coauteurs, la derni&egrave;re version accept&eacute;e de son manuscrit par son &eacute;diteur et &agrave; l&rsquo;exclusion du travail de mise en forme qui incombe &agrave; ce dernier, au terme d&rsquo;un d&eacute;lai de douze mois pour les sciences, la technique et la m&eacute;decine et de vingt-quatre mois pour les sciences humaines et sociales, &agrave; compter de date de la premi&egrave;re publication. Cette mise &agrave; disposition ne peut donner lieu &agrave; aucune exploitation commerciale.</p>\r\n\r\n<p>&laquo;&nbsp;II. &ndash; Les dispositions du pr&eacute;sent article sont d&rsquo;ordre public et toute clause contraire &agrave; celles-ci est r&eacute;put&eacute;e non &eacute;crite. Elles ne s&rsquo;appliquent pas aux contrats en cours.&nbsp;&raquo;</p>",
      "type": {
        "id": 91,
        "title": "Section 2",
        "subtitle": "Travaux de recherche et de statistique",
        "voteWidgetType": 2,
        "votesHelpText": "Pensez-vous que cette proposition permet d'atteindre les objectifs présentés dans l’explication de l’article ?",
        "commentSystem": 2,
        "color": "blue",
        "versionable": true,
        "sourceable": true,
        "votesThreshold": null,
        "votesThresholdHelpText": null
      },
      "modals": [
        {
          "key": "article L. 533-4",
          "before": "",
          "after": "<p>I. Lorsque un écrit scientifique, issu d’une activité de recherche financée au moins pour moitié par des fonds publics est publié dans un périodique, un ouvrage paraissant au moins une fois par an, des actes de congrès ou de colloques ou des recueils de mélanges,  son auteur, même en cas de cession exclusive à un éditeur, dispose du  droit de mettre à disposition gratuitement sous une forme numérique, sous réserve des droits des éventuels co-auteurs, la dernière version acceptée de son manuscrit par son éditeur et à l’exclusion du travail de mise en forme qui incombe à ce dernier, au terme d’un délai de douze mois pour les sciences, la technique et la médecine et de vingt-quatre mois pour les sciences humaines et sociales, à compter de date de la première publication. Cette mise à disposition ne peut donner lieu à aucune exploitation commerciale.</p><p>« II. – Les dispositions du présent article sont d’ordre public et toute clause contraire à celles-ci est réputée non écrite. Elles ne s’appliquent pas aux contrats en cours. »</p>",
          "title": "Création du nouvel article L 533-4 du code de la recherche (Livre V, Titre III, Chapitre 3)"
        }
      ],
      "appendices": [
        {
          "body": "<p><strong>Objectif :</strong> favoriser le libre acc&egrave;s aux travaux de recherche publique.</p>\r\n\r\n<p><strong>Explication :</strong> Le monde acad&eacute;mique dispose d&rsquo;un ensemble consid&eacute;rable d&rsquo;informations scientifiques dont l&rsquo;acc&egrave;s reste compliqu&eacute; par les droits d&rsquo;exclusivit&eacute; d&eacute;tenus par certaines revues et &eacute;diteurs. Le projet de loi propose de favoriser la diffusion en libre acc&egrave;s des r&eacute;sultats de la recherche pour favoriser la circulation du savoir et donc l&rsquo;innovation.<br />\r\nIl est propos&eacute; d&rsquo;inscrire dans la loi, un droit de valorisation secondaire pour les publications scientifiques. L&rsquo;auteur pourra ainsi rendre sa cr&eacute;ation publiquement accessible apr&egrave;s un d&eacute;lai de 12 mois pour les &oelig;uvres scientifiques, techniques et m&eacute;dicales et de 24 mois pour les &oelig;uvres des sciences humaines et sociales.</p>\r\n\r\n<p><strong>Exemple :</strong> les scientifiques de la recherche publique auront d&eacute;sormais le droit de publier leurs articles sur des sites ouverts accessibles &agrave; tous, notamment les archives publiques sp&eacute;cialis&eacute;es, apr&egrave;s un court d&eacute;lai d&rsquo;embargo.</p>",
          "type": {
            "title": "Explication de l'article"
          }
        }
      ],
      "title": "Article 9 - Libre accès aux publications scientifiques de la recherche publique",
      "_links": {
        "show": "https://www.republique-numerique.fr/consultations/projet-de-loi-numerique/consultation/consultation/opinions/section-2-travaux-de-recherche-et-de-statistique/article-9-acces-aux-travaux-de-la-recherche-financee-par-des-fonds-publics",
        "edit": "https://www.republique-numerique.fr/consultations/projet-de-loi-numerique/consultation/consultation/opinions/section-2-travaux-de-recherche-et-de-statistique/article-9-acces-aux-travaux-de-la-recherche-financee-par-des-fonds-publics/edit",
        "report": "https://www.republique-numerique.fr/consultations/projet-de-loi-numerique/consultation/consultation/opinions/section-2-travaux-de-recherche-et-de-statistique/article-9-acces-aux-travaux-de-la-recherche-financee-par-des-fonds-publics/report",
        "type": "https://www.republique-numerique.fr/consultations/projet-de-loi-numerique/consultation/consultation/opinions/section-2-travaux-de-recherche-et-de-statistique"
      },
      "user_vote": null,
      "has_user_reported": false
    },
    "sources_count": 0,
    "arguments_count": 2,
    "votes": [
      {
        "user": {
          "username": "Alain Lecavelier",
          "displayName": "Alain Lecavelier",
          "uniqueId": "alainlecavelier",
          "isAdmin": false,
          "media": null,
          "vip": false,
          "_links": {
            "profile": "https://www.republique-numerique.fr/profile/alainlecavelier",
            "settings": "https://www.republique-numerique.fr/profile/edit-profile"
          }
        },
        "value": 1
      },
      {
        "user": {
          "username": "Sylvie Cabrit",
          "displayName": "Sylvie Cabrit",
          "uniqueId": "sylviecabrit",
          "isAdmin": false,
          "media": null,
          "vip": false,
          "_links": {
            "profile": "https://www.republique-numerique.fr/profile/sylviecabrit",
            "settings": "https://www.republique-numerique.fr/profile/edit-profile"
          }
        },
        "value": 1
      },
      {
        "user": {
          "username": "Uzan",
          "displayName": "Uzan",
          "uniqueId": "uzan",
          "isAdmin": false,
          "media": null,
          "vip": false,
          "_links": {
            "profile": "https://www.republique-numerique.fr/profile/uzan",
            "settings": "https://www.republique-numerique.fr/profile/edit-profile"
          }
        },
        "value": 1
      },
      {
        "user": {
          "username": "Duflot Jean-Luc",
          "displayName": "Duflot Jean-Luc",
          "uniqueId": "duflotjeanluc",
          "isAdmin": false,
          "media": null,
          "vip": false,
          "_links": {
            "profile": "https://www.republique-numerique.fr/profile/duflotjeanluc",
            "settings": "https://www.republique-numerique.fr/profile/edit-profile"
          }
        },
        "value": 1
      },
      {
        "user": {
          "username": "Audrey Steinberger",
          "displayName": "Audrey Steinberger",
          "uniqueId": "audreysteinberger",
          "isAdmin": false,
          "media": null,
          "vip": false,
          "_links": {
            "profile": "https://www.republique-numerique.fr/profile/audreysteinberger",
            "settings": "https://www.republique-numerique.fr/profile/edit-profile"
          }
        },
        "value": 1
      }
    ],
    "updated_at": "2015-10-16T15:05:46+0200",
    "ranking": 439,
    "is_trashed": false,
    "title": "Pour une rédaction équilibrée qui reconnaisse la contribution de chacun (auteurs, fonds publics, et éditeurs) et les droits qui y sont associés: (a) l'auteur peut mettre dans le domaine public immédiatement son manuscript à l'exclusion du travail de l'édi",
    "slug": "pour-une-redaction-equilibree-qui-reconnaisse-la-contribution-de-chacun-auteurs-fonds-publics-et-editeurs-et-les-droits-qui-y-sont-associes-a-l-auteur-peut-mettre-dans-le-domaine-public-immediatement-son-manuscript-a-l-exclusion-du-travail-de-l-editeur-b-",
    "created_at": "2015-10-16T15:05:46+0200",
    "votes_nok": 0,
    "votes_ok": 9,
    "votes_mitige": 2,
    "_links": {
      "show": "https://www.republique-numerique.fr/consultations/projet-de-loi-numerique/consultation/consultation/opinions/section-2-travaux-de-recherche-et-de-statistique/article-9-acces-aux-travaux-de-la-recherche-financee-par-des-fonds-publics/versions/pour-une-redaction-equilibree-qui-reconnaisse-la-contribution-de-chacun-auteurs-fonds-publics-et-editeurs-et-les-droits-qui-y-sont-associes-a-l-auteur-peut-mettre-dans-le-domaine-public-immediatement-son-manuscript-a-l-exclusion-du-travail-de-l-editeur-b-",
      "report": "https://www.republique-numerique.fr/consultations/projet-de-loi-numerique/consultation/consultation/opinions/section-2-travaux-de-recherche-et-de-statistique/article-9-acces-aux-travaux-de-la-recherche-financee-par-des-fonds-publics/versions/pour-une-redaction-equilibree-qui-reconnaisse-la-contribution-de-chacun-auteurs-fonds-publics-et-editeurs-et-les-droits-qui-y-sont-associes-a-l-auteur-peut-mettre-dans-le-domaine-public-immediatement-son-manuscript-a-l-exclusion-du-travail-de-l-editeur-b-/report"
    },
    "user_vote": null,
    "has_user_reported": false
  },
  "rankingThreshold": null,
  "opinionTerm": 1
}