{
  "version": {
    "isContribuable": false,
    "votes_total": 45,
    "arguments_yes_count": 4,
    "arguments_no_count": 2,
    "id": 589,
    "body": "<p>Au chapitre 3 du titre 3 du livre V du code de la recherche, il est ins&eacute;r&eacute; un article L. 533-4 ainsi r&eacute;dig&eacute;&nbsp;:</p>\n\n<p>&laquo;Art. L. 533-4 &ndash;<br />\nI. Lorsque un &eacute;crit scientifique, issu d&rsquo;une activit&eacute; de recherche financ&eacute;e au moins pour moiti&eacute; par des fonds publics, est publi&eacute; dans un p&eacute;riodique, un ouvrage paraissant au moins une fois par an, des actes de congr&egrave;s ou de colloques ou des recueils de m&eacute;langes, son auteur n&rsquo;est pas autoris&eacute; &agrave; c&eacute;der &agrave; un &eacute;diteur les droits de diffusion de ce travail, sauf si l&#39;&eacute;diteur garantit l&rsquo;acc&egrave;s num&eacute;rique libre et gratuit &agrave; ce travail, sans embargo ni restriction d&#39;aucune sorte.&nbsp;</p>\n\n<p>&laquo;&nbsp;II. &ndash; Les dispositions du pr&eacute;sent article sont d&rsquo;ordre public et toute clause contraire &agrave; celles-ci est r&eacute;put&eacute;e non &eacute;crite. Elles ne s&rsquo;appliquent pas aux contrats en cours.&nbsp;&raquo;</p>\n\n<p>&laquo; III. Un d&eacute;cret en Conseil d&rsquo;Etat, pris apr&egrave;s avis motiv&eacute; et publi&eacute; de la Commission Nationale Informatique et Libert&eacute;s, d&eacute;finit les modalit&eacute;s d&rsquo;application du pr&eacute;c&eacute;dent alin&eacute;a, notamment&nbsp;</p>\n\n<p>- la prise en charge des co&ucirc;ts de publication en acc&egrave;s libre par le minist&egrave;re de l&rsquo;enseignement sup&eacute;rieur et de la recherche.&nbsp;</p>\n\n<p>- l&rsquo;ouverture de n&eacute;gociations europ&eacute;ennes visant &agrave; favoriser l&rsquo;&eacute;dition scientifique par des organisations &agrave; but non lucratif. &Agrave; terme, il s&rsquo;agit d&rsquo;interdire &agrave; l&rsquo;&eacute;chelon europ&eacute;en la publication de recherches men&eacute;es sur fonds publics par des organisations &agrave; but lucratif. &raquo;&nbsp;</p>",
    "comment": "<p>La recherche men&eacute;e sur fonds publics doit &ecirc;tre rendue publique : acc&egrave;s libre, sans aucune restriction.&nbsp;</p>\n\n<p>Les chercheurs de la recherche publique ont le devoir de diffuser leur recherche gratuitement ; les &eacute;diteurs ne doivent pas pouvoir les en emp&ecirc;cher.&nbsp;</p>\n\n<p>Les institutions de financement de la recherche publique doivent couvrir les co&ucirc;ts occasion&eacute;s par le passage &agrave; l&#39;acc&egrave;s libre.</p>\n\n<p>La promotion de l&rsquo;&eacute;dition en acc&egrave;s libre doit s&rsquo;accompagner d&rsquo;un combat contre les abus de l&rsquo;&eacute;dition &agrave; but lucratif, dans le cadre de n&eacute;gociations &agrave; l&rsquo;&eacute;chelon europ&eacute;en.</p>",
    "author": {
      "username": "Olivier Morin",
      "displayName": "Olivier Morin",
      "uniqueId": "oliviermorin1",
      "isAdmin": false,
      "media": {
        "url": "/media/cache/default_avatar/default/0001/01/386_default_avatar.jpg"
      },
      "vip": false,
      "_links": {
        "profile": "https://www.republique-numerique.fr/profile/oliviermorin1",
        "settings": "https://www.republique-numerique.fr/profile/edit-profile"
      }
    },
    "arguments": [
      {
        "isContribuable": false,
        "id": 2120,
        "body": "Je recopie l'article modifié, qui n'est pas lisible tel qu'il est affiché :\r\n\r\n\r\nI. Lorsque un écrit scientifique, issu d’une activité de recherche financée au moins pour moitié par des fonds publics, est publié dans un périodique, un ouvrage paraissant au moins une fois par an, des actes de congrès ou de colloques ou des recueils de mélanges, son auteur n’est pas autorisé à céder à un éditeur les droits de diffusion de ce travail, sauf si cet éditeur garantit l’accès numérique libre et gratuit à ce travail, sans restriction, pour tout lecteur. \r\n\r\n\r\nII. – Les dispositions du présent article sont d’ordre public et toute clause contraire à celles-ci est réputée non écrite. Elles ne s’appliquent pas aux contrats en cours. \r\n\r\n\r\nIII. Un décret en Conseil d’Etat, pris après avis motivé et publié de la Commission Nationale Informatique et Libertés, définit les modalités d’application du précédent alinéa, notamment \r\n\r\n- la prise en charge des coûts de publication en accès libre par le ministère de l’enseignement supérieur et de la recherche. \r\n\r\n- l’ouverture de négociations européennes visant à favoriser l’édition scientifique par des organisations à but non lucratif. À terme, il s’agit d’interdire à l’échelon européen la publication de recherches menées sur fonds publics par des organisations à but lucratif.",
        "created_at": "2015-10-03T17:03:11+0200",
        "updated_at": "2015-10-03T17:14:40+0200",
        "is_enabled": true,
        "votes_count": 1,
        "type": 1,
        "is_trashed": false,
        "author": {
          "username": "Olivier Morin",
          "displayName": "Olivier Morin",
          "uniqueId": "oliviermorin1",
          "isAdmin": false,
          "media": {
            "url": "/media/cache/default_avatar/default/0001/01/386_default_avatar.jpg"
          },
          "vip": false,
          "_links": {
            "profile": "https://www.republique-numerique.fr/profile/oliviermorin1",
            "settings": "https://www.republique-numerique.fr/profile/edit-profile"
          }
        },
        "_links": {
          "show": "https://www.republique-numerique.fr/consultations/projet-de-loi-numerique/consultation/consultation/opinions/section-2-travaux-de-recherche-et-de-statistique/article-9-acces-aux-travaux-de-la-recherche-financee-par-des-fonds-publics/versions/acces-libre-integral-et-obligatoire#arg-2120",
          "edit": "https://www.republique-numerique.fr/consultations/projet-de-loi-numerique/consultation/consultation/opinions/section-2-travaux-de-recherche-et-de-statistique/article-9-acces-aux-travaux-de-la-recherche-financee-par-des-fonds-publics/arguments/2120/edit",
          "report": "https://www.republique-numerique.fr/consultations/projet-de-loi-numerique/consultation/consultation/opinions/section-2-travaux-de-recherche-et-de-statistique/article-9-acces-aux-travaux-de-la-recherche-financee-par-des-fonds-publics/arguments/2120/report"
        },
        "has_user_voted": false,
        "has_user_reported": false
      },
      {
        "isContribuable": false,
        "id": 2129,
        "body": "L'idee est bonne, mais ell'est mal mise en pratique: si je ne suis pas autorise a ceder les droits a un editeur, je ne peux pas signer le formulaire que Elsevier/Springet etc. me demandent de signer, et donc mon papier, pourtant accepte dans un journal prestigieux, ne pourra pas paraitre.\n\nIl vaut mieux s'assurer que, peu importe ce que l'editeur me fait signer, je puisse mettre mes articles en ligne, ailleurs, tout de suite.",
        "created_at": "2015-10-03T18:14:28+0200",
        "updated_at": "2015-10-03T18:14:28+0200",
        "is_enabled": true,
        "votes_count": 1,
        "type": 0,
        "is_trashed": false,
        "author": {
          "username": "Roberto Di Cosmo",
          "displayName": "Roberto Di Cosmo",
          "uniqueId": "robertodicosmo",
          "isAdmin": false,
          "media": null,
          "vip": false,
          "_links": {
            "profile": "https://www.republique-numerique.fr/profile/robertodicosmo",
            "settings": "https://www.republique-numerique.fr/profile/edit-profile"
          }
        },
        "_links": {
          "show": "https://www.republique-numerique.fr/consultations/projet-de-loi-numerique/consultation/consultation/opinions/section-2-travaux-de-recherche-et-de-statistique/article-9-acces-aux-travaux-de-la-recherche-financee-par-des-fonds-publics/versions/acces-libre-integral-et-obligatoire#arg-2129",
          "edit": "https://www.republique-numerique.fr/consultations/projet-de-loi-numerique/consultation/consultation/opinions/section-2-travaux-de-recherche-et-de-statistique/article-9-acces-aux-travaux-de-la-recherche-financee-par-des-fonds-publics/arguments/2129/edit",
          "report": "https://www.republique-numerique.fr/consultations/projet-de-loi-numerique/consultation/consultation/opinions/section-2-travaux-de-recherche-et-de-statistique/article-9-acces-aux-travaux-de-la-recherche-financee-par-des-fonds-publics/arguments/2129/report"
        },
        "has_user_voted": false,
        "has_user_reported": false
      },
      {
        "isContribuable": false,
        "id": 2133,
        "body": "@Roberto Di  Cosmo : \n\nMerci pour vos commentaires. Vous remarquez que la loi empêcherait les auteurs de signer les formulaires d'Elsevier ou Springer, et donc de publier chez eux. Oui et non. Tous ces éditeurs proposent une option en accès libre (payante). Si on ne peut ou ne veut pas payer cette option, effectivement on ne peut pas signer leur contrat. À ce moment-là, il y a plusieurs options.\n\n1) On signe quand même et on rompt le contrat, ou alors la loi le rend invalide. À ce moment-là les éditeurs risquent de réagir en refusant les manuscrits français ; solution peu viable à mon avis.\n\n2) Solution préconisée par cette modification : l'état soutient financièrement les auteurs pour payer l'option open access, *mais* dans le même temps, il organise la promotion des éditeurs à but non lucratif, le boycott et la sortie progressive du modèle \"for profit\", au niveau européen.\n",
        "created_at": "2015-10-03T18:44:38+0200",
        "updated_at": "2015-10-03T18:44:38+0200",
        "is_enabled": true,
        "votes_count": 1,
        "type": 1,
        "is_trashed": false,
        "author": {
          "username": "Olivier Morin",
          "displayName": "Olivier Morin",
          "uniqueId": "oliviermorin1",
          "isAdmin": false,
          "media": {
            "url": "/media/cache/default_avatar/default/0001/01/386_default_avatar.jpg"
          },
          "vip": false,
          "_links": {
            "profile": "https://www.republique-numerique.fr/profile/oliviermorin1",
            "settings": "https://www.republique-numerique.fr/profile/edit-profile"
          }
        },
        "_links": {
          "show": "https://www.republique-numerique.fr/consultations/projet-de-loi-numerique/consultation/consultation/opinions/section-2-travaux-de-recherche-et-de-statistique/article-9-acces-aux-travaux-de-la-recherche-financee-par-des-fonds-publics/versions/acces-libre-integral-et-obligatoire#arg-2133",
          "edit": "https://www.republique-numerique.fr/consultations/projet-de-loi-numerique/consultation/consultation/opinions/section-2-travaux-de-recherche-et-de-statistique/article-9-acces-aux-travaux-de-la-recherche-financee-par-des-fonds-publics/arguments/2133/edit",
          "report": "https://www.republique-numerique.fr/consultations/projet-de-loi-numerique/consultation/consultation/opinions/section-2-travaux-de-recherche-et-de-statistique/article-9-acces-aux-travaux-de-la-recherche-financee-par-des-fonds-publics/arguments/2133/report"
        },
        "has_user_voted": false,
        "has_user_reported": false
      },
      {
        "isContribuable": false,
        "id": 2165,
        "body": "Un encadrement législatif est indispensable car la situation actuelle n'est pas tenable: les chercheurs sont contraints de violer les termes de leur contrat soit avec l'éditeur, soit avec le financeur. L'Agence Nationale de la Recherche (ANR) préconise l'usage des archives ouvertes, et l'European Research Council exige qu'une copie des recherches financées soit mises en \"open access\".. dans les 6 mois. La formulation actuelle de l'article est donc en deçà des exigences des organismes publics de financement de la recherche.    ( http://erc.europa.eu/sites/default/files/document/file/ERC_Open_Access_Guidelines-revised_2013.pdf)",
        "created_at": "2015-10-04T12:57:00+0200",
        "updated_at": "2015-10-04T12:57:00+0200",
        "is_enabled": true,
        "votes_count": 2,
        "type": 1,
        "is_trashed": false,
        "author": {
          "username": "yasmine bouagga",
          "displayName": "yasmine bouagga",
          "uniqueId": "yasminebouagga",
          "isAdmin": false,
          "media": null,
          "vip": false,
          "_links": {
            "profile": "https://www.republique-numerique.fr/profile/yasminebouagga",
            "settings": "https://www.republique-numerique.fr/profile/edit-profile"
          }
        },
        "_links": {
          "show": "https://www.republique-numerique.fr/consultations/projet-de-loi-numerique/consultation/consultation/opinions/section-2-travaux-de-recherche-et-de-statistique/article-9-acces-aux-travaux-de-la-recherche-financee-par-des-fonds-publics/versions/acces-libre-integral-et-obligatoire#arg-2165",
          "edit": "https://www.republique-numerique.fr/consultations/projet-de-loi-numerique/consultation/consultation/opinions/section-2-travaux-de-recherche-et-de-statistique/article-9-acces-aux-travaux-de-la-recherche-financee-par-des-fonds-publics/arguments/2165/edit",
          "report": "https://www.republique-numerique.fr/consultations/projet-de-loi-numerique/consultation/consultation/opinions/section-2-travaux-de-recherche-et-de-statistique/article-9-acces-aux-travaux-de-la-recherche-financee-par-des-fonds-publics/arguments/2165/report"
        },
        "has_user_voted": false,
        "has_user_reported": false
      },
      {
        "isContribuable": false,
        "id": 2224,
        "body": "Je ne vois pas pourquoi la loi ne peux pas imposer le libre accès \"vert\", c'est à dire l'auto-archivage sans aucun embargo ou délai, nullifiant toute clause du contrat d'édition qui interdirait cet archivage ou le mettrait sous embargo pendant un délai plus ou moins long. Ce que propose Olivier, c'est l'accès \"or\", c'est à dire dans la revue et payé par l'auteur, mais, ajoute-t-il - et c'est bien - intégralement subventionné par l'état, au moins dans une étape provisoire. Il y aurait bien sûr des avantages mais ce serait un cadeau aux revues. Pourquoi?",
        "created_at": "2015-10-04T22:48:54+0200",
        "updated_at": "2015-10-04T22:48:54+0200",
        "is_enabled": true,
        "votes_count": 0,
        "type": 0,
        "is_trashed": false,
        "author": {
          "username": "Dan Sperber",
          "displayName": "Dan Sperber",
          "uniqueId": "dansperber",
          "isAdmin": false,
          "media": null,
          "vip": false,
          "_links": {
            "profile": "https://www.republique-numerique.fr/profile/dansperber",
            "settings": "https://www.republique-numerique.fr/profile/edit-profile"
          }
        },
        "_links": {
          "show": "https://www.republique-numerique.fr/consultations/projet-de-loi-numerique/consultation/consultation/opinions/section-2-travaux-de-recherche-et-de-statistique/article-9-acces-aux-travaux-de-la-recherche-financee-par-des-fonds-publics/versions/acces-libre-integral-et-obligatoire#arg-2224",
          "edit": "https://www.republique-numerique.fr/consultations/projet-de-loi-numerique/consultation/consultation/opinions/section-2-travaux-de-recherche-et-de-statistique/article-9-acces-aux-travaux-de-la-recherche-financee-par-des-fonds-publics/arguments/2224/edit",
          "report": "https://www.republique-numerique.fr/consultations/projet-de-loi-numerique/consultation/consultation/opinions/section-2-travaux-de-recherche-et-de-statistique/article-9-acces-aux-travaux-de-la-recherche-financee-par-des-fonds-publics/arguments/2224/report"
        },
        "has_user_voted": false,
        "has_user_reported": false
      },
      {
        "isContribuable": false,
        "id": 2346,
        "body": "@ Dan : ce que tu dis n'était pas mon intention : je suis moi aussi pour n'avoir aucun délai. L'éditeur doit mettre le texte à disposition du public, dès sa parution. Quant à la pré-publication en ligne, elle est tolérée et fait déjà partie des usages—à mon avis on n'a pas besoin de légiférer là-dessus. \nL'autre question, c'est : pourquoi payer les revues ? Pour deux raisons au moins. D'abord parce qu'on ne peut pas les forcer à travailler gratuitement : même dans un modèle non lucratif, il faut les financer. Ensuite parce qu'il y a un rapport de force qui se joue là, et on ne peut à mon avis raisonnablement boycotter les revues fro profit qu'au niveau européen. ",
        "created_at": "2015-10-06T07:15:19+0200",
        "updated_at": "2015-10-06T07:15:19+0200",
        "is_enabled": true,
        "votes_count": 0,
        "type": 1,
        "is_trashed": false,
        "author": {
          "username": "Olivier Morin",
          "displayName": "Olivier Morin",
          "uniqueId": "oliviermorin1",
          "isAdmin": false,
          "media": {
            "url": "/media/cache/default_avatar/default/0001/01/386_default_avatar.jpg"
          },
          "vip": false,
          "_links": {
            "profile": "https://www.republique-numerique.fr/profile/oliviermorin1",
            "settings": "https://www.republique-numerique.fr/profile/edit-profile"
          }
        },
        "_links": {
          "show": "https://www.republique-numerique.fr/consultations/projet-de-loi-numerique/consultation/consultation/opinions/section-2-travaux-de-recherche-et-de-statistique/article-9-acces-aux-travaux-de-la-recherche-financee-par-des-fonds-publics/versions/acces-libre-integral-et-obligatoire#arg-2346",
          "edit": "https://www.republique-numerique.fr/consultations/projet-de-loi-numerique/consultation/consultation/opinions/section-2-travaux-de-recherche-et-de-statistique/article-9-acces-aux-travaux-de-la-recherche-financee-par-des-fonds-publics/arguments/2346/edit",
          "report": "https://www.republique-numerique.fr/consultations/projet-de-loi-numerique/consultation/consultation/opinions/section-2-travaux-de-recherche-et-de-statistique/article-9-acces-aux-travaux-de-la-recherche-financee-par-des-fonds-publics/arguments/2346/report"
        },
        "has_user_voted": false,
        "has_user_reported": false
      }
    ],
    "sources": [],
    "parent": {
      "isContribuable": false,
      "id": 69,
      "body": "<p>Au chapitre 3 du titre 3 du livre V du code de la recherche, il est ins&eacute;r&eacute; un article L. 533-4 ainsi r&eacute;dig&eacute;&nbsp;:</p>\r\n\r\n<p>&laquo;Art. L. 533-4 &ndash;<br />\r\nI. Lorsque un &eacute;crit scientifique, issu d&rsquo;une activit&eacute; de recherche financ&eacute;e au moins pour moiti&eacute; par des fonds publics, est publi&eacute; dans un p&eacute;riodique, un ouvrage paraissant au moins une fois par an, des actes de congr&egrave;s ou de colloques ou des recueils de m&eacute;langes, son auteur, m&ecirc;me en cas de cession exclusive &agrave; un &eacute;diteur, dispose du droit de mettre &agrave; disposition gratuitement sous une forme num&eacute;rique, sous r&eacute;serve des droits des &eacute;ventuels coauteurs, la derni&egrave;re version accept&eacute;e de son manuscrit par son &eacute;diteur et &agrave; l&rsquo;exclusion du travail de mise en forme qui incombe &agrave; ce dernier, au terme d&rsquo;un d&eacute;lai de douze mois pour les sciences, la technique et la m&eacute;decine et de vingt-quatre mois pour les sciences humaines et sociales, &agrave; compter de date de la premi&egrave;re publication. Cette mise &agrave; disposition ne peut donner lieu &agrave; aucune exploitation commerciale.</p>\r\n\r\n<p>&laquo;&nbsp;II. &ndash; Les dispositions du pr&eacute;sent article sont d&rsquo;ordre public et toute clause contraire &agrave; celles-ci est r&eacute;put&eacute;e non &eacute;crite. Elles ne s&rsquo;appliquent pas aux contrats en cours.&nbsp;&raquo;</p>",
      "type": {
        "id": 91,
        "title": "Section 2",
        "subtitle": "Travaux de recherche et de statistique",
        "voteWidgetType": 2,
        "votesHelpText": "Pensez-vous que cette proposition permet d'atteindre les objectifs présentés dans l’explication de l’article ?",
        "commentSystem": 2,
        "color": "blue",
        "versionable": true,
        "sourceable": true,
        "votesThreshold": null,
        "votesThresholdHelpText": null
      },
      "modals": [
        {
          "key": "article L. 533-4",
          "before": "",
          "after": "<p>I. Lorsque un écrit scientifique, issu d’une activité de recherche financée au moins pour moitié par des fonds publics est publié dans un périodique, un ouvrage paraissant au moins une fois par an, des actes de congrès ou de colloques ou des recueils de mélanges,  son auteur, même en cas de cession exclusive à un éditeur, dispose du  droit de mettre à disposition gratuitement sous une forme numérique, sous réserve des droits des éventuels co-auteurs, la dernière version acceptée de son manuscrit par son éditeur et à l’exclusion du travail de mise en forme qui incombe à ce dernier, au terme d’un délai de douze mois pour les sciences, la technique et la médecine et de vingt-quatre mois pour les sciences humaines et sociales, à compter de date de la première publication. Cette mise à disposition ne peut donner lieu à aucune exploitation commerciale.</p><p>« II. – Les dispositions du présent article sont d’ordre public et toute clause contraire à celles-ci est réputée non écrite. Elles ne s’appliquent pas aux contrats en cours. »</p>",
          "title": "Création du nouvel article L 533-4 du code de la recherche (Livre V, Titre III, Chapitre 3)"
        }
      ],
      "appendices": [
        {
          "body": "<p><strong>Objectif :</strong> favoriser le libre acc&egrave;s aux travaux de recherche publique.</p>\r\n\r\n<p><strong>Explication :</strong> Le monde acad&eacute;mique dispose d&rsquo;un ensemble consid&eacute;rable d&rsquo;informations scientifiques dont l&rsquo;acc&egrave;s reste compliqu&eacute; par les droits d&rsquo;exclusivit&eacute; d&eacute;tenus par certaines revues et &eacute;diteurs. Le projet de loi propose de favoriser la diffusion en libre acc&egrave;s des r&eacute;sultats de la recherche pour favoriser la circulation du savoir et donc l&rsquo;innovation.<br />\r\nIl est propos&eacute; d&rsquo;inscrire dans la loi, un droit de valorisation secondaire pour les publications scientifiques. L&rsquo;auteur pourra ainsi rendre sa cr&eacute;ation publiquement accessible apr&egrave;s un d&eacute;lai de 12 mois pour les &oelig;uvres scientifiques, techniques et m&eacute;dicales et de 24 mois pour les &oelig;uvres des sciences humaines et sociales.</p>\r\n\r\n<p><strong>Exemple :</strong> les scientifiques de la recherche publique auront d&eacute;sormais le droit de publier leurs articles sur des sites ouverts accessibles &agrave; tous, notamment les archives publiques sp&eacute;cialis&eacute;es, apr&egrave;s un court d&eacute;lai d&rsquo;embargo.</p>",
          "type": {
            "title": "Explication de l'article"
          }
        }
      ],
      "title": "Article 9 - Libre accès aux publications scientifiques de la recherche publique",
      "_links": {
        "show": "https://www.republique-numerique.fr/consultations/projet-de-loi-numerique/consultation/consultation/opinions/section-2-travaux-de-recherche-et-de-statistique/article-9-acces-aux-travaux-de-la-recherche-financee-par-des-fonds-publics",
        "edit": "https://www.republique-numerique.fr/consultations/projet-de-loi-numerique/consultation/consultation/opinions/section-2-travaux-de-recherche-et-de-statistique/article-9-acces-aux-travaux-de-la-recherche-financee-par-des-fonds-publics/edit",
        "report": "https://www.republique-numerique.fr/consultations/projet-de-loi-numerique/consultation/consultation/opinions/section-2-travaux-de-recherche-et-de-statistique/article-9-acces-aux-travaux-de-la-recherche-financee-par-des-fonds-publics/report",
        "type": "https://www.republique-numerique.fr/consultations/projet-de-loi-numerique/consultation/consultation/opinions/section-2-travaux-de-recherche-et-de-statistique"
      },
      "user_vote": null,
      "has_user_reported": false
    },
    "sources_count": 0,
    "arguments_count": 6,
    "votes": [
      {
        "user": {
          "username": "Olivier Morin",
          "displayName": "Olivier Morin",
          "uniqueId": "oliviermorin1",
          "isAdmin": false,
          "media": {
            "url": "/media/cache/default_avatar/default/0001/01/386_default_avatar.jpg"
          },
          "vip": false,
          "_links": {
            "profile": "https://www.republique-numerique.fr/profile/oliviermorin1",
            "settings": "https://www.republique-numerique.fr/profile/edit-profile"
          }
        },
        "value": 1
      },
      {
        "user": {
          "username": "Kinga Igloi",
          "displayName": "Kinga Igloi",
          "uniqueId": "kingaigloi",
          "isAdmin": false,
          "media": null,
          "vip": false,
          "_links": {
            "profile": "https://www.republique-numerique.fr/profile/kingaigloi",
            "settings": "https://www.republique-numerique.fr/profile/edit-profile"
          }
        },
        "value": 1
      },
      {
        "user": {
          "username": "Emanuele Coccia",
          "displayName": "Emanuele Coccia",
          "uniqueId": "emanuelecoccia",
          "isAdmin": false,
          "media": null,
          "vip": false,
          "_links": {
            "profile": "https://www.republique-numerique.fr/profile/emanuelecoccia",
            "settings": "https://www.republique-numerique.fr/profile/edit-profile"
          }
        },
        "value": 1
      },
      {
        "user": {
          "username": "Roger MORIN",
          "displayName": "Roger MORIN",
          "uniqueId": "rogermorin",
          "isAdmin": false,
          "media": null,
          "vip": false,
          "_links": {
            "profile": "https://www.republique-numerique.fr/profile/rogermorin",
            "settings": "https://www.republique-numerique.fr/profile/edit-profile"
          }
        },
        "value": 1
      },
      {
        "user": {
          "username": "yasmine bouagga",
          "displayName": "yasmine bouagga",
          "uniqueId": "yasminebouagga",
          "isAdmin": false,
          "media": null,
          "vip": false,
          "_links": {
            "profile": "https://www.republique-numerique.fr/profile/yasminebouagga",
            "settings": "https://www.republique-numerique.fr/profile/edit-profile"
          }
        },
        "value": 1
      }
    ],
    "updated_at": "2015-10-03T17:01:33+0200",
    "ranking": 174,
    "is_trashed": false,
    "title": "Accès libre intégral et obligatoire",
    "slug": "acces-libre-integral-et-obligatoire",
    "created_at": "2015-10-03T17:01:33+0200",
    "votes_nok": 17,
    "votes_ok": 26,
    "votes_mitige": 2,
    "_links": {
      "show": "https://www.republique-numerique.fr/consultations/projet-de-loi-numerique/consultation/consultation/opinions/section-2-travaux-de-recherche-et-de-statistique/article-9-acces-aux-travaux-de-la-recherche-financee-par-des-fonds-publics/versions/acces-libre-integral-et-obligatoire",
      "report": "https://www.republique-numerique.fr/consultations/projet-de-loi-numerique/consultation/consultation/opinions/section-2-travaux-de-recherche-et-de-statistique/article-9-acces-aux-travaux-de-la-recherche-financee-par-des-fonds-publics/versions/acces-libre-integral-et-obligatoire/report"
    },
    "user_vote": null,
    "has_user_reported": false
  },
  "rankingThreshold": null,
  "opinionTerm": 1
}