{
  "version": {
    "isContribuable": false,
    "votes_total": 131,
    "arguments_yes_count": 0,
    "arguments_no_count": 5,
    "id": 447,
    "body": "<p>Au chapitre 3 du titre 3 du livre V du code de la recherche, il est ins&eacute;r&eacute; un article L. 533-4 ainsi r&eacute;dig&eacute;&nbsp;:</p>\n\n<p>&laquo;Art. L. 533-4 &ndash;<br />\nI. Lorsque un &eacute;crit scientifique, issu d&rsquo;une activit&eacute; de recherche financ&eacute;e au moins pour moiti&eacute; par des fonds publics, est publi&eacute; dans un p&eacute;riodique, un ouvrage paraissant au moins une fois par an, des actes de congr&egrave;s ou de colloques ou des recueils de m&eacute;langes, son auteur, m&ecirc;me en cas de cession exclusive &agrave; un &eacute;diteur, dispose du droit de mettre &agrave; disposition gratuitement sous une forme num&eacute;rique, sous r&eacute;serve des droits des &eacute;ventuels coauteurs, la derni&egrave;re version accept&eacute;e de son manuscrit par son &eacute;diteur et &agrave; l&rsquo;exclusion du travail de mise en forme qui incombe &agrave; ce dernier, au terme d&rsquo;un d&eacute;lai de vingt-quatre mois pour les sciences, la technique et la m&eacute;decine et de quarante-huit&nbsp; mois pour les sciences humaines et sociales, &agrave; compter de date de la premi&egrave;re publication. Cette mise &agrave; disposition ne peut donner lieu &agrave; aucune exploitation commerciale.</p>\n\n<p>&laquo;&nbsp;II. &ndash; Les dispositions du pr&eacute;sent article sont d&rsquo;ordre public et toute clause contraire &agrave; celles-ci est r&eacute;put&eacute;e non &eacute;crite. Elles ne s&rsquo;appliquent pas aux contrats en cours.&nbsp;&raquo;</p>",
    "comment": "<p>Pour quelles raisons imposer l&#39;open access &agrave; l&#39;&eacute;dition scientifique fran&ccedil;aise dans un d&eacute;lai aussi bref alors que les &eacute;diteurs anglo-saxons (Taylor &amp; Francis, Sage etc.) se permettent de facturer fort cher (25 &agrave; 30 $ l&#39;article!!!) les consultations de leurs articles, m&ecirc;me anciens (publi&eacute;s en 1980, 1990 etc.) et je parle d&#39;exp&eacute;rience &eacute;tant amen&eacute; &agrave; consulter ce type de production.</p>\n\n<p>Si on adopte ce funeste projet, c&#39;en est fini &agrave; terme de l&#39;&eacute;dition scientifique fran&ccedil;aise car quelle sera alors l&#39;int&eacute;r&ecirc;t de l&#39;&eacute;diteur;</p>\n\n<p>je rappelle que pour des responsables de&nbsp; revue, le fait de publier a un co&ucirc;t&nbsp; cons&eacute;quent ! et ceci&nbsp; m&ecirc;me en tenant compte des subventions publiques - &eacute;ventuellement accord&eacute;es et qui ne sont jamais mirifiques: 1000 &agrave; 1500 &euro; pour le CNRS) .</p>\n\n<p>Ainsi si on suit les signataires des zozos irresponsables qui entendent &eacute;largir l&#39;Open access de mani&egrave;re excessive, on tire une balle dans la t&ecirc;te de l&#39;&eacute;dition scientifique fran&ccedil;aise au plus grand profit des &eacute;diteurs outre atlantique qui eux, non concern&eacute;s, contyinueront de&nbsp; tirer profit de leur situation - sonnante et tr&eacute;buchante -&nbsp; lib&eacute;r&eacute;s d&eacute;sormais de toute concurrence fran&ccedil;aise et europ&eacute;enne.</p>\n\n<p>Ceci m&eacute;rite r&eacute;flexion: l&#39;open access oui mais r&eacute;gul&eacute; avec une barri&egrave;re mobile importante pour couvrir les frais d&#39;&eacute;dition (48 mois en SHS et 24 en Sciences &quot;dures&quot;)</p>\n\n<p>CQFD</p>",
    "author": {
      "username": "FONTAINE",
      "displayName": "FONTAINE",
      "uniqueId": "fontaine",
      "isAdmin": false,
      "media": null,
      "vip": false,
      "_links": {
        "profile": "https://www.republique-numerique.fr/profile/fontaine",
        "settings": "https://www.republique-numerique.fr/profile/edit-profile"
      }
    },
    "arguments": [
      {
        "isContribuable": false,
        "id": 1472,
        "body": "Cet article ne s'applique pas uniquement aux maisons d'édition françaises ! Il s'agit justement de lutter contre les pratiques abusives des grandes maisons d'édition scientifiques, qui sont pour la plupart étrangères.\nLe déséquilibre dont vous parlez n'existe donc pas.\n\nQuand aux frais de fonctionnement des revues, ils existent bien, mais les bénéfices dégagés par les plus grandes maisons d'édition montrent bien qu'elles sont très loin d'avoir du mal à joindre les deux bouts.",
        "created_at": "2015-09-30T10:29:47+0200",
        "updated_at": "2015-09-30T10:29:47+0200",
        "is_enabled": true,
        "votes_count": 10,
        "type": 0,
        "is_trashed": false,
        "author": {
          "username": "Antonin Delpeuch",
          "displayName": "Antonin Delpeuch",
          "uniqueId": "antonindelpeuch",
          "isAdmin": false,
          "media": null,
          "vip": false,
          "_links": {
            "profile": "https://www.republique-numerique.fr/profile/antonindelpeuch",
            "settings": "https://www.republique-numerique.fr/profile/edit-profile"
          }
        },
        "_links": {
          "show": "https://www.republique-numerique.fr/consultations/projet-de-loi-numerique/consultation/consultation/opinions/section-2-travaux-de-recherche-et-de-statistique/article-9-acces-aux-travaux-de-la-recherche-financee-par-des-fonds-publics/versions/proteger-l-edition-scientifique-francaise#arg-1472",
          "edit": "https://www.republique-numerique.fr/consultations/projet-de-loi-numerique/consultation/consultation/opinions/section-2-travaux-de-recherche-et-de-statistique/article-9-acces-aux-travaux-de-la-recherche-financee-par-des-fonds-publics/arguments/1472/edit",
          "report": "https://www.republique-numerique.fr/consultations/projet-de-loi-numerique/consultation/consultation/opinions/section-2-travaux-de-recherche-et-de-statistique/article-9-acces-aux-travaux-de-la-recherche-financee-par-des-fonds-publics/arguments/1472/report"
        },
        "has_user_voted": false,
        "has_user_reported": false
      },
      {
        "isContribuable": false,
        "id": 1700,
        "body": "En quoi une durée d'embargo élevée permet-elle mieux de couvrir les frais d'édition ? Ne faudrait-il pas plutôt baisser les frais d'édition en passant à une version électronique, ou augmenter le lectorat (et donc potentiellement le nombre d'abonnés, ou de soutiens) de la revue en la mettant plus rapidement à disposition ?",
        "created_at": "2015-09-30T21:16:02+0200",
        "updated_at": "2015-09-30T21:16:02+0200",
        "is_enabled": true,
        "votes_count": 3,
        "type": 0,
        "is_trashed": false,
        "author": {
          "username": "Philippe Gambette",
          "displayName": "Philippe Gambette",
          "uniqueId": "philippegambette",
          "isAdmin": false,
          "media": {
            "url": "/media/cache/default_avatar/default/0001/01/141_default_avatar.jpg"
          },
          "vip": false,
          "_links": {
            "profile": "https://www.republique-numerique.fr/profile/philippegambette",
            "settings": "https://www.republique-numerique.fr/profile/edit-profile"
          }
        },
        "_links": {
          "show": "https://www.republique-numerique.fr/consultations/projet-de-loi-numerique/consultation/consultation/opinions/section-2-travaux-de-recherche-et-de-statistique/article-9-acces-aux-travaux-de-la-recherche-financee-par-des-fonds-publics/versions/proteger-l-edition-scientifique-francaise#arg-1700",
          "edit": "https://www.republique-numerique.fr/consultations/projet-de-loi-numerique/consultation/consultation/opinions/section-2-travaux-de-recherche-et-de-statistique/article-9-acces-aux-travaux-de-la-recherche-financee-par-des-fonds-publics/arguments/1700/edit",
          "report": "https://www.republique-numerique.fr/consultations/projet-de-loi-numerique/consultation/consultation/opinions/section-2-travaux-de-recherche-et-de-statistique/article-9-acces-aux-travaux-de-la-recherche-financee-par-des-fonds-publics/arguments/1700/report"
        },
        "has_user_voted": false,
        "has_user_reported": false
      },
      {
        "isContribuable": false,
        "id": 1916,
        "body": "Je n'aurai aucun remord à \"tirer une balle dans la tête de l'édition scientifique française\".\n\nSa valeur ajoutée à la production scientifique est très faible. Son frein à cette même production est en revanche non-négligeable.\n\nL'édition scientifique a eu son utilité. C'est désormais une industrie obsolète qui gangrène inutilement la recherche et il est plus que temps de s'en débarrasser.",
        "created_at": "2015-10-01T18:12:33+0200",
        "updated_at": "2015-10-01T18:12:33+0200",
        "is_enabled": true,
        "votes_count": 7,
        "type": 0,
        "is_trashed": false,
        "author": {
          "username": "Lertsenem",
          "displayName": "Lertsenem",
          "uniqueId": "lertsenem",
          "isAdmin": false,
          "media": {
            "url": "/media/cache/default_avatar/default/0001/01/324_default_avatar.jpg"
          },
          "vip": false,
          "_links": {
            "profile": "https://www.republique-numerique.fr/profile/lertsenem",
            "settings": "https://www.republique-numerique.fr/profile/edit-profile"
          }
        },
        "_links": {
          "show": "https://www.republique-numerique.fr/consultations/projet-de-loi-numerique/consultation/consultation/opinions/section-2-travaux-de-recherche-et-de-statistique/article-9-acces-aux-travaux-de-la-recherche-financee-par-des-fonds-publics/versions/proteger-l-edition-scientifique-francaise#arg-1916",
          "edit": "https://www.republique-numerique.fr/consultations/projet-de-loi-numerique/consultation/consultation/opinions/section-2-travaux-de-recherche-et-de-statistique/article-9-acces-aux-travaux-de-la-recherche-financee-par-des-fonds-publics/arguments/1916/edit",
          "report": "https://www.republique-numerique.fr/consultations/projet-de-loi-numerique/consultation/consultation/opinions/section-2-travaux-de-recherche-et-de-statistique/article-9-acces-aux-travaux-de-la-recherche-financee-par-des-fonds-publics/arguments/1916/report"
        },
        "has_user_voted": false,
        "has_user_reported": false
      },
      {
        "isContribuable": false,
        "id": 2008,
        "body": "publish or perish.. on est loin des idéaux fondamentaux.. ",
        "created_at": "2015-10-02T15:20:40+0200",
        "updated_at": "2015-10-02T15:20:40+0200",
        "is_enabled": true,
        "votes_count": 1,
        "type": 0,
        "is_trashed": false,
        "author": {
          "username": "Pierre",
          "displayName": "Pierre",
          "uniqueId": "pierre1",
          "isAdmin": false,
          "media": {
            "url": "/media/cache/default_avatar/default/0001/01/199_default_avatar.png"
          },
          "vip": false,
          "_links": {
            "profile": "https://www.republique-numerique.fr/profile/pierre1",
            "settings": "https://www.republique-numerique.fr/profile/edit-profile"
          }
        },
        "_links": {
          "show": "https://www.republique-numerique.fr/consultations/projet-de-loi-numerique/consultation/consultation/opinions/section-2-travaux-de-recherche-et-de-statistique/article-9-acces-aux-travaux-de-la-recherche-financee-par-des-fonds-publics/versions/proteger-l-edition-scientifique-francaise#arg-2008",
          "edit": "https://www.republique-numerique.fr/consultations/projet-de-loi-numerique/consultation/consultation/opinions/section-2-travaux-de-recherche-et-de-statistique/article-9-acces-aux-travaux-de-la-recherche-financee-par-des-fonds-publics/arguments/2008/edit",
          "report": "https://www.republique-numerique.fr/consultations/projet-de-loi-numerique/consultation/consultation/opinions/section-2-travaux-de-recherche-et-de-statistique/article-9-acces-aux-travaux-de-la-recherche-financee-par-des-fonds-publics/arguments/2008/report"
        },
        "has_user_voted": false,
        "has_user_reported": false
      },
      {
        "isContribuable": false,
        "id": 2271,
        "body": "\"Pour quelles raisons imposer l'open access à l'édition scientifique française...\"\nOn n'impose rien, on donne un droit! L'auteur reste libre de 'protéger' son éditeur.",
        "created_at": "2015-10-05T15:00:57+0200",
        "updated_at": "2015-10-05T15:00:57+0200",
        "is_enabled": true,
        "votes_count": 3,
        "type": 0,
        "is_trashed": false,
        "author": {
          "username": "Herbert Gruttemeier",
          "displayName": "Herbert Gruttemeier",
          "uniqueId": "herbertgruttemeier",
          "isAdmin": false,
          "media": null,
          "vip": false,
          "_links": {
            "profile": "https://www.republique-numerique.fr/profile/herbertgruttemeier",
            "settings": "https://www.republique-numerique.fr/profile/edit-profile"
          }
        },
        "_links": {
          "show": "https://www.republique-numerique.fr/consultations/projet-de-loi-numerique/consultation/consultation/opinions/section-2-travaux-de-recherche-et-de-statistique/article-9-acces-aux-travaux-de-la-recherche-financee-par-des-fonds-publics/versions/proteger-l-edition-scientifique-francaise#arg-2271",
          "edit": "https://www.republique-numerique.fr/consultations/projet-de-loi-numerique/consultation/consultation/opinions/section-2-travaux-de-recherche-et-de-statistique/article-9-acces-aux-travaux-de-la-recherche-financee-par-des-fonds-publics/arguments/2271/edit",
          "report": "https://www.republique-numerique.fr/consultations/projet-de-loi-numerique/consultation/consultation/opinions/section-2-travaux-de-recherche-et-de-statistique/article-9-acces-aux-travaux-de-la-recherche-financee-par-des-fonds-publics/arguments/2271/report"
        },
        "has_user_voted": false,
        "has_user_reported": false
      }
    ],
    "sources": [],
    "parent": {
      "isContribuable": false,
      "id": 69,
      "body": "<p>Au chapitre 3 du titre 3 du livre V du code de la recherche, il est ins&eacute;r&eacute; un article L. 533-4 ainsi r&eacute;dig&eacute;&nbsp;:</p>\r\n\r\n<p>&laquo;Art. L. 533-4 &ndash;<br />\r\nI. Lorsque un &eacute;crit scientifique, issu d&rsquo;une activit&eacute; de recherche financ&eacute;e au moins pour moiti&eacute; par des fonds publics, est publi&eacute; dans un p&eacute;riodique, un ouvrage paraissant au moins une fois par an, des actes de congr&egrave;s ou de colloques ou des recueils de m&eacute;langes, son auteur, m&ecirc;me en cas de cession exclusive &agrave; un &eacute;diteur, dispose du droit de mettre &agrave; disposition gratuitement sous une forme num&eacute;rique, sous r&eacute;serve des droits des &eacute;ventuels coauteurs, la derni&egrave;re version accept&eacute;e de son manuscrit par son &eacute;diteur et &agrave; l&rsquo;exclusion du travail de mise en forme qui incombe &agrave; ce dernier, au terme d&rsquo;un d&eacute;lai de douze mois pour les sciences, la technique et la m&eacute;decine et de vingt-quatre mois pour les sciences humaines et sociales, &agrave; compter de date de la premi&egrave;re publication. Cette mise &agrave; disposition ne peut donner lieu &agrave; aucune exploitation commerciale.</p>\r\n\r\n<p>&laquo;&nbsp;II. &ndash; Les dispositions du pr&eacute;sent article sont d&rsquo;ordre public et toute clause contraire &agrave; celles-ci est r&eacute;put&eacute;e non &eacute;crite. Elles ne s&rsquo;appliquent pas aux contrats en cours.&nbsp;&raquo;</p>",
      "type": {
        "id": 91,
        "title": "Section 2",
        "subtitle": "Travaux de recherche et de statistique",
        "voteWidgetType": 2,
        "votesHelpText": "Pensez-vous que cette proposition permet d'atteindre les objectifs présentés dans l’explication de l’article ?",
        "commentSystem": 2,
        "color": "blue",
        "versionable": true,
        "sourceable": true,
        "votesThreshold": null,
        "votesThresholdHelpText": null
      },
      "modals": [
        {
          "key": "article L. 533-4",
          "before": "",
          "after": "<p>I. Lorsque un écrit scientifique, issu d’une activité de recherche financée au moins pour moitié par des fonds publics est publié dans un périodique, un ouvrage paraissant au moins une fois par an, des actes de congrès ou de colloques ou des recueils de mélanges,  son auteur, même en cas de cession exclusive à un éditeur, dispose du  droit de mettre à disposition gratuitement sous une forme numérique, sous réserve des droits des éventuels co-auteurs, la dernière version acceptée de son manuscrit par son éditeur et à l’exclusion du travail de mise en forme qui incombe à ce dernier, au terme d’un délai de douze mois pour les sciences, la technique et la médecine et de vingt-quatre mois pour les sciences humaines et sociales, à compter de date de la première publication. Cette mise à disposition ne peut donner lieu à aucune exploitation commerciale.</p><p>« II. – Les dispositions du présent article sont d’ordre public et toute clause contraire à celles-ci est réputée non écrite. Elles ne s’appliquent pas aux contrats en cours. »</p>",
          "title": "Création du nouvel article L 533-4 du code de la recherche (Livre V, Titre III, Chapitre 3)"
        }
      ],
      "appendices": [
        {
          "body": "<p><strong>Objectif :</strong> favoriser le libre acc&egrave;s aux travaux de recherche publique.</p>\r\n\r\n<p><strong>Explication :</strong> Le monde acad&eacute;mique dispose d&rsquo;un ensemble consid&eacute;rable d&rsquo;informations scientifiques dont l&rsquo;acc&egrave;s reste compliqu&eacute; par les droits d&rsquo;exclusivit&eacute; d&eacute;tenus par certaines revues et &eacute;diteurs. Le projet de loi propose de favoriser la diffusion en libre acc&egrave;s des r&eacute;sultats de la recherche pour favoriser la circulation du savoir et donc l&rsquo;innovation.<br />\r\nIl est propos&eacute; d&rsquo;inscrire dans la loi, un droit de valorisation secondaire pour les publications scientifiques. L&rsquo;auteur pourra ainsi rendre sa cr&eacute;ation publiquement accessible apr&egrave;s un d&eacute;lai de 12 mois pour les &oelig;uvres scientifiques, techniques et m&eacute;dicales et de 24 mois pour les &oelig;uvres des sciences humaines et sociales.</p>\r\n\r\n<p><strong>Exemple :</strong> les scientifiques de la recherche publique auront d&eacute;sormais le droit de publier leurs articles sur des sites ouverts accessibles &agrave; tous, notamment les archives publiques sp&eacute;cialis&eacute;es, apr&egrave;s un court d&eacute;lai d&rsquo;embargo.</p>",
          "type": {
            "title": "Explication de l'article"
          }
        }
      ],
      "title": "Article 9 - Libre accès aux publications scientifiques de la recherche publique",
      "_links": {
        "show": "https://www.republique-numerique.fr/consultations/projet-de-loi-numerique/consultation/consultation/opinions/section-2-travaux-de-recherche-et-de-statistique/article-9-acces-aux-travaux-de-la-recherche-financee-par-des-fonds-publics",
        "edit": "https://www.republique-numerique.fr/consultations/projet-de-loi-numerique/consultation/consultation/opinions/section-2-travaux-de-recherche-et-de-statistique/article-9-acces-aux-travaux-de-la-recherche-financee-par-des-fonds-publics/edit",
        "report": "https://www.republique-numerique.fr/consultations/projet-de-loi-numerique/consultation/consultation/opinions/section-2-travaux-de-recherche-et-de-statistique/article-9-acces-aux-travaux-de-la-recherche-financee-par-des-fonds-publics/report",
        "type": "https://www.republique-numerique.fr/consultations/projet-de-loi-numerique/consultation/consultation/opinions/section-2-travaux-de-recherche-et-de-statistique"
      },
      "user_vote": null,
      "has_user_reported": false
    },
    "sources_count": 0,
    "arguments_count": 5,
    "votes": [
      {
        "user": {
          "username": "Antonin Delpeuch",
          "displayName": "Antonin Delpeuch",
          "uniqueId": "antonindelpeuch",
          "isAdmin": false,
          "media": null,
          "vip": false,
          "_links": {
            "profile": "https://www.republique-numerique.fr/profile/antonindelpeuch",
            "settings": "https://www.republique-numerique.fr/profile/edit-profile"
          }
        },
        "value": -1
      },
      {
        "user": {
          "username": "Filippo Alberto Edoardo Nuccio",
          "displayName": "Filippo Alberto Edoardo Nuccio",
          "uniqueId": "filippoalbertoedoardonuccio",
          "isAdmin": false,
          "media": null,
          "vip": false,
          "_links": {
            "profile": "https://www.republique-numerique.fr/profile/filippoalbertoedoardonuccio",
            "settings": "https://www.republique-numerique.fr/profile/edit-profile"
          }
        },
        "value": -1
      },
      {
        "user": {
          "username": "Jeanne Varasco",
          "displayName": "Jeanne Varasco",
          "uniqueId": "jeannevarasco",
          "isAdmin": false,
          "media": {
            "url": "/media/cache/default_avatar/default/0001/01/139_default_avatar.jpg"
          },
          "vip": false,
          "_links": {
            "profile": "https://www.republique-numerique.fr/profile/jeannevarasco",
            "settings": "https://www.republique-numerique.fr/profile/edit-profile"
          }
        },
        "value": 1
      },
      {
        "user": {
          "username": "CBernault",
          "displayName": "CBernault",
          "uniqueId": "cbernault",
          "isAdmin": false,
          "media": null,
          "vip": false,
          "_links": {
            "profile": "https://www.republique-numerique.fr/profile/cbernault",
            "settings": "https://www.republique-numerique.fr/profile/edit-profile"
          }
        },
        "value": -1
      },
      {
        "user": {
          "username": "Cyprien Gay",
          "displayName": "Cyprien Gay",
          "uniqueId": "cypriengay",
          "isAdmin": false,
          "media": null,
          "vip": false,
          "_links": {
            "profile": "https://www.republique-numerique.fr/profile/cypriengay",
            "settings": "https://www.republique-numerique.fr/profile/edit-profile"
          }
        },
        "value": -1
      }
    ],
    "updated_at": "2015-09-30T10:19:46+0200",
    "ranking": 147,
    "is_trashed": false,
    "title": "Protéger l'édition scientifique française",
    "slug": "proteger-l-edition-scientifique-francaise",
    "created_at": "2015-09-30T10:19:46+0200",
    "votes_nok": 99,
    "votes_ok": 32,
    "votes_mitige": 0,
    "_links": {
      "show": "https://www.republique-numerique.fr/consultations/projet-de-loi-numerique/consultation/consultation/opinions/section-2-travaux-de-recherche-et-de-statistique/article-9-acces-aux-travaux-de-la-recherche-financee-par-des-fonds-publics/versions/proteger-l-edition-scientifique-francaise",
      "report": "https://www.republique-numerique.fr/consultations/projet-de-loi-numerique/consultation/consultation/opinions/section-2-travaux-de-recherche-et-de-statistique/article-9-acces-aux-travaux-de-la-recherche-financee-par-des-fonds-publics/versions/proteger-l-edition-scientifique-francaise/report"
    },
    "user_vote": null,
    "has_user_reported": false
  },
  "rankingThreshold": null,
  "opinionTerm": 1
}