{
  "opinion": {
    "isContribuable": false,
    "votes_total": 6,
    "arguments_yes_count": 0,
    "arguments_no_count": 2,
    "id": 534,
    "created_at": "2015-10-11T13:52:56+0200",
    "updated_at": "2015-10-11T13:52:56+0200",
    "body": "<p><strong>Quand un organisme public met &agrave; disposition un moyen &eacute;lectronique de le contacter, il s&#39;engage &agrave; remettre &agrave; l&#39;exp&eacute;diteur un accus&eacute; de r&eacute;ception dans un d&eacute;lais qu&#39;il aura pr&eacute;cis&eacute;. </strong></p>\r\n\r\n<p>Cet accus&eacute; de r&eacute;ception ne fera pas foi que le message a &eacute;t&eacute; lu, mais que la demande a &eacute;t&eacute; correctement re&ccedil;ue par le syst&egrave;me &eacute;lectronique de l&#39;organisme public.</p>\r\n\r\n<p><strong>L&#39;accus&eacute; de r&eacute;ception devra indiquer le d&eacute;lais que l&#39;organisme public juge n&eacute;cessaire pour que le contenu du message soit lu</strong> par la personne ou service en charge du suivi du moyen de communication qu&#39;il a mis en place. L&#39;accus&eacute; de r&eacute;ception devra pr&eacute;ciser si l&#39;organisme s&#39;engage &agrave; envoyer par la suite une confirmation de lecture effective du message par le destinataire cit&eacute; dans le message.</p>\r\n\r\n<p>En cas de disfonctionnement du moyen &eacute;lectronique de l&#39;organisme public, du fait d&#39;un d&eacute;faut des moyens mat&eacute;riels ou en personnels, l&#39;organisme s&#39;engage &agrave; le notifier sur celui-ci d&eacute;s qu&#39;il en a eu connaissance en pr&eacute;cisant les dates pour lesquels les accus&eacute;s de r&eacute;ception n&#39;ont p&ucirc; &ecirc;tre envoy&eacute;s.</p>\r\n\r\n<p><strong>Si le moyen choisi par l&#39;organisme r&eacute;clame, obligatoirement ou non, l&#39;adresse email de l&#39;exp&eacute;diteur, l&#39;accus&eacute; de r&eacute;ception sera un email.</strong> L&#39;organisme public n&#39;est pas astreint &agrave; ce que ses emails d&#39;accus&eacute; de r&eacute;ception soit sign&eacute;s avec un certificat num&eacute;rique. L&#39;accus&eacute; de r&eacute;ception n&#39;aura pas de valeur en droit permettant au destinataire d&#39;attester qu&#39;il a contact&eacute; l&#39;organisme public.</p>\r\n\r\n<p>L&#39;organisme public n&#39;est pas astreint &agrave; ces engagements et dispositions quand le moyen &eacute;lectronique rend automatiquement public le message envoy&eacute; par l&#39;exp&eacute;diteur comme dans les cas d&#39;un forum, profil de r&eacute;seau social, commentaires d&#39;un blog.</p>",
    "versions_count": 0,
    "sources_count": 0,
    "arguments_count": 2,
    "author": {
      "username": "Duprez Olivier",
      "displayName": "Duprez Olivier",
      "uniqueId": "duprezolivier",
      "isAdmin": false,
      "media": {
        "url": "/media/cache/default_avatar/default/0001/01/516_default_avatar.jpg"
      },
      "vip": false,
      "_links": {
        "profile": "https://www.republique-numerique.fr/profile/duprezolivier",
        "settings": "https://www.republique-numerique.fr/profile/edit-profile"
      }
    },
    "type": {
      "id": 103,
      "title": "Section 1",
      "subtitle": "Compétences et organisation",
      "voteWidgetType": 2,
      "votesHelpText": "Pensez-vous que cette proposition permet d'atteindre les objectifs présentés dans l’explication de l’article ?",
      "commentSystem": 2,
      "color": "blue",
      "versionable": true,
      "sourceable": true,
      "votesThreshold": null,
      "votesThresholdHelpText": null
    },
    "sources": [],
    "arguments": [
      {
        "isContribuable": false,
        "id": 6174,
        "body": "Cet engagement existe par principe dans la \"Charte Marianne\" mais il est vrai qu'elle est méconnue et pas assez appliquée.",
        "created_at": "2015-10-18T23:02:00+0200",
        "updated_at": "2015-10-18T23:02:00+0200",
        "is_enabled": true,
        "votes_count": 0,
        "type": 0,
        "is_trashed": false,
        "author": {
          "username": "Sylvain Gladieux",
          "displayName": "Sylvain Gladieux",
          "uniqueId": "sylvaingladieux",
          "isAdmin": false,
          "media": {
            "url": "/media/cache/default_avatar/default/0001/01/974_default_avatar.jpg"
          },
          "vip": false,
          "_links": {
            "profile": "https://www.republique-numerique.fr/profile/sylvaingladieux",
            "settings": "https://www.republique-numerique.fr/profile/edit-profile"
          }
        },
        "_links": {
          "show": "https://www.republique-numerique.fr/consultations/projet-de-loi-numerique/consultation/consultation/opinions/section-1-competences-et-organisation/engagement-des-organismes-publics-a-accuser-reception-d-un-message-electronique#arg-6174",
          "edit": "https://www.republique-numerique.fr/consultations/projet-de-loi-numerique/consultation/consultation/opinions/section-1-competences-et-organisation/engagement-des-organismes-publics-a-accuser-reception-d-un-message-electronique/arguments/6174/edit",
          "report": "https://www.republique-numerique.fr/consultations/projet-de-loi-numerique/consultation/consultation/opinions/section-1-competences-et-organisation/engagement-des-organismes-publics-a-accuser-reception-d-un-message-electronique/arguments/6174/report"
        },
        "has_user_voted": false,
        "has_user_reported": false
      },
      {
        "isContribuable": false,
        "id": 3420,
        "body": "Si on désire un AR dans un mail, il suffit de le demander dans les options au moment où on envoie le mail.",
        "created_at": "2015-10-12T22:29:01+0200",
        "updated_at": "2015-10-12T22:29:01+0200",
        "is_enabled": true,
        "votes_count": 1,
        "type": 0,
        "is_trashed": false,
        "author": {
          "username": "Jeanne Varasco",
          "displayName": "Jeanne Varasco",
          "uniqueId": "jeannevarasco",
          "isAdmin": false,
          "media": {
            "url": "/media/cache/default_avatar/default/0001/01/139_default_avatar.jpg"
          },
          "vip": false,
          "_links": {
            "profile": "https://www.republique-numerique.fr/profile/jeannevarasco",
            "settings": "https://www.republique-numerique.fr/profile/edit-profile"
          }
        },
        "_links": {
          "show": "https://www.republique-numerique.fr/consultations/projet-de-loi-numerique/consultation/consultation/opinions/section-1-competences-et-organisation/engagement-des-organismes-publics-a-accuser-reception-d-un-message-electronique#arg-3420",
          "edit": "https://www.republique-numerique.fr/consultations/projet-de-loi-numerique/consultation/consultation/opinions/section-1-competences-et-organisation/engagement-des-organismes-publics-a-accuser-reception-d-un-message-electronique/arguments/3420/edit",
          "report": "https://www.republique-numerique.fr/consultations/projet-de-loi-numerique/consultation/consultation/opinions/section-1-competences-et-organisation/engagement-des-organismes-publics-a-accuser-reception-d-un-message-electronique/arguments/3420/report"
        },
        "has_user_voted": false,
        "has_user_reported": false
      }
    ],
    "modals": [],
    "votes": [
      {
        "user": {
          "username": "Duprez Olivier",
          "displayName": "Duprez Olivier",
          "uniqueId": "duprezolivier",
          "isAdmin": false,
          "media": {
            "url": "/media/cache/default_avatar/default/0001/01/516_default_avatar.jpg"
          },
          "vip": false,
          "_links": {
            "profile": "https://www.republique-numerique.fr/profile/duprezolivier",
            "settings": "https://www.republique-numerique.fr/profile/edit-profile"
          }
        }
      },
      {
        "user": {
          "username": "Jeanne Varasco",
          "displayName": "Jeanne Varasco",
          "uniqueId": "jeannevarasco",
          "isAdmin": false,
          "media": {
            "url": "/media/cache/default_avatar/default/0001/01/139_default_avatar.jpg"
          },
          "vip": false,
          "_links": {
            "profile": "https://www.republique-numerique.fr/profile/jeannevarasco",
            "settings": "https://www.republique-numerique.fr/profile/edit-profile"
          }
        }
      },
      {
        "user": {
          "username": "Vincent Reverdy",
          "displayName": "Vincent Reverdy",
          "uniqueId": "vincentreverdy",
          "isAdmin": false,
          "media": {
            "url": "/media/cache/default_avatar/default/0001/01/268_default_avatar.jpg"
          },
          "vip": false,
          "_links": {
            "profile": "https://www.republique-numerique.fr/profile/vincentreverdy",
            "settings": "https://www.republique-numerique.fr/profile/edit-profile"
          }
        }
      },
      {
        "user": {
          "username": "Bertrand EMERIT",
          "displayName": "Bertrand EMERIT",
          "uniqueId": "bertrandemerit",
          "isAdmin": false,
          "media": null,
          "vip": false,
          "_links": {
            "profile": "https://www.republique-numerique.fr/profile/bertrandemerit",
            "settings": "https://www.republique-numerique.fr/profile/edit-profile"
          }
        }
      },
      {
        "user": {
          "username": "Gami",
          "displayName": "Gami",
          "uniqueId": "gami",
          "isAdmin": false,
          "media": null,
          "vip": false,
          "_links": {
            "profile": "https://www.republique-numerique.fr/profile/gami",
            "settings": "https://www.republique-numerique.fr/profile/edit-profile"
          }
        }
      }
    ],
    "appendices": [
      {
        "body": "<p>Alors que les moyens &eacute;lectroniques devrait simplifier et &eacute;courter les d&eacute;lais quand on contacte un organisme public, hors <strong>si l&#39;organisme cesse de r&eacute;cup&eacute;rer et lire ses messages le demandeur se retrouve &agrave; perdre plus de temps</strong> en attente puis en d&eacute;marches ult&eacute;rieures et par d&#39;autres moyens que si le moyen &eacute;lectronique n&#39;avait pas &eacute;t&eacute; mis &agrave; sa disposition.</p>",
        "type": {
          "title": "Explication de l'article"
        }
      }
    ],
    "ranking": 506,
    "is_trashed": false,
    "title": "Engagement des organismes publics à accuser réception d'un message électronique",
    "votes_nok": 1,
    "votes_ok": 3,
    "votes_mitige": 2,
    "_links": {
      "show": "https://www.republique-numerique.fr/consultations/projet-de-loi-numerique/consultation/consultation/opinions/section-1-competences-et-organisation/engagement-des-organismes-publics-a-accuser-reception-d-un-message-electronique",
      "edit": "https://www.republique-numerique.fr/consultations/projet-de-loi-numerique/consultation/consultation/opinions/section-1-competences-et-organisation/engagement-des-organismes-publics-a-accuser-reception-d-un-message-electronique/edit",
      "report": "https://www.republique-numerique.fr/consultations/projet-de-loi-numerique/consultation/consultation/opinions/section-1-competences-et-organisation/engagement-des-organismes-publics-a-accuser-reception-d-un-message-electronique/report",
      "type": "https://www.republique-numerique.fr/consultations/projet-de-loi-numerique/consultation/consultation/opinions/section-1-competences-et-organisation"
    },
    "user_vote": null,
    "has_user_reported": false
  },
  "rankingThreshold": null,
  "opinionTerm": 1
}