{
  "version": {
    "isContribuable": false,
    "votes_total": 14,
    "arguments_yes_count": 0,
    "arguments_no_count": 0,
    "id": 870,
    "body": "<p>Apr&egrave;s l&rsquo;article L. 113‑6 du code de la consommation, est ins&eacute;r&eacute; un article L. 113‑7 ainsi r&eacute;dig&eacute; :<br />\n&laquo; Art. L. 113‑7. &ndash; Le mat&eacute;riel informatique propos&eacute; &agrave; la vente avec des logiciels int&eacute;gr&eacute;s constitue une vente par lots. &raquo;<br />\n&laquo; Tout professionnel vendeur de mat&eacute;riel informatique fournissant des logiciels int&eacute;gr&eacute;s doit, avant tout paiement du prix par le consommateur, l&rsquo;informer par voie d&rsquo;affichage des caract&eacute;ristiques essentielles et du prix public toutes taxes comprises du lot ainsi que du prix de chacun des logiciels composant individuellement le lot. L&rsquo;indication de ces prix doit figurer sur la facture remise au consommateur. &raquo;</p>\n\n<p>&laquo;La vente par lot n&#39;&eacute;tant pas obligatoire, le consommateur doit pouvoir d&eacute;duire imm&eacute;diatement du prix de vente les logiciels dont il n&#39;a pas l&#39;usage et &agrave; en refuser l&#39;ex&eacute;cution lors de la premi&egrave;re mise en service de la machine.&raquo;<br />\n&laquo; La violation de ces dispositions entre dans le champ d&rsquo;application de l&rsquo;article L. 122‑3. &raquo;.</p>",
    "comment": "<p>Si l&#39;on comprend parfaitement que beaucoup de consommateurs n&#39;ont pas les bagages techniques n&eacute;cessaires (ni forc&eacute;ment l&#39;envie) pour choisir et installer eux-m&ecirc;me leur syst&egrave;me d&#39;exploitation, le fait que pratiquement TOUS les ordinateurs mis en vente comprennent un syst&egrave;me d&#39;exploitation pr&eacute;-install&eacute; et pr&eacute;pay&eacute; est une distorsion r&eacute;elle et s&eacute;rieuse du principe de libre choix et de celui de la libre concurrence.</p>\n\n<p>Ainsi, m&ecirc;me si je ne d&eacute;sire pas utiliser Windows, je le paie syst&eacute;matiquement et les proc&eacute;dures de remboursement de ce logiciel &mdash; quand elles ont la bonne fortune d&#39;exister &mdash; sont d&eacute;lib&eacute;r&eacute;ment longues et complexes.</p>\n\n<p>Si l&#39;on peut comprendre qu&#39;il soit difficile et commercialement p&eacute;rilleux de demander &agrave; toutes les enseignes de vendre des ordinateurs sans OS pr&eacute;-install&eacute;, il n&#39;est cependant techniquement pas compliqu&eacute; du tout de lier chaque OS install&eacute; &agrave; une proc&eacute;dure d&#39;enregistrement ou de refus d&#39;utilisation de l&#39;OS, ce qui garantirait qu&#39;une machine pr&eacute;-&eacute;quip&eacute;e d&#39;un OS dont l&#39;acheteur n&#39;a pas voulu r&eacute;gl&eacute; le montant ne sera pas utilisable avec cet OS pr&eacute;install&eacute;.</p>\n\n<p>Il ne serait ni tr&egrave;s difficile, ni tr&egrave;s compliqu&eacute; de faire en sorte que le vendeur puisse neutraliser les logiciels que le client a refus&eacute; lors du premier d&eacute;marrage.</p>",
    "author": {
      "username": "Agnès Maillard",
      "displayName": "Agnès Maillard",
      "uniqueId": "agnesmaillard",
      "isAdmin": false,
      "media": null,
      "vip": false,
      "_links": {
        "profile": "https://www.republique-numerique.fr/profile/agnesmaillard",
        "settings": "https://www.republique-numerique.fr/profile/edit-profile"
      }
    },
    "arguments": [],
    "sources": [],
    "parent": {
      "isContribuable": false,
      "id": 450,
      "body": "<p>Apr&egrave;s l&rsquo;article L. 113‑6 du code de la consommation, est ins&eacute;r&eacute; un article L. 113‑7 ainsi r&eacute;dig&eacute; :<br />\r\n&laquo; Art. L. 113‑7. &ndash; Le mat&eacute;riel informatique propos&eacute; &agrave; la vente avec des logiciels int&eacute;gr&eacute;s constitue une vente par lots. &raquo;<br />\r\n&laquo; Tout professionnel vendeur de mat&eacute;riel informatique fournissant des logiciels int&eacute;gr&eacute;s doit, avant tout paiement du prix par le consommateur, l&rsquo;informer par voie d&rsquo;affichage des caract&eacute;ristiques essentielles et du prix public toutes taxes comprises du lot ainsi que du prix de chacun des logiciels composant individuellement le lot. L&rsquo;indication de ces prix doit figurer sur la facture remise au consommateur. &raquo;<br />\r\n&laquo; La violation de ces dispositions entre dans le champ d&rsquo;application de l&rsquo;article L. 122‑3. &raquo;.</p>",
      "type": {
        "id": 100,
        "title": "Section 2",
        "subtitle": "Confidentialité des correspondances privées",
        "voteWidgetType": 2,
        "votesHelpText": "Pensez-vous que cette proposition permet d'atteindre les objectifs présentés dans l’explication de l’article ?",
        "commentSystem": 2,
        "color": "blue",
        "versionable": true,
        "sourceable": true,
        "votesThreshold": null,
        "votesThresholdHelpText": null
      },
      "modals": [],
      "appendices": [
        {
          "body": "<p>L&#39;int&eacute;grit&eacute;, l&#39;authenticit&eacute; et la confidentialit&eacute; des correspondances sont compromises si l&#39;ordinateur utilis&eacute; par l&#39;exp&eacute;diteur ou celui utilis&eacute; par le destinataire est en partie sous le contr&ocirc;le d&#39;un tiers.<br />\r\nCette proposition a pour but d&#39;amplifier l&#39;adoption de syst&egrave;mes d&#39;exploitation libres qui autorisent le complet contr&ocirc;le de l&#39;ordinateur par son utilisateur.<br />\r\nDans cette optique, l&#39;adjonction d&#39;un nouvel article au Code de la Consommation favorisera une concurrence non fauss&eacute;e entre syst&egrave;mes d&#39;exploitation.</p>\r\n\r\n<p>Le nouvel article obligera &agrave; un affichage s&eacute;par&eacute; des prix du mat&eacute;riel et du logiciel. Tout d&eacute;faut d&#39;affichage distinct entrera dans le cadre de la vente forc&eacute;e (fourniture de biens ou de services sans commande pr&eacute;alable, article L. 122-3).</p>\r\n\r\n<p>Une pr&eacute;sentation d&eacute;taill&eacute;e du texte propos&eacute; est disponible dans un communiqu&eacute; de l&#39;ADULLACT, de l&#39;AFUL et de FRAMASOFT :<br />\r\n<a href=\"http://non.aux.racketiciels.info/communiques/soutien-amendements-limitant-racketiciels\">http://non.aux.racketiciels.info/communiques/soutien-amendements-limitant-racketiciels</a></p>",
          "type": {
            "title": "Explication de l'article"
          }
        }
      ],
      "title": "Protection des correspondants",
      "_links": {
        "show": "https://www.republique-numerique.fr/consultations/projet-de-loi-numerique/consultation/consultation/opinions/section-2-confidentialite-des-correspondances-privees/protection-des-correspondants",
        "edit": "https://www.republique-numerique.fr/consultations/projet-de-loi-numerique/consultation/consultation/opinions/section-2-confidentialite-des-correspondances-privees/protection-des-correspondants/edit",
        "report": "https://www.republique-numerique.fr/consultations/projet-de-loi-numerique/consultation/consultation/opinions/section-2-confidentialite-des-correspondances-privees/protection-des-correspondants/report",
        "type": "https://www.republique-numerique.fr/consultations/projet-de-loi-numerique/consultation/consultation/opinions/section-2-confidentialite-des-correspondances-privees"
      },
      "user_vote": null,
      "has_user_reported": false
    },
    "sources_count": 0,
    "arguments_count": 0,
    "votes": [
      {
        "user": {
          "username": "Vincent Reverdy",
          "displayName": "Vincent Reverdy",
          "uniqueId": "vincentreverdy",
          "isAdmin": false,
          "media": {
            "url": "/media/cache/default_avatar/default/0001/01/268_default_avatar.jpg"
          },
          "vip": false,
          "_links": {
            "profile": "https://www.republique-numerique.fr/profile/vincentreverdy",
            "settings": "https://www.republique-numerique.fr/profile/edit-profile"
          }
        },
        "value": 1
      },
      {
        "user": {
          "username": "TD",
          "displayName": "TD",
          "uniqueId": "td",
          "isAdmin": false,
          "media": null,
          "vip": false,
          "_links": {
            "profile": "https://www.republique-numerique.fr/profile/td",
            "settings": "https://www.republique-numerique.fr/profile/edit-profile"
          }
        },
        "value": 1
      },
      {
        "user": {
          "username": "Baptiste Labat",
          "displayName": "Baptiste Labat",
          "uniqueId": "baptistelabat",
          "isAdmin": false,
          "media": null,
          "vip": false,
          "_links": {
            "profile": "https://www.republique-numerique.fr/profile/baptistelabat",
            "settings": "https://www.republique-numerique.fr/profile/edit-profile"
          }
        },
        "value": 1
      },
      {
        "user": {
          "username": "Bernard Chardonneau",
          "displayName": "Bernard Chardonneau",
          "uniqueId": "bernardchardonneau",
          "isAdmin": false,
          "media": null,
          "vip": false,
          "_links": {
            "profile": "https://www.republique-numerique.fr/profile/bernardchardonneau",
            "settings": "https://www.republique-numerique.fr/profile/edit-profile"
          }
        },
        "value": 1
      },
      {
        "user": {
          "username": "CHAUX Arnaud",
          "displayName": "CHAUX Arnaud",
          "uniqueId": "chauxarnaud",
          "isAdmin": false,
          "media": null,
          "vip": false,
          "_links": {
            "profile": "https://www.republique-numerique.fr/profile/chauxarnaud",
            "settings": "https://www.republique-numerique.fr/profile/edit-profile"
          }
        },
        "value": 1
      }
    ],
    "updated_at": "2015-10-13T09:11:23+0200",
    "ranking": 306,
    "is_trashed": false,
    "title": "Pour le respect de la loi de la vente par lots",
    "slug": "pour-le-respect-de-la-loi-de-la-vente-par-lots",
    "created_at": "2015-10-13T09:11:23+0200",
    "votes_nok": 0,
    "votes_ok": 14,
    "votes_mitige": 0,
    "_links": {
      "show": "https://www.republique-numerique.fr/consultations/projet-de-loi-numerique/consultation/consultation/opinions/section-2-confidentialite-des-correspondances-privees/protection-des-correspondants/versions/pour-le-respect-de-la-loi-de-la-vente-par-lots",
      "report": "https://www.republique-numerique.fr/consultations/projet-de-loi-numerique/consultation/consultation/opinions/section-2-confidentialite-des-correspondances-privees/protection-des-correspondants/versions/pour-le-respect-de-la-loi-de-la-vente-par-lots/report"
    },
    "user_vote": null,
    "has_user_reported": false
  },
  "rankingThreshold": null,
  "opinionTerm": 1
}