{
  "version": {
    "isContribuable": false,
    "votes_total": 22,
    "arguments_yes_count": 0,
    "arguments_no_count": 4,
    "id": 543,
    "body": "<p>La concurrence est fauss&eacute;e sur la march&eacute; car la soci&eacute;t&eacute; Microsoft (parmi d&#39;autres soci&eacute;t&eacute;s) impose aux fabricants de PC l&#39;installation de licences OEM. En cas de refus du fabricant il verrait le prix de sa licence OEM Windows major&eacute;e et p&eacute;nalis&eacute; dans ses co&ucirc;ts de revient. De m&ecirc;me pour de nombreux logiciels en version gratuite pr&eacute;install&eacute;s sur les ordinateurs, parfois nomm&eacute;s crapwaes ou bloatwares.</p>\n\n<p>L&#39;argument qu&#39;il est aujourd&#39;hui possible d&#39;acqu&eacute;rir un ordinateur sans licence chez un int&eacute;grateur ne r&eacute;pond que partiellement au besoin de libre concurrence entre syst&egrave;mes d&#39;exploitation et est quasi impossible sur un ordinateur portable (55% du march&eacute;).</p>\n\n<p>Il semble &eacute;vident que le consommateur doivent conna&icirc;tre avant l&#39;achat le prix du mat&eacute;riel et disctinctement le prix des licences propos&eacute;es. Il doit &ecirc;tre libre de n&#39;acqu&eacute;rir que le mat&eacute;riel s&#39;il le souhaite.</p>\n\n<p>Le consommateur souhaitant utiliser windows par exemple s&#39;acquiterait du prix du mat&eacute;riel et de la licence.</p>\n\n<p>Aujourd&#39;hui les juridictions de proximit&eacute; rendent nombres de jugements en faveur du consommateur dans ce cas de figure. Afin de soulager les tribunaux, l&#39;inscription dans la loi semble citoyenne et toute entrave serait frapp&eacute;e de la suspicion de lobbying de puissants groupes financiers comme cela s&#39;est d&eacute;j&agrave; produit dans diff&eacute;rents minist&egrave;res (Education, D&eacute;fense...).</p>",
    "comment": "<p>Un avis de la cour europ&eacute;enne va bient&ocirc;t &ecirc;tre rendu, il vaut mieux attendre, afin d&#39;avoir de bonnes bases pour r&eacute;viser la loi.</p>\n\n<p>Sources :</p>\n\n<p><a _src=\"http://pro.clubic.com/actualite-e-business/actualite-772020-vente-liee.html\" class=\"external-link\" href=\"http://pro.clubic.com/actualite-e-business/actualite-772020-vente-liee.html\">http://pro.clubic.com/actualite-e-business/actualite-772020-vente-liee.html</a></p>\n\n<p>https://fr.wikipedia.org/wiki/Vente_li%C3%A9e_de_logiciels_avec_du_mat%C3%A9riel_informatique#Proc.C3.A9dure_judiciaires_et_d.C3.A9bats_politiques</p>\n\n<p>&nbsp;</p>",
    "author": {
      "username": "tpeg5stan",
      "displayName": "tpeg5stan",
      "uniqueId": "tpeg5stan",
      "isAdmin": false,
      "media": null,
      "vip": false,
      "_links": {
        "profile": "https://www.republique-numerique.fr/profile/tpeg5stan",
        "settings": "https://www.republique-numerique.fr/profile/edit-profile"
      }
    },
    "arguments": [
      {
        "isContribuable": false,
        "id": 1986,
        "body": "Le principe de liberté de choix pour un citoyen fait partie du droit européen.\nCette liberté n'est pas opposable par une société de service vendant une licence d'utilisation à un citoyen européen qui décide de ne pas choisir cette prestation.",
        "created_at": "2015-10-02T12:34:43+0200",
        "updated_at": "2015-10-02T12:34:43+0200",
        "is_enabled": true,
        "votes_count": 3,
        "type": 0,
        "is_trashed": false,
        "author": {
          "username": "ANTOINE François",
          "displayName": "ANTOINE François",
          "uniqueId": "antoinefrancois",
          "isAdmin": false,
          "media": null,
          "vip": false,
          "_links": {
            "profile": "https://www.republique-numerique.fr/profile/antoinefrancois",
            "settings": "https://www.republique-numerique.fr/profile/edit-profile"
          }
        },
        "_links": {
          "show": "https://www.republique-numerique.fr/consultations/projet-de-loi-numerique/consultation/consultation/opinions/section-3-loyaute-des-plateformes/interdiction-de-la-vente-liee-ordinateur-systeme-d-exploitation/versions/attendre-la-decision-de-la-cour-europeenne-de-justice-cjue#arg-1986",
          "edit": "https://www.republique-numerique.fr/consultations/projet-de-loi-numerique/consultation/consultation/opinions/section-3-loyaute-des-plateformes/interdiction-de-la-vente-liee-ordinateur-systeme-d-exploitation/arguments/1986/edit",
          "report": "https://www.republique-numerique.fr/consultations/projet-de-loi-numerique/consultation/consultation/opinions/section-3-loyaute-des-plateformes/interdiction-de-la-vente-liee-ordinateur-systeme-d-exploitation/arguments/1986/report"
        },
        "has_user_voted": false,
        "has_user_reported": false
      },
      {
        "isContribuable": false,
        "id": 1987,
        "body": "Le principe de liberté de choix pour un citoyen fait partie du droit européen.\nCette liberté n'est pas opposable par une société de service vendant une licence d'utilisation à un citoyen européen qui décide de ne pas choisir cette prestation.",
        "created_at": "2015-10-02T12:34:50+0200",
        "updated_at": "2015-10-02T12:34:50+0200",
        "is_enabled": true,
        "votes_count": 0,
        "type": 0,
        "is_trashed": false,
        "author": {
          "username": "ANTOINE François",
          "displayName": "ANTOINE François",
          "uniqueId": "antoinefrancois",
          "isAdmin": false,
          "media": null,
          "vip": false,
          "_links": {
            "profile": "https://www.republique-numerique.fr/profile/antoinefrancois",
            "settings": "https://www.republique-numerique.fr/profile/edit-profile"
          }
        },
        "_links": {
          "show": "https://www.republique-numerique.fr/consultations/projet-de-loi-numerique/consultation/consultation/opinions/section-3-loyaute-des-plateformes/interdiction-de-la-vente-liee-ordinateur-systeme-d-exploitation/versions/attendre-la-decision-de-la-cour-europeenne-de-justice-cjue#arg-1987",
          "edit": "https://www.republique-numerique.fr/consultations/projet-de-loi-numerique/consultation/consultation/opinions/section-3-loyaute-des-plateformes/interdiction-de-la-vente-liee-ordinateur-systeme-d-exploitation/arguments/1987/edit",
          "report": "https://www.republique-numerique.fr/consultations/projet-de-loi-numerique/consultation/consultation/opinions/section-3-loyaute-des-plateformes/interdiction-de-la-vente-liee-ordinateur-systeme-d-exploitation/arguments/1987/report"
        },
        "has_user_voted": false,
        "has_user_reported": false
      },
      {
        "isContribuable": false,
        "id": 1988,
        "body": "Le principe de liberté de choix pour un citoyen fait partie du droit européen.\nCette liberté n'est pas opposable par une société de service vendant une licence d'utilisation à un citoyen européen qui décide de ne pas choisir cette prestation.",
        "created_at": "2015-10-02T12:35:05+0200",
        "updated_at": "2015-10-02T12:35:05+0200",
        "is_enabled": true,
        "votes_count": 0,
        "type": 0,
        "is_trashed": false,
        "author": {
          "username": "ANTOINE François",
          "displayName": "ANTOINE François",
          "uniqueId": "antoinefrancois",
          "isAdmin": false,
          "media": null,
          "vip": false,
          "_links": {
            "profile": "https://www.republique-numerique.fr/profile/antoinefrancois",
            "settings": "https://www.republique-numerique.fr/profile/edit-profile"
          }
        },
        "_links": {
          "show": "https://www.republique-numerique.fr/consultations/projet-de-loi-numerique/consultation/consultation/opinions/section-3-loyaute-des-plateformes/interdiction-de-la-vente-liee-ordinateur-systeme-d-exploitation/versions/attendre-la-decision-de-la-cour-europeenne-de-justice-cjue#arg-1988",
          "edit": "https://www.republique-numerique.fr/consultations/projet-de-loi-numerique/consultation/consultation/opinions/section-3-loyaute-des-plateformes/interdiction-de-la-vente-liee-ordinateur-systeme-d-exploitation/arguments/1988/edit",
          "report": "https://www.republique-numerique.fr/consultations/projet-de-loi-numerique/consultation/consultation/opinions/section-3-loyaute-des-plateformes/interdiction-de-la-vente-liee-ordinateur-systeme-d-exploitation/arguments/1988/report"
        },
        "has_user_voted": false,
        "has_user_reported": false
      },
      {
        "isContribuable": false,
        "id": 1989,
        "body": "Le principe de liberté de choix pour un citoyen fait partie du droit européen.\nCette liberté n'est pas opposable par une société de service vendant une licence d'utilisation à un citoyen européen qui décide de ne pas choisir cette prestation.",
        "created_at": "2015-10-02T12:36:16+0200",
        "updated_at": "2015-10-02T12:36:16+0200",
        "is_enabled": true,
        "votes_count": 0,
        "type": 0,
        "is_trashed": false,
        "author": {
          "username": "ANTOINE François",
          "displayName": "ANTOINE François",
          "uniqueId": "antoinefrancois",
          "isAdmin": false,
          "media": null,
          "vip": false,
          "_links": {
            "profile": "https://www.republique-numerique.fr/profile/antoinefrancois",
            "settings": "https://www.republique-numerique.fr/profile/edit-profile"
          }
        },
        "_links": {
          "show": "https://www.republique-numerique.fr/consultations/projet-de-loi-numerique/consultation/consultation/opinions/section-3-loyaute-des-plateformes/interdiction-de-la-vente-liee-ordinateur-systeme-d-exploitation/versions/attendre-la-decision-de-la-cour-europeenne-de-justice-cjue#arg-1989",
          "edit": "https://www.republique-numerique.fr/consultations/projet-de-loi-numerique/consultation/consultation/opinions/section-3-loyaute-des-plateformes/interdiction-de-la-vente-liee-ordinateur-systeme-d-exploitation/arguments/1989/edit",
          "report": "https://www.republique-numerique.fr/consultations/projet-de-loi-numerique/consultation/consultation/opinions/section-3-loyaute-des-plateformes/interdiction-de-la-vente-liee-ordinateur-systeme-d-exploitation/arguments/1989/report"
        },
        "has_user_voted": false,
        "has_user_reported": false
      }
    ],
    "sources": [],
    "parent": {
      "isContribuable": false,
      "id": 177,
      "body": "<p>La concurrence est fauss&eacute;e sur la march&eacute; car la soci&eacute;t&eacute; Microsoft impose aux fabricants de PC l&#39;installation de licences OEM. En cas de refus du fabricant il verrait le prix de sa licence OEM Windows major&eacute;e et p&eacute;nalis&eacute; dans ses co&ucirc;ts de revient.</p>\r\n\r\n<p>L&#39;argument qu&#39;il est aujourd&#39;hui possible d&#39;acqu&eacute;rir un ordinateur sans licence chez un int&eacute;grateur ne r&eacute;pond que partiellement au besoin de libre concurrence entre syst&egrave;mes d&#39;exploitation et est quasi impossible sur un ordinateur portable (55% du march&eacute;).</p>\r\n\r\n<p>Il semble &eacute;vident que le consommateur doivent conna&icirc;tre avant l&#39;achat le prix du mat&eacute;riel et disctinctement le prix des licences propos&eacute;es. Il doit &ecirc;tre libre de n&#39;acqu&eacute;rir que le mat&eacute;riel s&#39;il le souhaite.</p>\r\n\r\n<p>Le consommateur souhaitant utiliser windows par exemple s&#39;acquiterait du prix du mat&eacute;riel et de la licence.</p>\r\n\r\n<p>Aujourd&#39;hui les juridictions de proximit&eacute; rendent nombres de jugements en faveur du consommateur dans ce cas de figure. Afin de soulager les tribunaux, l&#39;inscription dans la loi semble citoyenne et toute entrave serait frapp&eacute;e de la suspicion de lobbying de puissants groupes financiers comme cela s&#39;est d&eacute;j&agrave; produit dans diff&eacute;rents minist&egrave;res (Education, D&eacute;fense...).</p>",
      "type": {
        "id": 96,
        "title": "Section 3",
        "subtitle": "Loyauté des plateformes",
        "voteWidgetType": 2,
        "votesHelpText": "Pensez-vous que cette proposition permet d'atteindre les objectifs présentés dans l’explication de l’article ?",
        "commentSystem": 2,
        "color": "blue",
        "versionable": true,
        "sourceable": true,
        "votesThreshold": null,
        "votesThresholdHelpText": null
      },
      "modals": [],
      "appendices": [
        {
          "body": "<p>La citoyennet&eacute; num&eacute;rique passe par la libert&eacute; d&#39;utiliser le syst&egrave;me d&#39;exploitation de son choix.</p>\r\n\r\n<p>L&#39;utilisation de logiciels libres repr&eacute;sentant la plus haute marche de l&#39;&eacute;chelle d&#39;ind&eacute;pendance en rompant le lien de d&eacute;pendance que cr&eacute;e un &eacute;diteur envers ses utilisateurs.</p>\r\n\r\n<p>La possibilit&eacute; d&#39;&eacute;tudier le code source met &agrave; l&#39;abri de fonctionnalit&eacute;s cach&eacute;es non-souhait&eacute;es dans le logiciel. La possibilit&eacute; de partager et d&#39;am&eacute;liorer implique le citoyen dans une mont&eacute;e en comp&eacute;tences qui ne peut qu&#39;&ecirc;tre profitable &agrave; la soci&eacute;t&eacute;.</p>",
          "type": {
            "title": "Explication de l'article"
          }
        }
      ],
      "title": "Interdiction de la vente liée ordinateur/système d'exploitation",
      "_links": {
        "show": "https://www.republique-numerique.fr/consultations/projet-de-loi-numerique/consultation/consultation/opinions/section-3-loyaute-des-plateformes/interdiction-de-la-vente-liee-ordinateur-systeme-d-exploitation",
        "edit": "https://www.republique-numerique.fr/consultations/projet-de-loi-numerique/consultation/consultation/opinions/section-3-loyaute-des-plateformes/interdiction-de-la-vente-liee-ordinateur-systeme-d-exploitation/edit",
        "report": "https://www.republique-numerique.fr/consultations/projet-de-loi-numerique/consultation/consultation/opinions/section-3-loyaute-des-plateformes/interdiction-de-la-vente-liee-ordinateur-systeme-d-exploitation/report",
        "type": "https://www.republique-numerique.fr/consultations/projet-de-loi-numerique/consultation/consultation/opinions/section-3-loyaute-des-plateformes"
      },
      "user_vote": null,
      "has_user_reported": false
    },
    "sources_count": 0,
    "arguments_count": 4,
    "votes": [
      {
        "user": {
          "username": "MAILLARD",
          "displayName": "MAILLARD",
          "uniqueId": "maillard",
          "isAdmin": false,
          "media": null,
          "vip": false,
          "_links": {
            "profile": "https://www.republique-numerique.fr/profile/maillard",
            "settings": "https://www.republique-numerique.fr/profile/edit-profile"
          }
        },
        "value": -1
      },
      {
        "user": {
          "username": "ANTOINE François",
          "displayName": "ANTOINE François",
          "uniqueId": "antoinefrancois",
          "isAdmin": false,
          "media": null,
          "vip": false,
          "_links": {
            "profile": "https://www.republique-numerique.fr/profile/antoinefrancois",
            "settings": "https://www.republique-numerique.fr/profile/edit-profile"
          }
        },
        "value": -1
      },
      {
        "user": {
          "username": "Pierre",
          "displayName": "Pierre",
          "uniqueId": "pierre1",
          "isAdmin": false,
          "media": {
            "url": "/media/cache/default_avatar/default/0001/01/199_default_avatar.png"
          },
          "vip": false,
          "_links": {
            "profile": "https://www.republique-numerique.fr/profile/pierre1",
            "settings": "https://www.republique-numerique.fr/profile/edit-profile"
          }
        },
        "value": -1
      },
      {
        "user": {
          "username": "Jeanne Varasco",
          "displayName": "Jeanne Varasco",
          "uniqueId": "jeannevarasco",
          "isAdmin": false,
          "media": {
            "url": "/media/cache/default_avatar/default/0001/01/139_default_avatar.jpg"
          },
          "vip": false,
          "_links": {
            "profile": "https://www.republique-numerique.fr/profile/jeannevarasco",
            "settings": "https://www.republique-numerique.fr/profile/edit-profile"
          }
        },
        "value": -1
      },
      {
        "user": {
          "username": "Jonathan Crequer",
          "displayName": "Jonathan Crequer",
          "uniqueId": "jonathancrequer",
          "isAdmin": false,
          "media": null,
          "vip": false,
          "_links": {
            "profile": "https://www.republique-numerique.fr/profile/jonathancrequer",
            "settings": "https://www.republique-numerique.fr/profile/edit-profile"
          }
        },
        "value": -1
      }
    ],
    "updated_at": "2015-10-01T16:59:20+0200",
    "ranking": 624,
    "is_trashed": false,
    "title": "Attendre la décision de la Cour Européenne de Justice (CJUE)",
    "slug": "attendre-la-decision-de-la-cour-europeenne-de-justice-cjue",
    "created_at": "2015-10-01T16:59:20+0200",
    "votes_nok": 15,
    "votes_ok": 5,
    "votes_mitige": 2,
    "_links": {
      "show": "https://www.republique-numerique.fr/consultations/projet-de-loi-numerique/consultation/consultation/opinions/section-3-loyaute-des-plateformes/interdiction-de-la-vente-liee-ordinateur-systeme-d-exploitation/versions/attendre-la-decision-de-la-cour-europeenne-de-justice-cjue",
      "report": "https://www.republique-numerique.fr/consultations/projet-de-loi-numerique/consultation/consultation/opinions/section-3-loyaute-des-plateformes/interdiction-de-la-vente-liee-ordinateur-systeme-d-exploitation/versions/attendre-la-decision-de-la-cour-europeenne-de-justice-cjue/report"
    },
    "user_vote": null,
    "has_user_reported": false
  },
  "rankingThreshold": null,
  "opinionTerm": 1
}