{
  "version": {
    "isContribuable": false,
    "votes_total": 22,
    "arguments_yes_count": 2,
    "arguments_no_count": 0,
    "id": 594,
    "body": "<p>La concurrence est fauss&eacute;e sur la march&eacute; car la soci&eacute;t&eacute; Microsoft impose aux fabricants de PC l&#39;installation de licences OEM. En cas de refus du fabricant il verrait le prix de sa licence OEM Windows major&eacute;e et p&eacute;nalis&eacute; dans ses co&ucirc;ts de revient.</p>\n\n<p>L&#39;argument qu&#39;il est aujourd&#39;hui possible d&#39;acqu&eacute;rir un ordinateur sans licence chez un int&eacute;grateur ne r&eacute;pond que partiellement au besoin de libre concurrence entre syst&egrave;mes d&#39;exploitation et est quasi impossible sur un ordinateur portable (55% du march&eacute;).</p>\n\n<p>Il semble &eacute;vident que le consommateur doivent conna&icirc;tre avant l&#39;achat le prix du mat&eacute;riel et disctinctement le prix des licences propos&eacute;es. Il doit &ecirc;tre libre de n&#39;acqu&eacute;rir que le mat&eacute;riel s&#39;il le souhaite.</p>\n\n<p>Le consommateur souhaitant utiliser windows par exemple s&#39;acquiterait du prix du mat&eacute;riel et de la licence.</p>\n\n<p>Aujourd&#39;hui les juridictions de proximit&eacute; rendent nombres de jugements en faveur du consommateur dans ce cas de figure. Afin de soulager les tribunaux, l&#39;inscription dans la loi semble citoyenne et toute entrave serait frapp&eacute;e de la suspicion de lobbying de puissants groupes financiers comme cela s&#39;est d&eacute;j&agrave; produit dans diff&eacute;rents minist&egrave;res (Education, D&eacute;fense...).</p>\n\n<p>&Eacute;largire le standart UEFI aux tablettes et t&eacute;l&eacute;phones (&laquo;smartphone&raquo;).</p>\n\n<p>&nbsp;</p>",
    "comment": "<p>Ajout du choix de syst&egrave;me d&#39;exploitation sur tablette/t&eacute;l&eacute;phone en utilisant le format UEFI.</p>",
    "author": {
      "username": "Cédric Corrège",
      "displayName": "Cédric Corrège",
      "uniqueId": "cedriccorrege",
      "isAdmin": false,
      "media": null,
      "vip": false,
      "_links": {
        "profile": "https://www.republique-numerique.fr/profile/cedriccorrege",
        "settings": "https://www.republique-numerique.fr/profile/edit-profile"
      }
    },
    "arguments": [
      {
        "isContribuable": false,
        "id": 2896,
        "body": "Avec l'obligation de proposer une option qui permet de désactiver le \"Secure Boot\". Ceci est d'ailleurs aussi valable pour les PC ARM.",
        "created_at": "2015-10-10T01:50:55+0200",
        "updated_at": "2015-10-10T01:50:55+0200",
        "is_enabled": true,
        "votes_count": 3,
        "type": 1,
        "is_trashed": false,
        "author": {
          "username": "Axelos",
          "displayName": "Axelos",
          "uniqueId": "axelos",
          "isAdmin": false,
          "media": null,
          "vip": false,
          "_links": {
            "profile": "https://www.republique-numerique.fr/profile/axelos",
            "settings": "https://www.republique-numerique.fr/profile/edit-profile"
          }
        },
        "_links": {
          "show": "https://www.republique-numerique.fr/consultations/projet-de-loi-numerique/consultation/consultation/opinions/section-3-loyaute-des-plateformes/interdiction-de-la-vente-liee-ordinateur-systeme-d-exploitation/versions/libre-choix-du-systeme-d-exploitations-et-interdiction-de-la-vente-liee#arg-2896",
          "edit": "https://www.republique-numerique.fr/consultations/projet-de-loi-numerique/consultation/consultation/opinions/section-3-loyaute-des-plateformes/interdiction-de-la-vente-liee-ordinateur-systeme-d-exploitation/arguments/2896/edit",
          "report": "https://www.republique-numerique.fr/consultations/projet-de-loi-numerique/consultation/consultation/opinions/section-3-loyaute-des-plateformes/interdiction-de-la-vente-liee-ordinateur-systeme-d-exploitation/arguments/2896/report"
        },
        "has_user_voted": false,
        "has_user_reported": false
      },
      {
        "isContribuable": false,
        "id": 3322,
        "body": "À l'ensemble des systèmes.",
        "created_at": "2015-10-12T16:16:14+0200",
        "updated_at": "2015-10-12T16:16:14+0200",
        "is_enabled": true,
        "votes_count": 1,
        "type": 1,
        "is_trashed": false,
        "author": {
          "username": "Denis Chenu",
          "displayName": "Denis Chenu",
          "uniqueId": "denischenu",
          "isAdmin": false,
          "media": null,
          "vip": false,
          "_links": {
            "profile": "https://www.republique-numerique.fr/profile/denischenu",
            "settings": "https://www.republique-numerique.fr/profile/edit-profile"
          }
        },
        "_links": {
          "show": "https://www.republique-numerique.fr/consultations/projet-de-loi-numerique/consultation/consultation/opinions/section-3-loyaute-des-plateformes/interdiction-de-la-vente-liee-ordinateur-systeme-d-exploitation/versions/libre-choix-du-systeme-d-exploitations-et-interdiction-de-la-vente-liee#arg-3322",
          "edit": "https://www.republique-numerique.fr/consultations/projet-de-loi-numerique/consultation/consultation/opinions/section-3-loyaute-des-plateformes/interdiction-de-la-vente-liee-ordinateur-systeme-d-exploitation/arguments/3322/edit",
          "report": "https://www.republique-numerique.fr/consultations/projet-de-loi-numerique/consultation/consultation/opinions/section-3-loyaute-des-plateformes/interdiction-de-la-vente-liee-ordinateur-systeme-d-exploitation/arguments/3322/report"
        },
        "has_user_voted": false,
        "has_user_reported": false
      }
    ],
    "sources": [],
    "parent": {
      "isContribuable": false,
      "id": 177,
      "body": "<p>La concurrence est fauss&eacute;e sur la march&eacute; car la soci&eacute;t&eacute; Microsoft impose aux fabricants de PC l&#39;installation de licences OEM. En cas de refus du fabricant il verrait le prix de sa licence OEM Windows major&eacute;e et p&eacute;nalis&eacute; dans ses co&ucirc;ts de revient.</p>\r\n\r\n<p>L&#39;argument qu&#39;il est aujourd&#39;hui possible d&#39;acqu&eacute;rir un ordinateur sans licence chez un int&eacute;grateur ne r&eacute;pond que partiellement au besoin de libre concurrence entre syst&egrave;mes d&#39;exploitation et est quasi impossible sur un ordinateur portable (55% du march&eacute;).</p>\r\n\r\n<p>Il semble &eacute;vident que le consommateur doivent conna&icirc;tre avant l&#39;achat le prix du mat&eacute;riel et disctinctement le prix des licences propos&eacute;es. Il doit &ecirc;tre libre de n&#39;acqu&eacute;rir que le mat&eacute;riel s&#39;il le souhaite.</p>\r\n\r\n<p>Le consommateur souhaitant utiliser windows par exemple s&#39;acquiterait du prix du mat&eacute;riel et de la licence.</p>\r\n\r\n<p>Aujourd&#39;hui les juridictions de proximit&eacute; rendent nombres de jugements en faveur du consommateur dans ce cas de figure. Afin de soulager les tribunaux, l&#39;inscription dans la loi semble citoyenne et toute entrave serait frapp&eacute;e de la suspicion de lobbying de puissants groupes financiers comme cela s&#39;est d&eacute;j&agrave; produit dans diff&eacute;rents minist&egrave;res (Education, D&eacute;fense...).</p>",
      "type": {
        "id": 96,
        "title": "Section 3",
        "subtitle": "Loyauté des plateformes",
        "voteWidgetType": 2,
        "votesHelpText": "Pensez-vous que cette proposition permet d'atteindre les objectifs présentés dans l’explication de l’article ?",
        "commentSystem": 2,
        "color": "blue",
        "versionable": true,
        "sourceable": true,
        "votesThreshold": null,
        "votesThresholdHelpText": null
      },
      "modals": [],
      "appendices": [
        {
          "body": "<p>La citoyennet&eacute; num&eacute;rique passe par la libert&eacute; d&#39;utiliser le syst&egrave;me d&#39;exploitation de son choix.</p>\r\n\r\n<p>L&#39;utilisation de logiciels libres repr&eacute;sentant la plus haute marche de l&#39;&eacute;chelle d&#39;ind&eacute;pendance en rompant le lien de d&eacute;pendance que cr&eacute;e un &eacute;diteur envers ses utilisateurs.</p>\r\n\r\n<p>La possibilit&eacute; d&#39;&eacute;tudier le code source met &agrave; l&#39;abri de fonctionnalit&eacute;s cach&eacute;es non-souhait&eacute;es dans le logiciel. La possibilit&eacute; de partager et d&#39;am&eacute;liorer implique le citoyen dans une mont&eacute;e en comp&eacute;tences qui ne peut qu&#39;&ecirc;tre profitable &agrave; la soci&eacute;t&eacute;.</p>",
          "type": {
            "title": "Explication de l'article"
          }
        }
      ],
      "title": "Interdiction de la vente liée ordinateur/système d'exploitation",
      "_links": {
        "show": "https://www.republique-numerique.fr/consultations/projet-de-loi-numerique/consultation/consultation/opinions/section-3-loyaute-des-plateformes/interdiction-de-la-vente-liee-ordinateur-systeme-d-exploitation",
        "edit": "https://www.republique-numerique.fr/consultations/projet-de-loi-numerique/consultation/consultation/opinions/section-3-loyaute-des-plateformes/interdiction-de-la-vente-liee-ordinateur-systeme-d-exploitation/edit",
        "report": "https://www.republique-numerique.fr/consultations/projet-de-loi-numerique/consultation/consultation/opinions/section-3-loyaute-des-plateformes/interdiction-de-la-vente-liee-ordinateur-systeme-d-exploitation/report",
        "type": "https://www.republique-numerique.fr/consultations/projet-de-loi-numerique/consultation/consultation/opinions/section-3-loyaute-des-plateformes"
      },
      "user_vote": null,
      "has_user_reported": false
    },
    "sources_count": 0,
    "arguments_count": 2,
    "votes": [
      {
        "user": {
          "username": "Pascal Bocquillon",
          "displayName": "Pascal Bocquillon",
          "uniqueId": "pascalbocquillon",
          "isAdmin": false,
          "media": {
            "url": "/media/cache/default_avatar/default/0001/01/423_default_avatar.jpg"
          },
          "vip": false,
          "_links": {
            "profile": "https://www.republique-numerique.fr/profile/pascalbocquillon",
            "settings": "https://www.republique-numerique.fr/profile/edit-profile"
          }
        },
        "value": 1
      },
      {
        "user": {
          "username": "Axelos",
          "displayName": "Axelos",
          "uniqueId": "axelos",
          "isAdmin": false,
          "media": null,
          "vip": false,
          "_links": {
            "profile": "https://www.republique-numerique.fr/profile/axelos",
            "settings": "https://www.republique-numerique.fr/profile/edit-profile"
          }
        },
        "value": 1
      },
      {
        "user": {
          "username": "Vincent Reverdy",
          "displayName": "Vincent Reverdy",
          "uniqueId": "vincentreverdy",
          "isAdmin": false,
          "media": {
            "url": "/media/cache/default_avatar/default/0001/01/268_default_avatar.jpg"
          },
          "vip": false,
          "_links": {
            "profile": "https://www.republique-numerique.fr/profile/vincentreverdy",
            "settings": "https://www.republique-numerique.fr/profile/edit-profile"
          }
        },
        "value": 1
      },
      {
        "user": {
          "username": "Denis Chenu",
          "displayName": "Denis Chenu",
          "uniqueId": "denischenu",
          "isAdmin": false,
          "media": null,
          "vip": false,
          "_links": {
            "profile": "https://www.republique-numerique.fr/profile/denischenu",
            "settings": "https://www.republique-numerique.fr/profile/edit-profile"
          }
        },
        "value": 1
      },
      {
        "user": {
          "username": "Clément Drouadaine",
          "displayName": "Clément Drouadaine",
          "uniqueId": "clementdrouadaine",
          "isAdmin": false,
          "media": null,
          "vip": false,
          "_links": {
            "profile": "https://www.republique-numerique.fr/profile/clementdrouadaine",
            "settings": "https://www.republique-numerique.fr/profile/edit-profile"
          }
        },
        "value": 1
      }
    ],
    "updated_at": "2015-10-03T22:54:21+0200",
    "ranking": 221,
    "is_trashed": false,
    "title": "Libre choix du Systeme d'exploitations et interdiction de la vente liée",
    "slug": "libre-choix-du-systeme-d-exploitations-et-interdiction-de-la-vente-liee",
    "created_at": "2015-10-03T22:54:21+0200",
    "votes_nok": 1,
    "votes_ok": 21,
    "votes_mitige": 0,
    "_links": {
      "show": "https://www.republique-numerique.fr/consultations/projet-de-loi-numerique/consultation/consultation/opinions/section-3-loyaute-des-plateformes/interdiction-de-la-vente-liee-ordinateur-systeme-d-exploitation/versions/libre-choix-du-systeme-d-exploitations-et-interdiction-de-la-vente-liee",
      "report": "https://www.republique-numerique.fr/consultations/projet-de-loi-numerique/consultation/consultation/opinions/section-3-loyaute-des-plateformes/interdiction-de-la-vente-liee-ordinateur-systeme-d-exploitation/versions/libre-choix-du-systeme-d-exploitations-et-interdiction-de-la-vente-liee/report"
    },
    "user_vote": null,
    "has_user_reported": false
  },
  "rankingThreshold": null,
  "opinionTerm": 1
}