{
  "version": {
    "isContribuable": false,
    "votes_total": 11,
    "arguments_yes_count": 1,
    "arguments_no_count": 0,
    "id": 1043,
    "body": "<p>I. Apr&egrave;s le 1er alin&eacute;a de l&rsquo;article 78 de la loi n&deg;&nbsp;2005-102 du 11 f&eacute;vrier 2005 pour l&rsquo;&eacute;galit&eacute; des droits, il est ajout&eacute; l&rsquo;alin&eacute;a suivant :</p>\n\n<p>&laquo;&nbsp;Les services d&rsquo;accueil t&eacute;l&eacute;phonique destin&eacute;s &agrave; recevoir les appels des usagers sont accessibles aux personnes d&eacute;ficientes auditives par la mise &agrave; disposition d&rsquo;un service de traduction &eacute;crite simultan&eacute;e et visuelle.&nbsp;A d&eacute;faut, ces appels peuvent &ecirc;tre recueillis &agrave; partir d&rsquo;un service de communication au public en ligne, en respectant les m&ecirc;mes conditions de traduction.&raquo;&nbsp;</p>\n\n<p>&laquo;&nbsp;Les associations reconnues d&rsquo;utilit&eacute; publiques, dont le montant annuel de ressources est sup&eacute;rieur &agrave; un seuil d&eacute;fini par d&eacute;cret dot&eacute;es, d&rsquo;un service d&rsquo;accueil t&eacute;l&eacute;phonique, doivent mettre &agrave; la disposition des personnes d&eacute;ficientes auditives un service de traduction &eacute;crite simultan&eacute;e et visuelle. A d&eacute;faut, ces appels peuvent &ecirc;tre recueillis &agrave; partir d&rsquo;un service de communication au public en ligne&nbsp;&raquo;</p>\n\n<p>II. L&rsquo;article L. 113-5 du code de la consommation est compl&eacute;t&eacute; par un alin&eacute;a ainsi r&eacute;dig&eacute;&nbsp;:</p>\n\n<p><u>&quot;Pour les personnes d&eacute;ficientes auditives, les entreprises dont le chiffres d&#39;affaires est sup&eacute;rieur &agrave; un seuil d&eacute;fini par d&eacute;cret mettent &agrave; disposition, dans les m&ecirc;mes conditions, un service de traduction &eacute;crite simultan&eacute;e et visuelle. Ce service comprend une transcription &eacute;crite ou l&rsquo;intervention d&rsquo;un interpr&egrave;te en langue des signes fran&ccedil;aise ou d&rsquo;un codeur en langage parl&eacute; compl&eacute;t&eacute;. Ces appels peuvent &eacute;galement &ecirc;tre recueillis &agrave; partir d&rsquo;un service de communication au public en ligne.&quot; </u></p>\n\n<p>III. Apr&egrave;s le o) du I de l&rsquo;article L. 33-1 du code des postes et des communications &eacute;lectroniques, il est ins&eacute;r&eacute; un alin&eacute;a o bis) ainsi r&eacute;dig&eacute;&nbsp;:</p>\n\n<p>&laquo;&nbsp;o bis) l&rsquo;acc&egrave;s des utilisateurs finals d&eacute;ficients auditifs &agrave; une offre de services de communications &eacute;lectroniques, incluant la fourniture, &agrave; un tarif abordable, d&rsquo;un service de traduction &eacute;crite simultan&eacute;e et visuelle&nbsp;&raquo;.</p>\n\n<p>IV. Les dispositions du pr&eacute;sent article entrent en vigueur selon des modalit&eacute;s et des dates pr&eacute;vues par d&eacute;cret et au plus tard dans un d&eacute;lai de cinq ans &agrave; compter de la promulgation de la pr&eacute;sente loi.</p>\n\n<p>Par d&eacute;rogation, les dispositions du II entre en vigueur dans un d&eacute;lai de deux ans &agrave; compter de la promulgation de la pr&eacute;sente loi.</p>",
    "comment": "<p>Par les termes, &quot;l<strong>es entreprises &quot;rendent </strong><strong><u>ce</u></strong><strong>&nbsp;num&eacute;ro accessible&quot;, le</strong> projet semble imposer que les personnes malentendantes appellent le m&ecirc;me num&eacute;ro que les autres consommateurs.</p>\n\n<p>Le Groupe Macif propose d&eacute;j&agrave; un service d&#39;accessibilit&eacute; aux personnes malentendantes depuis juin 2014 : les personnes malentendantes peuvent utiliser d&#39;autres canaux pour nous joindre : webcam, tchat, sms.</p>\n\n<p>Il nous semble qu&#39;il faut retirer du projet la notion de &quot;num&eacute;ro unique et accessible&quot;. Notre num&eacute;ro de t&eacute;l&eacute;phone n&rsquo;est pas accessible et, techniquement, il est semble-t-il plus compliqu&eacute; de rendre un num&eacute;ro unique accessible aux personnes d&eacute;ficientes auditives puisqu&rsquo;il faut un syst&egrave;me de traduction visuelle. &Agrave; notre connaissance, il n&rsquo;y a pas &agrave; ce jour d&rsquo;op&eacute;rateurs proposant un tel service. Seul le syst&egrave;me de visio-interpr&eacute;tation par le web peut rendre une conversation accessible. De plus, notre service ne propose pas une traduction en langage parl&eacute; compl&eacute;t&eacute;, uniquement la transcription &eacute;crite et une interpr&eacute;tation en langue des signes. Mais, encore une fois, les op&eacute;rateurs existants sur le march&eacute; proposent rarement cette option&hellip;</p>\n\n<p>Nous pensons qu&#39;il faudrait plut&ocirc;t &eacute;crire dans le projet de loi : &quot;Pour les personnes d&eacute;ficientes auditives, les entreprises dont le chiffres d&#39;affaires est sup&eacute;rieur &agrave; un seuil d&eacute;fini par d&eacute;cret mettent &agrave; disposition, dans les m&ecirc;mes conditions, un service de traduction &eacute;crite simultan&eacute;e et visuelle. Ce service comprend une transcription &eacute;crite ou l&rsquo;intervention d&rsquo;un interpr&egrave;te en langue des signes fran&ccedil;aise ou d&rsquo;un codeur en langage parl&eacute; compl&eacute;t&eacute;. Ces appels peuvent &eacute;galement &ecirc;tre recueillis &agrave; partir d&rsquo;un service de communication au public en ligne.&quot;</p>\n\n<p>&nbsp;</p>",
    "author": {
      "username": "MACIF",
      "displayName": "MACIF",
      "uniqueId": "macif",
      "isAdmin": false,
      "media": null,
      "vip": false,
      "_links": {
        "profile": "https://www.republique-numerique.fr/profile/macif",
        "settings": "https://www.republique-numerique.fr/profile/edit-profile"
      }
    },
    "arguments": [
      {
        "isContribuable": false,
        "id": 5151,
        "body": "Pourquoi pas mais qui traduit ou interprète ? \nIl faut ajouter une référence aux diplômes ou qualifications pour les interprètes sinon ce service n'aura aucune valeur puisque sans certitude sur la qualité des interprétations ",
        "created_at": "2015-10-17T10:45:57+0200",
        "updated_at": "2015-10-17T10:45:57+0200",
        "is_enabled": true,
        "votes_count": 2,
        "type": 1,
        "is_trashed": false,
        "author": {
          "username": "Stéphan Barrère",
          "displayName": "Stéphan Barrère",
          "uniqueId": "stephanbarrere1",
          "isAdmin": false,
          "media": null,
          "vip": false,
          "_links": {
            "profile": "https://www.republique-numerique.fr/profile/stephanbarrere1",
            "settings": "https://www.republique-numerique.fr/profile/edit-profile"
          }
        },
        "_links": {
          "show": "https://www.republique-numerique.fr/consultations/projet-de-loi-numerique/consultation/consultation/opinions/section-1-accessibilite-des-personnes-handicapees-aux-services-telephoniques/article-28-accueil-telephonique-des-personnes-publiques-et-des-entreprises-offre-pour-les-deficients-auditifs/versions/modalites-pratiques-de-l-accessibilite#arg-5151",
          "edit": "https://www.republique-numerique.fr/consultations/projet-de-loi-numerique/consultation/consultation/opinions/section-1-accessibilite-des-personnes-handicapees-aux-services-telephoniques/article-28-accueil-telephonique-des-personnes-publiques-et-des-entreprises-offre-pour-les-deficients-auditifs/arguments/5151/edit",
          "report": "https://www.republique-numerique.fr/consultations/projet-de-loi-numerique/consultation/consultation/opinions/section-1-accessibilite-des-personnes-handicapees-aux-services-telephoniques/article-28-accueil-telephonique-des-personnes-publiques-et-des-entreprises-offre-pour-les-deficients-auditifs/arguments/5151/report"
        },
        "has_user_voted": false,
        "has_user_reported": false
      }
    ],
    "sources": [],
    "parent": {
      "isContribuable": false,
      "id": 88,
      "body": "<p>I. Apr&egrave;s le 1er alin&eacute;a de l&rsquo;article 78 de la loi n&deg;&nbsp;2005-102 du 11 f&eacute;vrier 2005 pour l&rsquo;&eacute;galit&eacute; des droits, il est ajout&eacute; l&rsquo;alin&eacute;a suivant :</p>\r\n\r\n<p>&laquo;&nbsp;Les services d&rsquo;accueil t&eacute;l&eacute;phonique destin&eacute;s &agrave; recevoir les appels des usagers sont accessibles aux personnes d&eacute;ficientes auditives par la mise &agrave; disposition d&rsquo;un service de traduction &eacute;crite simultan&eacute;e et visuelle.&nbsp;A d&eacute;faut, ces appels peuvent &ecirc;tre recueillis &agrave; partir d&rsquo;un service de communication au public en ligne, en respectant les m&ecirc;mes conditions de traduction.&raquo;&nbsp;</p>\r\n\r\n<p>&laquo;&nbsp;Les associations reconnues d&rsquo;utilit&eacute; publiques, dont le montant annuel de ressources est sup&eacute;rieur &agrave; un seuil d&eacute;fini par d&eacute;cret dot&eacute;es, d&rsquo;un service d&rsquo;accueil t&eacute;l&eacute;phonique, doivent mettre &agrave; la disposition des personnes d&eacute;ficientes auditives un service de traduction &eacute;crite simultan&eacute;e et visuelle. A d&eacute;faut, ces appels peuvent &ecirc;tre recueillis &agrave; partir d&rsquo;un service de communication au public en ligne&nbsp;&raquo;</p>\r\n\r\n<p>II. L&rsquo;article L. 113-5 du code de la consommation est compl&eacute;t&eacute; par un alin&eacute;a ainsi r&eacute;dig&eacute;&nbsp;:</p>\r\n\r\n<p>&laquo;&nbsp;Les entreprises dont le chiffre d&rsquo;affaires est sup&eacute;rieur &agrave; un seuil d&eacute;fini par d&eacute;cret rendent ce num&eacute;ro accessible dans les m&ecirc;mes conditions aux personnes d&eacute;ficientes auditives, par la mise &agrave; disposition d&rsquo;un service de traduction &eacute;crite simultan&eacute;e et visuelle. Ce service comprend une transcription &eacute;crite ou l&rsquo;intervention d&rsquo;un interpr&egrave;te en langue des signes fran&ccedil;aise ou d&rsquo;un codeur en langage parl&eacute; compl&eacute;t&eacute;. Ces appels peuvent &eacute;galement &ecirc;tre recueillis &agrave; partir d&rsquo;un service de communication au public en ligne. &raquo;</p>\r\n\r\n<p>III. Apr&egrave;s le o) du I de l&rsquo;article L. 33-1 du code des postes et des communications &eacute;lectroniques, il est ins&eacute;r&eacute; un alin&eacute;a o bis) ainsi r&eacute;dig&eacute;&nbsp;:</p>\r\n\r\n<p>&laquo;&nbsp;o bis) l&rsquo;acc&egrave;s des utilisateurs finals d&eacute;ficients auditifs &agrave; une offre de services de communications &eacute;lectroniques, incluant la fourniture, &agrave; un tarif abordable, d&rsquo;un service de traduction &eacute;crite simultan&eacute;e et visuelle&nbsp;&raquo;.</p>\r\n\r\n<p>IV. Les dispositions du pr&eacute;sent article entrent en vigueur selon des modalit&eacute;s et des dates pr&eacute;vues par d&eacute;cret et au plus tard dans un d&eacute;lai de cinq ans &agrave; compter de la promulgation de la pr&eacute;sente loi.</p>\r\n\r\n<p>Par d&eacute;rogation, les dispositions du II entre en vigueur dans un d&eacute;lai de deux ans &agrave; compter de la promulgation de la pr&eacute;sente loi.</p>",
      "type": {
        "id": 109,
        "title": "Section 1",
        "subtitle": "Accessibilité des personnes handicapées aux services téléphoniques",
        "voteWidgetType": 2,
        "votesHelpText": "Pensez-vous que cette proposition permet d'atteindre les objectifs présentés dans l’explication de l’article ?",
        "commentSystem": 2,
        "color": "blue",
        "versionable": true,
        "sourceable": true,
        "votesThreshold": null,
        "votesThresholdHelpText": null
      },
      "modals": [
        {
          "key": "article 78",
          "before": "<p>Dans leurs relations avec les services publics, qu'ils soient gérés par l'Etat, les collectivités territoriales ou un organisme les représentant, ainsi que par des personnes privées chargées d'une mission de service public, les personnes déficientes auditives bénéficient, à leur demande, d'une traduction écrite simultanée ou visuelle de toute information orale ou sonore les concernant selon des modalités et un délai fixés par voie réglementaire.</p><p>Le dispositif de communication adapté peut notamment prévoir la transcription écrite ou l'intervention d'un interprète en langue des signes française ou d'un codeur en langage parlé complété.</p><p>Un décret prévoit également des modalités d'accès des personnes déficientes auditives aux services téléphoniques d'urgence.</p>",
          "after": "<p>Dans leurs relations avec les services publics, qu'ils soient gérés par l'Etat, les collectivités territoriales ou un organisme les représentant, ainsi que par des personnes privées chargées d'une mission de service public, les personnes déficientes auditives bénéficient, à leur demande, d'une traduction écrite simultanée ou visuelle de toute information orale ou sonore les concernant selon des modalités et un délai fixés par voie réglementaire.</p><p>Les services d’accueil téléphonique destinés à recevoir les appels des usagers sont accessibles aux personnes déficientes auditives par la mise à disposition d’un service de traduction écrite simultanée et visuelle. A défaut, ces appels peuvent être recueillis à partir d’un service de communication au public en ligne, en respectant les mêmes conditions de traduction. ;</p><p>Les associations reconnues d’utilité publiques, dont le montant annuel de ressources est supérieur à un seuil défini par décret dotées, d’un service d’accueil téléphonique, doivent mettre à la disposition des personnes déficientes auditives un service de traduction écrite simultanée et visuelle.</p><p>A défaut, ces appels peuvent être recueillis à partir d'un service de communication au public en ligne.</p><p>Le dispositif de communication adapté peut notamment prévoir la transcription écrite ou l'intervention d'un interprète en langue des signes française ou d'un codeur en langage parlé complété.</p><p>Un décret prévoit également des modalités d'accès des personnes déficientes auditives aux services téléphoniques d'urgence.</p>",
          "title": "Article 78 de la loi n° 2005-102 du 11 février 2005 pour l’égalité des droits"
        },
        {
          "key": "article L. 113-5",
          "before": "<p>« Le numéro de téléphone destiné à recueillir l'appel d'un consommateur en vue d'obtenir la bonne exécution d'un contrat conclu avec un professionnel ou le traitement d'une réclamation ne peut pas être surtaxé. Il est indiqué dans le contrat et la correspondance.</p>",
          "after": "<p>« Le numéro de téléphone destiné à recueillir l'appel d'un consommateur en vue d'obtenir la bonne exécution d'un contrat conclu avec un professionnel ou le traitement d'une réclamation ne peut pas être surtaxé. Il est indiqué dans le contrat et la correspondance.</p><p>Les entreprises dont le chiffre d’affaires est supérieur à un seuil défini par décret rendent ce numéro accessible dans les mêmes conditions aux personnes déficientes auditives, par la mise à disposition d’un service de traduction écrite simultanée et visuelle. Ce service comprend une transcription écrite ou l’intervention d’un interprète en langue des signes française ou d’un codeur en langage parlé complété. Ces appels peuvent également être recueillis à partir d’un service de communication au public en ligne.</p>",
          "title": "Article L113-5 du code de la consommation"
        },
        {
          "key": "l33-1",
          "before": "<p>o) Un accès des utilisateurs finals handicapés à des services de communications électroniques à un tarif abordable et aux services d'urgence, équivalent à celui dont bénéficie la majorité des utilisateurs finals.</p><p>Un décret fixe les modalités d'application du présent article, notamment le contenu du dossier de déclaration et celui des informations visées aux n bis et n ter, et précise, en tant que de besoin, selon les différentes catégories de réseaux et de services, les règles mentionnées aux a à o.</p>",
          "after": "<p>o) Un accès des utilisateurs finals handicapés à des services de communications électroniques à un tarif abordable et aux services d'urgence, équivalent à celui dont bénéficie la majorité des utilisateurs finals.</p><p>o bis) l’accès des utilisateurs finals déficients auditifs à une offre de services de communications électroniques, incluant la fourniture, à un tarif abordable, d’un service de traduction écrite simultanée et visuelle</p><p>Un décret fixe les modalités d'application du présent article, notamment le contenu du dossier de déclaration et celui des informations visées aux n bis et n ter, et précise, en tant que de besoin, selon les différentes catégories de réseaux et de services, les règles mentionnées aux a à o.</p>",
          "title": "L33-1 du code des postes et des communications électroniques"
        }
      ],
      "appendices": [
        {
          "body": "<p><strong>Objectif :</strong> permettre aux personnes sourdes et malentendantes de b&eacute;n&eacute;ficier d&rsquo;un acc&egrave;s au service t&eacute;l&eacute;phonique &eacute;quivalent &agrave; celui des autres utilisateurs.</p>\r\n\r\n<p><strong>Explication :</strong> l&rsquo;obligation de mise en accessibilit&eacute; des services publics, des services clients et des offres de communications &eacute;lectroniques va contribuer &agrave; garantir l&rsquo;autonomie des personnes d&eacute;ficientes auditives pour l&rsquo;ensemble de leurs besoins quotidiens. L&rsquo;article contribuera &agrave; responsabiliser l&rsquo;ensemble des acteurs (services publics, entreprises et op&eacute;rateurs de t&eacute;l&eacute;phonie) tout en prenant en consid&eacute;ration, dans la mise en &oelig;uvre, les difficult&eacute;s li&eacute;es &agrave; la raret&eacute; des interpr&egrave;tes et des d&eacute;lais n&eacute;cessaires &agrave; leur formation.</p>\r\n\r\n<p><strong>Exemple :</strong> une personne sourde pourra d&eacute;sormais disposer, par l&rsquo;interm&eacute;diaire d&rsquo;un interpr&egrave;te, d&rsquo;un moyen de communiquer dans ses d&eacute;marches de la vie quotidienne comme pour joindre sa famille ou ses amis.</p>",
          "type": {
            "title": "Explication de l'article"
          }
        }
      ],
      "title": "Article 28 - Accessibilité des services publics, des services client et des offres de communications électroniques aux personnes sourdes et malentendantes",
      "_links": {
        "show": "https://www.republique-numerique.fr/consultations/projet-de-loi-numerique/consultation/consultation/opinions/section-1-accessibilite-des-personnes-handicapees-aux-services-telephoniques/article-28-accueil-telephonique-des-personnes-publiques-et-des-entreprises-offre-pour-les-deficients-auditifs",
        "edit": "https://www.republique-numerique.fr/consultations/projet-de-loi-numerique/consultation/consultation/opinions/section-1-accessibilite-des-personnes-handicapees-aux-services-telephoniques/article-28-accueil-telephonique-des-personnes-publiques-et-des-entreprises-offre-pour-les-deficients-auditifs/edit",
        "report": "https://www.republique-numerique.fr/consultations/projet-de-loi-numerique/consultation/consultation/opinions/section-1-accessibilite-des-personnes-handicapees-aux-services-telephoniques/article-28-accueil-telephonique-des-personnes-publiques-et-des-entreprises-offre-pour-les-deficients-auditifs/report",
        "type": "https://www.republique-numerique.fr/consultations/projet-de-loi-numerique/consultation/consultation/opinions/section-1-accessibilite-des-personnes-handicapees-aux-services-telephoniques"
      },
      "user_vote": null,
      "has_user_reported": false
    },
    "sources_count": 0,
    "arguments_count": 1,
    "votes": [
      {
        "user": {
          "username": "Jeanne Varasco",
          "displayName": "Jeanne Varasco",
          "uniqueId": "jeannevarasco",
          "isAdmin": false,
          "media": {
            "url": "/media/cache/default_avatar/default/0001/01/139_default_avatar.jpg"
          },
          "vip": false,
          "_links": {
            "profile": "https://www.republique-numerique.fr/profile/jeannevarasco",
            "settings": "https://www.republique-numerique.fr/profile/edit-profile"
          }
        },
        "value": 1
      },
      {
        "user": {
          "username": "dijoux mariejo",
          "displayName": "dijoux mariejo",
          "uniqueId": "dijouxmariejo",
          "isAdmin": false,
          "media": null,
          "vip": false,
          "_links": {
            "profile": "https://www.republique-numerique.fr/profile/dijouxmariejo",
            "settings": "https://www.republique-numerique.fr/profile/edit-profile"
          }
        },
        "value": 1
      },
      {
        "user": {
          "username": "Vincent Reverdy",
          "displayName": "Vincent Reverdy",
          "uniqueId": "vincentreverdy",
          "isAdmin": false,
          "media": {
            "url": "/media/cache/default_avatar/default/0001/01/268_default_avatar.jpg"
          },
          "vip": false,
          "_links": {
            "profile": "https://www.republique-numerique.fr/profile/vincentreverdy",
            "settings": "https://www.republique-numerique.fr/profile/edit-profile"
          }
        },
        "value": 1
      },
      {
        "user": {
          "username": "Raphaël Mendes",
          "displayName": "Raphaël Mendes",
          "uniqueId": "raphaelmendes",
          "isAdmin": false,
          "media": null,
          "vip": false,
          "_links": {
            "profile": "https://www.republique-numerique.fr/profile/raphaelmendes",
            "settings": "https://www.republique-numerique.fr/profile/edit-profile"
          }
        },
        "value": 1
      },
      {
        "user": {
          "username": "SOURDLINE DÉVELOPPEMENT",
          "displayName": "SOURDLINE DÉVELOPPEMENT",
          "uniqueId": "sourdlinedeveloppement",
          "isAdmin": false,
          "media": {
            "url": "/media/cache/default_avatar/default/0001/01/949_default_avatar.jpg"
          },
          "vip": false,
          "_links": {
            "profile": "https://www.republique-numerique.fr/profile/sourdlinedeveloppement",
            "settings": "https://www.republique-numerique.fr/profile/edit-profile"
          }
        },
        "value": 1
      }
    ],
    "updated_at": "2015-10-15T14:06:38+0200",
    "ranking": 405,
    "is_trashed": false,
    "title": "Modalités pratiques de l'accessibilité",
    "slug": "modalites-pratiques-de-l-accessibilite",
    "created_at": "2015-10-15T14:06:38+0200",
    "votes_nok": 0,
    "votes_ok": 10,
    "votes_mitige": 1,
    "_links": {
      "show": "https://www.republique-numerique.fr/consultations/projet-de-loi-numerique/consultation/consultation/opinions/section-1-accessibilite-des-personnes-handicapees-aux-services-telephoniques/article-28-accueil-telephonique-des-personnes-publiques-et-des-entreprises-offre-pour-les-deficients-auditifs/versions/modalites-pratiques-de-l-accessibilite",
      "report": "https://www.republique-numerique.fr/consultations/projet-de-loi-numerique/consultation/consultation/opinions/section-1-accessibilite-des-personnes-handicapees-aux-services-telephoniques/article-28-accueil-telephonique-des-personnes-publiques-et-des-entreprises-offre-pour-les-deficients-auditifs/versions/modalites-pratiques-de-l-accessibilite/report"
    },
    "user_vote": null,
    "has_user_reported": false
  },
  "rankingThreshold": null,
  "opinionTerm": 1
}