{
  "opinion": {
    "isContribuable": false,
    "votes_total": 202,
    "arguments_yes_count": 2,
    "arguments_no_count": 1,
    "id": 431,
    "created_at": "2015-10-05T17:19:28+0200",
    "updated_at": "2015-10-05T17:19:28+0200",
    "body": "<div style=\"margin-left:100px !important; margin-right:100px\">Les donn&eacute;es mises dans le domaine public ou sous licence libre par les services de l&#39;&Eacute;tat doivent ob&eacute;ir aux r&egrave;gles de qualit&eacute; suivantes:</div>\r\n\r\n<div style=\"margin-left:100px !important; margin-right:100px\">&nbsp;&nbsp;&nbsp;&nbsp;</div>\r\n\r\n<div style=\"margin-left:100px !important; margin-right:100px\">Enti&egrave;res : Les bases de donn&eacute;es sont int&eacute;gralement publi&eacute;es.</div>\r\n\r\n<div style=\"margin-left:100px !important; margin-right:100px\">Brutes : Leur format est directement utilisable par un ordinateur.</div>\r\n\r\n<div style=\"margin-left:100px !important; margin-right:100px\">Document&eacute;es : Elles sont accompagn&eacute;es de leurs m&eacute;tadonn&eacute;es dans un format document&eacute;.</div>\r\n\r\n<div style=\"margin-left:100px !important; margin-right:100px\">Interop&eacute;rables : La documentation du format de fichier est ais&eacute;ment accessible et compl&egrave;te.</div>\r\n\r\n<div style=\"margin-left:100px !important; margin-right:100px\">Actuelles : Elles sont les plus r&eacute;centes possibles.</div>\r\n\r\n<div style=\"margin-left:100px !important; margin-right:100px\">Permanentes : Leurs adresses d&rsquo;acc&egrave;s sont durables.</div>\r\n\r\n<div style=\"margin-left:100px !important; margin-right:100px\">Gratuites ou peu co&ucirc;teuses : Le co&ucirc;t d&rsquo;acc&egrave;s est nul ou marginal.</div>",
    "versions_count": 0,
    "sources_count": 0,
    "arguments_count": 3,
    "author": {
      "username": "SavoirCom1",
      "displayName": "SavoirCom1",
      "uniqueId": "savoircom1",
      "isAdmin": false,
      "media": {
        "url": "/media/cache/default_avatar/default/0001/01/244_default_avatar.jpg"
      },
      "vip": false,
      "_links": {
        "profile": "https://www.republique-numerique.fr/profile/savoircom1",
        "settings": "https://www.republique-numerique.fr/profile/edit-profile"
      }
    },
    "type": {
      "id": 90,
      "title": "Section 1",
      "subtitle": "Les Communs",
      "voteWidgetType": 2,
      "votesHelpText": "Pensez-vous que cette proposition permet d'atteindre les objectifs présentés dans l’explication de l’article ?",
      "commentSystem": 2,
      "color": "blue",
      "versionable": true,
      "sourceable": true,
      "votesThreshold": null,
      "votesThresholdHelpText": null
    },
    "sources": [],
    "arguments": [
      {
        "isContribuable": false,
        "id": 5890,
        "body": "J'ajouterais que les données doivent être dans un format standardisé (en précisant même peut-être par qui) afin d'éviter que des formats exotiques (mais bien documentés) soient utilisés, rendant l'utilisation des données plus difficile.",
        "created_at": "2015-10-18T16:13:57+0200",
        "updated_at": "2015-10-18T16:13:57+0200",
        "is_enabled": true,
        "votes_count": 0,
        "type": 0,
        "is_trashed": false,
        "author": {
          "username": "Julien Henry",
          "displayName": "Julien Henry",
          "uniqueId": "julienhenry",
          "isAdmin": false,
          "media": null,
          "vip": false,
          "_links": {
            "profile": "https://www.republique-numerique.fr/profile/julienhenry",
            "settings": "https://www.republique-numerique.fr/profile/edit-profile"
          }
        },
        "_links": {
          "show": "https://www.republique-numerique.fr/consultations/projet-de-loi-numerique/consultation/consultation/opinions/section-1-les-communs/article-8ter-specifier-les-criteres-de-qualite-des-donnees-liberees#arg-5890",
          "edit": "https://www.republique-numerique.fr/consultations/projet-de-loi-numerique/consultation/consultation/opinions/section-1-les-communs/article-8ter-specifier-les-criteres-de-qualite-des-donnees-liberees/arguments/5890/edit",
          "report": "https://www.republique-numerique.fr/consultations/projet-de-loi-numerique/consultation/consultation/opinions/section-1-les-communs/article-8ter-specifier-les-criteres-de-qualite-des-donnees-liberees/arguments/5890/report"
        },
        "has_user_voted": false,
        "has_user_reported": false
      },
      {
        "isContribuable": false,
        "id": 3246,
        "body": "Excellente liste, bravo !",
        "created_at": "2015-10-11T23:58:44+0200",
        "updated_at": "2015-10-11T23:58:44+0200",
        "is_enabled": true,
        "votes_count": 1,
        "type": 1,
        "is_trashed": false,
        "author": {
          "username": "Maltese Nadine",
          "displayName": "Maltese Nadine",
          "uniqueId": "maltesenadine",
          "isAdmin": false,
          "media": {
            "url": "/media/cache/default_avatar/default/0001/01/113_default_avatar.png"
          },
          "vip": false,
          "_links": {
            "profile": "https://www.republique-numerique.fr/profile/maltesenadine",
            "settings": "https://www.republique-numerique.fr/profile/edit-profile"
          }
        },
        "_links": {
          "show": "https://www.republique-numerique.fr/consultations/projet-de-loi-numerique/consultation/consultation/opinions/section-1-les-communs/article-8ter-specifier-les-criteres-de-qualite-des-donnees-liberees#arg-3246",
          "edit": "https://www.republique-numerique.fr/consultations/projet-de-loi-numerique/consultation/consultation/opinions/section-1-les-communs/article-8ter-specifier-les-criteres-de-qualite-des-donnees-liberees/arguments/3246/edit",
          "report": "https://www.republique-numerique.fr/consultations/projet-de-loi-numerique/consultation/consultation/opinions/section-1-les-communs/article-8ter-specifier-les-criteres-de-qualite-des-donnees-liberees/arguments/3246/report"
        },
        "has_user_voted": false,
        "has_user_reported": false
      },
      {
        "isContribuable": false,
        "id": 2702,
        "body": "Excellente spécification de la nécessaire qualité des données publiées afin qu'elles soient réellement utilisables.",
        "created_at": "2015-10-08T21:07:53+0200",
        "updated_at": "2015-10-08T21:07:53+0200",
        "is_enabled": true,
        "votes_count": 2,
        "type": 1,
        "is_trashed": false,
        "author": {
          "username": "Odile Bénassy",
          "displayName": "Odile Bénassy",
          "uniqueId": "odilebenassy2",
          "isAdmin": false,
          "media": null,
          "vip": false,
          "_links": {
            "profile": "https://www.republique-numerique.fr/profile/odilebenassy2",
            "settings": "https://www.republique-numerique.fr/profile/edit-profile"
          }
        },
        "_links": {
          "show": "https://www.republique-numerique.fr/consultations/projet-de-loi-numerique/consultation/consultation/opinions/section-1-les-communs/article-8ter-specifier-les-criteres-de-qualite-des-donnees-liberees#arg-2702",
          "edit": "https://www.republique-numerique.fr/consultations/projet-de-loi-numerique/consultation/consultation/opinions/section-1-les-communs/article-8ter-specifier-les-criteres-de-qualite-des-donnees-liberees/arguments/2702/edit",
          "report": "https://www.republique-numerique.fr/consultations/projet-de-loi-numerique/consultation/consultation/opinions/section-1-les-communs/article-8ter-specifier-les-criteres-de-qualite-des-donnees-liberees/arguments/2702/report"
        },
        "has_user_voted": false,
        "has_user_reported": false
      }
    ],
    "modals": [],
    "votes": [
      {
        "user": {
          "username": "Xavier G.",
          "displayName": "Xavier G.",
          "uniqueId": "xavierg",
          "isAdmin": false,
          "media": null,
          "vip": false,
          "_links": {
            "profile": "https://www.republique-numerique.fr/profile/xavierg",
            "settings": "https://www.republique-numerique.fr/profile/edit-profile"
          }
        }
      },
      {
        "user": {
          "username": "AC",
          "displayName": "AC",
          "uniqueId": "ac",
          "isAdmin": false,
          "media": null,
          "vip": false,
          "_links": {
            "profile": "https://www.republique-numerique.fr/profile/ac",
            "settings": "https://www.republique-numerique.fr/profile/edit-profile"
          }
        }
      },
      {
        "user": {
          "username": "Julien Prost",
          "displayName": "Julien Prost",
          "uniqueId": "julienprost",
          "isAdmin": false,
          "media": null,
          "vip": false,
          "_links": {
            "profile": "https://www.republique-numerique.fr/profile/julienprost",
            "settings": "https://www.republique-numerique.fr/profile/edit-profile"
          }
        }
      },
      {
        "user": {
          "username": "Pierre Naegelen",
          "displayName": "Pierre Naegelen",
          "uniqueId": "pierrenaegelen",
          "isAdmin": false,
          "media": {
            "url": "/media/cache/default_avatar/default/0001/01/292_default_avatar.jpg"
          },
          "vip": false,
          "_links": {
            "profile": "https://www.republique-numerique.fr/profile/pierrenaegelen",
            "settings": "https://www.republique-numerique.fr/profile/edit-profile"
          }
        }
      },
      {
        "user": {
          "username": "Bernard Brunet",
          "displayName": "Bernard Brunet",
          "uniqueId": "bernardbrunet",
          "isAdmin": false,
          "media": null,
          "vip": false,
          "_links": {
            "profile": "https://www.republique-numerique.fr/profile/bernardbrunet",
            "settings": "https://www.republique-numerique.fr/profile/edit-profile"
          }
        }
      }
    ],
    "appendices": [
      {
        "body": "<p>Ces crit&egrave;res permettant de garantir la qualit&eacute; des&nbsp;donn&eacute;es et des jeux de donn&eacute;es lib&eacute;r&eacute;es afin de construire une politique publique d&#39;Open Data exemplaire.</p>",
        "type": {
          "title": "Explication de l'article"
        }
      }
    ],
    "ranking": 51,
    "is_trashed": false,
    "title": "Article 8ter - Spécifier les critères de qualité des données libérées",
    "votes_nok": 0,
    "votes_ok": 200,
    "votes_mitige": 2,
    "_links": {
      "show": "https://www.republique-numerique.fr/consultations/projet-de-loi-numerique/consultation/consultation/opinions/section-1-les-communs/article-8ter-specifier-les-criteres-de-qualite-des-donnees-liberees",
      "edit": "https://www.republique-numerique.fr/consultations/projet-de-loi-numerique/consultation/consultation/opinions/section-1-les-communs/article-8ter-specifier-les-criteres-de-qualite-des-donnees-liberees/edit",
      "report": "https://www.republique-numerique.fr/consultations/projet-de-loi-numerique/consultation/consultation/opinions/section-1-les-communs/article-8ter-specifier-les-criteres-de-qualite-des-donnees-liberees/report",
      "type": "https://www.republique-numerique.fr/consultations/projet-de-loi-numerique/consultation/consultation/opinions/section-1-les-communs"
    },
    "user_vote": null,
    "has_user_reported": false
  },
  "rankingThreshold": null,
  "opinionTerm": 1
}