{
  "version": {
    "isContribuable": false,
    "votes_total": 6,
    "arguments_yes_count": 1,
    "arguments_no_count": 1,
    "id": 708,
    "body": "<p style=\"margin-left:-0.75pt\">I. - Le m&eacute;diateur num&eacute;rique est une personne physique charg&eacute;e</p>\r\n\r\n<p style=\"margin-left:-0.75pt\">1&deg; De r&eacute;aliser des actions de formation en vue de s&rsquo;approprier les usages personnels, sociaux et professionnels du num&eacute;rique dans le cadre de projets de d&eacute;veloppement du territoire &agrave; titre, notamment, &eacute;ducatif, &eacute;conomique, social, culturel et environnemental ;</p>\r\n\r\n<p style=\"margin-left:-0.75pt\">2&deg; De d&eacute;finir les besoins et les enjeux locaux en mati&egrave;re d&rsquo;accompagnement des personnes &agrave; l&rsquo;utilisation des services de communication au public en ligne ;</p>\r\n\r\n<p style=\"margin-left:-0.75pt\">3&deg; D&rsquo;&eacute;laborer une strat&eacute;gie favorisant l&rsquo;acquisition de comp&eacute;tences num&eacute;riques ;</p>\r\n\r\n<p style=\"margin-left:-0.75pt\">4&deg; De mettre en oeuvre des projets p&eacute;dagogiques.</p>\r\n\r\n<p style=\"margin-left:-0.75pt\">II. - La qualification de m&eacute;diateur num&eacute;rique peut &ecirc;tre obtenue par validation des acquis d&rsquo;exp&eacute;rience.</p>",
    "comment": "<p>Les professionnels de la m&eacute;diation num&eacute;rique n&#39;ont pas tous un statut de &quot;m&eacute;diateur num&eacute;rique&quot; certains sont informateurx jeunesse (travaillant dans les bij et pij) d&#39;autres oeuvrent en biblioth&egrave;que (sous diff&eacute;rentes appellations), n&#39;oublions pas non plus les animateurs de fab labs par exemple.</p>\n\n<p>Nous ne pouvons qu&#39;&ecirc;tre favorable &agrave; la reconnaisance des professionnels de la m&eacute;diation num&eacute;rique dans leur diversit&eacute;. Le statut de m&eacute;diateur num&eacute;rique ne va r&eacute;pondre que partiellement &agrave; cet objectif.</p>\n\n<p>&nbsp;</p>",
    "author": {
      "username": "Numedia",
      "displayName": "Numedia",
      "uniqueId": "numedia",
      "isAdmin": false,
      "media": null,
      "vip": false,
      "_links": {
        "profile": "https://www.republique-numerique.fr/profile/numedia",
        "settings": "https://www.republique-numerique.fr/profile/edit-profile"
      }
    },
    "arguments": [
      {
        "isContribuable": false,
        "id": 2888,
        "body": "Madame, Monsieur Numedia,\n\nvous avez entièrement raison : la médiation, chacun en fait un peu (parfois beaucoup) dans sa vie personnelle et professionnelle, souvent comme \"Mr Jourdain fait de la prose sans le savoir\" !\n\nVotre argumentation précise aussi la proposition qui repose sur la formation, sans la contredire. Bien sûr qu'il y a de la médiation dans l'acte d'enseigner ou de former. Mais ce n'est en rien propre au numérique !\n\nEnfin vous évoquez l'accompagnement. Nos travaux de recherche au COREM montrent que c'est un cas particulier de médiation.\n",
        "created_at": "2015-10-10T00:17:04+0200",
        "updated_at": "2015-10-10T00:17:04+0200",
        "is_enabled": true,
        "votes_count": 0,
        "type": 0,
        "is_trashed": false,
        "author": {
          "username": "Julien Delalande",
          "displayName": "Julien Delalande",
          "uniqueId": "juliendelalande",
          "isAdmin": false,
          "media": null,
          "vip": false,
          "_links": {
            "profile": "https://www.republique-numerique.fr/profile/juliendelalande",
            "settings": "https://www.republique-numerique.fr/profile/edit-profile"
          }
        },
        "_links": {
          "show": "https://www.republique-numerique.fr/consultations/projet-de-loi-numerique/consultation/consultation/opinions/section-3-maintien-de-la-connexion-internet/creation-d-un-statut-de-mediateur-numerique/versions/remplacer-mediateur-numerique-par-professionnels-de-la-mediation-numerique#arg-2888",
          "edit": "https://www.republique-numerique.fr/consultations/projet-de-loi-numerique/consultation/consultation/opinions/section-3-maintien-de-la-connexion-internet/creation-d-un-statut-de-mediateur-numerique/arguments/2888/edit",
          "report": "https://www.republique-numerique.fr/consultations/projet-de-loi-numerique/consultation/consultation/opinions/section-3-maintien-de-la-connexion-internet/creation-d-un-statut-de-mediateur-numerique/arguments/2888/report"
        },
        "has_user_voted": false,
        "has_user_reported": false
      },
      {
        "isContribuable": false,
        "id": 3819,
        "body": "la médiation numérique est plus une posture qu'un métier. Un animateur dans une MJC, un bibliothécaire, le boucher du coin peuvent faire de la médiation numérique à certain moment",
        "created_at": "2015-10-14T10:50:03+0200",
        "updated_at": "2015-10-14T10:50:03+0200",
        "is_enabled": true,
        "votes_count": 0,
        "type": 1,
        "is_trashed": false,
        "author": {
          "username": "Samuel Pabion",
          "displayName": "Samuel Pabion",
          "uniqueId": "samuelpabion",
          "isAdmin": false,
          "media": null,
          "vip": false,
          "_links": {
            "profile": "https://www.republique-numerique.fr/profile/samuelpabion",
            "settings": "https://www.republique-numerique.fr/profile/edit-profile"
          }
        },
        "_links": {
          "show": "https://www.republique-numerique.fr/consultations/projet-de-loi-numerique/consultation/consultation/opinions/section-3-maintien-de-la-connexion-internet/creation-d-un-statut-de-mediateur-numerique/versions/remplacer-mediateur-numerique-par-professionnels-de-la-mediation-numerique#arg-3819",
          "edit": "https://www.republique-numerique.fr/consultations/projet-de-loi-numerique/consultation/consultation/opinions/section-3-maintien-de-la-connexion-internet/creation-d-un-statut-de-mediateur-numerique/arguments/3819/edit",
          "report": "https://www.republique-numerique.fr/consultations/projet-de-loi-numerique/consultation/consultation/opinions/section-3-maintien-de-la-connexion-internet/creation-d-un-statut-de-mediateur-numerique/arguments/3819/report"
        },
        "has_user_voted": false,
        "has_user_reported": false
      }
    ],
    "sources": [],
    "parent": {
      "isContribuable": false,
      "id": 426,
      "body": "<p style=\"margin-left:-0.75pt\">I. - Le m&eacute;diateur num&eacute;rique est une personne physique charg&eacute;e</p>\r\n\r\n<p style=\"margin-left:-0.75pt\">1&deg; De r&eacute;aliser des actions de formation en vue de s&rsquo;approprier les usages personnels, sociaux et professionnels du num&eacute;rique dans le cadre de projets de d&eacute;veloppement du territoire &agrave; titre, notamment, &eacute;ducatif, &eacute;conomique, social, culturel et environnemental ;</p>\r\n\r\n<p style=\"margin-left:-0.75pt\">2&deg; De d&eacute;finir les besoins et les enjeux locaux en mati&egrave;re d&rsquo;accompagnement des personnes &agrave; l&rsquo;utilisation des services de communication au public en ligne ;</p>\r\n\r\n<p style=\"margin-left:-0.75pt\">3&deg; D&rsquo;&eacute;laborer une strat&eacute;gie favorisant l&rsquo;acquisition de comp&eacute;tences num&eacute;riques ;</p>\r\n\r\n<p style=\"margin-left:-0.75pt\">4&deg; De mettre en oeuvre des projets p&eacute;dagogiques.</p>\r\n\r\n<p style=\"margin-left:-0.75pt\">II. - La qualification de m&eacute;diateur num&eacute;rique peut &ecirc;tre obtenue par validation des acquis d&rsquo;exp&eacute;rience.</p>",
      "type": {
        "id": 111,
        "title": "Section 3",
        "subtitle": "Maintien de la connexion internet",
        "voteWidgetType": 2,
        "votesHelpText": "Pensez-vous que cette proposition permet d'atteindre les objectifs présentés dans l’explication de l’article ?",
        "commentSystem": 2,
        "color": "blue",
        "versionable": true,
        "sourceable": true,
        "votesThreshold": null,
        "votesThresholdHelpText": null
      },
      "modals": [],
      "appendices": [
        {
          "body": "<p style=\"margin-left:-0.75pt\">Cette proposition d&rsquo;article cr&eacute;e un statut professionnel de m&eacute;diateur num&eacute;rique afin d&rsquo;harmoniser les comp&eacute;tences requises des professionnels recrut&eacute;s localement et de s&rsquo;assurer qu&rsquo;ils pr&eacute;sentent les qualit&eacute;s pour &ecirc;tre, outre des techniciens, des formateurs capables de comprendre les nouveaux enjeux pos&eacute;s par Internet, de s&rsquo;adresser &agrave; des publics divers et de faire preuve de p&eacute;dagogie. Les m&eacute;diateurs remplissent des fonctions qui resteront essentielles. Ils ne b&eacute;n&eacute;ficient pourtant pas d&rsquo;une grande reconnaissance et encore moins de perspectives professionnelles.</p>",
          "type": {
            "title": "Explication de l'article"
          }
        }
      ],
      "title": "Création d’un statut de médiateur numérique",
      "_links": {
        "show": "https://www.republique-numerique.fr/consultations/projet-de-loi-numerique/consultation/consultation/opinions/section-3-maintien-de-la-connexion-internet/creation-d-un-statut-de-mediateur-numerique",
        "edit": "https://www.republique-numerique.fr/consultations/projet-de-loi-numerique/consultation/consultation/opinions/section-3-maintien-de-la-connexion-internet/creation-d-un-statut-de-mediateur-numerique/edit",
        "report": "https://www.republique-numerique.fr/consultations/projet-de-loi-numerique/consultation/consultation/opinions/section-3-maintien-de-la-connexion-internet/creation-d-un-statut-de-mediateur-numerique/report",
        "type": "https://www.republique-numerique.fr/consultations/projet-de-loi-numerique/consultation/consultation/opinions/section-3-maintien-de-la-connexion-internet"
      },
      "user_vote": null,
      "has_user_reported": false
    },
    "sources_count": 0,
    "arguments_count": 2,
    "votes": [
      {
        "user": {
          "username": "Numedia",
          "displayName": "Numedia",
          "uniqueId": "numedia",
          "isAdmin": false,
          "media": null,
          "vip": false,
          "_links": {
            "profile": "https://www.republique-numerique.fr/profile/numedia",
            "settings": "https://www.republique-numerique.fr/profile/edit-profile"
          }
        },
        "value": 1
      },
      {
        "user": {
          "username": "Julien Delalande",
          "displayName": "Julien Delalande",
          "uniqueId": "juliendelalande",
          "isAdmin": false,
          "media": null,
          "vip": false,
          "_links": {
            "profile": "https://www.republique-numerique.fr/profile/juliendelalande",
            "settings": "https://www.republique-numerique.fr/profile/edit-profile"
          }
        },
        "value": -1
      },
      {
        "user": {
          "username": "Samuel Pabion",
          "displayName": "Samuel Pabion",
          "uniqueId": "samuelpabion",
          "isAdmin": false,
          "media": null,
          "vip": false,
          "_links": {
            "profile": "https://www.republique-numerique.fr/profile/samuelpabion",
            "settings": "https://www.republique-numerique.fr/profile/edit-profile"
          }
        },
        "value": 1
      },
      {
        "user": {
          "username": "Régis BROSIUS",
          "displayName": "Régis BROSIUS",
          "uniqueId": "regisbrosius",
          "isAdmin": false,
          "media": null,
          "vip": false,
          "_links": {
            "profile": "https://www.republique-numerique.fr/profile/regisbrosius",
            "settings": "https://www.republique-numerique.fr/profile/edit-profile"
          }
        },
        "value": 1
      },
      {
        "user": {
          "username": "Vincent Reverdy",
          "displayName": "Vincent Reverdy",
          "uniqueId": "vincentreverdy",
          "isAdmin": false,
          "media": {
            "url": "/media/cache/default_avatar/default/0001/01/268_default_avatar.jpg"
          },
          "vip": false,
          "_links": {
            "profile": "https://www.republique-numerique.fr/profile/vincentreverdy",
            "settings": "https://www.republique-numerique.fr/profile/edit-profile"
          }
        },
        "value": 0
      }
    ],
    "updated_at": "2015-10-08T09:47:28+0200",
    "ranking": 696,
    "is_trashed": false,
    "title": "remplacer \"médiateur numérique\" par \"professionnels de la médiation numérique\"",
    "slug": "remplacer-mediateur-numerique-par-professionnels-de-la-mediation-numerique",
    "created_at": "2015-10-08T09:47:28+0200",
    "votes_nok": 1,
    "votes_ok": 4,
    "votes_mitige": 1,
    "_links": {
      "show": "https://www.republique-numerique.fr/consultations/projet-de-loi-numerique/consultation/consultation/opinions/section-3-maintien-de-la-connexion-internet/creation-d-un-statut-de-mediateur-numerique/versions/remplacer-mediateur-numerique-par-professionnels-de-la-mediation-numerique",
      "report": "https://www.republique-numerique.fr/consultations/projet-de-loi-numerique/consultation/consultation/opinions/section-3-maintien-de-la-connexion-internet/creation-d-un-statut-de-mediateur-numerique/versions/remplacer-mediateur-numerique-par-professionnels-de-la-mediation-numerique/report"
    },
    "user_vote": null,
    "has_user_reported": false
  },
  "rankingThreshold": null,
  "opinionTerm": 1
}