{
  "version": {
    "isContribuable": false,
    "votes_total": 19,
    "arguments_yes_count": 1,
    "arguments_no_count": 1,
    "id": 922,
    "body": "<p>I. Le chapitre Ier du titre Ier du livre Ier du code de la consommation est modifi&eacute; comme suit&nbsp;:</p>\r\n\r\n<p>1&deg; Apr&egrave;s l&rsquo;article L. 111-5-1 est ins&eacute;r&eacute; l&rsquo;article L. 111-5-2, ainsi r&eacute;dig&eacute;&nbsp;:</p>\r\n\r\n<p>&laquo;&nbsp;Art. L. 111-5-2 - Sans pr&eacute;judice des obligations d&rsquo;information pr&eacute;vues &agrave; l&rsquo;article 19 de la loi n&deg;&nbsp;2004-575 du 21 juin 2004 pour la confiance dans l&#39;&eacute;conomie num&eacute;rique, toute personne dont l&#39;activit&eacute; consiste, &agrave; titre principal ou accessoire, &agrave; collecter, mod&eacute;rer ou diffuser des avis en ligne de consommateurs, est tenue de d&eacute;livrer une information loyale, claire et transparente sur les modalit&eacute;s de v&eacute;rification des avis mis en ligne.</p>\r\n\r\n<p>&laquo;&nbsp;Elle pr&eacute;cise si les avis qu&rsquo;elle a mis en ligne font l&rsquo;objet ou non d&rsquo;une v&eacute;rification et, si tel est le cas, elle indique les caract&eacute;ristiques principales de la v&eacute;rification mise en &oelig;uvre.</p>\r\n\r\n<p>&laquo;&nbsp;Les modalit&eacute;s et le contenu de ces informations sont fix&eacute;s par d&eacute;cret.&nbsp;&raquo;</p>\r\n\r\n<p>2&deg; A l&rsquo;article L. 111-6-1, la r&eacute;f&eacute;rence &laquo;&nbsp;et L. 111-5-1&nbsp;&raquo; est remplac&eacute; par la r&eacute;f&eacute;rence &laquo;&nbsp;&agrave; L. 111-5-2&nbsp;&raquo;</p>\r\n\r\n<p>II. L&rsquo;article L. 121-83 du code de la consommation est ainsi modifi&eacute;&nbsp;:</p>\r\n\r\n<p>1&deg; Apr&egrave;s le b), il est ins&eacute;r&eacute; un b bis) ainsi r&eacute;dig&eacute;&nbsp;: &laquo;&nbsp;b bis) les d&eacute;bits minimums, normalement disponible, maximums montants et descendants fournis lorsqu&rsquo;il s&rsquo;agit de services d&rsquo;acc&egrave;s &agrave; internet fixe et une estimation des d&eacute;bits maximums montants et descendants fournis dans le cas de services d&rsquo;acc&egrave;s &agrave; internet mobile, ainsi que l&rsquo;incidence sur la disponibilit&eacute; des services offerts d&rsquo;un &eacute;cart significatif par rapport au d&eacute;bit pr&eacute;vu au contrat ;&nbsp;&raquo;</p>\r\n\r\n<p>2&deg; le d) est ainsi r&eacute;dig&eacute;&nbsp;: &laquo;&nbsp;Les compensations et formules de remboursement applicables lorsque le niveau de qualit&eacute; de services ou les d&eacute;bits pr&eacute;vus dans le contrat, ne sont g&eacute;n&eacute;ralement pas atteints, de fa&ccedil;on continue ou r&eacute;currente&nbsp;; &raquo;</p>\r\n\r\n<p>3&deg; le g) est compl&eacute;t&eacute; par les mots&nbsp;: &laquo;, de protection de la vie priv&eacute;e et des donn&eacute;es &agrave; caract&egrave;re personnel, ainsi que l&rsquo;impact des limitations de volume, de d&eacute;bits ou d&rsquo;autres param&egrave;tres sur la qualit&eacute; de l&rsquo;acc&egrave;s &agrave; internet, en particulier l&rsquo;utilisation de contenus, d&rsquo;applications et de services, y compris ceux b&eacute;n&eacute;ficiant d&rsquo;une qualit&eacute; optimis&eacute;e.&nbsp;&raquo;</p>\r\n\r\n<p>L&rsquo;article L.121-83 du code de la consommation dans sa r&eacute;daction issue de la pr&eacute;sente loi est applicable aux contrats conclus ou reconduits post&eacute;rieurement &agrave; la promulgation de la pr&eacute;sente loi.</p>",
    "comment": "<p class=\"MsoNormal\" style=\"text-align: justify;\"><span style=\"color:#002060\">Il est impossible d&rsquo;imposer un syst&egrave;me de v&eacute;rification unique pour les plateformes. N&eacute;anmoins, afin de pouvoir comparer les pratiques mises en place par les diff&eacute;rentes plateformes, un certain r&eacute;f&eacute;rentiel de bonnes pratiques pourrait clarifier ce que doit recouvrir la loyaut&eacute;. <o:p></o:p></span></p>\n\n<p class=\"MsoNormal\" style=\"text-align: justify;\"><span style=\"color:#002060\">A titre d&rsquo;exemple, le m&ecirc;me projet de loi encourage la CNIL &agrave; promouvoir le d&eacute;veloppement de technologies respectueuses de la vie priv&eacute;e. Les pouvoirs publics pourraient &ecirc;tre encourag&eacute;s &agrave; faire de m&ecirc;me en mati&egrave;re de loyaut&eacute; avec la promotion de l&rsquo;utilisation de la norme AFNOR NF Z 74-501 pour les plateformes.<o:p></o:p></span></p>",
    "author": {
      "username": "UFC - Que Choisir",
      "displayName": "UFC - Que Choisir",
      "uniqueId": "ufcquechoisir",
      "isAdmin": false,
      "media": {
        "url": "/media/cache/default_avatar/default/0001/01/632_default_avatar.jpg"
      },
      "vip": false,
      "_links": {
        "profile": "https://www.republique-numerique.fr/profile/ufcquechoisir",
        "settings": "https://www.republique-numerique.fr/profile/edit-profile"
      }
    },
    "arguments": [
      {
        "isContribuable": false,
        "id": 3934,
        "body": "Madame, Monsieur,\nPromouvoir la norme AFNOR NF Z 74-501 n'est malheureusement pas une solution, accentuera la supercherie des faux avis et trompera encore plus les consommateurs en faisant confiance aveuglement au sigle NF affiché par les sites collecteurs!!!\n\nDéjà c’est une norme volontaire et pas une réglementation donc tout le monde peut l’afficher sans contrôle !! Et du coup l’apport d’une preuve de la réalité de la transaction commerciale justifiant la rédaction d'un avis reste facultatif, soit la seule méthode tangible pour juger de sa légitimité. Comme je l’ai déjà indiqué dans le paragraphe crée par AFNOR Certification, je vous invite à tester la performance et la crédibilité de cette norme sur le site des Pages Jaunes qui s’en vante en publiant un avis quelconque. Vous verrez qu’il passera comme une lettre à la poste.\nCordialement",
        "created_at": "2015-10-14T16:13:18+0200",
        "updated_at": "2015-10-14T16:13:18+0200",
        "is_enabled": true,
        "votes_count": 0,
        "type": 0,
        "is_trashed": false,
        "author": {
          "username": "KENOUDI",
          "displayName": "KENOUDI",
          "uniqueId": "kenoudi",
          "isAdmin": false,
          "media": {
            "url": "/media/cache/default_avatar/default/0001/01/707_default_avatar.jpg"
          },
          "vip": false,
          "_links": {
            "profile": "https://www.republique-numerique.fr/profile/kenoudi",
            "settings": "https://www.republique-numerique.fr/profile/edit-profile"
          }
        },
        "_links": {
          "show": "https://www.republique-numerique.fr/consultations/projet-de-loi-numerique/consultation/consultation/opinions/section-4-information-des-consommateurs/article-15-information-des-consommateurs-et-avis-en-ligne/versions/promotion-de-la-norme-afnor-par-les-pouvoirs-publics#arg-3934",
          "edit": "https://www.republique-numerique.fr/consultations/projet-de-loi-numerique/consultation/consultation/opinions/section-4-information-des-consommateurs/article-15-information-des-consommateurs-et-avis-en-ligne/arguments/3934/edit",
          "report": "https://www.republique-numerique.fr/consultations/projet-de-loi-numerique/consultation/consultation/opinions/section-4-information-des-consommateurs/article-15-information-des-consommateurs-et-avis-en-ligne/arguments/3934/report"
        },
        "has_user_voted": false,
        "has_user_reported": false
      },
      {
        "isContribuable": false,
        "id": 4193,
        "body": "@Kenoudi Je ne suis pas d'accord. Mettant justement des avis sur page jaune, on me demande régulièrement de prouver par facturette ou tampon sur carte de fidélité du magasin que j'y suis bien allée. \nD'autre part je trouve préférable une norme française comme l'AFNOR qu'une norme payante américaine souvent absurde ou dépassée comme l'ISO.",
        "created_at": "2015-10-15T13:15:18+0200",
        "updated_at": "2015-10-15T13:15:18+0200",
        "is_enabled": true,
        "votes_count": 2,
        "type": 1,
        "is_trashed": false,
        "author": {
          "username": "Jeanne Varasco",
          "displayName": "Jeanne Varasco",
          "uniqueId": "jeannevarasco",
          "isAdmin": false,
          "media": {
            "url": "/media/cache/default_avatar/default/0001/01/139_default_avatar.jpg"
          },
          "vip": false,
          "_links": {
            "profile": "https://www.republique-numerique.fr/profile/jeannevarasco",
            "settings": "https://www.republique-numerique.fr/profile/edit-profile"
          }
        },
        "_links": {
          "show": "https://www.republique-numerique.fr/consultations/projet-de-loi-numerique/consultation/consultation/opinions/section-4-information-des-consommateurs/article-15-information-des-consommateurs-et-avis-en-ligne/versions/promotion-de-la-norme-afnor-par-les-pouvoirs-publics#arg-4193",
          "edit": "https://www.republique-numerique.fr/consultations/projet-de-loi-numerique/consultation/consultation/opinions/section-4-information-des-consommateurs/article-15-information-des-consommateurs-et-avis-en-ligne/arguments/4193/edit",
          "report": "https://www.republique-numerique.fr/consultations/projet-de-loi-numerique/consultation/consultation/opinions/section-4-information-des-consommateurs/article-15-information-des-consommateurs-et-avis-en-ligne/arguments/4193/report"
        },
        "has_user_voted": false,
        "has_user_reported": false
      }
    ],
    "sources": [],
    "parent": {
      "isContribuable": false,
      "id": 75,
      "body": "<p>I. Le chapitre Ier du titre Ier du livre Ier du code de la consommation est modifi&eacute; comme suit&nbsp;:</p>\r\n\r\n<p>1&deg; Apr&egrave;s l&rsquo;article L. 111-5-1 est ins&eacute;r&eacute; l&rsquo;article L. 111-5-2, ainsi r&eacute;dig&eacute;&nbsp;:</p>\r\n\r\n<p>&laquo;&nbsp;Art. L. 111-5-2 - Sans pr&eacute;judice des obligations d&rsquo;information pr&eacute;vues &agrave; l&rsquo;article 19 de la loi n&deg;&nbsp;2004-575 du 21 juin 2004 pour la confiance dans l&#39;&eacute;conomie num&eacute;rique, toute personne dont l&#39;activit&eacute; consiste, &agrave; titre principal ou accessoire, &agrave; collecter, mod&eacute;rer ou diffuser des avis en ligne de consommateurs, est tenue de d&eacute;livrer une information loyale, claire et transparente sur les modalit&eacute;s de v&eacute;rification des avis mis en ligne.</p>\r\n\r\n<p>&laquo;&nbsp;Elle pr&eacute;cise si les avis qu&rsquo;elle a mis en ligne font l&rsquo;objet ou non d&rsquo;une v&eacute;rification et, si tel est le cas, elle indique les caract&eacute;ristiques principales de la v&eacute;rification mise en &oelig;uvre.</p>\r\n\r\n<p>&laquo;&nbsp;Les modalit&eacute;s et le contenu de ces informations sont fix&eacute;s par d&eacute;cret.&nbsp;&raquo;</p>\r\n\r\n<p>2&deg; A l&rsquo;article L. 111-6-1, la r&eacute;f&eacute;rence &laquo;&nbsp;et L. 111-5-1&nbsp;&raquo; est remplac&eacute; par la r&eacute;f&eacute;rence &laquo;&nbsp;&agrave; L. 111-5-2&nbsp;&raquo;</p>\r\n\r\n<p>II. L&rsquo;article L. 121-83 du code de la consommation est ainsi modifi&eacute;&nbsp;:</p>\r\n\r\n<p>1&deg; Apr&egrave;s le b), il est ins&eacute;r&eacute; un b bis) ainsi r&eacute;dig&eacute;&nbsp;: &laquo;&nbsp;b bis) les d&eacute;bits minimums, normalement disponible, maximums montants et descendants fournis lorsqu&rsquo;il s&rsquo;agit de services d&rsquo;acc&egrave;s &agrave; internet fixe et une estimation des d&eacute;bits maximums montants et descendants fournis dans le cas de services d&rsquo;acc&egrave;s &agrave; internet mobile, ainsi que l&rsquo;incidence sur la disponibilit&eacute; des services offerts d&rsquo;un &eacute;cart significatif par rapport au d&eacute;bit pr&eacute;vu au contrat ;&nbsp;&raquo;</p>\r\n\r\n<p>2&deg; le d) est ainsi r&eacute;dig&eacute;&nbsp;: &laquo;&nbsp;Les compensations et formules de remboursement applicables lorsque le niveau de qualit&eacute; de services ou les d&eacute;bits pr&eacute;vus dans le contrat, ne sont g&eacute;n&eacute;ralement pas atteints, de fa&ccedil;on continue ou r&eacute;currente&nbsp;; &raquo;</p>\r\n\r\n<p>3&deg; le g) est compl&eacute;t&eacute; par les mots&nbsp;: &laquo;, de protection de la vie priv&eacute;e et des donn&eacute;es &agrave; caract&egrave;re personnel, ainsi que l&rsquo;impact des limitations de volume, de d&eacute;bits ou d&rsquo;autres param&egrave;tres sur la qualit&eacute; de l&rsquo;acc&egrave;s &agrave; internet, en particulier l&rsquo;utilisation de contenus, d&rsquo;applications et de services, y compris ceux b&eacute;n&eacute;ficiant d&rsquo;une qualit&eacute; optimis&eacute;e.&nbsp;&raquo;</p>\r\n\r\n<p>L&rsquo;article L.121-83 du code de la consommation dans sa r&eacute;daction issue de la pr&eacute;sente loi est applicable aux contrats conclus ou reconduits post&eacute;rieurement &agrave; la promulgation de la pr&eacute;sente loi.</p>",
      "type": {
        "id": 97,
        "title": "Section 4",
        "subtitle": "Information des consommateurs",
        "voteWidgetType": 2,
        "votesHelpText": "Pensez-vous que cette proposition permet d'atteindre les objectifs présentés dans l’explication de l’article ?",
        "commentSystem": 2,
        "color": "blue",
        "versionable": true,
        "sourceable": true,
        "votesThreshold": null,
        "votesThresholdHelpText": null
      },
      "modals": [
        {
          "key": "article L. 111-5-2",
          "before": "",
          "after": "<p>« - Sans préjudice des obligations d’information prévues à l’article 19 de la loi n° 2004-575 du 21 juin 2004 pour la confiance dans l'économie numérique, toute personne dont l'activité consiste, à titre principal ou accessoire, à collecter, modérer ou diffuser des avis en ligne de consommateurs, est tenue de délivrer une information loyale, claire et transparente sur les modalités de vérification des avis mis en ligne.</p><p>« Elle précise si les avis qu’elle a mis en ligne font l’objet ou non d’une vérification et, si tel est le cas, elle indique les caractéristiques principales de la vérification mise en œuvre.</p><p>« Les modalités et le contenu de ces informations sont fixés par décret. »</p>",
          "title": "Création du nouvel article L111-5-2"
        },
        {
          "key": "article L. 111-6-1",
          "before": "<p>« Tout manquement aux articles L. 111-5 et L. 111-5-1 est passible d'une amende administrative dont le montant ne peut excéder 75 000 € pour une personne physique et 375 000 € pour une personne morale. L'amende est prononcée dans les conditions prévues à l'article L. 141-1-2. »</p>",
          "after": "<p>« Tout manquement aux articles L. 111-5 et L. 111-5-2 est passible d'une amende administrative dont le montant ne peut excéder 75 000 € pour une personne physique et 375 000 € pour une personne morale. L'amende est prononcée dans les conditions prévues à l'article L. 141-1-2. »</p>",
          "title": "Article L 111-6-1"
        },
        {
          "key": "article L. 121-83",
          "before": "<p>Tout contrat souscrit par un consommateur avec un fournisseur de services de communications électroniques au sens du 6° de l'article L. 32 du code des postes et des communications électroniques doit comporter au moins les informations suivantes sous une forme claire, détaillée et aisément accessible :</p><p>a) L'identité et l'adresse du fournisseur ;</p><p>b) Les services offerts, leur niveau de qualité et le délai nécessaire pour en assurer la prestation ;</p><p>c) Le détail des tarifs pratiqués, notamment les frais de résiliation et les frais de portabilité des numéros et autres identifiants, les moyens par lesquels des informations actualisées sur l'ensemble des tarifs applicables et des frais de maintenance peuvent être obtenues et les modes de paiement proposés ainsi que leurs conditions ;</p><p>d) Les compensations et formules de remboursement applicables si le niveau de qualité des services prévus dans le contrat n'est pas atteint ;</p><p>e) La durée du contrat, les conditions de renouvellement et d'interruption des services et du contrat ;</p><p>f) Les modes de règlement amiable des différends notamment la possibilité de recourir à un médiateur ;</p><p>g) Les procédures mises en place par le fournisseur pour mesurer et orienter le trafic de manière à éviter de saturer ou sursaturer une ligne du réseau et sur leurs conséquences en matière de qualité du service ;</p>",
          "after": "<p>Tout contrat souscrit par un consommateur avec un fournisseur de services de communications électroniques au sens du 6° de l'article L. 32 du code des postes et des communications électroniques doit comporter au moins les informations suivantes sous une forme claire, détaillée et aisément accessible :</p><p>a) L'identité et l'adresse du fournisseur ;</p><p>b) Les services offerts, leur niveau de qualité et le délai nécessaire pour en assurer la prestation ;</p><p>b bis) les débits minimums, normalement disponible, maximums montants et descendants fournis lorsqu’il s’agit de services d’accès à internet fixe et une estimation des débits maximums montants et descendants fournis dans le cas de services d’accès à internet mobile, ainsi que l’incidence sur la disponibilité des services offerts d’un écart significatif par rapport au débit prévu au contrat ; »</p><p>c) Le détail des tarifs pratiqués, notamment les frais de résiliation et les frais de portabilité des numéros et autres identifiants, les moyens par lesquels des informations actualisées sur l'ensemble des tarifs applicables et des frais de maintenance peuvent être obtenues et les modes de paiement proposés ainsi que leurs conditions ;</p><p>d)  Les compensations et formules de remboursement applicables lorsque le niveau de qualité de services ou les débits prévus dans le contrat, ne sont généralement pas atteint, de façon continue ou récurrente ;</p><p>e) La durée du contrat, les conditions de renouvellement et d'interruption des services et du contrat ;</p><p>f) Les modes de règlement amiable des différends notamment la possibilité de recourir à un médiateur ;</p><p>g) Les procédures mises en place par le fournisseur pour mesurer et orienter le trafic de manière à éviter de saturer ou sursaturer une ligne du réseau et sur leurs conséquences en matière de qualité du service, de protection de la vie privée et des données à caractère personnel, ainsi que l’impact des limitations de volume, de débits ou d’autres paramètres sur la qualité de l’accès à internet, en particulier l’utilisation de contenus, d’applications et de services, y compris ceux bénéficiant d’une qualité optimisée ;</p>",
          "title": "Article L121-83 du code de la consommation"
        }
      ],
      "appendices": [
        {
          "body": "<p><strong>Objectif n&deg;1 :</strong> Mieux informer les consommateurs sur les avis en ligne</p>\r\n\r\n<p><strong>Explication :</strong> Les pratiques d&rsquo;avis en ligne permettent parfois &agrave; certains professionnels de cr&eacute;er des faux avis afin de promouvoir leurs produits et services, voire &agrave; supprimer de fa&ccedil;on abusive les avis n&eacute;gatifs ou &agrave; reporter leur publication.<br />\r\nLe projet de loi imposera dor&eacute;navant aux sites internet mettant en ligne des avis d&rsquo;indiquer, de mani&egrave;re explicite, si leur publication a fait l&rsquo;objet d&rsquo;un processus de v&eacute;rification. La mise en place de cette information pr&eacute;alable permettra ainsi au consommateur d&rsquo;&eacute;valuer, par lui-m&ecirc;me, le degr&eacute; de confiance qu&rsquo;il sera &agrave; m&ecirc;me d&rsquo;accorder aux avis mis &agrave; sa disposition et, par extension, au site internet qui les publie. Placer ainsi le consommateur en position d&rsquo;arbitre appara&icirc;t &ecirc;tre de nature &agrave; responsabiliser les responsables de site web dans la mise en ligne des avis et &agrave; favoriser un assainissement des pratiques existantes.</p>\r\n\r\n<p><strong>Exemple :</strong> Les sites de critiques de restaurant devront indiquer, de mani&egrave;re explicite, si les avis de consommateurs qui sont publi&eacute;s auront fait l&rsquo;objet d&rsquo;un processus de v&eacute;rification, qu&rsquo;il soit interne ou externe, ainsi que ses principales modalit&eacute;s.</p>\r\n\r\n<p><strong>Objectif n&deg; 2 :</strong> Mieux informer les consommateurs sur les d&eacute;bits de donn&eacute;es fixes et mobiles</p>\r\n\r\n<p><strong>Explication :</strong> Le projet de loi pr&eacute;voit de renforcer la transparence sur les pratiques de gestion de trafic et sur la qualit&eacute; de l&rsquo;acc&egrave;s &agrave; internet par des obligations relatives &agrave; l&rsquo;information contractuelle des consommateurs sur les d&eacute;bits fixes et mobiles, sur les compensations et formules de remboursement applicables quand les d&eacute;bits annonc&eacute;s ne sont pas atteints.</p>\r\n\r\n<p><strong>Exemple :</strong> Lors de la souscription &agrave; un forfait de t&eacute;l&eacute;phonie mobile avec donn&eacute;es, un particulier pourra lire dans son contrat quels sont les d&eacute;bits maximums montants et descendants, ainsi que la formule de remboursement lorsque le niveau annonc&eacute; n&rsquo;est g&eacute;n&eacute;ralement pas atteint.</p>",
          "type": {
            "title": "Explication de l'article"
          }
        }
      ],
      "title": "Article 15 - Mieux informer sur les avis en ligne et sur les débits",
      "_links": {
        "show": "https://www.republique-numerique.fr/consultations/projet-de-loi-numerique/consultation/consultation/opinions/section-4-information-des-consommateurs/article-15-information-des-consommateurs-et-avis-en-ligne",
        "edit": "https://www.republique-numerique.fr/consultations/projet-de-loi-numerique/consultation/consultation/opinions/section-4-information-des-consommateurs/article-15-information-des-consommateurs-et-avis-en-ligne/edit",
        "report": "https://www.republique-numerique.fr/consultations/projet-de-loi-numerique/consultation/consultation/opinions/section-4-information-des-consommateurs/article-15-information-des-consommateurs-et-avis-en-ligne/report",
        "type": "https://www.republique-numerique.fr/consultations/projet-de-loi-numerique/consultation/consultation/opinions/section-4-information-des-consommateurs"
      },
      "user_vote": null,
      "has_user_reported": false
    },
    "sources_count": 0,
    "arguments_count": 2,
    "votes": [
      {
        "user": {
          "username": "Pascal Levasseur",
          "displayName": "Pascal Levasseur",
          "uniqueId": "pascallevasseur",
          "isAdmin": false,
          "media": null,
          "vip": false,
          "_links": {
            "profile": "https://www.republique-numerique.fr/profile/pascallevasseur",
            "settings": "https://www.republique-numerique.fr/profile/edit-profile"
          }
        },
        "value": 1
      },
      {
        "user": {
          "username": "Benoit Phuez",
          "displayName": "Benoit Phuez",
          "uniqueId": "benoitphuez",
          "isAdmin": false,
          "media": {
            "url": "/media/cache/default_avatar/default/0001/01/191_default_avatar.jpg"
          },
          "vip": false,
          "_links": {
            "profile": "https://www.republique-numerique.fr/profile/benoitphuez",
            "settings": "https://www.republique-numerique.fr/profile/edit-profile"
          }
        },
        "value": 1
      },
      {
        "user": {
          "username": "KENOUDI",
          "displayName": "KENOUDI",
          "uniqueId": "kenoudi",
          "isAdmin": false,
          "media": {
            "url": "/media/cache/default_avatar/default/0001/01/707_default_avatar.jpg"
          },
          "vip": false,
          "_links": {
            "profile": "https://www.republique-numerique.fr/profile/kenoudi",
            "settings": "https://www.republique-numerique.fr/profile/edit-profile"
          }
        },
        "value": -1
      },
      {
        "user": {
          "username": "Marc Jeanmougin",
          "displayName": "Marc Jeanmougin",
          "uniqueId": "marcjeanmougin",
          "isAdmin": false,
          "media": null,
          "vip": false,
          "_links": {
            "profile": "https://www.republique-numerique.fr/profile/marcjeanmougin",
            "settings": "https://www.republique-numerique.fr/profile/edit-profile"
          }
        },
        "value": 1
      },
      {
        "user": {
          "username": "Gresset Sarah",
          "displayName": "Gresset Sarah",
          "uniqueId": "gressetsarah",
          "isAdmin": false,
          "media": null,
          "vip": false,
          "_links": {
            "profile": "https://www.republique-numerique.fr/profile/gressetsarah",
            "settings": "https://www.republique-numerique.fr/profile/edit-profile"
          }
        },
        "value": 1
      }
    ],
    "updated_at": "2015-10-13T19:11:56+0200",
    "ranking": 253,
    "is_trashed": false,
    "title": "Promotion de la norme AFNOR par les pouvoirs publics",
    "slug": "promotion-de-la-norme-afnor-par-les-pouvoirs-publics",
    "created_at": "2015-10-13T19:11:56+0200",
    "votes_nok": 1,
    "votes_ok": 18,
    "votes_mitige": 0,
    "_links": {
      "show": "https://www.republique-numerique.fr/consultations/projet-de-loi-numerique/consultation/consultation/opinions/section-4-information-des-consommateurs/article-15-information-des-consommateurs-et-avis-en-ligne/versions/promotion-de-la-norme-afnor-par-les-pouvoirs-publics",
      "report": "https://www.republique-numerique.fr/consultations/projet-de-loi-numerique/consultation/consultation/opinions/section-4-information-des-consommateurs/article-15-information-des-consommateurs-et-avis-en-ligne/versions/promotion-de-la-norme-afnor-par-les-pouvoirs-publics/report"
    },
    "user_vote": null,
    "has_user_reported": false
  },
  "rankingThreshold": null,
  "opinionTerm": 1
}