{
  "version": {
    "isContribuable": false,
    "votes_total": 2,
    "arguments_yes_count": 1,
    "arguments_no_count": 0,
    "id": 1297,
    "body": "<p>L&#39;objectif est d&#39;acc&eacute;l&eacute;rer la modernisation et la simplification des services de l&#39;administration en France, afin que chaque citoyen puisse rapidement et facilement acc&egrave;der &agrave; l&#39;ensemble des services relatifs &agrave; l&#39;emploi, la formation, les aides et allocations, l&#39;imposition, aux donneurs de dons d&#39;organe et de sang.</p>",
    "comment": "Lors d&#39;un accident les donn&eacute;es doivent &ecirc;tre rapidement parvenir aux services de secours. Par exemple lors d&#39;une perte de sang cons&eacute;cutive il est n&eacute;cessaire de connaitre le groupe sanguin de l&#39;accident&eacute; en cas de transfusion (groupe sanguin incompatible). De m&ecirc;me en cas de d&eacute;c&egrave;s de connaitre si l&#39;accident&eacute; accepte le pr&eacute;l&eacute;vement de ses organes.",
    "author": {
      "username": "chalandon",
      "displayName": "chalandon",
      "uniqueId": "chalandon",
      "isAdmin": false,
      "media": null,
      "vip": false,
      "_links": {
        "profile": "https://www.republique-numerique.fr/profile/chalandon",
        "settings": "https://www.republique-numerique.fr/profile/edit-profile"
      }
    },
    "arguments": [
      {
        "isContribuable": false,
        "id": 5607,
        "body": "Très bon ajout pour populariser ces pratiques.",
        "created_at": "2015-10-17T22:54:35+0200",
        "updated_at": "2015-10-17T22:55:15+0200",
        "is_enabled": true,
        "votes_count": 0,
        "type": 1,
        "is_trashed": false,
        "author": {
          "username": "Vincent Reverdy",
          "displayName": "Vincent Reverdy",
          "uniqueId": "vincentreverdy",
          "isAdmin": false,
          "media": {
            "url": "/media/cache/default_avatar/default/0001/01/268_default_avatar.jpg"
          },
          "vip": false,
          "_links": {
            "profile": "https://www.republique-numerique.fr/profile/vincentreverdy",
            "settings": "https://www.republique-numerique.fr/profile/edit-profile"
          }
        },
        "_links": {
          "show": "https://www.republique-numerique.fr/consultations/projet-de-loi-numerique/consultation/consultation/opinions/section-2-service-public-de-la-donnee-1/article-5-creation-d-un-compte-unique-des-services-administratifs-en-ligne-pour-chaque-citoyen/versions/y-comprendre-les-donnees-du-fichier-des-donneurs-de-sang#arg-5607",
          "edit": "https://www.republique-numerique.fr/consultations/projet-de-loi-numerique/consultation/consultation/opinions/section-2-service-public-de-la-donnee-1/article-5-creation-d-un-compte-unique-des-services-administratifs-en-ligne-pour-chaque-citoyen/arguments/5607/edit",
          "report": "https://www.republique-numerique.fr/consultations/projet-de-loi-numerique/consultation/consultation/opinions/section-2-service-public-de-la-donnee-1/article-5-creation-d-un-compte-unique-des-services-administratifs-en-ligne-pour-chaque-citoyen/arguments/5607/report"
        },
        "has_user_voted": false,
        "has_user_reported": false
      }
    ],
    "sources": [
      {
        "isContribuable": false,
        "id": 386,
        "title": "Détails sur le don d'organe en France par Wikipédia.",
        "link": "https://fr.wikipedia.org/wiki/Don_d'organes",
        "body": "Le don d'organes est le prélèvement d'organes et de tissus (on parle dans ce cas de don de tissus) d'un corps humain (appelé donneur) pour traiter des patients (appelés receveurs) dont les organes essentiels sont gravement atteints. Le prélèvement chirurgical peut s'effectuer sur des personnes mortes en état de mort cérébrale (don d'organes post mortem) ou sur des personnes vivantes (don d'organes de son vivant). Il s'agit de la première étape avant la réalisation d'une transplantation chez un receveur.",
        "created_at": "2015-10-17T22:56:14+0200",
        "updated_at": "2015-10-17T22:56:14+0200",
        "author": {
          "username": "Vincent Reverdy",
          "displayName": "Vincent Reverdy",
          "uniqueId": "vincentreverdy",
          "isAdmin": false,
          "media": {
            "url": "/media/cache/default_avatar/default/0001/01/268_default_avatar.jpg"
          },
          "vip": false,
          "_links": {
            "profile": "https://www.republique-numerique.fr/profile/vincentreverdy",
            "settings": "https://www.republique-numerique.fr/profile/edit-profile"
          }
        },
        "category": "Site internet",
        "votes_count": 0,
        "_links": {
          "edit": "https://www.republique-numerique.fr/consultations/projet-de-loi-numerique/consultation/consultation/opinions/section-2-service-public-de-la-donnee-1/article-5-creation-d-un-compte-unique-des-services-administratifs-en-ligne-pour-chaque-citoyen/sources/details-sur-le-don-d-organe-en-france-par-wikipedia/edit",
          "report": "https://www.republique-numerique.fr/consultations/projet-de-loi-numerique/consultation/consultation/opinions/section-2-service-public-de-la-donnee-1/article-5-creation-d-un-compte-unique-des-services-administratifs-en-ligne-pour-chaque-citoyen/sources/details-sur-le-don-d-organe-en-france-par-wikipedia/report"
        },
        "has_user_voted": false,
        "has_user_reported": false
      }
    ],
    "parent": {
      "isContribuable": false,
      "id": 195,
      "body": "<p>L&#39;objectif est d&#39;acc&eacute;l&eacute;rer la modernisation et la simplification des services de l&#39;administration en France, afin que chaque citoyen puisse rapidement et facilement acc&egrave;der &agrave; l&#39;ensemble des services relatifs &agrave; l&#39;emploi, la formation, les aides et allocations, l&#39;imposition.</p>",
      "type": {
        "id": 87,
        "title": "Section 2",
        "subtitle": "Service public de la donnée",
        "voteWidgetType": 2,
        "votesHelpText": "Pensez-vous que cette proposition permet d'atteindre les objectifs présentés dans l’explication de l’article ?",
        "commentSystem": 2,
        "color": "blue",
        "versionable": true,
        "sourceable": true,
        "votesThreshold": null,
        "votesThresholdHelpText": null
      },
      "modals": [],
      "appendices": [
        {
          "body": "<p>Sur le mod&egrave;le du compte service public, chaque contribuable aurait acc&egrave;s &agrave; un compte unique dans lequels tous ses droits, toutes les d&eacute;marches administratives, les contacts avec l&#39;administration seraient regroup&eacute;s et mutalis&eacute;s. Sans &ecirc;tre exhaustif, les services suivant pourraient &ecirc;tre disponibles&nbsp;&nbsp;:</p>\r\n\r\n<p>- imp&ocirc;ts (IR, taxe fonci&egrave;re, taxe d&#39;habitation, ISF, etc.)</p>\r\n\r\n<p>- retraite</p>\r\n\r\n<p>- compte personnel de formation (CPF)</p>\r\n\r\n<p>- p&ocirc;le emploi</p>\r\n\r\n<p>- compte assurance maladie</p>\r\n\r\n<p>- allocations familiales, RSA, APL</p>\r\n\r\n<p>- d&eacute;marches de cr&eacute;ation d&#39;entreprise (d&eacute;claration aux imp&ocirc;ts des entreprises, au greffe du tribunal)</p>\r\n\r\n<p>- inscription sur les listes &eacute;lectorales</p>\r\n\r\n<p>&nbsp;</p>\r\n\r\n<p>Dans un premier temps, ce compte peut &ecirc;tre mis en place sur la base du volontariat. Sa g&eacute;n&eacute;ralisation serait possible par la suite.</p>",
          "type": {
            "title": "Explication de l'article"
          }
        }
      ],
      "title": "Article 5 - Création d'un compte unique des services administratifs en ligne pour chaque citoyen",
      "_links": {
        "show": "https://www.republique-numerique.fr/consultations/projet-de-loi-numerique/consultation/consultation/opinions/section-2-service-public-de-la-donnee-1/article-5-creation-d-un-compte-unique-des-services-administratifs-en-ligne-pour-chaque-citoyen",
        "edit": "https://www.republique-numerique.fr/consultations/projet-de-loi-numerique/consultation/consultation/opinions/section-2-service-public-de-la-donnee-1/article-5-creation-d-un-compte-unique-des-services-administratifs-en-ligne-pour-chaque-citoyen/edit",
        "report": "https://www.republique-numerique.fr/consultations/projet-de-loi-numerique/consultation/consultation/opinions/section-2-service-public-de-la-donnee-1/article-5-creation-d-un-compte-unique-des-services-administratifs-en-ligne-pour-chaque-citoyen/report",
        "type": "https://www.republique-numerique.fr/consultations/projet-de-loi-numerique/consultation/consultation/opinions/section-2-service-public-de-la-donnee-1"
      },
      "user_vote": null,
      "has_user_reported": false
    },
    "sources_count": 1,
    "arguments_count": 1,
    "votes": [
      {
        "user": {
          "username": "chalandon",
          "displayName": "chalandon",
          "uniqueId": "chalandon",
          "isAdmin": false,
          "media": null,
          "vip": false,
          "_links": {
            "profile": "https://www.republique-numerique.fr/profile/chalandon",
            "settings": "https://www.republique-numerique.fr/profile/edit-profile"
          }
        },
        "value": 1
      },
      {
        "user": {
          "username": "Vincent Reverdy",
          "displayName": "Vincent Reverdy",
          "uniqueId": "vincentreverdy",
          "isAdmin": false,
          "media": {
            "url": "/media/cache/default_avatar/default/0001/01/268_default_avatar.jpg"
          },
          "vip": false,
          "_links": {
            "profile": "https://www.republique-numerique.fr/profile/vincentreverdy",
            "settings": "https://www.republique-numerique.fr/profile/edit-profile"
          }
        },
        "value": 1
      }
    ],
    "updated_at": "2015-10-17T15:06:42+0200",
    "ranking": 880,
    "is_trashed": false,
    "title": "Y comprendre les données du fichier des donneurs de sang",
    "slug": "y-comprendre-les-donnees-du-fichier-des-donneurs-de-sang",
    "created_at": "2015-10-17T15:06:42+0200",
    "votes_nok": 0,
    "votes_ok": 2,
    "votes_mitige": 0,
    "_links": {
      "show": "https://www.republique-numerique.fr/consultations/projet-de-loi-numerique/consultation/consultation/opinions/section-2-service-public-de-la-donnee-1/article-5-creation-d-un-compte-unique-des-services-administratifs-en-ligne-pour-chaque-citoyen/versions/y-comprendre-les-donnees-du-fichier-des-donneurs-de-sang",
      "report": "https://www.republique-numerique.fr/consultations/projet-de-loi-numerique/consultation/consultation/opinions/section-2-service-public-de-la-donnee-1/article-5-creation-d-un-compte-unique-des-services-administratifs-en-ligne-pour-chaque-citoyen/versions/y-comprendre-les-donnees-du-fichier-des-donneurs-de-sang/report"
    },
    "user_vote": null,
    "has_user_reported": false
  },
  "rankingThreshold": null,
  "opinionTerm": 1
}