{
  "version": {
    "isContribuable": false,
    "votes_total": 3,
    "arguments_yes_count": 1,
    "arguments_no_count": 0,
    "id": 1005,
    "body": "<p>L&#39;objectif est d&#39;acc&eacute;l&eacute;rer la modernisation et la simplification des services de l&#39;administration en France, afin que chaque citoyen puisse rapidement et facilement acc&egrave;der &agrave; l&#39;ensemble des services relatifs &agrave; l&#39;emploi, la formation, les aides et allocations, l&#39;imposition. En sachant que la plateforme est d&eacute;j&agrave; existante.</p>",
    "comment": "Cette solution existe d&eacute;j&agrave; mon.service-public.fr mais est laiss&eacute; &agrave; l&#39;abandon.",
    "author": {
      "username": "FAVRE Guillaume",
      "displayName": "FAVRE Guillaume",
      "uniqueId": "favreguillaume",
      "isAdmin": false,
      "media": null,
      "vip": false,
      "_links": {
        "profile": "https://www.republique-numerique.fr/profile/favreguillaume",
        "settings": "https://www.republique-numerique.fr/profile/edit-profile"
      }
    },
    "arguments": [
      {
        "isContribuable": false,
        "id": 5909,
        "body": "Cette solution devrait être imposée à tous les services publics et para-publics, avec une obligation de résultat (abonné à ce service, je n'ai pas pu accéder à certains services du Ministère des Finance, et mon adresse mail a été refusée pour des applications de carte grise : j'ai abandonné la plate-forme !",
        "created_at": "2015-10-18T16:54:16+0200",
        "updated_at": "2015-10-18T16:54:16+0200",
        "is_enabled": true,
        "votes_count": 0,
        "type": 1,
        "is_trashed": false,
        "author": {
          "username": "Jean-Pierre DECOSTER",
          "displayName": "Jean-Pierre DECOSTER",
          "uniqueId": "jeanpierredecoster",
          "isAdmin": false,
          "media": null,
          "vip": false,
          "_links": {
            "profile": "https://www.republique-numerique.fr/profile/jeanpierredecoster",
            "settings": "https://www.republique-numerique.fr/profile/edit-profile"
          }
        },
        "_links": {
          "show": "https://www.republique-numerique.fr/consultations/projet-de-loi-numerique/consultation/consultation/opinions/section-2-service-public-de-la-donnee-1/article-5-creation-d-un-compte-unique-des-services-administratifs-en-ligne-pour-chaque-citoyen/versions/deja-existant#arg-5909",
          "edit": "https://www.republique-numerique.fr/consultations/projet-de-loi-numerique/consultation/consultation/opinions/section-2-service-public-de-la-donnee-1/article-5-creation-d-un-compte-unique-des-services-administratifs-en-ligne-pour-chaque-citoyen/arguments/5909/edit",
          "report": "https://www.republique-numerique.fr/consultations/projet-de-loi-numerique/consultation/consultation/opinions/section-2-service-public-de-la-donnee-1/article-5-creation-d-un-compte-unique-des-services-administratifs-en-ligne-pour-chaque-citoyen/arguments/5909/report"
        },
        "has_user_voted": false,
        "has_user_reported": false
      }
    ],
    "sources": [],
    "parent": {
      "isContribuable": false,
      "id": 195,
      "body": "<p>L&#39;objectif est d&#39;acc&eacute;l&eacute;rer la modernisation et la simplification des services de l&#39;administration en France, afin que chaque citoyen puisse rapidement et facilement acc&egrave;der &agrave; l&#39;ensemble des services relatifs &agrave; l&#39;emploi, la formation, les aides et allocations, l&#39;imposition.</p>",
      "type": {
        "id": 87,
        "title": "Section 2",
        "subtitle": "Service public de la donnée",
        "voteWidgetType": 2,
        "votesHelpText": "Pensez-vous que cette proposition permet d'atteindre les objectifs présentés dans l’explication de l’article ?",
        "commentSystem": 2,
        "color": "blue",
        "versionable": true,
        "sourceable": true,
        "votesThreshold": null,
        "votesThresholdHelpText": null
      },
      "modals": [],
      "appendices": [
        {
          "body": "<p>Sur le mod&egrave;le du compte service public, chaque contribuable aurait acc&egrave;s &agrave; un compte unique dans lequels tous ses droits, toutes les d&eacute;marches administratives, les contacts avec l&#39;administration seraient regroup&eacute;s et mutalis&eacute;s. Sans &ecirc;tre exhaustif, les services suivant pourraient &ecirc;tre disponibles&nbsp;&nbsp;:</p>\r\n\r\n<p>- imp&ocirc;ts (IR, taxe fonci&egrave;re, taxe d&#39;habitation, ISF, etc.)</p>\r\n\r\n<p>- retraite</p>\r\n\r\n<p>- compte personnel de formation (CPF)</p>\r\n\r\n<p>- p&ocirc;le emploi</p>\r\n\r\n<p>- compte assurance maladie</p>\r\n\r\n<p>- allocations familiales, RSA, APL</p>\r\n\r\n<p>- d&eacute;marches de cr&eacute;ation d&#39;entreprise (d&eacute;claration aux imp&ocirc;ts des entreprises, au greffe du tribunal)</p>\r\n\r\n<p>- inscription sur les listes &eacute;lectorales</p>\r\n\r\n<p>&nbsp;</p>\r\n\r\n<p>Dans un premier temps, ce compte peut &ecirc;tre mis en place sur la base du volontariat. Sa g&eacute;n&eacute;ralisation serait possible par la suite.</p>",
          "type": {
            "title": "Explication de l'article"
          }
        }
      ],
      "title": "Article 5 - Création d'un compte unique des services administratifs en ligne pour chaque citoyen",
      "_links": {
        "show": "https://www.republique-numerique.fr/consultations/projet-de-loi-numerique/consultation/consultation/opinions/section-2-service-public-de-la-donnee-1/article-5-creation-d-un-compte-unique-des-services-administratifs-en-ligne-pour-chaque-citoyen",
        "edit": "https://www.republique-numerique.fr/consultations/projet-de-loi-numerique/consultation/consultation/opinions/section-2-service-public-de-la-donnee-1/article-5-creation-d-un-compte-unique-des-services-administratifs-en-ligne-pour-chaque-citoyen/edit",
        "report": "https://www.republique-numerique.fr/consultations/projet-de-loi-numerique/consultation/consultation/opinions/section-2-service-public-de-la-donnee-1/article-5-creation-d-un-compte-unique-des-services-administratifs-en-ligne-pour-chaque-citoyen/report",
        "type": "https://www.republique-numerique.fr/consultations/projet-de-loi-numerique/consultation/consultation/opinions/section-2-service-public-de-la-donnee-1"
      },
      "user_vote": null,
      "has_user_reported": false
    },
    "sources_count": 0,
    "arguments_count": 1,
    "votes": [
      {
        "user": {
          "username": "Vincent Reverdy",
          "displayName": "Vincent Reverdy",
          "uniqueId": "vincentreverdy",
          "isAdmin": false,
          "media": {
            "url": "/media/cache/default_avatar/default/0001/01/268_default_avatar.jpg"
          },
          "vip": false,
          "_links": {
            "profile": "https://www.republique-numerique.fr/profile/vincentreverdy",
            "settings": "https://www.republique-numerique.fr/profile/edit-profile"
          }
        },
        "value": 0
      },
      {
        "user": {
          "username": "SEVIN",
          "displayName": "SEVIN",
          "uniqueId": "sevin",
          "isAdmin": false,
          "media": null,
          "vip": false,
          "_links": {
            "profile": "https://www.republique-numerique.fr/profile/sevin",
            "settings": "https://www.republique-numerique.fr/profile/edit-profile"
          }
        },
        "value": 1
      },
      {
        "user": {
          "username": "Jean-Pierre DECOSTER",
          "displayName": "Jean-Pierre DECOSTER",
          "uniqueId": "jeanpierredecoster",
          "isAdmin": false,
          "media": null,
          "vip": false,
          "_links": {
            "profile": "https://www.republique-numerique.fr/profile/jeanpierredecoster",
            "settings": "https://www.republique-numerique.fr/profile/edit-profile"
          }
        },
        "value": 1
      }
    ],
    "updated_at": "2015-10-15T00:04:54+0200",
    "ranking": 880,
    "is_trashed": false,
    "title": "Déjà existant",
    "slug": "deja-existant",
    "created_at": "2015-10-15T00:04:54+0200",
    "votes_nok": 0,
    "votes_ok": 2,
    "votes_mitige": 1,
    "_links": {
      "show": "https://www.republique-numerique.fr/consultations/projet-de-loi-numerique/consultation/consultation/opinions/section-2-service-public-de-la-donnee-1/article-5-creation-d-un-compte-unique-des-services-administratifs-en-ligne-pour-chaque-citoyen/versions/deja-existant",
      "report": "https://www.republique-numerique.fr/consultations/projet-de-loi-numerique/consultation/consultation/opinions/section-2-service-public-de-la-donnee-1/article-5-creation-d-un-compte-unique-des-services-administratifs-en-ligne-pour-chaque-citoyen/versions/deja-existant/report"
    },
    "user_vote": null,
    "has_user_reported": false
  },
  "rankingThreshold": null,
  "opinionTerm": 1
}