{
  "version": {
    "isContribuable": false,
    "votes_total": 79,
    "arguments_yes_count": 2,
    "arguments_no_count": 1,
    "id": 637,
    "body": "<p>&ldquo;I. L&rsquo;autorit&eacute; administrative peut d&eacute;cider que des donn&eacute;es d&eacute;tenues par des personnes morales de droit priv&eacute; sont des donn&eacute;es d&rsquo;inter&ecirc;t g&eacute;n&eacute;ral lorsque la mise &agrave; disposition de ces donn&eacute;es est justifi&eacute;e par un motif d&rsquo;int&eacute;r&ecirc;t g&eacute;n&eacute;ral, tenant notamment &agrave; leur contribution d&eacute;terminante dans la mise en oeuvre des politiques publique, pour la recherche publique ou le d&eacute;veloppement d&rsquo;activit&eacute;s &eacute;conomiques nouvelles.</p>\n\n<p>II. La d&eacute;cision est pr&eacute;c&eacute;d&eacute;e, dans des conditions d&eacute;finies par d&eacute;cret en Conseil d&rsquo;Etat d&rsquo;une consultation publique destin&eacute;e &agrave; &eacute;tablir l&rsquo;int&eacute;r&ecirc;t g&eacute;n&eacute;ral s&rsquo;attachant &agrave; la mise &agrave; disposition des donn&eacute;es concern&eacute;es et &agrave; d&eacute;terminer les modalit&eacute;s de celle-ci. L&rsquo;avis de la Commission d&rsquo;acc&egrave;s aux documents administratifs et de l&rsquo;Administrateur g&eacute;n&eacute;ral des donn&eacute;es sont recueillis dans le cadre de cette consultation.</p>\n\n<p>III. La d&eacute;cision d&eacute;finit les cat&eacute;gories des donn&eacute;es concern&eacute;es et le but d&rsquo;int&eacute;r&ecirc;t g&eacute;n&eacute;ral justifiant leur d&eacute;cision. Dans un d&eacute;lai de six mois suivant la publication de la d&eacute;cision, l&rsquo;autorit&eacute; administrative et le d&eacute;tenteur des donn&eacute;es concluent une convention comportant notamment des stipulations sur le format des donn&eacute;es et la fr&eacute;quence de leur mise &agrave; jour, les conditions de leur mise &agrave; disposition (mise en ligne ou communication par voie &eacute;lectronique, standards d&rsquo;ouverture, licences de r&eacute;utilisation) ainsi que, le cas &eacute;ch&eacute;ant, sur les contreparties &eacute;ventuelles.</p>\n\n<p>IV. La d&eacute;cision et la convention ne peuvent pr&eacute;voir la mise &agrave; disposition des donn&eacute;es dans des conditions portant atteinte &agrave; la protection de la vie priv&eacute;e ou au secret en mati&egrave;re industrielle ou commerciale.</p>\n\n<p>Le p&eacute;rim&egrave;tre des donn&eacute;es mises &agrave; disposition ne peut exc&eacute;der ce qui est n&eacute;cessaire pour atteindre le but d&rsquo;int&eacute;r&ecirc;t g&eacute;n&eacute;ral d&eacute;fini par la d&eacute;cision. La r&eacute;utilisation des donn&eacute;es n&rsquo;est autoris&eacute;e que si elle est compatible avec ce but.</p>\n\n<p>Les buts d&rsquo;int&eacute;r&ecirc;t g&eacute;n&eacute;ral d&eacute;finis par la d&eacute;cision peuvent &ecirc;tre modifi&eacute;s &agrave; l&rsquo;issue d&rsquo;une proc&eacute;dure de consultation publique simplifi&eacute;e, dans des conditions d&eacute;finies par d&eacute;cret en Conseil d&rsquo;Etat.</p>\n\n<p>V. La Commission d&rsquo;acc&egrave;s aux documents administratifs peut &ecirc;tre saisie par l&rsquo;autorit&eacute; administrative et par le d&eacute;tenteur des donn&eacute;es des diff&eacute;rends relatifs &agrave; la d&eacute;cision, &agrave; la n&eacute;gociation de la convention et &agrave; leur ex&eacute;cution. Elle se prononce dans des conditions d&eacute;finies par l&rsquo;article 23-1 de la loi n&deg;78-753 du 17 juillet 1978.</p>\n\n<p>VI. La loi n&deg; 51-711 du 7 juin 1951 sur l&#39;obligation, la coordination et le secret en mati&egrave;re de statistiques est ainsi modifi&eacute;e :</p>\n\n<p>1&deg; Le second alin&eacute;a de l&rsquo;article 3 est abrog&eacute; ;</p>\n\n<p>2&deg;. Il est ins&eacute;r&eacute; un article 3-1 ainsi r&eacute;dig&eacute; :<br />\n&laquo; Art. 3-1.-</p>\n\n<p>&laquo;&nbsp;I. I. Pour les besoins d&rsquo;enqu&ecirc;tes statistiques obligatoires ayant re&ccedil;u le visa minist&eacute;riel pr&eacute;vu &agrave; l&rsquo;article 2, le ministre charg&eacute; de l&rsquo;&eacute;conomie peut d&eacute;cider que le service statistique public acc&egrave;de &agrave; des bases de donn&eacute;es des personnes enqu&ecirc;t&eacute;es.</p>\n\n<p>&laquo; Cette d&eacute;cision est pr&eacute;c&eacute;d&eacute;e d&rsquo;une &eacute;tude de faisabilit&eacute; et d&rsquo;opportunit&eacute;. L&rsquo;acc&egrave;s &agrave; des bases de donn&eacute;es ne peut &ecirc;tre d&eacute;cid&eacute; que si, au regard de l&rsquo;&eacute;tude, il est &eacute;tabli :</p>\n\n<p>&laquo; 1&deg; que ce mode de collecte est adapt&eacute; aux besoins de l&rsquo;enqu&ecirc;te ;</p>\n\n<p>&laquo; 2&deg; et qu&rsquo;il pr&eacute;sente, par rapport &agrave; d&rsquo;autres modes de collecte, des avantages en termes de co&ucirc;t pour le service statistique public ou les personnes enqu&ecirc;t&eacute;es ou de qualit&eacute; des donn&eacute;es produites.</p>\n\n<p>&laquo; La d&eacute;cision pr&eacute;cise la nature des enqu&ecirc;tes statistiques pour lesquelles l&rsquo;acc&egrave;s est d&eacute;cid&eacute;.</p>\n\n<p>&laquo; Les renseignements extraits des bases de donn&eacute;es ne peuvent &ecirc;tre utilis&eacute;s &agrave; d&rsquo;autres fins que la r&eacute;alisation de l&rsquo;enqu&ecirc;te statistique pour laquelle l&rsquo;acc&egrave;s a &eacute;t&eacute; d&eacute;cid&eacute;.</p>\n\n<p>&laquo;&nbsp;La d&eacute;cision pr&eacute;cise la dur&eacute;e pendant laquelle le service statistique public peut acc&eacute;der aux bases de donn&eacute;es des personnes enqu&ecirc;t&eacute;es ainsi que la nature des enqu&ecirc;tes statistiques pour lesquelles l&rsquo;acc&egrave;s est d&eacute;cid&eacute;.</p>\n\n<p>&laquo; Une convention entre le service statistique concern&eacute; et la personne enqu&ecirc;t&eacute;e d&eacute;finit les conditions techniques de l&rsquo;acc&egrave;s aux donn&eacute;es. Les agents habilit&eacute;s &agrave; acc&eacute;der aux donn&eacute;es sont individuellement d&eacute;sign&eacute;s par le chef du service.</p>\n\n<p>&laquo; Dans la limite des finalit&eacute;s de l&rsquo;enqu&ecirc;te statistique, les agents du service statistique public peuvent proc&eacute;der &agrave; un enregistrement temporaire des donn&eacute;es n&eacute;cessaires &agrave; la r&eacute;alisation de l&rsquo;enqu&ecirc;te. Un relev&eacute; mentionne la date de cr&eacute;ation de chaque enregistrement ainsi que la nature des renseignements collect&eacute;s. Copie de ce relev&eacute; est donn&eacute; &agrave; la personne enqu&ecirc;t&eacute;e.</p>\n\n<p>&laquo; Les renseignements extraits des bases de donn&eacute;es ne peuvent &ecirc;tre utilis&eacute;s &agrave; d&rsquo;autres fins que la r&eacute;alisation de l&rsquo;enqu&ecirc;te statistique pour laquelle l&rsquo;acc&egrave;s a &eacute;t&eacute; d&eacute;cid&eacute;.</p>\n\n<p>&laquo;&nbsp;II. Par d&eacute;rogation aux dispositions de l&#39;article 7, en cas de refus d&#39;acc&egrave;s &agrave; une base de donn&eacute;es mentionn&eacute;e au premier alin&eacute;a, le ministre charg&eacute; de l&#39;&eacute;conomie peut, apr&egrave;s mise en demeure et dans le d&eacute;lai imparti par cette mise en demeure,&nbsp;et apr&egrave;s avis du conseil national de l&#39;information statistique r&eacute;uni en comit&eacute; du contentieux des enqu&ecirc;tes statistiques obligatoires, prononcer une amende administrative.</p>\n\n<p>&laquo;&nbsp;L&rsquo;avis du comit&eacute; est communiqu&eacute; au ministre accompagn&eacute;, le cas &eacute;ch&eacute;ant, des observations de l&rsquo;int&eacute;ress&eacute; qui peuvent &ecirc;tre pr&eacute;sent&eacute;es dans un d&eacute;lai d&rsquo;un mois apr&egrave;s la notification des griefs.</p>\n\n<p>&laquo;&nbsp;La d&eacute;cision du ministre est motiv&eacute;e&nbsp;; le recours dirig&eacute; contre cette d&eacute;cision est un recours de pleine juridiction.</p>\n\n<p>&laquo;&nbsp;Le montant de la premi&egrave;re amende encourue &agrave; ce titre ne peut d&eacute;passer 100&nbsp;000 euros. En cas de r&eacute;cidive dans un d&eacute;lai de trois ans, le montant de l&rsquo;amende peut &ecirc;tre port&eacute; &agrave; 250&nbsp;000 euros au plus.</p>\n\n<p>&laquo; Le ministre peut rendre publiques les sanctions qu&rsquo;il prononce. Il peut &eacute;galement ordonner leur insertion dans des publications, journaux et supports qu&rsquo;il d&eacute;signe aux frais des personnes sanctionn&eacute;es.&nbsp;&raquo;</p>",
    "comment": "<p>L&rsquo;article subordonne l&rsquo;acc&egrave;s des pouvoirs publics &agrave; des bases de donn&eacute;es priv&eacute;es &agrave; des fins statistiques. Or il est parfois d&rsquo;int&eacute;r&ecirc;t g&eacute;n&eacute;ral de pouvoir croiser des donn&eacute;es priv&eacute;es avec des donn&eacute;es publiques pour des finalit&eacute;s qui ne soient pas simplement statistiques, mais qui servent directement l&rsquo;efficacit&eacute; de certaines politiques publiques. Il est donc n&eacute;cessaire de pr&eacute;voir que des donn&eacute;es priv&eacute;es puissent &ecirc;tre mises &agrave; disposition d&rsquo;acteurs publics autres que l&rsquo;INSEE, avec les garanties juridiques suffisantes.</p>",
    "author": {
      "username": "Conseil National du Numérique",
      "displayName": "Conseil National du Numérique",
      "uniqueId": "conseilnationaldunumerique",
      "isAdmin": false,
      "media": {
        "url": "/media/cache/default_avatar/default/0001/01/409_default_avatar.png"
      },
      "vip": false,
      "_links": {
        "profile": "https://www.republique-numerique.fr/profile/conseilnationaldunumerique",
        "settings": "https://www.republique-numerique.fr/profile/edit-profile"
      }
    },
    "arguments": [
      {
        "isContribuable": false,
        "id": 2454,
        "body": "En particulier pour la santé, et l'environnement",
        "created_at": "2015-10-07T09:23:05+0200",
        "updated_at": "2015-10-07T09:23:05+0200",
        "is_enabled": true,
        "votes_count": 1,
        "type": 1,
        "is_trashed": false,
        "author": {
          "username": "LAUNAY",
          "displayName": "LAUNAY",
          "uniqueId": "launay",
          "isAdmin": false,
          "media": {
            "url": "/media/cache/default_avatar/default/0001/01/348_default_avatar.jpg"
          },
          "vip": false,
          "_links": {
            "profile": "https://www.republique-numerique.fr/profile/launay",
            "settings": "https://www.republique-numerique.fr/profile/edit-profile"
          }
        },
        "_links": {
          "show": "https://www.republique-numerique.fr/consultations/projet-de-loi-numerique/consultation/consultation/opinions/section-3-donnees-d-interet-general/article-7-acces-de-la-statistique-publique-aux-bases-de-donnees-privees/versions/elargir-les-finalites-de-reutilisation-des-donnees-d-interet-general#arg-2454",
          "edit": "https://www.republique-numerique.fr/consultations/projet-de-loi-numerique/consultation/consultation/opinions/section-3-donnees-d-interet-general/article-7-acces-de-la-statistique-publique-aux-bases-de-donnees-privees/arguments/2454/edit",
          "report": "https://www.republique-numerique.fr/consultations/projet-de-loi-numerique/consultation/consultation/opinions/section-3-donnees-d-interet-general/article-7-acces-de-la-statistique-publique-aux-bases-de-donnees-privees/arguments/2454/report"
        },
        "has_user_voted": false,
        "has_user_reported": false
      },
      {
        "isContribuable": false,
        "id": 2555,
        "body": "On aurait aimé une telle prudence également dans l'art. 6, alinéa 2, qui fait peu de cas de l'importance des données associatives pour leur activité propre.",
        "created_at": "2015-10-07T20:26:41+0200",
        "updated_at": "2015-10-07T20:26:41+0200",
        "is_enabled": true,
        "votes_count": 0,
        "type": 1,
        "is_trashed": false,
        "author": {
          "username": "samson_d",
          "displayName": "samson_d",
          "uniqueId": "samsond",
          "isAdmin": false,
          "media": null,
          "vip": false,
          "_links": {
            "profile": "https://www.republique-numerique.fr/profile/samsond",
            "settings": "https://www.republique-numerique.fr/profile/edit-profile"
          }
        },
        "_links": {
          "show": "https://www.republique-numerique.fr/consultations/projet-de-loi-numerique/consultation/consultation/opinions/section-3-donnees-d-interet-general/article-7-acces-de-la-statistique-publique-aux-bases-de-donnees-privees/versions/elargir-les-finalites-de-reutilisation-des-donnees-d-interet-general#arg-2555",
          "edit": "https://www.republique-numerique.fr/consultations/projet-de-loi-numerique/consultation/consultation/opinions/section-3-donnees-d-interet-general/article-7-acces-de-la-statistique-publique-aux-bases-de-donnees-privees/arguments/2555/edit",
          "report": "https://www.republique-numerique.fr/consultations/projet-de-loi-numerique/consultation/consultation/opinions/section-3-donnees-d-interet-general/article-7-acces-de-la-statistique-publique-aux-bases-de-donnees-privees/arguments/2555/report"
        },
        "has_user_voted": false,
        "has_user_reported": false
      },
      {
        "isContribuable": false,
        "id": 2939,
        "body": "Sans connaître les finalités, il est difficile de projeter tous les usages et donc d'anticiper les risques à couvrir.\nIl serait peut être alors judicieux d'identifier explicitement les usages prévus et à prévoir (ou les domaines concernés)",
        "created_at": "2015-10-10T14:50:28+0200",
        "updated_at": "2015-10-10T14:50:28+0200",
        "is_enabled": true,
        "votes_count": 0,
        "type": 0,
        "is_trashed": false,
        "author": {
          "username": "Mathieu L.",
          "displayName": "Mathieu L.",
          "uniqueId": "mathieul",
          "isAdmin": false,
          "media": null,
          "vip": false,
          "_links": {
            "profile": "https://www.republique-numerique.fr/profile/mathieul",
            "settings": "https://www.republique-numerique.fr/profile/edit-profile"
          }
        },
        "_links": {
          "show": "https://www.republique-numerique.fr/consultations/projet-de-loi-numerique/consultation/consultation/opinions/section-3-donnees-d-interet-general/article-7-acces-de-la-statistique-publique-aux-bases-de-donnees-privees/versions/elargir-les-finalites-de-reutilisation-des-donnees-d-interet-general#arg-2939",
          "edit": "https://www.republique-numerique.fr/consultations/projet-de-loi-numerique/consultation/consultation/opinions/section-3-donnees-d-interet-general/article-7-acces-de-la-statistique-publique-aux-bases-de-donnees-privees/arguments/2939/edit",
          "report": "https://www.republique-numerique.fr/consultations/projet-de-loi-numerique/consultation/consultation/opinions/section-3-donnees-d-interet-general/article-7-acces-de-la-statistique-publique-aux-bases-de-donnees-privees/arguments/2939/report"
        },
        "has_user_voted": false,
        "has_user_reported": false
      }
    ],
    "sources": [],
    "parent": {
      "isContribuable": false,
      "id": 67,
      "body": "<p>La loi n&deg; 51-711 du 7 juin 1951 sur l&#39;obligation, la coordination et le secret en mati&egrave;re de statistiques est ainsi modifi&eacute;e :</p>\r\n\r\n<p>I. Le second alin&eacute;a de l&rsquo;article 3 est abrog&eacute; ;</p>\r\n\r\n<p>II. Il est ins&eacute;r&eacute; un article 3-1 ainsi r&eacute;dig&eacute; :<br />\r\n&laquo; Art. 3-1.-</p>\r\n\r\n<p>&laquo;&nbsp;I. I. Pour les besoins d&rsquo;enqu&ecirc;tes statistiques obligatoires ayant re&ccedil;u le visa minist&eacute;riel pr&eacute;vu &agrave; l&rsquo;article 2, le ministre charg&eacute; de l&rsquo;&eacute;conomie peut d&eacute;cider que le service statistique public acc&egrave;de &agrave; des bases de donn&eacute;es des personnes enqu&ecirc;t&eacute;es.</p>\r\n\r\n<p>&laquo; Cette d&eacute;cision est pr&eacute;c&eacute;d&eacute;e d&rsquo;une &eacute;tude de faisabilit&eacute; et d&rsquo;opportunit&eacute;. L&rsquo;acc&egrave;s &agrave; des bases de donn&eacute;es ne peut &ecirc;tre d&eacute;cid&eacute; que si, au regard de l&rsquo;&eacute;tude, il est &eacute;tabli :</p>\r\n\r\n<p>&laquo; 1&deg; que ce mode de collecte est adapt&eacute; aux besoins de l&rsquo;enqu&ecirc;te ;</p>\r\n\r\n<p>&laquo; 2&deg; et qu&rsquo;il pr&eacute;sente, par rapport &agrave; d&rsquo;autres modes de collecte, des avantages en termes de co&ucirc;t pour le service statistique public ou les personnes enqu&ecirc;t&eacute;es ou de qualit&eacute; des donn&eacute;es produites.</p>\r\n\r\n<p>&laquo; La d&eacute;cision pr&eacute;cise la nature des enqu&ecirc;tes statistiques pour lesquelles l&rsquo;acc&egrave;s est d&eacute;cid&eacute;.</p>\r\n\r\n<p>&laquo; Les renseignements extraits des bases de donn&eacute;es ne peuvent &ecirc;tre utilis&eacute;s &agrave; d&rsquo;autres fins que la r&eacute;alisation de l&rsquo;enqu&ecirc;te statistique pour laquelle l&rsquo;acc&egrave;s a &eacute;t&eacute; d&eacute;cid&eacute;.</p>\r\n\r\n<p>&laquo;&nbsp;La d&eacute;cision pr&eacute;cise la dur&eacute;e pendant laquelle le service statistique public peut acc&eacute;der aux bases de donn&eacute;es des personnes enqu&ecirc;t&eacute;es ainsi que la nature des enqu&ecirc;tes statistiques pour lesquelles l&rsquo;acc&egrave;s est d&eacute;cid&eacute;.</p>\r\n\r\n<p>&laquo; Une convention entre le service statistique concern&eacute; et la personne enqu&ecirc;t&eacute;e d&eacute;finit les conditions techniques de l&rsquo;acc&egrave;s aux donn&eacute;es. Les agents habilit&eacute;s &agrave; acc&eacute;der aux donn&eacute;es sont individuellement d&eacute;sign&eacute;s par le chef du service.</p>\r\n\r\n<p>&laquo; Dans la limite des finalit&eacute;s de l&rsquo;enqu&ecirc;te statistique, les agents du service statistique public peuvent proc&eacute;der &agrave; un enregistrement temporaire des donn&eacute;es n&eacute;cessaires &agrave; la r&eacute;alisation de l&rsquo;enqu&ecirc;te. Un relev&eacute; mentionne la date de cr&eacute;ation de chaque enregistrement ainsi que la nature des renseignements collect&eacute;s. Copie de ce relev&eacute; est donn&eacute; &agrave; la personne enqu&ecirc;t&eacute;e.</p>\r\n\r\n<p>&laquo; Les renseignements extraits des bases de donn&eacute;es ne peuvent &ecirc;tre utilis&eacute;s &agrave; d&rsquo;autres fins que la r&eacute;alisation de l&rsquo;enqu&ecirc;te statistique pour laquelle l&rsquo;acc&egrave;s a &eacute;t&eacute; d&eacute;cid&eacute;.</p>\r\n\r\n<p>&laquo;&nbsp;II. Par d&eacute;rogation aux dispositions de l&#39;article 7, en cas de refus d&#39;acc&egrave;s &agrave; une base de donn&eacute;es mentionn&eacute;e au premier alin&eacute;a, le ministre charg&eacute; de l&#39;&eacute;conomie peut, apr&egrave;s mise en demeure et dans le d&eacute;lai imparti par cette mise en demeure,&nbsp;et apr&egrave;s avis du conseil national de l&#39;information statistique r&eacute;uni en comit&eacute; du contentieux des enqu&ecirc;tes statistiques obligatoires, prononcer une amende administrative.</p>\r\n\r\n<p>&laquo;&nbsp;L&rsquo;avis du comit&eacute; est communiqu&eacute; au ministre accompagn&eacute;, le cas &eacute;ch&eacute;ant, des observations de l&rsquo;int&eacute;ress&eacute; qui peuvent &ecirc;tre pr&eacute;sent&eacute;es dans un d&eacute;lai d&rsquo;un mois apr&egrave;s la notification des griefs.</p>\r\n\r\n<p>&laquo;&nbsp;La d&eacute;cision du ministre est motiv&eacute;e&nbsp;; le recours dirig&eacute; contre cette d&eacute;cision est un recours de pleine juridiction.</p>\r\n\r\n<p>&laquo;&nbsp;Le montant de la premi&egrave;re amende encourue &agrave; ce titre ne peut d&eacute;passer 100&nbsp;000 euros. En cas de r&eacute;cidive dans un d&eacute;lai de trois ans, le montant de l&rsquo;amende peut &ecirc;tre port&eacute; &agrave; 250&nbsp;000 euros au plus.</p>\r\n\r\n<p>&laquo; Le ministre peut rendre publiques les sanctions qu&rsquo;il prononce. Il peut &eacute;galement ordonner leur insertion dans des publications, journaux et supports qu&rsquo;il d&eacute;signe aux frais des personnes sanctionn&eacute;es.&nbsp;&raquo;</p>",
      "type": {
        "id": 88,
        "title": "Section 3",
        "subtitle": "Données d’intérêt général",
        "voteWidgetType": 2,
        "votesHelpText": "Pensez-vous que cette proposition permet d'atteindre les objectifs présentés dans l’explication de l’article ?",
        "commentSystem": 2,
        "color": "blue",
        "versionable": true,
        "sourceable": true,
        "votesThreshold": null,
        "votesThresholdHelpText": null
      },
      "modals": [
        {
          "key": "l'article 3",
          "before": "<p>Les personnes sont tenues de répondre, avec exactitude, et dans les délais fixés, aux enquêtes statistiques qui sont rendues obligatoires en vertu de l'article 1er bis.</p><p>Sur demande du ministre chargé de l'économie, après avis du Conseil national de l'information statistique, les informations d'ordre économique ou financier détenues par une personne morale de droit privé sont cédées, à des fins exclusives d'établissement de statistiques, à l'Institut national de la statistique et des études économiques ou aux services statistiques ministériels lorsque ces informations sont recherchées pour les besoins d'enquêtes statistiques obligatoires ayant reçu le visa ministériel prévu à l'article 2.</p>",
          "after": "<p>Les personnes sont tenues de répondre, avec exactitude, et dans les délais fixés, aux enquêtes statistiques qui sont rendues obligatoires en vertu de l'article 1er bis.</p><p>Sur demande du ministre chargé de l'économie, après avis du Conseil national de l'information statistique, les informations d'ordre économique ou financier détenues par une personne morale de droit privé sont cédées, à des fins exclusives d'établissement de statistiques, à l'Institut national de la statistique et des études économiques ou aux services statistiques ministériels lorsque ces informations sont recherchées pour les besoins d'enquêtes statistiques obligatoires ayant reçu le visa ministériel prévu à l'article 2.</p>",
          "title": "Article 3 de la loi n° 51-711 du 7 juin 1951"
        }
      ],
      "appendices": [
        {
          "body": "<p><strong>Objectif :</strong> permettre &agrave; l&rsquo;INSEE (Institut national de la statistique et des &eacute;tudes &eacute;conomiques) d&rsquo;acc&eacute;der aux bases de donn&eacute;es de certaines entreprises priv&eacute;es lorsque cela est n&eacute;cessaire pour ses enqu&ecirc;tes statistiques.</p>\r\n\r\n<p><strong>Explication :</strong> aujourd&rsquo;hui, la loi du 7 juin 1951 autorise d&eacute;j&agrave; l&rsquo;INSEE &agrave; obtenir des informations des entreprises priv&eacute;es lorsqu&rsquo;il s&rsquo;agit de r&eacute;aliser des enqu&ecirc;tes statistiques obligatoires. Mais la collecte de ces informations se fait parfois sous la forme de questionnaires papier voire d&rsquo;enqu&ecirc;tes de terrain qui sont chronophages pour l&rsquo;INSEE comme pour les entreprises. L&rsquo;article propose de moderniser la collecte de ces donn&eacute;es en permettant &agrave; l&rsquo;INSEE d&rsquo;acc&eacute;der directement aux bases de donn&eacute;es de ces entreprises, dans l&rsquo;unique objectif de r&eacute;aliser les enqu&ecirc;tes statistiques r&eacute;glementaires. Des conditions pr&eacute;cises de s&eacute;curit&eacute; sont pr&eacute;vues pour autoriser cette proc&eacute;dure, et l&rsquo;usage des donn&eacute;es ainsi collect&eacute;es est strictement encadr&eacute; pour se limiter aux besoins de l&rsquo;enqu&ecirc;te statistique. L&rsquo;article cr&eacute;e &eacute;galement un r&eacute;gime sp&eacute;cifique de sanctions en cas de refus des entreprises de collaborer &agrave; cette collecte num&eacute;rique.</p>\r\n\r\n<p><strong>Exemple :</strong> les donn&eacute;es de caisse des entreprises de la grande distribution permettraient d&rsquo;am&eacute;liorer le calcul de l&rsquo;indice des prix &agrave; la consommation et de l&rsquo;inflation ;leur collecte sous forme num&eacute;rique faisant d&eacute;j&agrave; l&rsquo;objet d&rsquo;une exp&eacute;rimentation sur une base volontaire, celle-ci serait g&eacute;n&eacute;ralis&eacute;e.</p>",
          "type": {
            "title": "Explication de l'article"
          }
        }
      ],
      "title": "Article 7 - Accès de la statistique publique à certaines bases de données privées",
      "_links": {
        "show": "https://www.republique-numerique.fr/consultations/projet-de-loi-numerique/consultation/consultation/opinions/section-3-donnees-d-interet-general/article-7-acces-de-la-statistique-publique-aux-bases-de-donnees-privees",
        "edit": "https://www.republique-numerique.fr/consultations/projet-de-loi-numerique/consultation/consultation/opinions/section-3-donnees-d-interet-general/article-7-acces-de-la-statistique-publique-aux-bases-de-donnees-privees/edit",
        "report": "https://www.republique-numerique.fr/consultations/projet-de-loi-numerique/consultation/consultation/opinions/section-3-donnees-d-interet-general/article-7-acces-de-la-statistique-publique-aux-bases-de-donnees-privees/report",
        "type": "https://www.republique-numerique.fr/consultations/projet-de-loi-numerique/consultation/consultation/opinions/section-3-donnees-d-interet-general"
      },
      "user_vote": null,
      "has_user_reported": false
    },
    "sources_count": 0,
    "arguments_count": 3,
    "votes": [
      {
        "user": {
          "username": "Yann Bonnet",
          "displayName": "Yann Bonnet",
          "uniqueId": "yannbonnet",
          "isAdmin": false,
          "media": null,
          "vip": false,
          "_links": {
            "profile": "https://www.republique-numerique.fr/profile/yannbonnet",
            "settings": "https://www.republique-numerique.fr/profile/edit-profile"
          }
        },
        "value": 1
      },
      {
        "user": {
          "username": "Tristan Nitot",
          "displayName": "Tristan Nitot",
          "uniqueId": "tristannitot",
          "isAdmin": false,
          "media": null,
          "vip": false,
          "_links": {
            "profile": "https://www.republique-numerique.fr/profile/tristannitot",
            "settings": "https://www.republique-numerique.fr/profile/edit-profile"
          }
        },
        "value": 1
      },
      {
        "user": {
          "username": "Quentin Glidic",
          "displayName": "Quentin Glidic",
          "uniqueId": "quentinglidic",
          "isAdmin": false,
          "media": null,
          "vip": false,
          "_links": {
            "profile": "https://www.republique-numerique.fr/profile/quentinglidic",
            "settings": "https://www.republique-numerique.fr/profile/edit-profile"
          }
        },
        "value": 1
      },
      {
        "user": {
          "username": "R. Mathis",
          "displayName": "R. Mathis",
          "uniqueId": "rmathis",
          "isAdmin": false,
          "media": null,
          "vip": false,
          "_links": {
            "profile": "https://www.republique-numerique.fr/profile/rmathis",
            "settings": "https://www.republique-numerique.fr/profile/edit-profile"
          }
        },
        "value": 1
      },
      {
        "user": {
          "username": "LAUNAY",
          "displayName": "LAUNAY",
          "uniqueId": "launay",
          "isAdmin": false,
          "media": {
            "url": "/media/cache/default_avatar/default/0001/01/348_default_avatar.jpg"
          },
          "vip": false,
          "_links": {
            "profile": "https://www.republique-numerique.fr/profile/launay",
            "settings": "https://www.republique-numerique.fr/profile/edit-profile"
          }
        },
        "value": 1
      }
    ],
    "updated_at": "2015-10-05T16:04:18+0200",
    "ranking": 64,
    "is_trashed": false,
    "title": "Elargir les finalités de réutilisation des données d'intérêt général",
    "slug": "elargir-les-finalites-de-reutilisation-des-donnees-d-interet-general",
    "created_at": "2015-10-05T16:04:18+0200",
    "votes_nok": 4,
    "votes_ok": 70,
    "votes_mitige": 5,
    "_links": {
      "show": "https://www.republique-numerique.fr/consultations/projet-de-loi-numerique/consultation/consultation/opinions/section-3-donnees-d-interet-general/article-7-acces-de-la-statistique-publique-aux-bases-de-donnees-privees/versions/elargir-les-finalites-de-reutilisation-des-donnees-d-interet-general",
      "report": "https://www.republique-numerique.fr/consultations/projet-de-loi-numerique/consultation/consultation/opinions/section-3-donnees-d-interet-general/article-7-acces-de-la-statistique-publique-aux-bases-de-donnees-privees/versions/elargir-les-finalites-de-reutilisation-des-donnees-d-interet-general/report"
    },
    "user_vote": null,
    "has_user_reported": false
  },
  "rankingThreshold": null,
  "opinionTerm": 1
}