{
  "opinion": {
    "isContribuable": false,
    "votes_total": 0,
    "arguments_yes_count": 0,
    "arguments_no_count": 0,
    "id": 770,
    "created_at": "2015-10-18T21:54:33+0200",
    "updated_at": "2015-10-18T21:54:33+0200",
    "body": "<p>Tout sous-r&eacute;partiteur peut &eacute;tablir une relation directe avec les six sous-r&eacute;partiteurs les plus proches.</p>",
    "versions_count": 0,
    "sources_count": 0,
    "arguments_count": 0,
    "author": {
      "username": "GARRIGUES Bernard",
      "displayName": "GARRIGUES Bernard",
      "uniqueId": "garriguesbernard",
      "isAdmin": false,
      "media": null,
      "vip": false,
      "_links": {
        "profile": "https://www.republique-numerique.fr/profile/garriguesbernard",
        "settings": "https://www.republique-numerique.fr/profile/edit-profile"
      }
    },
    "type": {
      "id": 90,
      "title": "Section 1",
      "subtitle": "Les Communs",
      "voteWidgetType": 2,
      "votesHelpText": "Pensez-vous que cette proposition permet d'atteindre les objectifs présentés dans l’explication de l’article ?",
      "commentSystem": 2,
      "color": "blue",
      "versionable": true,
      "sourceable": true,
      "votesThreshold": null,
      "votesThresholdHelpText": null
    },
    "sources": [],
    "arguments": [],
    "modals": [],
    "votes": [],
    "appendices": [
      {
        "body": "<p><strong><em>La puissance et la robustesse d&rsquo;une boucle local repose sur la fermeture par l&rsquo;ext&eacute;rieur du r&eacute;seau. Cf Th&eacute;orie des graphes et constats empiriques des r&eacute;seaux efficaces.</em></strong></p>",
        "type": {
          "title": "Explication de l'article"
        }
      }
    ],
    "ranking": 633,
    "is_trashed": false,
    "title": "FERMETURE PAR L'EXTERIEUR DE LA BOUCLE LOCALE",
    "votes_nok": 0,
    "votes_ok": 0,
    "votes_mitige": 0,
    "_links": {
      "show": "https://www.republique-numerique.fr/consultations/projet-de-loi-numerique/consultation/consultation/opinions/section-1-les-communs/fermeture-par-l-exterieur-de-la-boucle-locale",
      "edit": "https://www.republique-numerique.fr/consultations/projet-de-loi-numerique/consultation/consultation/opinions/section-1-les-communs/fermeture-par-l-exterieur-de-la-boucle-locale/edit",
      "report": "https://www.republique-numerique.fr/consultations/projet-de-loi-numerique/consultation/consultation/opinions/section-1-les-communs/fermeture-par-l-exterieur-de-la-boucle-locale/report",
      "type": "https://www.republique-numerique.fr/consultations/projet-de-loi-numerique/consultation/consultation/opinions/section-1-les-communs"
    },
    "user_vote": null,
    "has_user_reported": false
  },
  "rankingThreshold": null,
  "opinionTerm": 1
}