{
  "version": {
    "isContribuable": false,
    "votes_total": 2,
    "arguments_yes_count": 0,
    "arguments_no_count": 0,
    "id": 1272,
    "body": "<p>IV. Un service d&#39;acc&egrave;s &agrave; Internet nu doit &ecirc;tre propos&eacute; &agrave; tous les foyers et par tous les op&eacute;rateurs &agrave; tarif r&eacute;gul&eacute; par d&eacute;cret. Le mat&eacute;riel d&#39;acc&egrave;s &agrave; ce service doit respecter les standards des t&eacute;l&eacute;communications et &ecirc;tre inter-op&eacute;rable. L&#39;op&eacute;rateur doit fournir une qualit&eacute; de service au minimum comparable &agrave; sa premi&egrave;re offre commerciale.&nbsp;</p>",
    "comment": null,
    "author": {
      "username": "Pascal Rigaud",
      "displayName": "Pascal Rigaud",
      "uniqueId": "pascalrigaud",
      "isAdmin": false,
      "media": null,
      "vip": false,
      "_links": {
        "profile": "https://www.republique-numerique.fr/profile/pascalrigaud",
        "settings": "https://www.republique-numerique.fr/profile/edit-profile"
      }
    },
    "arguments": [],
    "sources": [],
    "parent": {
      "isContribuable": false,
      "id": 353,
      "body": "<p>IV. Un service d&#39;acc&egrave;s &agrave; Internet nu doit &ecirc;tre propos&eacute; &agrave; tous les foyers et par tous les op&eacute;rateurs &agrave; tarif r&eacute;gul&eacute; par d&eacute;cret. Le mat&eacute;riel d&#39;acc&egrave;s &agrave; ce service doit respecter les standards des t&eacute;l&eacute;communications et &ecirc;tre inter-op&eacute;rable. L&#39;op&eacute;rateur doit fournier une qualit&eacute; de service comparable &agrave; ses offre commerciales.&nbsp;</p>",
      "type": {
        "id": 111,
        "title": "Section 3",
        "subtitle": "Maintien de la connexion internet",
        "voteWidgetType": 2,
        "votesHelpText": "Pensez-vous que cette proposition permet d'atteindre les objectifs présentés dans l’explication de l’article ?",
        "commentSystem": 2,
        "color": "blue",
        "versionable": true,
        "sourceable": true,
        "votesThreshold": null,
        "votesThresholdHelpText": null
      },
      "modals": [],
      "appendices": [
        {
          "body": "<p><strong>Objectif</strong> : Proposer un acc&egrave;s &agrave; Internet basique &agrave; tarif r&eacute;gul&eacute;.</p>\r\n\r\n<p><strong>Explication</strong> : Comme pour la fourniture d&#39;&eacute;nergie, un service d&#39;acc&egrave;s &agrave; Internet associ&eacute; &agrave; aucun autre service (except&eacute; un service VoIP associ&eacute; &agrave; un num&eacute;ro de t&eacute;l&eacute;phone) doit &ecirc;tre propos&eacute; par les op&eacute;rateurs et ceux &agrave; un tarif r&eacute;gul&eacute; par l&#39;&eacute;tat. La qualit&eacute; de service doit &ecirc;tre la m&ecirc;me que les offres commerciales propos&eacute;es par l&#39;op&eacute;rateur. La technologie utilis&eacute;e (ADSL, FTTH, 3G, 4G ...) est celle qui offre la meilleurs qualit&eacute; de service. Le service doit &ecirc;tre accessible avec du mat&eacute;riel standard (pas de box sp&eacute;cifique &agrave; l&#39;op&eacute;rateur). Un tarif social doit &ecirc;tre &eacute;galement propos&eacute; permettant au plus d&eacute;munis de pouvoir continuer &agrave; payer leurs factures apr&egrave;s une menace de coupure d&#39;acc&egrave;s &agrave; Internet. Ce service peut &ecirc;tre en remplacement et au m&ecirc;me prix que l&#39;offre &quot;ligne fixe&quot; d&#39;Orange.&nbsp;</p>\r\n\r\n<p><strong>Exemple</strong> : Un foyer souhaite avoir une connexion &agrave; Internet pas cher mais n&#39;a pas besoin de la TV ni d&#39;un t&eacute;l&eacute;phone fixe. Il peut n&eacute;anmoins utiliser un service de VoIP pour t&eacute;l&eacute;phoner et recevoir des appels ou regarder la TV via un service de streaming en direct.</p>",
          "type": {
            "title": "Explication de l'article"
          }
        }
      ],
      "title": "Obligation pour les opérateurs de proposer un service d'accès à Internet nu",
      "_links": {
        "show": "https://www.republique-numerique.fr/consultations/projet-de-loi-numerique/consultation/consultation/opinions/section-3-maintien-de-la-connexion-internet/obligation-pour-les-operateurs-de-proposer-un-service-d-acces-a-internet-nu",
        "edit": "https://www.republique-numerique.fr/consultations/projet-de-loi-numerique/consultation/consultation/opinions/section-3-maintien-de-la-connexion-internet/obligation-pour-les-operateurs-de-proposer-un-service-d-acces-a-internet-nu/edit",
        "report": "https://www.republique-numerique.fr/consultations/projet-de-loi-numerique/consultation/consultation/opinions/section-3-maintien-de-la-connexion-internet/obligation-pour-les-operateurs-de-proposer-un-service-d-acces-a-internet-nu/report",
        "type": "https://www.republique-numerique.fr/consultations/projet-de-loi-numerique/consultation/consultation/opinions/section-3-maintien-de-la-connexion-internet"
      },
      "user_vote": null,
      "has_user_reported": false
    },
    "sources_count": 0,
    "arguments_count": 0,
    "votes": [
      {
        "user": {
          "username": "Pascal Rigaud",
          "displayName": "Pascal Rigaud",
          "uniqueId": "pascalrigaud",
          "isAdmin": false,
          "media": null,
          "vip": false,
          "_links": {
            "profile": "https://www.republique-numerique.fr/profile/pascalrigaud",
            "settings": "https://www.republique-numerique.fr/profile/edit-profile"
          }
        },
        "value": 1
      },
      {
        "user": {
          "username": "Ric",
          "displayName": "Ric",
          "uniqueId": "ric",
          "isAdmin": false,
          "media": null,
          "vip": false,
          "_links": {
            "profile": "https://www.republique-numerique.fr/profile/ric",
            "settings": "https://www.republique-numerique.fr/profile/edit-profile"
          }
        },
        "value": 1
      }
    ],
    "updated_at": "2015-10-17T10:07:05+0200",
    "ranking": 880,
    "is_trashed": false,
    "title": "Qualité de service",
    "slug": "qualite-de-service",
    "created_at": "2015-10-17T10:07:05+0200",
    "votes_nok": 0,
    "votes_ok": 2,
    "votes_mitige": 0,
    "_links": {
      "show": "https://www.republique-numerique.fr/consultations/projet-de-loi-numerique/consultation/consultation/opinions/section-3-maintien-de-la-connexion-internet/obligation-pour-les-operateurs-de-proposer-un-service-d-acces-a-internet-nu/versions/qualite-de-service",
      "report": "https://www.republique-numerique.fr/consultations/projet-de-loi-numerique/consultation/consultation/opinions/section-3-maintien-de-la-connexion-internet/obligation-pour-les-operateurs-de-proposer-un-service-d-acces-a-internet-nu/versions/qualite-de-service/report"
    },
    "user_vote": null,
    "has_user_reported": false
  },
  "rankingThreshold": null,
  "opinionTerm": 1
}