{
  "version": {
    "isContribuable": false,
    "votes_total": 6,
    "arguments_yes_count": 0,
    "arguments_no_count": 0,
    "id": 1172,
    "body": "<p>Le 1&deg; de l&rsquo;article L.311-4 du code mon&eacute;taire et financier est remplac&eacute; par deux alin&eacute;as ainsi r&eacute;dig&eacute;s :</p>\n\n<p>&laquo; 1&deg; Les op&eacute;rations de paiement propos&eacute;es par un fournisseur de r&eacute;seaux ou de services de communications &eacute;lectroniques, en plus de services de communications &eacute;lectroniques pour un abonn&eacute; au r&eacute;seau ou au service, effectu&eacute;es pour l&#39;achat de contenu num&eacute;rique et de services vocaux, quel que soit le dispositif utilis&eacute; pour l&#39;achat ou la consommation du contenu num&eacute;rique et imput&eacute;es sur la facture correspondante &agrave; condition que la valeur de chaque op&eacute;ration de paiement isol&eacute;e ne d&eacute;passe pas 50 euros et que la valeur cumul&eacute;e des op&eacute;rations de paiement pour un m&ecirc;me abonn&eacute; ne d&eacute;passe pas 300 euros par mois ; lorsqu&#39;un abonn&eacute; pr&eacute;finance son compte aupr&egrave;s du fournisseur de r&eacute;seau ou de services de communications &eacute;lectroniques, la valeur cumul&eacute;e des op&eacute;rations de paiement ne d&eacute;passe pas 300 euros par mois.</p>\n\n<p>&laquo;&nbsp;1&deg; bis Les op&eacute;rations de paiement propos&eacute;es par un fournisseur de r&eacute;seaux ou de services de communications &eacute;lectroniques, en plus de services de communications &eacute;lectroniques pour un abonn&eacute; au r&eacute;seau ou au service, ex&eacute;cut&eacute;es depuis ou au moyen d&#39;un dispositif &eacute;lectronique et imput&eacute;es sur la facture correspondante pour la collecte de dons par des organisations sans but lucratif d&#39;int&eacute;r&ecirc;t g&eacute;n&eacute;ral&nbsp;ou pour l&#39;achat de tickets &agrave; condition que la valeur de chaque op&eacute;ration de paiement isol&eacute;e ne d&eacute;passe pas 50 euros et que la valeur cumul&eacute;e des op&eacute;rations de paiement pour un m&ecirc;me abonn&eacute; ne d&eacute;passe pas 300 euros par mois; lorsqu&#39;un abonn&eacute; pr&eacute;finance son compte aupr&egrave;s du fournisseur de r&eacute;seau ou de services de communications &eacute;lectroniques, la valeur cumul&eacute;e des op&eacute;rations de paiement ne d&eacute;passe pas 300 EUR par mois&nbsp;&raquo;</p>",
    "comment": "<p><strong>Remplacer &laquo; <u>dans le cadre d&rsquo;activit&eacute;s caritatives</u> &raquo; par &laquo; <u>pour la collecte de dons par des organisations sans but lucratif d&rsquo;int&eacute;r&ecirc;t g&eacute;n&eacute;ral</u> &raquo;.&nbsp;</strong></p>\n\n<p>Il est essentiel de limiter le p&eacute;rim&egrave;tre aux dons pour les organisations sans but lucratif d&rsquo;int&eacute;r&ecirc;t g&eacute;n&eacute;ral et exclure ainsi des organisations &agrave; vocation politique par exemple. Mais il est n&eacute;cessaire aussi d&rsquo;indiquer que cette solution de paiement ne peut &ecirc;tre utilis&eacute;e que pour de la &laquo; collecte de dons &raquo;, par les organisations sans but lucratif &nbsp;d&rsquo;int&eacute;r&ecirc;t g&eacute;n&eacute;rale.</p>",
    "author": {
      "username": "AFMM",
      "displayName": "AFMM",
      "uniqueId": "afmm",
      "isAdmin": false,
      "media": {
        "url": "/media/cache/default_avatar/default/0001/01/828_default_avatar.jpg"
      },
      "vip": false,
      "_links": {
        "profile": "https://www.republique-numerique.fr/profile/afmm",
        "settings": "https://www.republique-numerique.fr/profile/edit-profile"
      }
    },
    "arguments": [],
    "sources": [],
    "parent": {
      "isContribuable": false,
      "id": 87,
      "body": "<p>Le 1&deg; de l&rsquo;article L.311-4 du code mon&eacute;taire et financier est remplac&eacute; par deux alin&eacute;as ainsi r&eacute;dig&eacute;s :</p>\r\n\r\n<p>&laquo; 1&deg; Les op&eacute;rations de paiement propos&eacute;es par un fournisseur de r&eacute;seaux ou de services de communications &eacute;lectroniques, en plus de services de communications &eacute;lectroniques pour un abonn&eacute; au r&eacute;seau ou au service, effectu&eacute;es pour l&#39;achat de contenu num&eacute;rique et de services vocaux, quel que soit le dispositif utilis&eacute; pour l&#39;achat ou la consommation du contenu num&eacute;rique et imput&eacute;es sur la facture correspondante &agrave; condition que la valeur de chaque op&eacute;ration de paiement isol&eacute;e ne d&eacute;passe pas 50 euros et que la valeur cumul&eacute;e des op&eacute;rations de paiement pour un m&ecirc;me abonn&eacute; ne d&eacute;passe pas 300 euros par mois ; lorsqu&#39;un abonn&eacute; pr&eacute;finance son compte aupr&egrave;s du fournisseur de r&eacute;seau ou de services de communications &eacute;lectroniques, la valeur cumul&eacute;e des op&eacute;rations de paiement ne d&eacute;passe pas 300 euros par mois.</p>\r\n\r\n<p>&laquo;&nbsp;1&deg; bis Les op&eacute;rations de paiement propos&eacute;es par un fournisseur de r&eacute;seaux ou de services de communications &eacute;lectroniques, en plus de services de communications &eacute;lectroniques pour un abonn&eacute; au r&eacute;seau ou au service, ex&eacute;cut&eacute;es depuis ou au moyen d&#39;un dispositif &eacute;lectronique et imput&eacute;es sur la facture correspondante dans le cadre d&#39;activit&eacute;s caritatives ou pour l&#39;achat de tickets &agrave; condition que la valeur de chaque op&eacute;ration de paiement isol&eacute;e ne d&eacute;passe pas 50 euros et que la valeur cumul&eacute;e des op&eacute;rations de paiement pour un m&ecirc;me abonn&eacute; ne d&eacute;passe pas 300 euros par mois; lorsqu&#39;un abonn&eacute; pr&eacute;finance son compte aupr&egrave;s du fournisseur de r&eacute;seau ou de services de communications &eacute;lectroniques, la valeur cumul&eacute;e des op&eacute;rations de paiement ne d&eacute;passe pas 300 EUR par mois&nbsp;&raquo;</p>",
      "type": {
        "id": 107,
        "title": "Section 2",
        "subtitle": "Paiement par SMS",
        "voteWidgetType": 2,
        "votesHelpText": "Pensez-vous que cette proposition permet d'atteindre les objectifs présentés dans l’explication de l’article ?",
        "commentSystem": 2,
        "color": "blue",
        "versionable": true,
        "sourceable": true,
        "votesThreshold": null,
        "votesThresholdHelpText": null
      },
      "modals": [
        {
          "key": "article L. 311-4",
          "before": "<p>Ne sont pas considérées comme mise à disposition ou gestion de moyens de paiement les activités suivantes :</p><p>1° La réalisation d'opérations de paiement exécutées au moyen d'un appareil de télécommunication ou d'un autre dispositif numérique ou informatique, lorsque l'opérateur du système de télécommunication numérique ou informatique n'agit pas en seule qualité d'intermédiaire. Cette condition est remplie lorsque les biens ou les services achetés sont livrés et doivent être utilisés au moyen de cet appareil de télécommunication, ou de ce dispositif numérique ou informatique ;</p><p>2° Les opérations de paiement entre une entreprise mère et sa filiale, ou entre filiales d'une même entreprise mère, ou au sein d'un groupe, sans qu'aucun autre prestataire de services de paiement qu'une entreprise du même groupe ne fasse office d'intermédiaire.</p>",
          "after": "<p>Ne sont pas considérées comme mise à disposition ou gestion de moyens de paiement les activités suivantes :</p><p>1° Les opérations de paiement proposées par un fournisseur de réseaux ou de services de communications électroniques, en plus de services de communications électroniques pour un abonné au réseau ou au service, effectuées pour l'achat de contenu numérique et de services vocaux, quel que soit le dispositif utilisé pour l'achat ou la consommation du contenu numérique et imputées sur la facture correspondante à condition que la valeur de chaque opération de paiement isolée ne dépasse pas 50 euros et que la valeur cumulée des opérations de paiement pour un même abonné ne dépasse pas 300 euros par mois ; lorsqu'un abonné préfinance son compte auprès du fournisseur de réseau ou de services de communications électroniques, la valeur cumulée des opérations de paiement ne dépasse pas 300 euros par mois.</p><p>1 bis° Les opérations de paiement proposées par un fournisseur de réseaux ou de services de communications électroniques, en plus de services de communications électroniques pour un abonné au réseau ou au service, exécutées depuis ou au moyen d'un dispositif électronique et imputées sur la facture correspondante dans le cadre d'activités caritatives ou pour l'achat de tickets à condition que la valeur de chaque opération de paiement isolée ne dépasse pas 50 euros et que la valeur cumulée des opérations de paiement pour un même abonné ne dépasse pas 300 euros par mois; lorsqu'un abonné préfinance son compte auprès du fournisseur de réseau ou de services de communications électroniques, la valeur cumulée des opérations de paiement ne dépasse pas 300 EUR par mois ;</p>",
          "title": "Article 311-4 du Code monétaire et financier"
        }
      ],
      "appendices": [
        {
          "body": "<p><strong>Objectif :</strong> Faciliter la r&eacute;alisation de paiement par SMS, notamment des dons</p>\r\n\r\n<p><strong>Explication :</strong> Les organisations caritatives ont besoin de diversifier leurs ressources et d&rsquo;atteindre de nouveaux donateurs pour d&eacute;velopper leurs actions, notamment en cas d&rsquo;urgence. Le don par SMS est une attente forte des organisations b&eacute;n&eacute;ficiaires afin de toucher de nouveaux donateurs et mobiliser les citoyens, mais il constitue &eacute;galement une attente des citoyens et de la soci&eacute;t&eacute; civile en rendant le don, plus simple et plus imm&eacute;diat. L&rsquo;article propose aussi de faciliter les transactions par SMS pour l&rsquo;achat de musiques, vid&eacute;os, renseignements t&eacute;l&eacute;phoniques, et les services de billetterie.</p>\r\n\r\n<p><strong>Exemple :</strong> suite &agrave; une catastrophe, il sera possible de donner 20 euros &agrave; la Croix-Rouge par un simple envoi de SMS depuis un t&eacute;l&eacute;phone mobile</p>",
          "type": {
            "title": "Explication de l'article"
          }
        }
      ],
      "title": "Article 27 - Paiement par SMS",
      "_links": {
        "show": "https://www.republique-numerique.fr/consultations/projet-de-loi-numerique/consultation/consultation/opinions/section-2-paiement-par-sms/article-27-paiement-par-sms",
        "edit": "https://www.republique-numerique.fr/consultations/projet-de-loi-numerique/consultation/consultation/opinions/section-2-paiement-par-sms/article-27-paiement-par-sms/edit",
        "report": "https://www.republique-numerique.fr/consultations/projet-de-loi-numerique/consultation/consultation/opinions/section-2-paiement-par-sms/article-27-paiement-par-sms/report",
        "type": "https://www.republique-numerique.fr/consultations/projet-de-loi-numerique/consultation/consultation/opinions/section-2-paiement-par-sms"
      },
      "user_vote": null,
      "has_user_reported": false
    },
    "sources_count": 0,
    "arguments_count": 0,
    "votes": [
      {
        "user": {
          "username": "Florian Vasseur",
          "displayName": "Florian Vasseur",
          "uniqueId": "florianvasseur",
          "isAdmin": false,
          "media": null,
          "vip": false,
          "_links": {
            "profile": "https://www.republique-numerique.fr/profile/florianvasseur",
            "settings": "https://www.republique-numerique.fr/profile/edit-profile"
          }
        },
        "value": 1
      },
      {
        "user": {
          "username": "ROUSSEL Frédéric",
          "displayName": "ROUSSEL Frédéric",
          "uniqueId": "rousselfrederic",
          "isAdmin": false,
          "media": null,
          "vip": false,
          "_links": {
            "profile": "https://www.republique-numerique.fr/profile/rousselfrederic",
            "settings": "https://www.republique-numerique.fr/profile/edit-profile"
          }
        },
        "value": 1
      },
      {
        "user": {
          "username": "Jeanne Varasco",
          "displayName": "Jeanne Varasco",
          "uniqueId": "jeannevarasco",
          "isAdmin": false,
          "media": {
            "url": "/media/cache/default_avatar/default/0001/01/139_default_avatar.jpg"
          },
          "vip": false,
          "_links": {
            "profile": "https://www.republique-numerique.fr/profile/jeannevarasco",
            "settings": "https://www.republique-numerique.fr/profile/edit-profile"
          }
        },
        "value": 1
      },
      {
        "user": {
          "username": "keramsi",
          "displayName": "keramsi",
          "uniqueId": "keramsi",
          "isAdmin": false,
          "media": null,
          "vip": false,
          "_links": {
            "profile": "https://www.republique-numerique.fr/profile/keramsi",
            "settings": "https://www.republique-numerique.fr/profile/edit-profile"
          }
        },
        "value": 1
      },
      {
        "user": {
          "username": "Victor Ferreira",
          "displayName": "Victor Ferreira",
          "uniqueId": "victorferreira",
          "isAdmin": false,
          "media": null,
          "vip": false,
          "_links": {
            "profile": "https://www.republique-numerique.fr/profile/victorferreira",
            "settings": "https://www.republique-numerique.fr/profile/edit-profile"
          }
        },
        "value": 1
      }
    ],
    "updated_at": "2015-10-16T12:01:35+0200",
    "ranking": 549,
    "is_trashed": false,
    "title": "Remplacer la notion d'association caritative par celle d'organisation sans but lucratif d'intérêt général",
    "slug": "remplacer-la-notion-d-association-caritative-par-celle-d-organisation-d-organisation-sans-but-lucratif-d-interet-general",
    "created_at": "2015-10-16T11:59:58+0200",
    "votes_nok": 0,
    "votes_ok": 6,
    "votes_mitige": 0,
    "_links": {
      "show": "https://www.republique-numerique.fr/consultations/projet-de-loi-numerique/consultation/consultation/opinions/section-2-paiement-par-sms/article-27-paiement-par-sms/versions/remplacer-la-notion-d-association-caritative-par-celle-d-organisation-d-organisation-sans-but-lucratif-d-interet-general",
      "report": "https://www.republique-numerique.fr/consultations/projet-de-loi-numerique/consultation/consultation/opinions/section-2-paiement-par-sms/article-27-paiement-par-sms/versions/remplacer-la-notion-d-association-caritative-par-celle-d-organisation-d-organisation-sans-but-lucratif-d-interet-general/report"
    },
    "user_vote": null,
    "has_user_reported": false
  },
  "rankingThreshold": null,
  "opinionTerm": 1
}