{
  "version": {
    "isContribuable": false,
    "votes_total": 14,
    "arguments_yes_count": 1,
    "arguments_no_count": 4,
    "id": 326,
    "body": "<p>&nbsp;</p>\n\n<div><p>Le 1&deg; de l&rsquo;article L.311-4 du code mon&eacute;taire et financier est remplac&eacute; par deux alin&eacute;as ainsi r&eacute;dig&eacute;s :</p>\n\n<p>&laquo; 1&deg; Les op&eacute;rations de paiement propos&eacute;es par un fournisseur de r&eacute;seaux ou de services de communications &eacute;lectroniques, en plus de services de communications &eacute;lectroniques pour un abonn&eacute; au r&eacute;seau ou au service, effectu&eacute;es pour l&#39;achat de contenu num&eacute;rique et de services vocaux, quel que soit le dispositif utilis&eacute; pour l&#39;achat ou la consommation du contenu num&eacute;rique et imput&eacute;es sur la facture correspondante &agrave; condition que la valeur de chaque op&eacute;ration de paiement isol&eacute;e ne d&eacute;passe pas 50 euros et que la valeur cumul&eacute;e des op&eacute;rations de paiement pour un m&ecirc;me abonn&eacute; ne d&eacute;passe pas 300 euros par mois ; lorsqu&#39;un abonn&eacute; pr&eacute;finance son compte aupr&egrave;s du fournisseur de r&eacute;seau ou de services de communications &eacute;lectroniques, la valeur cumul&eacute;e des op&eacute;rations de paiement ne d&eacute;passe pas 300 euros par mois.</p>\n\n<p>&laquo;&nbsp;1&deg; bis Les op&eacute;rations de paiement propos&eacute;es par un fournisseur de r&eacute;seaux ou de services de communications &eacute;lectroniques, en plus de services de communications &eacute;lectroniques pour un abonn&eacute; au r&eacute;seau ou au service, ex&eacute;cut&eacute;es depuis ou au moyen d&#39;un dispositif &eacute;lectronique et imput&eacute;es sur la facture correspondante dans le cadre d&#39;activit&eacute;s caritatives ou pour l&#39;achat de tickets &agrave; condition que la valeur de chaque op&eacute;ration de paiement isol&eacute;e ne d&eacute;passe pas 50 euros et que la valeur cumul&eacute;e des op&eacute;rations de paiement pour un m&ecirc;me abonn&eacute; ne d&eacute;passe pas 300 euros par mois; lorsqu&#39;un abonn&eacute; pr&eacute;finance son compte aupr&egrave;s du fournisseur de r&eacute;seau ou de services de communications &eacute;lectroniques, la valeur cumul&eacute;e des op&eacute;rations de paiement ne d&eacute;passe pas 300 EUR par mois&nbsp;&raquo;</p>\n</div>\n\n<p>&laquo;&nbsp;1&deg; ter L&#39;op&eacute;ration de paiemant par communiquation t&eacute;l&eacute;phonique, lorsqu&#39;elle est effectu&eacute;e par SMS, doit &ecirc;tre valid&eacute; par la transmission d&#39;une suite de lettre sp&eacute;cifique par le payeur. Une simple r&eacute;ponse sans modification du message original ne peut en aucune mani&egrave;re &ecirc;tre consid&eacute;r&eacute; comme un paiemant.</p>",
    "comment": "<p>Les num&eacute;ros surtax&eacute;s sont un moyen de paiemant peu fiable et utilis&eacute; la plupart du temps lors d&#39;arnaques au call-back ou Spam SMS. Pour &eacute;viter que ces arnaques se r&eacute;p&eacute;tent, la simple r&eacute;ponse a un message ne doit pas &ecirc;tre consid&eacute;r&eacute; comme un moyen de paiemant. Un acquiesement de l&#39;utilisateur est n&eacute;cessaire pour toute validation du paiemant.</p>",
    "author": {
      "username": "Metral Rémi",
      "displayName": "Metral Rémi",
      "uniqueId": "metralremi",
      "isAdmin": false,
      "media": null,
      "vip": false,
      "_links": {
        "profile": "https://www.republique-numerique.fr/profile/metralremi",
        "settings": "https://www.republique-numerique.fr/profile/edit-profile"
      }
    },
    "arguments": [
      {
        "isContribuable": false,
        "id": 1144,
        "body": "parcours client trop compliqué . ",
        "created_at": "2015-09-29T09:33:52+0200",
        "updated_at": "2015-09-29T09:33:52+0200",
        "is_enabled": true,
        "votes_count": 0,
        "type": 0,
        "is_trashed": false,
        "author": {
          "username": "jedeons",
          "displayName": "jedeons",
          "uniqueId": "jedeons",
          "isAdmin": false,
          "media": null,
          "vip": false,
          "_links": {
            "profile": "https://www.republique-numerique.fr/profile/jedeons",
            "settings": "https://www.republique-numerique.fr/profile/edit-profile"
          }
        },
        "_links": {
          "show": "https://www.republique-numerique.fr/consultations/projet-de-loi-numerique/consultation/consultation/opinions/section-2-paiement-par-sms/article-27-paiement-par-sms/versions/validation-necessaire-du-paiemant-par-le-client#arg-1144",
          "edit": "https://www.republique-numerique.fr/consultations/projet-de-loi-numerique/consultation/consultation/opinions/section-2-paiement-par-sms/article-27-paiement-par-sms/arguments/1144/edit",
          "report": "https://www.republique-numerique.fr/consultations/projet-de-loi-numerique/consultation/consultation/opinions/section-2-paiement-par-sms/article-27-paiement-par-sms/arguments/1144/report"
        },
        "has_user_voted": false,
        "has_user_reported": false
      },
      {
        "isContribuable": false,
        "id": 1145,
        "body": "ce type de sécurisation n'est pas à mettre dans la loi mais dépend des opérateurs",
        "created_at": "2015-09-29T09:34:21+0200",
        "updated_at": "2015-09-29T09:34:21+0200",
        "is_enabled": true,
        "votes_count": 1,
        "type": 0,
        "is_trashed": false,
        "author": {
          "username": "jedeons",
          "displayName": "jedeons",
          "uniqueId": "jedeons",
          "isAdmin": false,
          "media": null,
          "vip": false,
          "_links": {
            "profile": "https://www.republique-numerique.fr/profile/jedeons",
            "settings": "https://www.republique-numerique.fr/profile/edit-profile"
          }
        },
        "_links": {
          "show": "https://www.republique-numerique.fr/consultations/projet-de-loi-numerique/consultation/consultation/opinions/section-2-paiement-par-sms/article-27-paiement-par-sms/versions/validation-necessaire-du-paiemant-par-le-client#arg-1145",
          "edit": "https://www.republique-numerique.fr/consultations/projet-de-loi-numerique/consultation/consultation/opinions/section-2-paiement-par-sms/article-27-paiement-par-sms/arguments/1145/edit",
          "report": "https://www.republique-numerique.fr/consultations/projet-de-loi-numerique/consultation/consultation/opinions/section-2-paiement-par-sms/article-27-paiement-par-sms/arguments/1145/report"
        },
        "has_user_voted": false,
        "has_user_reported": false
      },
      {
        "isContribuable": false,
        "id": 1220,
        "body": "En réponse a Jedeons, mon expérience aussi bien personnelle que professionnelle avec les opérateurs montre bien qu'il est impossible de leur faire confiance, et que sans contraintes, ils iront vers les solutions les moins couteuses au détriment de la sécurité.\r\n\r\nl'envoi d'un texte court est déjà utilisé largement par exemple pour valider les voyages par BlaBlaCar sans aucune difficulté.",
        "created_at": "2015-09-29T13:13:28+0200",
        "updated_at": "2015-09-29T13:14:35+0200",
        "is_enabled": true,
        "votes_count": 2,
        "type": 1,
        "is_trashed": false,
        "author": {
          "username": "Metral Rémi",
          "displayName": "Metral Rémi",
          "uniqueId": "metralremi",
          "isAdmin": false,
          "media": null,
          "vip": false,
          "_links": {
            "profile": "https://www.republique-numerique.fr/profile/metralremi",
            "settings": "https://www.republique-numerique.fr/profile/edit-profile"
          }
        },
        "_links": {
          "show": "https://www.republique-numerique.fr/consultations/projet-de-loi-numerique/consultation/consultation/opinions/section-2-paiement-par-sms/article-27-paiement-par-sms/versions/validation-necessaire-du-paiemant-par-le-client#arg-1220",
          "edit": "https://www.republique-numerique.fr/consultations/projet-de-loi-numerique/consultation/consultation/opinions/section-2-paiement-par-sms/article-27-paiement-par-sms/arguments/1220/edit",
          "report": "https://www.republique-numerique.fr/consultations/projet-de-loi-numerique/consultation/consultation/opinions/section-2-paiement-par-sms/article-27-paiement-par-sms/arguments/1220/report"
        },
        "has_user_voted": false,
        "has_user_reported": false
      },
      {
        "isContribuable": false,
        "id": 1773,
        "body": "Je vois mal comment ça peut marcher pour les appels aux dons",
        "created_at": "2015-10-01T09:48:22+0200",
        "updated_at": "2015-10-01T09:48:22+0200",
        "is_enabled": true,
        "votes_count": 3,
        "type": 0,
        "is_trashed": false,
        "author": {
          "username": "Fabien Duprat",
          "displayName": "Fabien Duprat",
          "uniqueId": "fabienduprat",
          "isAdmin": false,
          "media": {
            "url": "/media/cache/default_avatar/default/0001/01/275_default_avatar.jpg"
          },
          "vip": false,
          "_links": {
            "profile": "https://www.republique-numerique.fr/profile/fabienduprat",
            "settings": "https://www.republique-numerique.fr/profile/edit-profile"
          }
        },
        "_links": {
          "show": "https://www.republique-numerique.fr/consultations/projet-de-loi-numerique/consultation/consultation/opinions/section-2-paiement-par-sms/article-27-paiement-par-sms/versions/validation-necessaire-du-paiemant-par-le-client#arg-1773",
          "edit": "https://www.republique-numerique.fr/consultations/projet-de-loi-numerique/consultation/consultation/opinions/section-2-paiement-par-sms/article-27-paiement-par-sms/arguments/1773/edit",
          "report": "https://www.republique-numerique.fr/consultations/projet-de-loi-numerique/consultation/consultation/opinions/section-2-paiement-par-sms/article-27-paiement-par-sms/arguments/1773/report"
        },
        "has_user_voted": false,
        "has_user_reported": false
      },
      {
        "isContribuable": false,
        "id": 2171,
        "body": "En réponse à mettral remi, il s'agit de petite somme, qui doit se réaliser en un minimum de clic, sinon ce sera inutile",
        "created_at": "2015-10-04T14:21:13+0200",
        "updated_at": "2015-10-04T14:21:13+0200",
        "is_enabled": true,
        "votes_count": 0,
        "type": 0,
        "is_trashed": false,
        "author": {
          "username": "jedeons",
          "displayName": "jedeons",
          "uniqueId": "jedeons",
          "isAdmin": false,
          "media": null,
          "vip": false,
          "_links": {
            "profile": "https://www.republique-numerique.fr/profile/jedeons",
            "settings": "https://www.republique-numerique.fr/profile/edit-profile"
          }
        },
        "_links": {
          "show": "https://www.republique-numerique.fr/consultations/projet-de-loi-numerique/consultation/consultation/opinions/section-2-paiement-par-sms/article-27-paiement-par-sms/versions/validation-necessaire-du-paiemant-par-le-client#arg-2171",
          "edit": "https://www.republique-numerique.fr/consultations/projet-de-loi-numerique/consultation/consultation/opinions/section-2-paiement-par-sms/article-27-paiement-par-sms/arguments/2171/edit",
          "report": "https://www.republique-numerique.fr/consultations/projet-de-loi-numerique/consultation/consultation/opinions/section-2-paiement-par-sms/article-27-paiement-par-sms/arguments/2171/report"
        },
        "has_user_voted": false,
        "has_user_reported": false
      }
    ],
    "sources": [],
    "parent": {
      "isContribuable": false,
      "id": 87,
      "body": "<p>Le 1&deg; de l&rsquo;article L.311-4 du code mon&eacute;taire et financier est remplac&eacute; par deux alin&eacute;as ainsi r&eacute;dig&eacute;s :</p>\r\n\r\n<p>&laquo; 1&deg; Les op&eacute;rations de paiement propos&eacute;es par un fournisseur de r&eacute;seaux ou de services de communications &eacute;lectroniques, en plus de services de communications &eacute;lectroniques pour un abonn&eacute; au r&eacute;seau ou au service, effectu&eacute;es pour l&#39;achat de contenu num&eacute;rique et de services vocaux, quel que soit le dispositif utilis&eacute; pour l&#39;achat ou la consommation du contenu num&eacute;rique et imput&eacute;es sur la facture correspondante &agrave; condition que la valeur de chaque op&eacute;ration de paiement isol&eacute;e ne d&eacute;passe pas 50 euros et que la valeur cumul&eacute;e des op&eacute;rations de paiement pour un m&ecirc;me abonn&eacute; ne d&eacute;passe pas 300 euros par mois ; lorsqu&#39;un abonn&eacute; pr&eacute;finance son compte aupr&egrave;s du fournisseur de r&eacute;seau ou de services de communications &eacute;lectroniques, la valeur cumul&eacute;e des op&eacute;rations de paiement ne d&eacute;passe pas 300 euros par mois.</p>\r\n\r\n<p>&laquo;&nbsp;1&deg; bis Les op&eacute;rations de paiement propos&eacute;es par un fournisseur de r&eacute;seaux ou de services de communications &eacute;lectroniques, en plus de services de communications &eacute;lectroniques pour un abonn&eacute; au r&eacute;seau ou au service, ex&eacute;cut&eacute;es depuis ou au moyen d&#39;un dispositif &eacute;lectronique et imput&eacute;es sur la facture correspondante dans le cadre d&#39;activit&eacute;s caritatives ou pour l&#39;achat de tickets &agrave; condition que la valeur de chaque op&eacute;ration de paiement isol&eacute;e ne d&eacute;passe pas 50 euros et que la valeur cumul&eacute;e des op&eacute;rations de paiement pour un m&ecirc;me abonn&eacute; ne d&eacute;passe pas 300 euros par mois; lorsqu&#39;un abonn&eacute; pr&eacute;finance son compte aupr&egrave;s du fournisseur de r&eacute;seau ou de services de communications &eacute;lectroniques, la valeur cumul&eacute;e des op&eacute;rations de paiement ne d&eacute;passe pas 300 EUR par mois&nbsp;&raquo;</p>",
      "type": {
        "id": 107,
        "title": "Section 2",
        "subtitle": "Paiement par SMS",
        "voteWidgetType": 2,
        "votesHelpText": "Pensez-vous que cette proposition permet d'atteindre les objectifs présentés dans l’explication de l’article ?",
        "commentSystem": 2,
        "color": "blue",
        "versionable": true,
        "sourceable": true,
        "votesThreshold": null,
        "votesThresholdHelpText": null
      },
      "modals": [
        {
          "key": "article L. 311-4",
          "before": "<p>Ne sont pas considérées comme mise à disposition ou gestion de moyens de paiement les activités suivantes :</p><p>1° La réalisation d'opérations de paiement exécutées au moyen d'un appareil de télécommunication ou d'un autre dispositif numérique ou informatique, lorsque l'opérateur du système de télécommunication numérique ou informatique n'agit pas en seule qualité d'intermédiaire. Cette condition est remplie lorsque les biens ou les services achetés sont livrés et doivent être utilisés au moyen de cet appareil de télécommunication, ou de ce dispositif numérique ou informatique ;</p><p>2° Les opérations de paiement entre une entreprise mère et sa filiale, ou entre filiales d'une même entreprise mère, ou au sein d'un groupe, sans qu'aucun autre prestataire de services de paiement qu'une entreprise du même groupe ne fasse office d'intermédiaire.</p>",
          "after": "<p>Ne sont pas considérées comme mise à disposition ou gestion de moyens de paiement les activités suivantes :</p><p>1° Les opérations de paiement proposées par un fournisseur de réseaux ou de services de communications électroniques, en plus de services de communications électroniques pour un abonné au réseau ou au service, effectuées pour l'achat de contenu numérique et de services vocaux, quel que soit le dispositif utilisé pour l'achat ou la consommation du contenu numérique et imputées sur la facture correspondante à condition que la valeur de chaque opération de paiement isolée ne dépasse pas 50 euros et que la valeur cumulée des opérations de paiement pour un même abonné ne dépasse pas 300 euros par mois ; lorsqu'un abonné préfinance son compte auprès du fournisseur de réseau ou de services de communications électroniques, la valeur cumulée des opérations de paiement ne dépasse pas 300 euros par mois.</p><p>1 bis° Les opérations de paiement proposées par un fournisseur de réseaux ou de services de communications électroniques, en plus de services de communications électroniques pour un abonné au réseau ou au service, exécutées depuis ou au moyen d'un dispositif électronique et imputées sur la facture correspondante dans le cadre d'activités caritatives ou pour l'achat de tickets à condition que la valeur de chaque opération de paiement isolée ne dépasse pas 50 euros et que la valeur cumulée des opérations de paiement pour un même abonné ne dépasse pas 300 euros par mois; lorsqu'un abonné préfinance son compte auprès du fournisseur de réseau ou de services de communications électroniques, la valeur cumulée des opérations de paiement ne dépasse pas 300 EUR par mois ;</p>",
          "title": "Article 311-4 du Code monétaire et financier"
        }
      ],
      "appendices": [
        {
          "body": "<p><strong>Objectif :</strong> Faciliter la r&eacute;alisation de paiement par SMS, notamment des dons</p>\r\n\r\n<p><strong>Explication :</strong> Les organisations caritatives ont besoin de diversifier leurs ressources et d&rsquo;atteindre de nouveaux donateurs pour d&eacute;velopper leurs actions, notamment en cas d&rsquo;urgence. Le don par SMS est une attente forte des organisations b&eacute;n&eacute;ficiaires afin de toucher de nouveaux donateurs et mobiliser les citoyens, mais il constitue &eacute;galement une attente des citoyens et de la soci&eacute;t&eacute; civile en rendant le don, plus simple et plus imm&eacute;diat. L&rsquo;article propose aussi de faciliter les transactions par SMS pour l&rsquo;achat de musiques, vid&eacute;os, renseignements t&eacute;l&eacute;phoniques, et les services de billetterie.</p>\r\n\r\n<p><strong>Exemple :</strong> suite &agrave; une catastrophe, il sera possible de donner 20 euros &agrave; la Croix-Rouge par un simple envoi de SMS depuis un t&eacute;l&eacute;phone mobile</p>",
          "type": {
            "title": "Explication de l'article"
          }
        }
      ],
      "title": "Article 27 - Paiement par SMS",
      "_links": {
        "show": "https://www.republique-numerique.fr/consultations/projet-de-loi-numerique/consultation/consultation/opinions/section-2-paiement-par-sms/article-27-paiement-par-sms",
        "edit": "https://www.republique-numerique.fr/consultations/projet-de-loi-numerique/consultation/consultation/opinions/section-2-paiement-par-sms/article-27-paiement-par-sms/edit",
        "report": "https://www.republique-numerique.fr/consultations/projet-de-loi-numerique/consultation/consultation/opinions/section-2-paiement-par-sms/article-27-paiement-par-sms/report",
        "type": "https://www.republique-numerique.fr/consultations/projet-de-loi-numerique/consultation/consultation/opinions/section-2-paiement-par-sms"
      },
      "user_vote": null,
      "has_user_reported": false
    },
    "sources_count": 0,
    "arguments_count": 5,
    "votes": [
      {
        "user": {
          "username": "Cyril Broutin",
          "displayName": "Cyril Broutin",
          "uniqueId": "cyrilbroutin",
          "isAdmin": false,
          "media": null,
          "vip": false,
          "_links": {
            "profile": "https://www.republique-numerique.fr/profile/cyrilbroutin",
            "settings": "https://www.republique-numerique.fr/profile/edit-profile"
          }
        },
        "value": 1
      },
      {
        "user": {
          "username": "jedeons",
          "displayName": "jedeons",
          "uniqueId": "jedeons",
          "isAdmin": false,
          "media": null,
          "vip": false,
          "_links": {
            "profile": "https://www.republique-numerique.fr/profile/jedeons",
            "settings": "https://www.republique-numerique.fr/profile/edit-profile"
          }
        },
        "value": -1
      },
      {
        "user": {
          "username": "Metral Rémi",
          "displayName": "Metral Rémi",
          "uniqueId": "metralremi",
          "isAdmin": false,
          "media": null,
          "vip": false,
          "_links": {
            "profile": "https://www.republique-numerique.fr/profile/metralremi",
            "settings": "https://www.republique-numerique.fr/profile/edit-profile"
          }
        },
        "value": 1
      },
      {
        "user": {
          "username": "Vincent Reverdy",
          "displayName": "Vincent Reverdy",
          "uniqueId": "vincentreverdy",
          "isAdmin": false,
          "media": {
            "url": "/media/cache/default_avatar/default/0001/01/268_default_avatar.jpg"
          },
          "vip": false,
          "_links": {
            "profile": "https://www.republique-numerique.fr/profile/vincentreverdy",
            "settings": "https://www.republique-numerique.fr/profile/edit-profile"
          }
        },
        "value": 0
      },
      {
        "user": {
          "username": "Fabien Duprat",
          "displayName": "Fabien Duprat",
          "uniqueId": "fabienduprat",
          "isAdmin": false,
          "media": {
            "url": "/media/cache/default_avatar/default/0001/01/275_default_avatar.jpg"
          },
          "vip": false,
          "_links": {
            "profile": "https://www.republique-numerique.fr/profile/fabienduprat",
            "settings": "https://www.republique-numerique.fr/profile/edit-profile"
          }
        },
        "value": -1
      }
    ],
    "updated_at": "2015-09-28T15:26:46+0200",
    "ranking": 379,
    "is_trashed": false,
    "title": "Validation nécessaire du paiemant par le client",
    "slug": "validation-necessaire-du-paiemant-par-le-client",
    "created_at": "2015-09-28T15:23:57+0200",
    "votes_nok": 2,
    "votes_ok": 11,
    "votes_mitige": 1,
    "_links": {
      "show": "https://www.republique-numerique.fr/consultations/projet-de-loi-numerique/consultation/consultation/opinions/section-2-paiement-par-sms/article-27-paiement-par-sms/versions/validation-necessaire-du-paiemant-par-le-client",
      "report": "https://www.republique-numerique.fr/consultations/projet-de-loi-numerique/consultation/consultation/opinions/section-2-paiement-par-sms/article-27-paiement-par-sms/versions/validation-necessaire-du-paiemant-par-le-client/report"
    },
    "user_vote": null,
    "has_user_reported": false
  },
  "rankingThreshold": null,
  "opinionTerm": 1
}