{
  "version": {
    "isContribuable": false,
    "votes_total": 3,
    "arguments_yes_count": 1,
    "arguments_no_count": 1,
    "id": 459,
    "body": "<p>Elaboration pour chaque citoyen,ou soci&eacute;t&eacute; qui d&eacute;tient des biens num&eacute;riques de pouuvoir cr&eacute;er un testament num&eacute;rique enregistr&eacute; dans l&#39;espace citoyen ou coffre fort citoyen, dont l&#39;administration ou le notaire d&eacute;sign&eacute;&nbsp;disposeras des identifiants&nbsp;et des mots de passe du defunt ainsi que les coordonn&eacute;es postale et mails des b&eacute;n&eacute;ficiaires</p>",
    "comment": "Rapprocher cette proposition de&nbsp;Section 2 article 5 espace s&eacute;curis&eacute; de la donn&eacute;e des citoyens&nbsp;",
    "author": {
      "username": "Cédric André",
      "displayName": "Cédric André",
      "uniqueId": "cedricandre",
      "isAdmin": false,
      "media": null,
      "vip": false,
      "_links": {
        "profile": "https://www.republique-numerique.fr/profile/cedricandre",
        "settings": "https://www.republique-numerique.fr/profile/edit-profile"
      }
    },
    "arguments": [
      {
        "isContribuable": false,
        "id": 4678,
        "body": "La formulation est embrouillée, et ne précise pas ce que devraient être \"l'espace citoyen\" et le \"coffre fort citoyen\"",
        "created_at": "2015-10-16T13:47:17+0200",
        "updated_at": "2015-10-16T13:47:17+0200",
        "is_enabled": true,
        "votes_count": 1,
        "type": 0,
        "is_trashed": false,
        "author": {
          "username": "Charlotte Récapet",
          "displayName": "Charlotte Récapet",
          "uniqueId": "charlotterecapet",
          "isAdmin": false,
          "media": null,
          "vip": false,
          "_links": {
            "profile": "https://www.republique-numerique.fr/profile/charlotterecapet",
            "settings": "https://www.republique-numerique.fr/profile/edit-profile"
          }
        },
        "_links": {
          "show": "https://www.republique-numerique.fr/consultations/projet-de-loi-numerique/consultation/consultation/opinions/section-2-portabilite-des-donnees/e-testament/versions/le-e-testament-cf-section-2-article-5-espace-securise-de-la-donnee-des-citoyens#arg-4678",
          "edit": "https://www.republique-numerique.fr/consultations/projet-de-loi-numerique/consultation/consultation/opinions/section-2-portabilite-des-donnees/e-testament/arguments/4678/edit",
          "report": "https://www.republique-numerique.fr/consultations/projet-de-loi-numerique/consultation/consultation/opinions/section-2-portabilite-des-donnees/e-testament/arguments/4678/report"
        },
        "has_user_voted": false,
        "has_user_reported": false
      },
      {
        "isContribuable": false,
        "id": 5570,
        "body": "S'agit-il d'un coffre fort physique, ou d'un coffre fort numérique ?",
        "created_at": "2015-10-17T21:58:37+0200",
        "updated_at": "2015-10-17T21:58:37+0200",
        "is_enabled": true,
        "votes_count": 1,
        "type": 1,
        "is_trashed": false,
        "author": {
          "username": "Vincent Reverdy",
          "displayName": "Vincent Reverdy",
          "uniqueId": "vincentreverdy",
          "isAdmin": false,
          "media": {
            "url": "/media/cache/default_avatar/default/0001/01/268_default_avatar.jpg"
          },
          "vip": false,
          "_links": {
            "profile": "https://www.republique-numerique.fr/profile/vincentreverdy",
            "settings": "https://www.republique-numerique.fr/profile/edit-profile"
          }
        },
        "_links": {
          "show": "https://www.republique-numerique.fr/consultations/projet-de-loi-numerique/consultation/consultation/opinions/section-2-portabilite-des-donnees/e-testament/versions/le-e-testament-cf-section-2-article-5-espace-securise-de-la-donnee-des-citoyens#arg-5570",
          "edit": "https://www.republique-numerique.fr/consultations/projet-de-loi-numerique/consultation/consultation/opinions/section-2-portabilite-des-donnees/e-testament/arguments/5570/edit",
          "report": "https://www.republique-numerique.fr/consultations/projet-de-loi-numerique/consultation/consultation/opinions/section-2-portabilite-des-donnees/e-testament/arguments/5570/report"
        },
        "has_user_voted": false,
        "has_user_reported": false
      }
    ],
    "sources": [],
    "parent": {
      "isContribuable": false,
      "id": 172,
      "body": "<p>Elaboration pour chaque citoyen,ou soci&eacute;t&eacute; qui d&eacute;tient des biens num&eacute;riques de pouuvoir cr&eacute;er un testament num&eacute;rique enregistr&eacute; au pres d&#39;une chambre notariable, qui elle disposeras des identifiant et des mots de passe du defunt ainsi que les coordonn&eacute;es postale et mails des b&eacute;n&eacute;ficiaire</p>",
      "type": {
        "id": 95,
        "title": "Section 2",
        "subtitle": "Portabilité des données",
        "voteWidgetType": 2,
        "votesHelpText": "Pensez-vous que cette proposition permet d'atteindre les objectifs présentés dans l’explication de l’article ?",
        "commentSystem": 2,
        "color": "blue",
        "versionable": true,
        "sourceable": true,
        "votesThreshold": null,
        "votesThresholdHelpText": null
      },
      "modals": [],
      "appendices": [
        {
          "body": "<p>Le E-testament pourras etre enregistr&eacute; aupr&eacute;s&nbsp; d&#39;une chambre notariable en ligne</p>\r\n\r\n<p>les donn&eacute;e seront securis&eacute;e et crypt&eacute;es sur plusieurs support, la date maximale de conservation de testament seras de 50ans a partir de la date du d&eacute;c&eacute;s. Le contenus de ces donn&eacute;es porteras sur les bien num&eacute;riques acquis ainsi que les identifiant et les mots de passe pour chaque plateforme num&eacute;rique inscrit par le d&eacute;funt sur son testament, une ligne seras &eacute;gelalement inscrite si le defunt veux une suppressions de ces donn&eacute;es apres ca mort sur l&#39;internet global.</p>",
          "type": {
            "title": "Explication de l'article"
          }
        }
      ],
      "title": "E-Testament",
      "_links": {
        "show": "https://www.republique-numerique.fr/consultations/projet-de-loi-numerique/consultation/consultation/opinions/section-2-portabilite-des-donnees/e-testament",
        "edit": "https://www.republique-numerique.fr/consultations/projet-de-loi-numerique/consultation/consultation/opinions/section-2-portabilite-des-donnees/e-testament/edit",
        "report": "https://www.republique-numerique.fr/consultations/projet-de-loi-numerique/consultation/consultation/opinions/section-2-portabilite-des-donnees/e-testament/report",
        "type": "https://www.republique-numerique.fr/consultations/projet-de-loi-numerique/consultation/consultation/opinions/section-2-portabilite-des-donnees"
      },
      "user_vote": null,
      "has_user_reported": false
    },
    "sources_count": 0,
    "arguments_count": 2,
    "votes": [
      {
        "user": {
          "username": "Cédric André",
          "displayName": "Cédric André",
          "uniqueId": "cedricandre",
          "isAdmin": false,
          "media": null,
          "vip": false,
          "_links": {
            "profile": "https://www.republique-numerique.fr/profile/cedricandre",
            "settings": "https://www.republique-numerique.fr/profile/edit-profile"
          }
        },
        "value": 1
      },
      {
        "user": {
          "username": "Vincent Reverdy",
          "displayName": "Vincent Reverdy",
          "uniqueId": "vincentreverdy",
          "isAdmin": false,
          "media": {
            "url": "/media/cache/default_avatar/default/0001/01/268_default_avatar.jpg"
          },
          "vip": false,
          "_links": {
            "profile": "https://www.republique-numerique.fr/profile/vincentreverdy",
            "settings": "https://www.republique-numerique.fr/profile/edit-profile"
          }
        },
        "value": 1
      },
      {
        "user": {
          "username": "Charlotte Récapet",
          "displayName": "Charlotte Récapet",
          "uniqueId": "charlotterecapet",
          "isAdmin": false,
          "media": null,
          "vip": false,
          "_links": {
            "profile": "https://www.republique-numerique.fr/profile/charlotterecapet",
            "settings": "https://www.republique-numerique.fr/profile/edit-profile"
          }
        },
        "value": -1
      }
    ],
    "updated_at": "2015-09-30T12:06:19+0200",
    "ranking": 880,
    "is_trashed": false,
    "title": "Le E-Testament cf. Section 2 article 5 espace sécurisé de la donnée des citoyens",
    "slug": "le-e-testament-cf-section-2-article-5-espace-securise-de-la-donnee-des-citoyens",
    "created_at": "2015-09-30T12:06:19+0200",
    "votes_nok": 1,
    "votes_ok": 2,
    "votes_mitige": 0,
    "_links": {
      "show": "https://www.republique-numerique.fr/consultations/projet-de-loi-numerique/consultation/consultation/opinions/section-2-portabilite-des-donnees/e-testament/versions/le-e-testament-cf-section-2-article-5-espace-securise-de-la-donnee-des-citoyens",
      "report": "https://www.republique-numerique.fr/consultations/projet-de-loi-numerique/consultation/consultation/opinions/section-2-portabilite-des-donnees/e-testament/versions/le-e-testament-cf-section-2-article-5-espace-securise-de-la-donnee-des-citoyens/report"
    },
    "user_vote": null,
    "has_user_reported": false
  },
  "rankingThreshold": null,
  "opinionTerm": 1
}