{
  "version": {
    "isContribuable": false,
    "votes_total": 2,
    "arguments_yes_count": 0,
    "arguments_no_count": 0,
    "id": 1394,
    "body": "<p>1&deg; L&#39;&Eacute;tat a l&#39;obligation d&#39;utiliser, d&egrave;s qu&#39;il traite des donn&eacute;es de cittoyens, un syst&egrave;me libre tel que ceux d&eacute;riv&eacute;s de GNU/Linux ou autres distributions Libre (*BSD, Haiku...).</p>",
    "comment": "Il n&#39;y a pas que GNU/Linux comme distribution Libre, il y en a pleins d&#39;autres qui peuvent plus ou moins performente pour une utilit&eacute; donn&eacute;e.",
    "author": {
      "username": "HS-157",
      "displayName": "HS-157",
      "uniqueId": "hs157",
      "isAdmin": false,
      "media": null,
      "vip": false,
      "_links": {
        "profile": "https://www.republique-numerique.fr/profile/hs157",
        "settings": "https://www.republique-numerique.fr/profile/edit-profile"
      }
    },
    "arguments": [],
    "sources": [],
    "parent": {
      "isContribuable": false,
      "id": 115,
      "body": "<p>1&deg; L&#39;&Eacute;tat a l&#39;obligation d&#39;utiliser, d&egrave;s qu&#39;il traite des donn&eacute;es de cittoyens, un syst&egrave;me libre tel que ceux d&eacute;riv&eacute;s de GNU/Linux.</p>",
      "type": {
        "id": 88,
        "title": "Section 3",
        "subtitle": "Données d’intérêt général",
        "voteWidgetType": 2,
        "votesHelpText": "Pensez-vous que cette proposition permet d'atteindre les objectifs présentés dans l’explication de l’article ?",
        "commentSystem": 2,
        "color": "blue",
        "versionable": true,
        "sourceable": true,
        "votesThreshold": null,
        "votesThresholdHelpText": null
      },
      "modals": [],
      "appendices": [
        {
          "body": "<p>Les serivices administratifs de l&#39;&Eacute;tat tels que la pr&eacute;fecture, l&#39;hotel de ville, le tr&eacute;sor public... g&egrave;rent de tr&egrave;s grandes quantit&eacute;s de donn&eacute;es des citoyens. L&#39;utlisation d&#39;un syst&egrave;me propri&eacute;taire tel que Microsoft Windows est en d&eacute;saccord avec la protection des citoyens que l&#39;&Eacute;tat Fran&ccedil;ais doit garantir.</p>\r\n\r\n<p>En effet, ce syst&egrave;me est propri&eacute;taire et issu d&#39;une entreprise am&eacute;ricaine. De r&eacute;cents scandales ont montr&eacute; qu&#39;il envoyait r&eacute;guli&egrave;rement des informations sur ses utilisateurs aux serveurs de Microsoft. Son utilisation pour g&eacute;rer des donn&eacute;es de citoyens fran&ccedil;ais remet en cause notre ind&eacute;pendance nationnale. Il&nbsp; peut aussi permettre un espionnage massif de la part des &Eacute;tats-Unis du fait des lois en vigueur outre-atlantique.</p>\r\n\r\n<p>L&#39;&Eacute;tat se doit donc pour prot&eacute;ger ses citoyens d&#39;utiliser un syst&egrave;me libre et ind&eacute;pendant d&eacute;riv&eacute; de GNU/Linux. Son code source disponible permet de s&#39;assurer&nbsp; qu&#39;aucune &quot;porte d&eacute;rob&eacute;e&quot; n&#39;est pr&eacute;sente.</p>",
          "type": {
            "title": "Explication de l'article"
          }
        }
      ],
      "title": "Utilisation de GNU/Linux dans l'administration",
      "_links": {
        "show": "https://www.republique-numerique.fr/consultations/projet-de-loi-numerique/consultation/consultation/opinions/section-3-donnees-d-interet-general/utilisation-de-gnu-linux-dans-l-administration",
        "edit": "https://www.republique-numerique.fr/consultations/projet-de-loi-numerique/consultation/consultation/opinions/section-3-donnees-d-interet-general/utilisation-de-gnu-linux-dans-l-administration/edit",
        "report": "https://www.republique-numerique.fr/consultations/projet-de-loi-numerique/consultation/consultation/opinions/section-3-donnees-d-interet-general/utilisation-de-gnu-linux-dans-l-administration/report",
        "type": "https://www.republique-numerique.fr/consultations/projet-de-loi-numerique/consultation/consultation/opinions/section-3-donnees-d-interet-general"
      },
      "user_vote": null,
      "has_user_reported": false
    },
    "sources_count": 0,
    "arguments_count": 0,
    "votes": [
      {
        "user": {
          "username": "HS-157",
          "displayName": "HS-157",
          "uniqueId": "hs157",
          "isAdmin": false,
          "media": null,
          "vip": false,
          "_links": {
            "profile": "https://www.republique-numerique.fr/profile/hs157",
            "settings": "https://www.republique-numerique.fr/profile/edit-profile"
          }
        },
        "value": 1
      },
      {
        "user": {
          "username": "glucas",
          "displayName": "glucas",
          "uniqueId": "glucas",
          "isAdmin": false,
          "media": null,
          "vip": false,
          "_links": {
            "profile": "https://www.republique-numerique.fr/profile/glucas",
            "settings": "https://www.republique-numerique.fr/profile/edit-profile"
          }
        },
        "value": 1
      }
    ],
    "updated_at": "2015-10-18T20:58:27+0200",
    "ranking": 880,
    "is_trashed": false,
    "title": "Utilisation de système d'exploitation Libre",
    "slug": "utilisation-de-systeme-d-exploitation-libre",
    "created_at": "2015-10-18T20:58:27+0200",
    "votes_nok": 0,
    "votes_ok": 2,
    "votes_mitige": 0,
    "_links": {
      "show": "https://www.republique-numerique.fr/consultations/projet-de-loi-numerique/consultation/consultation/opinions/section-3-donnees-d-interet-general/utilisation-de-gnu-linux-dans-l-administration/versions/utilisation-de-systeme-d-exploitation-libre",
      "report": "https://www.republique-numerique.fr/consultations/projet-de-loi-numerique/consultation/consultation/opinions/section-3-donnees-d-interet-general/utilisation-de-gnu-linux-dans-l-administration/versions/utilisation-de-systeme-d-exploitation-libre/report"
    },
    "user_vote": null,
    "has_user_reported": false
  },
  "rankingThreshold": null,
  "opinionTerm": 1
}