{
  "version": {
    "isContribuable": false,
    "votes_total": 35,
    "arguments_yes_count": 0,
    "arguments_no_count": 1,
    "id": 645,
    "body": "<p>Apr&egrave;s l&#39;article 22 est ajout&eacute; un article 22bis&nbsp;:</p>\n\n<p>&nbsp;</p>\n\n<p>&laquo;&nbsp;l&#39;article 132-79 du code p&eacute;nal est supprim&eacute;.</p>\n\n<p>&nbsp;</p>\n\n<p>Le droit au chiffrement est affirm&eacute; comme un droit n&eacute;cessaire &agrave; l&#39;exercice de la vie priv&eacute;e et du secret des correspondances, et son utilisation ne peut ni &ecirc;tre reconnue comme une circonstance aggravante lors de la commission d&#39;un crime ou d&#39;un d&eacute;lit, ni &ecirc;tre utilis&eacute;e comme crit&egrave;re de contr&ocirc;le ou de surveillance. &raquo;</p>",
    "comment": "Tout comme le &quot;contr&ocirc;le au faci&egrave;s&quot; est interdit, il doit &ecirc;tre interdit d&#39;importuner un citoyen, ou de porter atteinte &agrave; sa vie priv&eacute;e, pour le simple fait qu&#39;il use de son droit au chiffrement des communications.",
    "author": {
      "username": "Yann ROBERT",
      "displayName": "Yann ROBERT",
      "uniqueId": "yannrobert",
      "isAdmin": false,
      "media": null,
      "vip": false,
      "_links": {
        "profile": "https://www.republique-numerique.fr/profile/yannrobert",
        "settings": "https://www.republique-numerique.fr/profile/edit-profile"
      }
    },
    "arguments": [
      {
        "isContribuable": false,
        "id": 5173,
        "body": "Dans le cas d'une surveillance administrative en cours, une personne communicant de manière chiffrée avec la personne surveillée peut être un indice permettant de remonter une filière. \nL'introduction de cette modification rendrait de facto illégale l'utilisation de cet \"indice\" comme accélérateur d’enquêté. \nIl faudrait donc soir ajouter une disposition autorisant ce type  de d'approche dans le cas unique où l'un des deux correspondant est soumis à une écoute administrative.",
        "created_at": "2015-10-17T12:02:10+0200",
        "updated_at": "2015-10-17T12:02:10+0200",
        "is_enabled": true,
        "votes_count": 0,
        "type": 0,
        "is_trashed": false,
        "author": {
          "username": "Erwan Georget",
          "displayName": "Erwan Georget",
          "uniqueId": "erwangeorget",
          "isAdmin": false,
          "media": null,
          "vip": false,
          "_links": {
            "profile": "https://www.republique-numerique.fr/profile/erwangeorget",
            "settings": "https://www.republique-numerique.fr/profile/edit-profile"
          }
        },
        "_links": {
          "show": "https://www.republique-numerique.fr/consultations/projet-de-loi-numerique/consultation/consultation/opinions/section-2-confidentialite-des-correspondances-privees/22-bis-affirmer-et-encourager-le-droit-au-chiffrement-des-communications/versions/interdir-la-discrimination-pour-usage-du-chiffrement#arg-5173",
          "edit": "https://www.republique-numerique.fr/consultations/projet-de-loi-numerique/consultation/consultation/opinions/section-2-confidentialite-des-correspondances-privees/22-bis-affirmer-et-encourager-le-droit-au-chiffrement-des-communications/arguments/5173/edit",
          "report": "https://www.republique-numerique.fr/consultations/projet-de-loi-numerique/consultation/consultation/opinions/section-2-confidentialite-des-correspondances-privees/22-bis-affirmer-et-encourager-le-droit-au-chiffrement-des-communications/arguments/5173/report"
        },
        "has_user_voted": false,
        "has_user_reported": false
      }
    ],
    "sources": [],
    "parent": {
      "isContribuable": false,
      "id": 392,
      "body": "<p>Apr&egrave;s l&#39;article 22 est ajout&eacute; un article 22bis&nbsp;:</p>\r\n\r\n<p>&nbsp;</p>\r\n\r\n<p>&laquo;&nbsp;l&#39;article 132-79 du code p&eacute;nal est supprim&eacute;.</p>\r\n\r\n<p>&nbsp;</p>\r\n\r\n<p>Le droit au chiffrement est affirm&eacute; comme un droit n&eacute;cessaire &agrave; l&#39;exercice de la vie priv&eacute;e et du secret des correspondances, et son utilisation ne peut &ecirc;tre reconnue comme une circonstance aggravante lors de la commission d&#39;un crime ou d&#39;un d&eacute;lit.&nbsp;&raquo;</p>",
      "type": {
        "id": 100,
        "title": "Section 2",
        "subtitle": "Confidentialité des correspondances privées",
        "voteWidgetType": 2,
        "votesHelpText": "Pensez-vous que cette proposition permet d'atteindre les objectifs présentés dans l’explication de l’article ?",
        "commentSystem": 2,
        "color": "blue",
        "versionable": true,
        "sourceable": true,
        "votesThreshold": null,
        "votesThresholdHelpText": null
      },
      "modals": [],
      "appendices": [
        {
          "body": "<div>La p&eacute;nalisation plus lourde des crimes et d&eacute;lits lorsque des moyens de cryptologie ont &eacute;t&eacute; utilis&eacute;s a pour cons&eacute;quence de limiter la promotion, le d&eacute;veloppement et l&#39;utilisation de ces techniques, au d&eacute;triment de la vie priv&eacute;e des citoyens mais &eacute;galement de la s&eacute;curisation des op&eacute;rations &eacute;conomiques.</div>\r\n\r\n<div>&nbsp;</div>\r\n\r\n<div>L&#39;affirmation du droit au chiffrement permet de mettre en coh&eacute;rence la loi qui affirme le droit au secret des correspondances num&eacute;riques. Cet amendement a pour objectif de permettre les conditions d&#39;un d&eacute;veloppement des technologies de chiffrement et donc de permettre aux individus de d&#39;exercer leurs droits au secret des correspondances et des communications.&nbsp;</div>",
          "type": {
            "title": "Explication de l'article"
          }
        }
      ],
      "title": "22 bis : affirmer et encourager le droit au chiffrement des communications",
      "_links": {
        "show": "https://www.republique-numerique.fr/consultations/projet-de-loi-numerique/consultation/consultation/opinions/section-2-confidentialite-des-correspondances-privees/22-bis-affirmer-et-encourager-le-droit-au-chiffrement-des-communications",
        "edit": "https://www.republique-numerique.fr/consultations/projet-de-loi-numerique/consultation/consultation/opinions/section-2-confidentialite-des-correspondances-privees/22-bis-affirmer-et-encourager-le-droit-au-chiffrement-des-communications/edit",
        "report": "https://www.republique-numerique.fr/consultations/projet-de-loi-numerique/consultation/consultation/opinions/section-2-confidentialite-des-correspondances-privees/22-bis-affirmer-et-encourager-le-droit-au-chiffrement-des-communications/report",
        "type": "https://www.republique-numerique.fr/consultations/projet-de-loi-numerique/consultation/consultation/opinions/section-2-confidentialite-des-correspondances-privees"
      },
      "user_vote": null,
      "has_user_reported": false
    },
    "sources_count": 0,
    "arguments_count": 1,
    "votes": [
      {
        "user": {
          "username": "François Espagnet",
          "displayName": "François Espagnet",
          "uniqueId": "francoisespagnet",
          "isAdmin": false,
          "media": null,
          "vip": false,
          "_links": {
            "profile": "https://www.republique-numerique.fr/profile/francoisespagnet",
            "settings": "https://www.republique-numerique.fr/profile/edit-profile"
          }
        },
        "value": 1
      },
      {
        "user": {
          "username": "Damien Belvèze",
          "displayName": "Damien Belvèze",
          "uniqueId": "damienbelveze",
          "isAdmin": false,
          "media": null,
          "vip": false,
          "_links": {
            "profile": "https://www.republique-numerique.fr/profile/damienbelveze",
            "settings": "https://www.republique-numerique.fr/profile/edit-profile"
          }
        },
        "value": 1
      },
      {
        "user": {
          "username": "Denis Chenu",
          "displayName": "Denis Chenu",
          "uniqueId": "denischenu",
          "isAdmin": false,
          "media": null,
          "vip": false,
          "_links": {
            "profile": "https://www.republique-numerique.fr/profile/denischenu",
            "settings": "https://www.republique-numerique.fr/profile/edit-profile"
          }
        },
        "value": 1
      },
      {
        "user": {
          "username": "AC",
          "displayName": "AC",
          "uniqueId": "ac",
          "isAdmin": false,
          "media": null,
          "vip": false,
          "_links": {
            "profile": "https://www.republique-numerique.fr/profile/ac",
            "settings": "https://www.republique-numerique.fr/profile/edit-profile"
          }
        },
        "value": 1
      },
      {
        "user": {
          "username": "ogdabou",
          "displayName": "ogdabou",
          "uniqueId": "ogdabou",
          "isAdmin": false,
          "media": null,
          "vip": false,
          "_links": {
            "profile": "https://www.republique-numerique.fr/profile/ogdabou",
            "settings": "https://www.republique-numerique.fr/profile/edit-profile"
          }
        },
        "value": 1
      }
    ],
    "updated_at": "2015-10-05T18:21:02+0200",
    "ranking": 139,
    "is_trashed": false,
    "title": "Interdir la discrimination pour usage du chiffrement",
    "slug": "interdir-la-discrimination-pour-usage-du-chiffrement",
    "created_at": "2015-10-05T18:21:02+0200",
    "votes_nok": 1,
    "votes_ok": 34,
    "votes_mitige": 0,
    "_links": {
      "show": "https://www.republique-numerique.fr/consultations/projet-de-loi-numerique/consultation/consultation/opinions/section-2-confidentialite-des-correspondances-privees/22-bis-affirmer-et-encourager-le-droit-au-chiffrement-des-communications/versions/interdir-la-discrimination-pour-usage-du-chiffrement",
      "report": "https://www.republique-numerique.fr/consultations/projet-de-loi-numerique/consultation/consultation/opinions/section-2-confidentialite-des-correspondances-privees/22-bis-affirmer-et-encourager-le-droit-au-chiffrement-des-communications/versions/interdir-la-discrimination-pour-usage-du-chiffrement/report"
    },
    "user_vote": null,
    "has_user_reported": false
  },
  "rankingThreshold": null,
  "opinionTerm": 1
}