{
  "opinion": {
    "isContribuable": false,
    "votes_total": 8,
    "arguments_yes_count": 0,
    "arguments_no_count": 0,
    "id": 382,
    "created_at": "2015-10-01T20:37:56+0200",
    "updated_at": "2015-10-01T20:37:56+0200",
    "body": "<p>&agrave; rediger</p>",
    "versions_count": 0,
    "sources_count": 0,
    "arguments_count": 0,
    "author": {
      "username": "Pierre Nowodzienski",
      "displayName": "Pierre Nowodzienski",
      "uniqueId": "pierrenowodzienski",
      "isAdmin": false,
      "media": null,
      "vip": false,
      "_links": {
        "profile": "https://www.republique-numerique.fr/profile/pierrenowodzienski",
        "settings": "https://www.republique-numerique.fr/profile/edit-profile"
      }
    },
    "type": {
      "id": 107,
      "title": "Section 2",
      "subtitle": "Paiement par SMS",
      "voteWidgetType": 2,
      "votesHelpText": "Pensez-vous que cette proposition permet d'atteindre les objectifs présentés dans l’explication de l’article ?",
      "commentSystem": 2,
      "color": "blue",
      "versionable": true,
      "sourceable": true,
      "votesThreshold": null,
      "votesThresholdHelpText": null
    },
    "sources": [],
    "arguments": [],
    "modals": [],
    "votes": [
      {
        "user": {
          "username": "François Briat",
          "displayName": "François Briat",
          "uniqueId": "francoisbriat",
          "isAdmin": false,
          "media": {
            "url": "/media/cache/default_avatar/default/0001/01/243_default_avatar.jpg"
          },
          "vip": false,
          "_links": {
            "profile": "https://www.republique-numerique.fr/profile/francoisbriat",
            "settings": "https://www.republique-numerique.fr/profile/edit-profile"
          }
        }
      },
      {
        "user": {
          "username": "Jeanne Varasco",
          "displayName": "Jeanne Varasco",
          "uniqueId": "jeannevarasco",
          "isAdmin": false,
          "media": {
            "url": "/media/cache/default_avatar/default/0001/01/139_default_avatar.jpg"
          },
          "vip": false,
          "_links": {
            "profile": "https://www.republique-numerique.fr/profile/jeannevarasco",
            "settings": "https://www.republique-numerique.fr/profile/edit-profile"
          }
        }
      },
      {
        "user": {
          "username": "Stéphane Auclair",
          "displayName": "Stéphane Auclair",
          "uniqueId": "stephaneauclair1",
          "isAdmin": false,
          "media": null,
          "vip": false,
          "_links": {
            "profile": "https://www.republique-numerique.fr/profile/stephaneauclair1",
            "settings": "https://www.republique-numerique.fr/profile/edit-profile"
          }
        }
      },
      {
        "user": {
          "username": "dencoy",
          "displayName": "dencoy",
          "uniqueId": "dencoy",
          "isAdmin": false,
          "media": null,
          "vip": false,
          "_links": {
            "profile": "https://www.republique-numerique.fr/profile/dencoy",
            "settings": "https://www.republique-numerique.fr/profile/edit-profile"
          }
        }
      },
      {
        "user": {
          "username": "Bernard Martinez",
          "displayName": "Bernard Martinez",
          "uniqueId": "bernardmartinez",
          "isAdmin": false,
          "media": null,
          "vip": false,
          "_links": {
            "profile": "https://www.republique-numerique.fr/profile/bernardmartinez",
            "settings": "https://www.republique-numerique.fr/profile/edit-profile"
          }
        }
      }
    ],
    "appendices": [
      {
        "body": "<p>L&#39;article 27 propos&eacute; se focalise sur une solution technique alors qu&#39;elles sont et seront de plus en plus nombreuses. L&#39;ADN de la loi sur le num&eacute;rique se veut lib&eacute;rateur &nbsp;des forces cr&eacute;atrices de valeurs et tourn&eacute; vers l&#39;avenir.</p>\r\n\r\n<p>Je proposerais plut&ocirc;t un article plus large ou plusieurs articles permettant d&#39;&eacute;tablir un cadre s&eacute;curitaire et protecteur quelque soit le mode de paiement et le type de valeur&nbsp;utilis&eacute; pour effectuer son r&egrave;glement.</p>\r\n\r\n<p>On peut avoir en t&ecirc;te :</p>\r\n\r\n<p>- Devise num&eacute;rique</p>\r\n\r\n<p>- &eacute;conomie du service (troc ou &eacute;change de service)</p>\r\n\r\n<p>- paiement par signature num&eacute;rique ou identification biom&eacute;trique</p>\r\n\r\n<p>- Centralisation des comptes dans un espace virtuel et identifiant bancaire unique (propre &agrave; l&#39;individu) : l&#39;objectif est ici de simplifier le changement de banque et de centraliser le suivi de ses comptes.</p>\r\n\r\n<p>- Fiche de synth&egrave;se de ses d&eacute;penses par poste et conseils de gestion de budget automatis&eacute;s par agglom&eacute;ration des donn&eacute;es de l&#39;individu</p>",
        "type": {
          "title": "Explication de l'article"
        }
      }
    ],
    "ranking": 577,
    "is_trashed": false,
    "title": "Article 27 - Du paiement à l'ère numérique",
    "votes_nok": 7,
    "votes_ok": 1,
    "votes_mitige": 0,
    "_links": {
      "show": "https://www.republique-numerique.fr/consultations/projet-de-loi-numerique/consultation/consultation/opinions/section-2-paiement-par-sms/article-27-du-paiement-a-l-ere-numerique",
      "edit": "https://www.republique-numerique.fr/consultations/projet-de-loi-numerique/consultation/consultation/opinions/section-2-paiement-par-sms/article-27-du-paiement-a-l-ere-numerique/edit",
      "report": "https://www.republique-numerique.fr/consultations/projet-de-loi-numerique/consultation/consultation/opinions/section-2-paiement-par-sms/article-27-du-paiement-a-l-ere-numerique/report",
      "type": "https://www.republique-numerique.fr/consultations/projet-de-loi-numerique/consultation/consultation/opinions/section-2-paiement-par-sms"
    },
    "user_vote": null,
    "has_user_reported": false
  },
  "rankingThreshold": null,
  "opinionTerm": 1
}