{
  "opinion": {
    "isContribuable": false,
    "votes_total": 14,
    "arguments_yes_count": 0,
    "arguments_no_count": 0,
    "id": 217,
    "created_at": "2015-09-28T06:26:58+0200",
    "updated_at": "2015-09-28T06:26:58+0200",
    "body": "<p>On peut comprendre cet article comme une volont&eacute; de faire respecter les droits qui figurent d&eacute;j&agrave; dans la loi Informatique et Libert&eacute;s, &agrave; commencer par le droit &agrave; l&#39;information (des personnes concern&eacute;es par les responsables de traitement), mais aussi et surtout par la une bonne gestion des demandes de droit d&rsquo;acc&egrave;s pr&eacute;sent&eacute;es au titre de l&rsquo;article 39 de la loi du 6 janvier 1978 modifi&eacute;e.</p>\r\n\r\n<p><br />\r\nIl est vrai que celle-ci est pour le moins perfectible, comme le montre chaque ann&eacute;e l&rsquo;Index AFCDP du droit d&rsquo;acc&egrave;s. Selon sa derni&egrave;re &eacute;dition, seuls 37,4 % des organismes sollicit&eacute;s ont fait une r&eacute;ponse conforme au droit, jug&eacute;e satisfaisante ou tr&egrave;s satisfaisante, dont le respect du d&eacute;lai de deux mois.</p>\r\n\r\n<p>&nbsp;</p>",
    "versions_count": 0,
    "sources_count": 0,
    "arguments_count": 0,
    "author": {
      "username": "RASLE Bruno",
      "displayName": "RASLE Bruno",
      "uniqueId": "raslebruno",
      "isAdmin": false,
      "media": {
        "url": "/media/cache/default_avatar/default/0001/01/187_default_avatar.jpg"
      },
      "vip": false,
      "_links": {
        "profile": "https://www.republique-numerique.fr/profile/raslebruno",
        "settings": "https://www.republique-numerique.fr/profile/edit-profile"
      }
    },
    "type": {
      "id": 99,
      "title": "Section 1",
      "subtitle": "Protection des données à caractère personnel",
      "voteWidgetType": 2,
      "votesHelpText": "Pensez-vous que cette proposition permet d'atteindre les objectifs présentés dans l’explication de l’article ?",
      "commentSystem": 2,
      "color": "blue",
      "versionable": true,
      "sourceable": true,
      "votesThreshold": null,
      "votesThresholdHelpText": null
    },
    "sources": [],
    "arguments": [],
    "modals": [],
    "votes": [
      {
        "user": {
          "username": "Olivier SERY",
          "displayName": "Olivier SERY",
          "uniqueId": "oliviersery",
          "isAdmin": false,
          "media": null,
          "vip": false,
          "_links": {
            "profile": "https://www.republique-numerique.fr/profile/oliviersery",
            "settings": "https://www.republique-numerique.fr/profile/edit-profile"
          }
        }
      },
      {
        "user": {
          "username": "Olivier Gobert",
          "displayName": "Olivier Gobert",
          "uniqueId": "oliviergobert",
          "isAdmin": false,
          "media": null,
          "vip": false,
          "_links": {
            "profile": "https://www.republique-numerique.fr/profile/oliviergobert",
            "settings": "https://www.republique-numerique.fr/profile/edit-profile"
          }
        }
      },
      {
        "user": {
          "username": "Patrick Blum",
          "displayName": "Patrick Blum",
          "uniqueId": "patrickblum",
          "isAdmin": false,
          "media": null,
          "vip": false,
          "_links": {
            "profile": "https://www.republique-numerique.fr/profile/patrickblum",
            "settings": "https://www.republique-numerique.fr/profile/edit-profile"
          }
        }
      },
      {
        "user": {
          "username": "Philippe Pays",
          "displayName": "Philippe Pays",
          "uniqueId": "philippepays",
          "isAdmin": false,
          "media": null,
          "vip": false,
          "_links": {
            "profile": "https://www.republique-numerique.fr/profile/philippepays",
            "settings": "https://www.republique-numerique.fr/profile/edit-profile"
          }
        }
      },
      {
        "user": {
          "username": "Francis Trautmann",
          "displayName": "Francis Trautmann",
          "uniqueId": "francistrautmann",
          "isAdmin": false,
          "media": null,
          "vip": false,
          "_links": {
            "profile": "https://www.republique-numerique.fr/profile/francistrautmann",
            "settings": "https://www.republique-numerique.fr/profile/edit-profile"
          }
        }
      }
    ],
    "appendices": [
      {
        "body": "<p>Gr&acirc;ce &agrave; son nouveau pouvoir de contr&ocirc;le &agrave; distance, la CNIL peut facilement juger de la bonne information des personnes.</p>\r\n\r\n<p>Concernant le droit d&#39;acc&egrave;s, notons que le projet de r&egrave;glement europ&eacute;en sur les donn&eacute;es personnel pr&eacute;voit de r&eacute;duire le d&eacute;lai de r&eacute;ponse &agrave; un mois, ce qui va obliger les responsables de traitement - avec l&#39;aide de leur Correspondant Informatique et Libert&eacute;s respectif - de revoir (de formaliser ?) leur proc&eacute;dure de bonne gestion de ce droit.</p>",
        "type": {
          "title": "Explication de l'article"
        }
      }
    ],
    "ranking": 287,
    "is_trashed": false,
    "title": "Assurer déjà le respect des droits actuels",
    "votes_nok": 0,
    "votes_ok": 13,
    "votes_mitige": 1,
    "_links": {
      "show": "https://www.republique-numerique.fr/consultations/projet-de-loi-numerique/consultation/consultation/opinions/section-1-protection-des-donnees-a-caractere-personnel/assurer-deja-le-respect-des-droits-actuels",
      "edit": "https://www.republique-numerique.fr/consultations/projet-de-loi-numerique/consultation/consultation/opinions/section-1-protection-des-donnees-a-caractere-personnel/assurer-deja-le-respect-des-droits-actuels/edit",
      "report": "https://www.republique-numerique.fr/consultations/projet-de-loi-numerique/consultation/consultation/opinions/section-1-protection-des-donnees-a-caractere-personnel/assurer-deja-le-respect-des-droits-actuels/report",
      "type": "https://www.republique-numerique.fr/consultations/projet-de-loi-numerique/consultation/consultation/opinions/section-1-protection-des-donnees-a-caractere-personnel"
    },
    "user_vote": null,
    "has_user_reported": false
  },
  "rankingThreshold": null,
  "opinionTerm": 1
}