{
  "opinion": {
    "isContribuable": false,
    "votes_total": 24,
    "arguments_yes_count": 0,
    "arguments_no_count": 0,
    "id": 233,
    "created_at": "2015-09-28T11:27:57+0200",
    "updated_at": "2015-09-28T11:27:57+0200",
    "body": "<p>Dans les projets aid&eacute;s par l&#39;Etat, les b&eacute;n&eacute;ficiaires pourraient produire des livrables consid&eacute;r&eacute;s comme des communs : connaissance, logiciel, mat&eacute;riel. Ces communs utiliseront des licences adapt&eacute;s en fonction des contextes, des acteurs et des usages.</p>",
    "versions_count": 0,
    "sources_count": 0,
    "arguments_count": 0,
    "author": {
      "username": "Gabriel PLASSAT",
      "displayName": "Gabriel PLASSAT",
      "uniqueId": "gabrielplassat",
      "isAdmin": false,
      "media": null,
      "vip": false,
      "_links": {
        "profile": "https://www.republique-numerique.fr/profile/gabrielplassat",
        "settings": "https://www.republique-numerique.fr/profile/edit-profile"
      }
    },
    "type": {
      "id": 90,
      "title": "Section 1",
      "subtitle": "Les Communs",
      "voteWidgetType": 2,
      "votesHelpText": "Pensez-vous que cette proposition permet d'atteindre les objectifs présentés dans l’explication de l’article ?",
      "commentSystem": 2,
      "color": "blue",
      "versionable": true,
      "sourceable": true,
      "votesThreshold": null,
      "votesThresholdHelpText": null
    },
    "sources": [],
    "arguments": [],
    "modals": [],
    "votes": [
      {
        "user": {
          "username": "Lucie",
          "displayName": "Lucie",
          "uniqueId": "lucie",
          "isAdmin": false,
          "media": null,
          "vip": false,
          "_links": {
            "profile": "https://www.republique-numerique.fr/profile/lucie",
            "settings": "https://www.republique-numerique.fr/profile/edit-profile"
          }
        }
      },
      {
        "user": {
          "username": "François Théron",
          "displayName": "François Théron",
          "uniqueId": "francoistheron",
          "isAdmin": false,
          "media": null,
          "vip": false,
          "_links": {
            "profile": "https://www.republique-numerique.fr/profile/francoistheron",
            "settings": "https://www.republique-numerique.fr/profile/edit-profile"
          }
        }
      },
      {
        "user": {
          "username": "Olivier SERY",
          "displayName": "Olivier SERY",
          "uniqueId": "oliviersery",
          "isAdmin": false,
          "media": null,
          "vip": false,
          "_links": {
            "profile": "https://www.republique-numerique.fr/profile/oliviersery",
            "settings": "https://www.republique-numerique.fr/profile/edit-profile"
          }
        }
      },
      {
        "user": {
          "username": "Alain Brégy",
          "displayName": "Alain Brégy",
          "uniqueId": "alainbregy",
          "isAdmin": false,
          "media": null,
          "vip": false,
          "_links": {
            "profile": "https://www.republique-numerique.fr/profile/alainbregy",
            "settings": "https://www.republique-numerique.fr/profile/edit-profile"
          }
        }
      },
      {
        "user": {
          "username": "Jeanne Varasco",
          "displayName": "Jeanne Varasco",
          "uniqueId": "jeannevarasco",
          "isAdmin": false,
          "media": {
            "url": "/media/cache/default_avatar/default/0001/01/139_default_avatar.jpg"
          },
          "vip": false,
          "_links": {
            "profile": "https://www.republique-numerique.fr/profile/jeannevarasco",
            "settings": "https://www.republique-numerique.fr/profile/edit-profile"
          }
        }
      }
    ],
    "appendices": [
      {
        "body": "<p>Par exemple, l&#39;ADEME a initi&eacute; la <a href=\"http://lafabriquedesmobilites.fr\">Fabrique des Mobilit&eacute;s</a>. La Fabrique accompagne des porteurs de projet en leur demandant de produire des communs, dans le domaine des mobilit&eacute;s/transports. Ces communs sont index&eacute;s (<a href=\"http://communs.lafabriquedesmobilites.fr/#/p/list\">base de donn&eacute;es</a>), utilisables par tous les acteurs selon les r&egrave;gles propos&eacute;es par chaque communaut&eacute; g&eacute;rant le commun.</p>\r\n\r\n<p>Chaque projet aid&eacute; par l&#39;Etat pourrait ainsi, en option, produire des communs en compl&eacute;ment des livrables marchands.</p>",
        "type": {
          "title": "Explication de l'article"
        }
      }
    ],
    "ranking": 200,
    "is_trashed": false,
    "title": "Produire des communs dans les projets aidés par l'Etat",
    "votes_nok": 0,
    "votes_ok": 24,
    "votes_mitige": 0,
    "_links": {
      "show": "https://www.republique-numerique.fr/consultations/projet-de-loi-numerique/consultation/consultation/opinions/section-1-les-communs/produire-des-communs-dans-les-projets-aides-par-l-etat",
      "edit": "https://www.republique-numerique.fr/consultations/projet-de-loi-numerique/consultation/consultation/opinions/section-1-les-communs/produire-des-communs-dans-les-projets-aides-par-l-etat/edit",
      "report": "https://www.republique-numerique.fr/consultations/projet-de-loi-numerique/consultation/consultation/opinions/section-1-les-communs/produire-des-communs-dans-les-projets-aides-par-l-etat/report",
      "type": "https://www.republique-numerique.fr/consultations/projet-de-loi-numerique/consultation/consultation/opinions/section-1-les-communs"
    },
    "user_vote": null,
    "has_user_reported": false
  },
  "rankingThreshold": null,
  "opinionTerm": 1
}