{
  "opinion": {
    "isContribuable": false,
    "votes_total": 10,
    "arguments_yes_count": 0,
    "arguments_no_count": 0,
    "id": 420,
    "created_at": "2015-10-05T11:48:28+0200",
    "updated_at": "2015-10-05T11:48:28+0200",
    "body": "<p>Cr&eacute;er des antennes r&eacute;gionales de la CNIL</p>",
    "versions_count": 1,
    "sources_count": 0,
    "arguments_count": 0,
    "author": {
      "username": "cil",
      "displayName": "cil",
      "uniqueId": "cil",
      "isAdmin": false,
      "media": null,
      "vip": false,
      "_links": {
        "profile": "https://www.republique-numerique.fr/profile/cil",
        "settings": "https://www.republique-numerique.fr/profile/edit-profile"
      }
    },
    "type": {
      "id": 99,
      "title": "Section 1",
      "subtitle": "Protection des données à caractère personnel",
      "voteWidgetType": 2,
      "votesHelpText": "Pensez-vous que cette proposition permet d'atteindre les objectifs présentés dans l’explication de l’article ?",
      "commentSystem": 2,
      "color": "blue",
      "versionable": true,
      "sourceable": true,
      "votesThreshold": null,
      "votesThresholdHelpText": null
    },
    "sources": [],
    "arguments": [],
    "modals": [],
    "votes": [
      {
        "user": {
          "username": "cil",
          "displayName": "cil",
          "uniqueId": "cil",
          "isAdmin": false,
          "media": null,
          "vip": false,
          "_links": {
            "profile": "https://www.republique-numerique.fr/profile/cil",
            "settings": "https://www.republique-numerique.fr/profile/edit-profile"
          }
        }
      },
      {
        "user": {
          "username": "Jeanne Varasco",
          "displayName": "Jeanne Varasco",
          "uniqueId": "jeannevarasco",
          "isAdmin": false,
          "media": {
            "url": "/media/cache/default_avatar/default/0001/01/139_default_avatar.jpg"
          },
          "vip": false,
          "_links": {
            "profile": "https://www.republique-numerique.fr/profile/jeannevarasco",
            "settings": "https://www.republique-numerique.fr/profile/edit-profile"
          }
        }
      },
      {
        "user": {
          "username": "RASLE Bruno",
          "displayName": "RASLE Bruno",
          "uniqueId": "raslebruno",
          "isAdmin": false,
          "media": {
            "url": "/media/cache/default_avatar/default/0001/01/187_default_avatar.jpg"
          },
          "vip": false,
          "_links": {
            "profile": "https://www.republique-numerique.fr/profile/raslebruno",
            "settings": "https://www.republique-numerique.fr/profile/edit-profile"
          }
        }
      },
      {
        "user": {
          "username": "Vincent Reverdy",
          "displayName": "Vincent Reverdy",
          "uniqueId": "vincentreverdy",
          "isAdmin": false,
          "media": {
            "url": "/media/cache/default_avatar/default/0001/01/268_default_avatar.jpg"
          },
          "vip": false,
          "_links": {
            "profile": "https://www.republique-numerique.fr/profile/vincentreverdy",
            "settings": "https://www.republique-numerique.fr/profile/edit-profile"
          }
        }
      },
      {
        "user": {
          "username": "BISSON",
          "displayName": "BISSON",
          "uniqueId": "bisson",
          "isAdmin": false,
          "media": null,
          "vip": false,
          "_links": {
            "profile": "https://www.republique-numerique.fr/profile/bisson",
            "settings": "https://www.republique-numerique.fr/profile/edit-profile"
          }
        }
      }
    ],
    "appendices": [
      {
        "body": "<p>Am&eacute;liorer la proximit&eacute; favoriserait les missions d&#39;accompagnement, de conseil, de prospective ou encore de contr&ocirc;le. Par ailleurs, cette &quot;r&eacute;gionalisation&quot; irait dans le sens de la sensiblisation des entreprises n&#39;ayant par leur si&egrave;ge en Ile de France et rendrait peut-&ecirc;tre le sujet informatique et libert&eacute;s &quot;moins parisien&quot;!</p>",
        "type": {
          "title": "Explication de l'article"
        }
      }
    ],
    "ranking": 364,
    "is_trashed": false,
    "title": "Décentraliser la CNIL",
    "votes_nok": 1,
    "votes_ok": 8,
    "votes_mitige": 1,
    "_links": {
      "show": "https://www.republique-numerique.fr/consultations/projet-de-loi-numerique/consultation/consultation/opinions/section-1-protection-des-donnees-a-caractere-personnel/decentraliser-la-cnil",
      "edit": "https://www.republique-numerique.fr/consultations/projet-de-loi-numerique/consultation/consultation/opinions/section-1-protection-des-donnees-a-caractere-personnel/decentraliser-la-cnil/edit",
      "report": "https://www.republique-numerique.fr/consultations/projet-de-loi-numerique/consultation/consultation/opinions/section-1-protection-des-donnees-a-caractere-personnel/decentraliser-la-cnil/report",
      "type": "https://www.republique-numerique.fr/consultations/projet-de-loi-numerique/consultation/consultation/opinions/section-1-protection-des-donnees-a-caractere-personnel"
    },
    "user_vote": null,
    "has_user_reported": false
  },
  "rankingThreshold": null,
  "opinionTerm": 1
}