{
  "version": {
    "isContribuable": false,
    "votes_total": 2,
    "arguments_yes_count": 0,
    "arguments_no_count": 0,
    "id": 583,
    "body": "<p>L&#39;acc&egrave;s &agrave; l&#39;internet constitue un droit pour les citoyens fran&ccedil;ais. L&#39;Etat garantit &agrave; tous ces citoyens un acc&egrave;s minimal &agrave; Internet, en termes d&#39;outils, de d&eacute;bit et d&#39;&eacute;ducation au usages et de pr&eacute;vention des risques li&eacute;s &agrave; l&#39;usage d&#39;Internet.</p>",
    "comment": "Il ne faut pas consid&eacute;rer que l&#39;acc&egrave;s technique est suffisant aux personnes &eacute;loign&eacute;es d&#39;Internet, un devoir d&#39;&eacute;ducation num&eacute;rique me semble indissociable.",
    "author": {
      "username": "Antoine Anglade",
      "displayName": "Antoine Anglade",
      "uniqueId": "antoineanglade",
      "isAdmin": false,
      "media": null,
      "vip": false,
      "_links": {
        "profile": "https://www.republique-numerique.fr/profile/antoineanglade",
        "settings": "https://www.republique-numerique.fr/profile/edit-profile"
      }
    },
    "arguments": [],
    "sources": [],
    "parent": {
      "isContribuable": false,
      "id": 101,
      "body": "<p>L&#39;acc&egrave;s &agrave; l&#39;internet constitue un droit pour les citoyens fran&ccedil;ais.</p>",
      "type": {
        "id": 103,
        "title": "Section 1",
        "subtitle": "Compétences et organisation",
        "voteWidgetType": 2,
        "votesHelpText": "Pensez-vous que cette proposition permet d'atteindre les objectifs présentés dans l’explication de l’article ?",
        "commentSystem": 2,
        "color": "blue",
        "versionable": true,
        "sourceable": true,
        "votesThreshold": null,
        "votesThresholdHelpText": null
      },
      "modals": [],
      "appendices": [
        {
          "body": "<p>Le droit &agrave; l&#39;information, l&#39;&eacute;galit&eacute; des chances et l&#39;acc&egrave;s &agrave; tous les services de l&#39;&eacute;tat, justifient qu&#39;un &quot;Droit &agrave; l&#39;internet&quot; soit int&eacute;gr&eacute; dans la Loi sur le num&eacute;rique.</p>",
          "type": {
            "title": "Explication de l'article"
          }
        }
      ],
      "title": "Droit à l'internet",
      "_links": {
        "show": "https://www.republique-numerique.fr/consultations/projet-de-loi-numerique/consultation/consultation/opinions/section-1-competences-et-organisation/droit-a-l-internet",
        "edit": "https://www.republique-numerique.fr/consultations/projet-de-loi-numerique/consultation/consultation/opinions/section-1-competences-et-organisation/droit-a-l-internet/edit",
        "report": "https://www.republique-numerique.fr/consultations/projet-de-loi-numerique/consultation/consultation/opinions/section-1-competences-et-organisation/droit-a-l-internet/report",
        "type": "https://www.republique-numerique.fr/consultations/projet-de-loi-numerique/consultation/consultation/opinions/section-1-competences-et-organisation"
      },
      "user_vote": null,
      "has_user_reported": false
    },
    "sources_count": 0,
    "arguments_count": 0,
    "votes": [
      {
        "user": {
          "username": "Loïc Dayot",
          "displayName": "Loïc Dayot",
          "uniqueId": "loicdayot",
          "isAdmin": false,
          "media": {
            "url": "/media/cache/default_avatar/default/0001/01/519_default_avatar.jpg"
          },
          "vip": false,
          "_links": {
            "profile": "https://www.republique-numerique.fr/profile/loicdayot",
            "settings": "https://www.republique-numerique.fr/profile/edit-profile"
          }
        },
        "value": 1
      },
      {
        "user": {
          "username": "Vincent Reverdy",
          "displayName": "Vincent Reverdy",
          "uniqueId": "vincentreverdy",
          "isAdmin": false,
          "media": {
            "url": "/media/cache/default_avatar/default/0001/01/268_default_avatar.jpg"
          },
          "vip": false,
          "_links": {
            "profile": "https://www.republique-numerique.fr/profile/vincentreverdy",
            "settings": "https://www.republique-numerique.fr/profile/edit-profile"
          }
        },
        "value": 1
      }
    ],
    "updated_at": "2015-10-03T11:23:58+0200",
    "ranking": 880,
    "is_trashed": false,
    "title": "Accompagnement au usages d'internet",
    "slug": "accompagnement-au-usages-d-internet",
    "created_at": "2015-10-03T11:23:58+0200",
    "votes_nok": 0,
    "votes_ok": 2,
    "votes_mitige": 0,
    "_links": {
      "show": "https://www.republique-numerique.fr/consultations/projet-de-loi-numerique/consultation/consultation/opinions/section-1-competences-et-organisation/droit-a-l-internet/versions/accompagnement-au-usages-d-internet",
      "report": "https://www.republique-numerique.fr/consultations/projet-de-loi-numerique/consultation/consultation/opinions/section-1-competences-et-organisation/droit-a-l-internet/versions/accompagnement-au-usages-d-internet/report"
    },
    "user_vote": null,
    "has_user_reported": false
  },
  "rankingThreshold": null,
  "opinionTerm": 1
}