{
  "version": {
    "isContribuable": false,
    "votes_total": 3,
    "arguments_yes_count": 2,
    "arguments_no_count": 0,
    "id": 384,
    "body": "<p>Les arr&ecirc;t&eacute;s r&eacute;gissant le service universel des t&eacute;l&eacute;communications auxquels sont soumis les op&eacute;rateurs charg&eacute;s de le mettre en oeuvre sont modifi&eacute;s afin de remplacer la notion vague &laquo; ce service t&eacute;l&eacute;phonique comprend les communications par t&eacute;l&eacute;copie et les communications de donn&eacute;es &agrave; un d&eacute;bit suffisant (c&#39;est-&agrave;-dire normalement offert par une ligne t&eacute;l&eacute;phonique) pour permettre un acc&egrave;s &agrave; internet &raquo; par &laquo; ce service t&eacute;l&eacute;phonique comprend les communications par t&eacute;l&eacute;copie et les communications de donn&eacute;es &agrave; un d&eacute;bit d&eacute;fini par d&eacute;cret et au minimum &eacute;gal &agrave; 1024 kilobits par seconde dans le sens internet vers abonn&eacute; et au minimum 128 kilobits par seconde dans le sens abonn&eacute; vers internet pour permettre un acc&egrave;s &agrave; internet raisonnable. &raquo;</p>",
    "comment": "Les r&egrave;gles du service universel des t&eacute;l&eacute;communications existent d&eacute;j&agrave; (voir <a _src=\"http://www.arcep.fr/?id=8102),\" class=\"external-link\" href=\"http://www.arcep.fr/?id=8102),\">http://www.arcep.fr/?id=8102),</a>&nbsp; mais le niveau de d&eacute;bit est tr&egrave;s vague. Depuis toujours, c&#39;est France T&eacute;l&eacute;com devenu Orange qui a remport&eacute; les appels d&#39;offre pour fournir ce service (qui est factur&eacute; &agrave; l&#39;&Eacute;tat), mais dans les zones rurales, l&#39;op&eacute;rateur assure que d&egrave;s lors qu&#39;il fournit 56kbauds, il rempli ses obligations de services. Ce d&eacute;bit n&#39;est absolument plus en phase avec l&#39;utilisation d&#39;internet aujourd&#39;hui, m&ecirc;me si l&#39;on se contente du web ou du mail (et internet ce n&#39;est pas que &ccedil;a). On ne peut m&ecirc;me pas t&eacute;l&eacute;charger la page d&#39;accueuil des pages jaunes, truff&eacute;e de publicit&eacute; n&eacute;cessitant des transferts de donn&eacute;s important, avec ce d&eacute;bit digne des ann&eacute;es 90.",
    "author": {
      "username": "Maisonobe Luc",
      "displayName": "Maisonobe Luc",
      "uniqueId": "maisonobeluc",
      "isAdmin": false,
      "media": {
        "url": "/media/cache/default_avatar/default/0001/01/710_default_avatar.jpg"
      },
      "vip": false,
      "_links": {
        "profile": "https://www.republique-numerique.fr/profile/maisonobeluc",
        "settings": "https://www.republique-numerique.fr/profile/edit-profile"
      }
    },
    "arguments": [
      {
        "isContribuable": false,
        "id": 5589,
        "body": "Le débit de 56k est effectivement dépassé. Etant donné l'état actuel du réseau, à part pour des usages très spécifiques, une connection à 56k est beaucoup trop limitante.",
        "created_at": "2015-10-17T22:20:03+0200",
        "updated_at": "2015-10-17T22:20:03+0200",
        "is_enabled": true,
        "votes_count": 2,
        "type": 1,
        "is_trashed": false,
        "author": {
          "username": "Vincent Reverdy",
          "displayName": "Vincent Reverdy",
          "uniqueId": "vincentreverdy",
          "isAdmin": false,
          "media": {
            "url": "/media/cache/default_avatar/default/0001/01/268_default_avatar.jpg"
          },
          "vip": false,
          "_links": {
            "profile": "https://www.republique-numerique.fr/profile/vincentreverdy",
            "settings": "https://www.republique-numerique.fr/profile/edit-profile"
          }
        },
        "_links": {
          "show": "https://www.republique-numerique.fr/consultations/projet-de-loi-numerique/consultation/consultation/opinions/section-1-competences-et-organisation/droit-a-l-internet/versions/service-universel-des-telecommunications#arg-5589",
          "edit": "https://www.republique-numerique.fr/consultations/projet-de-loi-numerique/consultation/consultation/opinions/section-1-competences-et-organisation/droit-a-l-internet/arguments/5589/edit",
          "report": "https://www.republique-numerique.fr/consultations/projet-de-loi-numerique/consultation/consultation/opinions/section-1-competences-et-organisation/droit-a-l-internet/arguments/5589/report"
        },
        "has_user_voted": false,
        "has_user_reported": false
      },
      {
        "isContribuable": false,
        "id": 5954,
        "body": "Le débit minimal doit permettre de voir la TV tout en surfant. un débit de 10 M me paraitrait bien partout en France. (Zones blanches)",
        "created_at": "2015-10-18T18:08:22+0200",
        "updated_at": "2015-10-18T18:08:22+0200",
        "is_enabled": true,
        "votes_count": 1,
        "type": 1,
        "is_trashed": false,
        "author": {
          "username": "Jeanne Varasco",
          "displayName": "Jeanne Varasco",
          "uniqueId": "jeannevarasco",
          "isAdmin": false,
          "media": {
            "url": "/media/cache/default_avatar/default/0001/01/139_default_avatar.jpg"
          },
          "vip": false,
          "_links": {
            "profile": "https://www.republique-numerique.fr/profile/jeannevarasco",
            "settings": "https://www.republique-numerique.fr/profile/edit-profile"
          }
        },
        "_links": {
          "show": "https://www.republique-numerique.fr/consultations/projet-de-loi-numerique/consultation/consultation/opinions/section-1-competences-et-organisation/droit-a-l-internet/versions/service-universel-des-telecommunications#arg-5954",
          "edit": "https://www.republique-numerique.fr/consultations/projet-de-loi-numerique/consultation/consultation/opinions/section-1-competences-et-organisation/droit-a-l-internet/arguments/5954/edit",
          "report": "https://www.republique-numerique.fr/consultations/projet-de-loi-numerique/consultation/consultation/opinions/section-1-competences-et-organisation/droit-a-l-internet/arguments/5954/report"
        },
        "has_user_voted": false,
        "has_user_reported": false
      }
    ],
    "sources": [],
    "parent": {
      "isContribuable": false,
      "id": 101,
      "body": "<p>L&#39;acc&egrave;s &agrave; l&#39;internet constitue un droit pour les citoyens fran&ccedil;ais.</p>",
      "type": {
        "id": 103,
        "title": "Section 1",
        "subtitle": "Compétences et organisation",
        "voteWidgetType": 2,
        "votesHelpText": "Pensez-vous que cette proposition permet d'atteindre les objectifs présentés dans l’explication de l’article ?",
        "commentSystem": 2,
        "color": "blue",
        "versionable": true,
        "sourceable": true,
        "votesThreshold": null,
        "votesThresholdHelpText": null
      },
      "modals": [],
      "appendices": [
        {
          "body": "<p>Le droit &agrave; l&#39;information, l&#39;&eacute;galit&eacute; des chances et l&#39;acc&egrave;s &agrave; tous les services de l&#39;&eacute;tat, justifient qu&#39;un &quot;Droit &agrave; l&#39;internet&quot; soit int&eacute;gr&eacute; dans la Loi sur le num&eacute;rique.</p>",
          "type": {
            "title": "Explication de l'article"
          }
        }
      ],
      "title": "Droit à l'internet",
      "_links": {
        "show": "https://www.republique-numerique.fr/consultations/projet-de-loi-numerique/consultation/consultation/opinions/section-1-competences-et-organisation/droit-a-l-internet",
        "edit": "https://www.republique-numerique.fr/consultations/projet-de-loi-numerique/consultation/consultation/opinions/section-1-competences-et-organisation/droit-a-l-internet/edit",
        "report": "https://www.republique-numerique.fr/consultations/projet-de-loi-numerique/consultation/consultation/opinions/section-1-competences-et-organisation/droit-a-l-internet/report",
        "type": "https://www.republique-numerique.fr/consultations/projet-de-loi-numerique/consultation/consultation/opinions/section-1-competences-et-organisation"
      },
      "user_vote": null,
      "has_user_reported": false
    },
    "sources_count": 0,
    "arguments_count": 2,
    "votes": [
      {
        "user": {
          "username": "Maisonobe Luc",
          "displayName": "Maisonobe Luc",
          "uniqueId": "maisonobeluc",
          "isAdmin": false,
          "media": {
            "url": "/media/cache/default_avatar/default/0001/01/710_default_avatar.jpg"
          },
          "vip": false,
          "_links": {
            "profile": "https://www.republique-numerique.fr/profile/maisonobeluc",
            "settings": "https://www.republique-numerique.fr/profile/edit-profile"
          }
        },
        "value": 1
      },
      {
        "user": {
          "username": "Vincent Reverdy",
          "displayName": "Vincent Reverdy",
          "uniqueId": "vincentreverdy",
          "isAdmin": false,
          "media": {
            "url": "/media/cache/default_avatar/default/0001/01/268_default_avatar.jpg"
          },
          "vip": false,
          "_links": {
            "profile": "https://www.republique-numerique.fr/profile/vincentreverdy",
            "settings": "https://www.republique-numerique.fr/profile/edit-profile"
          }
        },
        "value": 1
      },
      {
        "user": {
          "username": "Jeanne Varasco",
          "displayName": "Jeanne Varasco",
          "uniqueId": "jeannevarasco",
          "isAdmin": false,
          "media": {
            "url": "/media/cache/default_avatar/default/0001/01/139_default_avatar.jpg"
          },
          "vip": false,
          "_links": {
            "profile": "https://www.republique-numerique.fr/profile/jeannevarasco",
            "settings": "https://www.republique-numerique.fr/profile/edit-profile"
          }
        },
        "value": 1
      }
    ],
    "updated_at": "2015-09-29T09:34:12+0200",
    "ranking": 777,
    "is_trashed": false,
    "title": "service universel des télécommunications",
    "slug": "service-universel-des-telecommunications",
    "created_at": "2015-09-29T09:34:12+0200",
    "votes_nok": 0,
    "votes_ok": 3,
    "votes_mitige": 0,
    "_links": {
      "show": "https://www.republique-numerique.fr/consultations/projet-de-loi-numerique/consultation/consultation/opinions/section-1-competences-et-organisation/droit-a-l-internet/versions/service-universel-des-telecommunications",
      "report": "https://www.republique-numerique.fr/consultations/projet-de-loi-numerique/consultation/consultation/opinions/section-1-competences-et-organisation/droit-a-l-internet/versions/service-universel-des-telecommunications/report"
    },
    "user_vote": null,
    "has_user_reported": false
  },
  "rankingThreshold": null,
  "opinionTerm": 1
}