{
  "version": {
    "isContribuable": false,
    "votes_total": 2,
    "arguments_yes_count": 0,
    "arguments_no_count": 0,
    "id": 852,
    "body": "<p>Le code de la consommation est ainsi modifi&eacute;&nbsp;:</p>\n\n<p>I.&nbsp;-&nbsp;Le chapitre 1er du Titre II du Livre 1er du code de la consommation est compl&eacute;t&eacute; par une section 18 ainsi r&eacute;dig&eacute;e :</p>\n\n<p>&laquo;&nbsp;Section 18&nbsp;: R&eacute;cup&eacute;ration et portabilit&eacute; de donn&eacute;es</p>\n\n<p>&laquo;&nbsp;Sous-section 1&nbsp;: Services de courrier &eacute;lectronique</p>\n\n<p>&laquo; Art. L. 121-120.-</p>\n\n<p>&laquo;&nbsp;&nbsp;Tout fournisseur d&rsquo;un service de courrier &eacute;lectronique doit proposer une fonctionnalit&eacute; gratuite permettant &agrave; tout consommateur de transf&eacute;rer directement les messages qu&rsquo;il a &eacute;mis ou re&ccedil;us au moyen de ce service, et qui sont conserv&eacute;s par un syst&egrave;me de traitement automatis&eacute; mis en &oelig;uvre par le fournisseur du service, ainsi que sa liste de contacts, vers un autre fournisseur de service de courrier &eacute;lectronique, dans la limite de la capacit&eacute; de stockage de ce nouveau service.</p>\n\n<p>&laquo;&nbsp;Pour cela, tout fournisseur d&rsquo;un service de courrier &eacute;lectronique ne peut refuser de fournir &agrave; un autre fournisseur d&rsquo;un service de courrier &eacute;lectronique les informations n&eacute;cessaires &agrave; la mise en place des fonctionnalit&eacute;s mentionn&eacute;es au premier alin&eacute;a, notamment celles relatives &agrave; leurs r&egrave;gles techniques et aux standards applicables.</p>\n\n<p>&laquo;&nbsp;Les fournisseurs de service de courrier &eacute;lectronique informent les consommateurs de mani&egrave;re claire et loyale du droit mentionn&eacute; au premier alin&eacute;a.</p>\n\n<p>&laquo;&nbsp;Les fournisseurs de service de courrier &eacute;lectronique sont tenus de proposer &nbsp;aux consommateurs, lorsque ceux-ci changent de fournisseur, une offre leur permettant de continuer&nbsp;&agrave; avoir acc&egrave;s au courrier &eacute;lectronique re&ccedil;u sur l&rsquo;adresse &eacute;lectronique attribu&eacute;e pour une dur&eacute;e et un tarif&nbsp;d&eacute;finis lors de la signature du contrat.</p>\n\n<p>&laquo;&nbsp;Sous-section 2&nbsp;: R&eacute;cup&eacute;ration des donn&eacute;es stock&eacute;es en ligne</p>\n\n<p>&laquo; Art. L. 121-121.-</p>\n\n<p>&laquo;&nbsp;Tout fournisseur d&rsquo;un service de communication au public en ligne propose, en prenant toutes les mesures n&eacute;cessaires &agrave; cette fin, notamment en termes d&rsquo;interface de programmation, au consommateur une fonctionnalit&eacute; gratuite permettant la r&eacute;cup&eacute;ration licite :<br />\n1&deg; de tous les fichiers mis en ligne par le consommateur;<br />\n2&deg; de toutes les donn&eacute;es associ&eacute;es au compte utilisateur du consommateur et r&eacute;sultant de l&rsquo;utilisation de ce compte, notamment les donn&eacute;es relatives au classement de contenus.</p>\n\n<p>&laquo;&nbsp;La fonctionnalit&eacute; pr&eacute;vue au premier alin&eacute;a doit offrir au consommateur une facult&eacute; de requ&ecirc;te unique &eacute;tendue au moins &agrave; un type ou un format de fichiers ou donn&eacute;es.</p>\n\n<p>&laquo;&nbsp;Les fournisseurs de services de communication au public en ligne informent clairement le consommateur, avant la conclusion d&rsquo;un contrat et dans le contrat, de l&rsquo;impossibilit&eacute; ou de la possibilit&eacute; de r&eacute;cup&eacute;rer les donn&eacute;es ayant fait l&rsquo;objet d&rsquo;un traitement et, le cas &eacute;ch&eacute;ant, des modalit&eacute;s de cette r&eacute;cup&eacute;ration et de la forme, notamment le format de fichier, sous laquelle les donn&eacute;es sont r&eacute;cup&eacute;rables. Les fournisseurs de services de communication au public en ligne pr&eacute;cisent le cas &eacute;ch&eacute;ant le caract&egrave;re ouvert et interop&eacute;rable du format de fichier utilis&eacute;.</p>\n\n<p>&laquo;&nbsp;Sous-section 3&nbsp;: Champ d&rsquo;application et sanctions</p>\n\n<p>&laquo; Art. L. 121-122.- La pr&eacute;sente section est &eacute;galement applicable aux services fournis aux professionnels.</p>\n\n<p>&laquo; Art. L. 121-123.- Tout manquement aux articles L.&nbsp;121-120 et L.&nbsp;121-121 est passible d&#39;une amende administrative dont le montant ne peut exc&eacute;der 3 000 &euro; pour une personne physique et 15 000 &euro; pour une personne morale. L&#39;amende est prononc&eacute;e dans les conditions pr&eacute;vues &agrave; l&#39;article L. 141-1-2. &nbsp;&raquo;</p>\n\n<p>II. &ndash; Au 2&deg; du I de l&rsquo;article L.141-1 du code de la consommation, les mots&nbsp;:&nbsp;&laquo;&nbsp;12 et 15&nbsp;&raquo; sont remplac&eacute;s par les mots&nbsp;:&nbsp;&laquo;&nbsp;12, 15 et 18&nbsp;&raquo;.</p>",
    "comment": "Pour un fournisseur de service en ligne (ex: messagerie &eacute;lectronique professionnelle) le co&ucirc;t du stockage des donn&eacute;es peut repr&eacute;senter de 10 &agrave; 90% du c&ocirc;ut total de mise &agrave; disposition du service.<br />\n<br />\nObliger le fournisseur &nbsp;&agrave; maitenir le service ouvert (m&ecirc;me en simple consultation), gratuitement, pendant six mois, n&#39;est pas &eacute;conomiquement raisonnable.<br />\n<br />\nLes conditions de mise &agrave; disposition peuvent cependant &ecirc;tre pr&eacute;cis&eacute;es dans le contrat avant la souscription, par exemple :<br />\n<br />\n- Mise &agrave; disposition gratuite pendant 1 mois &agrave; compter de la r&eacute;siliation du service.<br />\n- Prolongation de la mise &agrave; disposition &agrave; six mois, pour 30% du prix de l&#39;abonnement r&eacute;sili&eacute;.",
    "author": {
      "username": "Arthur GERARD",
      "displayName": "Arthur GERARD",
      "uniqueId": "arthurgerard",
      "isAdmin": false,
      "media": null,
      "vip": false,
      "_links": {
        "profile": "https://www.republique-numerique.fr/profile/arthurgerard",
        "settings": "https://www.republique-numerique.fr/profile/edit-profile"
      }
    },
    "arguments": [],
    "sources": [],
    "parent": {
      "isContribuable": false,
      "id": 72,
      "body": "<p>Le code de la consommation est ainsi modifi&eacute;&nbsp;:</p>\r\n\r\n<p>I.&nbsp;-&nbsp;Le chapitre 1er du Titre II du Livre 1er du code de la consommation est compl&eacute;t&eacute; par une section 18 ainsi r&eacute;dig&eacute;e :</p>\r\n\r\n<p>&laquo;&nbsp;Section 18&nbsp;: R&eacute;cup&eacute;ration et portabilit&eacute; de donn&eacute;es</p>\r\n\r\n<p>&laquo;&nbsp;Sous-section 1&nbsp;: Services de courrier &eacute;lectronique</p>\r\n\r\n<p>&laquo; Art. L. 121-120.-</p>\r\n\r\n<p>&laquo;&nbsp;&nbsp;Tout fournisseur d&rsquo;un service de courrier &eacute;lectronique doit proposer une fonctionnalit&eacute; gratuite permettant &agrave; tout consommateur de transf&eacute;rer directement les messages qu&rsquo;il a &eacute;mis ou re&ccedil;us au moyen de ce service, et qui sont conserv&eacute;s par un syst&egrave;me de traitement automatis&eacute; mis en &oelig;uvre par le fournisseur du service, ainsi que sa liste de contacts, vers un autre fournisseur de service de courrier &eacute;lectronique, dans la limite de la capacit&eacute; de stockage de ce nouveau service.</p>\r\n\r\n<p>&laquo;&nbsp;Pour cela, tout fournisseur d&rsquo;un service de courrier &eacute;lectronique ne peut refuser de fournir &agrave; un autre fournisseur d&rsquo;un service de courrier &eacute;lectronique les informations n&eacute;cessaires &agrave; la mise en place des fonctionnalit&eacute;s mentionn&eacute;es au premier alin&eacute;a, notamment celles relatives &agrave; leurs r&egrave;gles techniques et aux standards applicables.</p>\r\n\r\n<p>&laquo;&nbsp;Les fournisseurs de service de courrier &eacute;lectronique informent les consommateurs de mani&egrave;re claire et loyale du droit mentionn&eacute; au premier alin&eacute;a.</p>\r\n\r\n<p>&laquo;&nbsp;Les fournisseurs de service de courrier &eacute;lectronique sont tenus de proposer gratuitement aux consommateurs, lorsque ceux-ci changent de fournisseur, une offre leur permettant de continuer, pour une dur&eacute;e de six mois &agrave; compter de la r&eacute;siliation ou de la d&eacute;sactivation du service, &agrave; avoir acc&egrave;s gratuitement au courrier &eacute;lectronique re&ccedil;u sur l&rsquo;adresse &eacute;lectronique attribu&eacute;e.</p>\r\n\r\n<p>&laquo;&nbsp;Sous-section 2&nbsp;: R&eacute;cup&eacute;ration des donn&eacute;es stock&eacute;es en ligne</p>\r\n\r\n<p>&laquo; Art. L. 121-121.-</p>\r\n\r\n<p>&laquo;&nbsp;Tout fournisseur d&rsquo;un service de communication au public en ligne propose, en prenant toutes les mesures n&eacute;cessaires &agrave; cette fin, notamment en termes d&rsquo;interface de programmation, au consommateur une fonctionnalit&eacute; gratuite permettant la r&eacute;cup&eacute;ration licite :<br />\r\n1&deg; de tous les fichiers mis en ligne par le consommateur;<br />\r\n2&deg; de toutes les donn&eacute;es associ&eacute;es au compte utilisateur du consommateur et r&eacute;sultant de l&rsquo;utilisation de ce compte, notamment les donn&eacute;es relatives au classement de contenus.</p>\r\n\r\n<p>&laquo;&nbsp;La fonctionnalit&eacute; pr&eacute;vue au premier alin&eacute;a doit offrir au consommateur une facult&eacute; de requ&ecirc;te unique &eacute;tendue au moins &agrave; un type ou un format de fichiers ou donn&eacute;es.</p>\r\n\r\n<p>&laquo;&nbsp;Les fournisseurs de services de communication au public en ligne informent clairement le consommateur, avant la conclusion d&rsquo;un contrat et dans le contrat, de l&rsquo;impossibilit&eacute; ou de la possibilit&eacute; de r&eacute;cup&eacute;rer les donn&eacute;es ayant fait l&rsquo;objet d&rsquo;un traitement et, le cas &eacute;ch&eacute;ant, des modalit&eacute;s de cette r&eacute;cup&eacute;ration et de la forme, notamment le format de fichier, sous laquelle les donn&eacute;es sont r&eacute;cup&eacute;rables. Les fournisseurs de services de communication au public en ligne pr&eacute;cisent le cas &eacute;ch&eacute;ant le caract&egrave;re ouvert et interop&eacute;rable du format de fichier utilis&eacute;.</p>\r\n\r\n<p>&laquo;&nbsp;Sous-section 3&nbsp;: Champ d&rsquo;application et sanctions</p>\r\n\r\n<p>&laquo; Art. L. 121-122.- La pr&eacute;sente section est &eacute;galement applicable aux services fournis aux professionnels.</p>\r\n\r\n<p>&laquo; Art. L. 121-123.- Tout manquement aux articles L.&nbsp;121-120 et L.&nbsp;121-121 est passible d&#39;une amende administrative dont le montant ne peut exc&eacute;der 3 000 &euro; pour une personne physique et 15 000 &euro; pour une personne morale. L&#39;amende est prononc&eacute;e dans les conditions pr&eacute;vues &agrave; l&#39;article L. 141-1-2. &nbsp;&raquo;</p>\r\n\r\n<p>II. &ndash; Au 2&deg; du I de l&rsquo;article L.141-1 du code de la consommation, les mots&nbsp;:&nbsp;&laquo;&nbsp;12 et 15&nbsp;&raquo; sont remplac&eacute;s par les mots&nbsp;:&nbsp;&laquo;&nbsp;12, 15 et 18&nbsp;&raquo;.</p>",
      "type": {
        "id": 95,
        "title": "Section 2",
        "subtitle": "Portabilité des données",
        "voteWidgetType": 2,
        "votesHelpText": "Pensez-vous que cette proposition permet d'atteindre les objectifs présentés dans l’explication de l’article ?",
        "commentSystem": 2,
        "color": "blue",
        "versionable": true,
        "sourceable": true,
        "votesThreshold": null,
        "votesThresholdHelpText": null
      },
      "modals": [
        {
          "key": "Art. L. 121-120",
          "before": "",
          "after": "<p>Tout fournisseur d’un service de courrier électronique doit proposer une fonctionnalité gratuite permettant à tout consommateur de transférer directement les messages qu’il a émis ou reçus au moyen de ce service, et qui sont conservés par un système de traitement automatisé mis en œuvre par le fournisseur du service, ainsi que sa liste de contacts, vers un autre fournisseur de service de courrier électronique, dans la limite de la capacité de stockage de ce nouveau service.</p><p>Pour cela, tout fournisseur d’un service de courrier électronique ne peut refuser de fournir à un autre fournisseur d’un service de courrier électronique les informations nécessaires à la mise en place des fonctionnalités mentionnées au premier alinéa, notamment celles relatives à leurs règles techniques et aux standards applicables.</p><p>Les fournisseurs de service de courrier électronique informent les consommateurs de manière claire et loyale du droit mentionné au premier alinéa.</p><p>Les fournisseurs de service de courrier électronique sont tenus de proposer gratuitement aux consommateurs, lorsque ceux-ci changent de fournisseur, une offre leur permettant de continuer, pour une durée de six mois à compter de la résiliation ou de la désactivation du service, à avoir accès gratuitement au courrier électronique reçu sur l’adresse électronique attribuée.</p>",
          "title": "Art. L. 121-120"
        },
        {
          "key": "Art. L. 121-121",
          "before": "",
          "after": "<p>Tout fournisseur d’un service de communication au public en ligne propose, en prenant toutes les mesures nécessaires à cette fin, notamment en termes d’interface de programmation, au consommateur une fonctionnalité gratuite permettant la récupération licite :<br>1° de tous les fichiers mis en ligne par le consommateur;<br>2° de toutes les données associées au compte utilisateur du consommateur et résultant de l’utilisation de ce compte, notamment les données relatives au classement de contenus.</p><p>La fonctionnalité prévue au premier alinéa doit offrir au consommateur une faculté de requête unique étendue au moins à un type ou un format de fichiers ou données.</p><p>Les fournisseurs de services de communication en ligne informent clairement le consommateur, avant la conclusion du contrat et dans le contrat, de l’impossibilité ou de la possibilité de récupérer les données ayant fait l’objet d’un traitement et, le cas échéant, des modalités de cette récupération et de la forme, notamment le format de fichier, sous laquelle les données sont récupérables. Les fournisseurs de services de communication au public en ligne précisent le cas échéant le caractère ouvert et interopérable du format de fichier utilisé.</p>",
          "title": "Art. L. 121-121"
        },
        {
          "key": "article L.141-1",
          "before": "<p>« I. Sont recherchés et constatés, dans les conditions fixées par les articles L. 450-1, L. 450-3 à L. 450-4, L. 450-7 et L. 450-8 du code de commerce, les infractions ou manquements aux dispositions suivantes du présent code :</p><p>1° Le chapitre préliminaire du titre II du livre Ier ;</p><p>2° Les sections 1 à 4 bis, 8,9,12 et 15 du chapitre Ier du titre II du livre Ier ;»</p>",
          "after": "<p>« I. Sont recherchés et constatés, dans les conditions fixées par les articles L. 450-1, L. 450-3 à L. 450-4, L. 450-7 et L. 450-8 du code de commerce, les infractions ou manquements aux dispositions suivantes du présent code :</p><p>1° Le chapitre préliminaire du titre II du livre Ier ;</p><p>2° Les sections 1 à 4 bis, 8,9,12, 15 et 18 du chapitre Ier du titre II du livre Ier ;»</p>",
          "title": "Article L141-1 du code de la consommation"
        },
        {
          "key": "Art. L. 121-122",
          "before": "",
          "after": "<p>La présente section est également applicable aux services fournis aux professionnels.</p>",
          "title": "Art. L. 121-122"
        },
        {
          "key": "Art. L. 121-123",
          "before": "",
          "after": "<p>Tout manquement aux articles L. 121-120 et L. 121-121 est passible d'une amende administrative dont le montant ne peut excéder 3 000 € pour une personne physique et 15 000 € pour une personne morale. L'amende est prononcée dans les conditions prévues à l'article L. 141-1-2.  »</p>",
          "title": "Art. L. 121-123"
        }
      ],
      "appendices": [
        {
          "body": "<p><strong>Objectif :</strong> instaurer un droit &agrave; la portabilit&eacute; des donn&eacute;es</p>\r\n\r\n<p><strong>Explication :</strong> Ce nouveau droit permettra aux clients de r&eacute;cup&eacute;rer leurs donn&eacute;es aupr&egrave;s de leurs prestataires de services num&eacute;riques (e-mails, photos, listes de contacts etc.) et de les transf&eacute;rer aupr&egrave;s d&rsquo;autres prestataires en cas de changement. La perspective de perdre ses donn&eacute;es ou de devoir se lancer dans une fastidieuse r&eacute;cup&eacute;ration manuelle de celles-ci peut en effet inciter l&rsquo;utilisateur &agrave; renoncer &agrave; changer d&rsquo;op&eacute;rateur, quand bien m&ecirc;me il ne serait plus satisfait de ses services. A l&rsquo;avenir, il se permettra de lever cette barri&egrave;re et am&eacute;liorer ainsi le fonctionnement du march&eacute; tout en offrant &agrave; l&rsquo;utilisateur (particulier ou professionnel) une mobilit&eacute; num&eacute;rique accrue. L&rsquo;adoption finale de cet article sera faite en coordination avec le projet de r&egrave;glement europ&eacute;en sur la protection des donn&eacute;es personnelles en cours de n&eacute;gociation.</p>\r\n\r\n<p><strong>Exemple :</strong> un utilisateur pourra r&eacute;cup&eacute;rer la liste des morceaux qu&rsquo;il &eacute;coute r&eacute;guli&egrave;rement r&eacute;alis&eacute;es sur les sites de diffusion en ligne lorsqu&rsquo;il changera de prestataire.</p>",
          "type": {
            "title": "Explication de l'article"
          }
        }
      ],
      "title": "Article 12 - Portabilité des données",
      "_links": {
        "show": "https://www.republique-numerique.fr/consultations/projet-de-loi-numerique/consultation/consultation/opinions/section-2-portabilite-des-donnees/article-12-portabilite-des-donnees",
        "edit": "https://www.republique-numerique.fr/consultations/projet-de-loi-numerique/consultation/consultation/opinions/section-2-portabilite-des-donnees/article-12-portabilite-des-donnees/edit",
        "report": "https://www.republique-numerique.fr/consultations/projet-de-loi-numerique/consultation/consultation/opinions/section-2-portabilite-des-donnees/article-12-portabilite-des-donnees/report",
        "type": "https://www.republique-numerique.fr/consultations/projet-de-loi-numerique/consultation/consultation/opinions/section-2-portabilite-des-donnees"
      },
      "user_vote": null,
      "has_user_reported": false
    },
    "sources_count": 0,
    "arguments_count": 0,
    "votes": [
      {
        "user": {
          "username": "Vincent Reverdy",
          "displayName": "Vincent Reverdy",
          "uniqueId": "vincentreverdy",
          "isAdmin": false,
          "media": {
            "url": "/media/cache/default_avatar/default/0001/01/268_default_avatar.jpg"
          },
          "vip": false,
          "_links": {
            "profile": "https://www.republique-numerique.fr/profile/vincentreverdy",
            "settings": "https://www.republique-numerique.fr/profile/edit-profile"
          }
        },
        "value": -1
      },
      {
        "user": {
          "username": "alain Cimino",
          "displayName": "alain Cimino",
          "uniqueId": "alaincimino",
          "isAdmin": false,
          "media": null,
          "vip": false,
          "_links": {
            "profile": "https://www.republique-numerique.fr/profile/alaincimino",
            "settings": "https://www.republique-numerique.fr/profile/edit-profile"
          }
        },
        "value": -1
      }
    ],
    "updated_at": "2015-10-12T17:30:24+0200",
    "ranking": 1201,
    "is_trashed": false,
    "title": "Mise à disposition des emails après résiliation pendant 6 mois et gratuitement = économiquement déraisonnable.",
    "slug": "mise-a-disposition-des-emails-apres-resiliation-pendant-6-mois-et-gratuitement-economiquement-deraisonnable",
    "created_at": "2015-10-12T17:27:38+0200",
    "votes_nok": 2,
    "votes_ok": 0,
    "votes_mitige": 0,
    "_links": {
      "show": "https://www.republique-numerique.fr/consultations/projet-de-loi-numerique/consultation/consultation/opinions/section-2-portabilite-des-donnees/article-12-portabilite-des-donnees/versions/mise-a-disposition-des-emails-apres-resiliation-pendant-6-mois-et-gratuitement-economiquement-deraisonnable",
      "report": "https://www.republique-numerique.fr/consultations/projet-de-loi-numerique/consultation/consultation/opinions/section-2-portabilite-des-donnees/article-12-portabilite-des-donnees/versions/mise-a-disposition-des-emails-apres-resiliation-pendant-6-mois-et-gratuitement-economiquement-deraisonnable/report"
    },
    "user_vote": null,
    "has_user_reported": false
  },
  "rankingThreshold": null,
  "opinionTerm": 1
}