{
  "version": {
    "isContribuable": false,
    "votes_total": 5,
    "arguments_yes_count": 0,
    "arguments_no_count": 0,
    "id": 1292,
    "body": "<p>I&deg; Des points d&#39;acc&egrave;s publics au service t&eacute;l&eacute;phonique - utilisant uniquement la technologie filaire, cabines et publiphones, sont r&eacute;int&eacute;gr&eacute;s dans les obligations du service universel, aux m&ecirc;mes conditions les r&eacute;gissant avant leur suppression.</p>\r\n\r\n<p>&nbsp;</p>\r\n\r\n<p>II&deg; En sus des obligations du service universel, des points d&#39;acc&egrave;s publics au service t&eacute;l&eacute;phonique - utilisant uniquement la technologie filaire - sont disponibles, garantis et signal&eacute;s, sur le domaine public et priv&eacute;, &agrave; raison d&#39;un point d&#39;acc&egrave;s minimum, sur chaque commune, hameau, bourg, quartier, arrondissement, service des urgences d&#39;h&ocirc;pital -ou structure de soins &eacute;quivalente, gare, a&eacute;roport, parking et aire d&#39;autoroute et de quatre voies. Ces points d&#39;acc&egrave;s sont rendus accessibles aux personnes handicap&eacute;es.</p>",
    "comment": "<p>Pour pouvoir faire tout ce qu&#39;il va &ecirc;tre obligatoire de faire par internet</p>\n\n<p>Les sites correspondnts, assurances, banques, imp&ocirc;ts etc ... devront se d&eacute;clarer et s&#39;identifier.</p>\n\n<p>Publicit&eacute; exclue</p>",
    "author": {
      "username": "DOMINIQUE BOUTS",
      "displayName": "DOMINIQUE BOUTS",
      "uniqueId": "dominiquebouts",
      "isAdmin": false,
      "media": null,
      "vip": false,
      "_links": {
        "profile": "https://www.republique-numerique.fr/profile/dominiquebouts",
        "settings": "https://www.republique-numerique.fr/profile/edit-profile"
      }
    },
    "arguments": [],
    "sources": [],
    "parent": {
      "isContribuable": false,
      "id": 417,
      "body": "<p>I&deg; Des points d&#39;acc&egrave;s publics au service t&eacute;l&eacute;phonique - utilisant uniquement la technologie filaire, cabines et publiphones, sont r&eacute;int&eacute;gr&eacute;s dans les obligations du service universel, aux m&ecirc;mes conditions les r&eacute;gissant avant leur suppression.</p>\r\n\r\n<p>&nbsp;</p>\r\n\r\n<p>II&deg; En sus des obligations du service universel, des points d&#39;acc&egrave;s publics au service t&eacute;l&eacute;phonique - utilisant uniquement la technologie filaire - sont disponibles, garantis et signal&eacute;s, sur le domaine public et priv&eacute;, &agrave; raison d&#39;un point d&#39;acc&egrave;s minimum, sur chaque commune, hameau, bourg, quartier, arrondissement, service des urgences d&#39;h&ocirc;pital -ou structure de soins &eacute;quivalente, gare, a&eacute;roport, parking et aire d&#39;autoroute et de quatre voies. Ces points d&#39;acc&egrave;s sont rendus accessibles aux personnes handicap&eacute;es.</p>",
      "type": {
        "id": 111,
        "title": "Section 3",
        "subtitle": "Maintien de la connexion internet",
        "voteWidgetType": 2,
        "votesHelpText": "Pensez-vous que cette proposition permet d'atteindre les objectifs présentés dans l’explication de l’article ?",
        "commentSystem": 2,
        "color": "blue",
        "versionable": true,
        "sourceable": true,
        "votesThreshold": null,
        "votesThresholdHelpText": null
      },
      "modals": [],
      "appendices": [
        {
          "body": "<p><u><strong>Objectif&nbsp;:</strong></u></p>\r\n\r\n<p>&nbsp;</p>\r\n\r\n<p>Garantir la <u>s&eacute;curit&eacute; de tous</u> &agrave; travers la <strong>possibilit&eacute; de passer des appels et des appels d&#39;urgence</strong> quel que soit le lieu et les circonstances, <strong>en cas&nbsp;de coupure &eacute;lectrique</strong>, de panne de r&eacute;seau, ou de panne de batterie mobile.</p>\r\n\r\n<p>&nbsp;</p>\r\n\r\n<p>Permettre aux personnes ne poss&eacute;dant pas ou ne pouvant poss&eacute;der de t&eacute;l&eacute;phone portable de pouvoir t&eacute;l&eacute;phoner aussi en dehors de leur domicile, sans discrimination, gr&acirc;ce &agrave; la pr&eacute;sence de points d&#39;acc&egrave;s publics en service de t&eacute;l&eacute;phonie filaire.</p>\r\n\r\n<p>&nbsp;</p>\r\n\r\n<p><u><strong>Explication&nbsp;: </strong></u></p>\r\n\r\n<p>&nbsp;</p>\r\n\r\n<p><strong>Les cabines et publiphones fonctionnent sur le r&eacute;seau t&eacute;l&eacute;phonique filaire</strong>, r&eacute;seau ind&eacute;pendant, <strong>qui reste actif, performant et disponible, en cas de coupure &eacute;lectrique (contrairement au r&eacute;seau mobile).</strong></p>\r\n\r\n<p>&nbsp;</p>\r\n\r\n<p>-<strong> <em>si</em></strong> vous ne poss&eacute;dez plus de ligne fixe, seulement un t&eacute;l&eacute;phone portable,</p>\r\n\r\n<p>ou</p>\r\n\r\n<p>-<strong> <em>si</em></strong> vous ne poss&eacute;dez, au domicile, qu&#39;un t&eacute;l&eacute;phone sans fil fonctionnant gr&acirc;ce au secteur &eacute;lectrique,</p>\r\n\r\n<p>ou</p>\r\n\r\n<p>- <em><strong>si</strong></em> vous &ecirc;tes en d&eacute;groupage total au domicile</p>\r\n\r\n<p>&nbsp;</p>\r\n\r\n<p><em><strong>la moindre coupure &eacute;lectrique (panne, incident technique, accident, attentat, incendie, inondations, incident m&eacute;t&eacute;o, catastrophe naturelle etc...) vous prive totalement de la possibilit&eacute; de t&eacute;l&eacute;phoner</strong></em> <u>et m&ecirc;me de passer un appel d&#39;urgence (!</u>), dans une situation critique.</p>\r\n\r\n<p>&nbsp;</p>\r\n\r\n<p>Un r&eacute;seau de points d&#39;acc&egrave;s publics au service t&eacute;l&eacute;phonique fixe (cabines, publiphones) pallie aux coupures de r&eacute;seau et d&#39;&eacute;lectricit&eacute; et permet de garantir la s&eacute;curit&eacute; de tous, y compris dans des situations critiques, &agrave; travers la <strong>garantie du passage d&#39;appels et d&#39;appels d&#39;urgence</strong>.</p>",
          "type": {
            "title": "Explication de l'article"
          }
        }
      ],
      "title": "Maintien des cabines téléphoniques : Garantie acheminement Appels et Appels d'Urgence en cas de coupure électrique",
      "_links": {
        "show": "https://www.republique-numerique.fr/consultations/projet-de-loi-numerique/consultation/consultation/opinions/section-3-maintien-de-la-connexion-internet/maintien-des-cabines-telephoniques-garantie-acheminement-appels-et-appels-d-urgence-en-cas-de-coupure-electrique",
        "edit": "https://www.republique-numerique.fr/consultations/projet-de-loi-numerique/consultation/consultation/opinions/section-3-maintien-de-la-connexion-internet/maintien-des-cabines-telephoniques-garantie-acheminement-appels-et-appels-d-urgence-en-cas-de-coupure-electrique/edit",
        "report": "https://www.republique-numerique.fr/consultations/projet-de-loi-numerique/consultation/consultation/opinions/section-3-maintien-de-la-connexion-internet/maintien-des-cabines-telephoniques-garantie-acheminement-appels-et-appels-d-urgence-en-cas-de-coupure-electrique/report",
        "type": "https://www.republique-numerique.fr/consultations/projet-de-loi-numerique/consultation/consultation/opinions/section-3-maintien-de-la-connexion-internet"
      },
      "user_vote": null,
      "has_user_reported": false
    },
    "sources_count": 0,
    "arguments_count": 0,
    "votes": [
      {
        "user": {
          "username": "DOMINIQUE BOUTS",
          "displayName": "DOMINIQUE BOUTS",
          "uniqueId": "dominiquebouts",
          "isAdmin": false,
          "media": null,
          "vip": false,
          "_links": {
            "profile": "https://www.republique-numerique.fr/profile/dominiquebouts",
            "settings": "https://www.republique-numerique.fr/profile/edit-profile"
          }
        },
        "value": 1
      },
      {
        "user": {
          "username": "Claire Lemercier",
          "displayName": "Claire Lemercier",
          "uniqueId": "clairelemercier",
          "isAdmin": false,
          "media": null,
          "vip": false,
          "_links": {
            "profile": "https://www.republique-numerique.fr/profile/clairelemercier",
            "settings": "https://www.republique-numerique.fr/profile/edit-profile"
          }
        },
        "value": 1
      },
      {
        "user": {
          "username": "cambon",
          "displayName": "cambon",
          "uniqueId": "cambon1",
          "isAdmin": false,
          "media": null,
          "vip": false,
          "_links": {
            "profile": "https://www.republique-numerique.fr/profile/cambon1",
            "settings": "https://www.republique-numerique.fr/profile/edit-profile"
          }
        },
        "value": 1
      },
      {
        "user": {
          "username": "willot gael",
          "displayName": "willot gael",
          "uniqueId": "willotgael",
          "isAdmin": false,
          "media": null,
          "vip": false,
          "_links": {
            "profile": "https://www.republique-numerique.fr/profile/willotgael",
            "settings": "https://www.republique-numerique.fr/profile/edit-profile"
          }
        },
        "value": 1
      },
      {
        "user": {
          "username": "Vincent Reverdy",
          "displayName": "Vincent Reverdy",
          "uniqueId": "vincentreverdy",
          "isAdmin": false,
          "media": {
            "url": "/media/cache/default_avatar/default/0001/01/268_default_avatar.jpg"
          },
          "vip": false,
          "_links": {
            "profile": "https://www.republique-numerique.fr/profile/vincentreverdy",
            "settings": "https://www.republique-numerique.fr/profile/edit-profile"
          }
        },
        "value": 1
      }
    ],
    "updated_at": "2015-10-17T13:45:27+0200",
    "ranking": 624,
    "is_trashed": false,
    "title": "CONNEXION GRATUITE A INTERNET DANS LES CABINES TELEPHONIQUES",
    "slug": "connexion-gratuite-a-internet-dans-les-cabines-telephoniques",
    "created_at": "2015-10-17T13:45:27+0200",
    "votes_nok": 0,
    "votes_ok": 5,
    "votes_mitige": 0,
    "_links": {
      "show": "https://www.republique-numerique.fr/consultations/projet-de-loi-numerique/consultation/consultation/opinions/section-3-maintien-de-la-connexion-internet/maintien-des-cabines-telephoniques-garantie-acheminement-appels-et-appels-d-urgence-en-cas-de-coupure-electrique/versions/connexion-gratuite-a-internet-dans-les-cabines-telephoniques",
      "report": "https://www.republique-numerique.fr/consultations/projet-de-loi-numerique/consultation/consultation/opinions/section-3-maintien-de-la-connexion-internet/maintien-des-cabines-telephoniques-garantie-acheminement-appels-et-appels-d-urgence-en-cas-de-coupure-electrique/versions/connexion-gratuite-a-internet-dans-les-cabines-telephoniques/report"
    },
    "user_vote": null,
    "has_user_reported": false
  },
  "rankingThreshold": null,
  "opinionTerm": 1
}