{
  "opinion": {
    "isContribuable": false,
    "votes_total": 4,
    "arguments_yes_count": 0,
    "arguments_no_count": 2,
    "id": 695,
    "created_at": "2015-10-17T10:30:46+0200",
    "updated_at": "2015-10-17T10:30:46+0200",
    "body": "<p>Pour &eacute;viter l&#39;encombrement des boites aux lettres</p>",
    "versions_count": 0,
    "sources_count": 0,
    "arguments_count": 2,
    "author": {
      "username": "Catherine Faure",
      "displayName": "Catherine Faure",
      "uniqueId": "catherinefaure",
      "isAdmin": false,
      "media": null,
      "vip": false,
      "_links": {
        "profile": "https://www.republique-numerique.fr/profile/catherinefaure",
        "settings": "https://www.republique-numerique.fr/profile/edit-profile"
      }
    },
    "type": {
      "id": 100,
      "title": "Section 2",
      "subtitle": "Confidentialité des correspondances privées",
      "voteWidgetType": 2,
      "votesHelpText": "Pensez-vous que cette proposition permet d'atteindre les objectifs présentés dans l’explication de l’article ?",
      "commentSystem": 2,
      "color": "blue",
      "versionable": true,
      "sourceable": true,
      "votesThreshold": null,
      "votesThresholdHelpText": null
    },
    "sources": [],
    "arguments": [
      {
        "isContribuable": false,
        "id": 5549,
        "body": "@Tanéléo, daccord avec vous. @Catherine Faure, si cela vous ennuie tant, sachez que vous pouvez créer des dossiers et des filtres qui envoient vos news dans le dossier news, etc... Puis avec clic-droit sur les dossiers, vous pouvez décider de garder par exemple les 200 plus récents ou ceux qui ont moins de 3 jours sauf ceux que vous avez mis en favori.",
        "created_at": "2015-10-17T21:33:17+0200",
        "updated_at": "2015-10-17T21:33:17+0200",
        "is_enabled": true,
        "votes_count": 2,
        "type": 0,
        "is_trashed": false,
        "author": {
          "username": "Jeanne Varasco",
          "displayName": "Jeanne Varasco",
          "uniqueId": "jeannevarasco",
          "isAdmin": false,
          "media": {
            "url": "/media/cache/default_avatar/default/0001/01/139_default_avatar.jpg"
          },
          "vip": false,
          "_links": {
            "profile": "https://www.republique-numerique.fr/profile/jeannevarasco",
            "settings": "https://www.republique-numerique.fr/profile/edit-profile"
          }
        },
        "_links": {
          "show": "https://www.republique-numerique.fr/consultations/projet-de-loi-numerique/consultation/consultation/opinions/section-2-confidentialite-des-correspondances-privees/possibilite-de-suspendre-un-abonnement-electronique-pour-un-temps-mail-news-push#arg-5549",
          "edit": "https://www.republique-numerique.fr/consultations/projet-de-loi-numerique/consultation/consultation/opinions/section-2-confidentialite-des-correspondances-privees/possibilite-de-suspendre-un-abonnement-electronique-pour-un-temps-mail-news-push/arguments/5549/edit",
          "report": "https://www.republique-numerique.fr/consultations/projet-de-loi-numerique/consultation/consultation/opinions/section-2-confidentialite-des-correspondances-privees/possibilite-de-suspendre-un-abonnement-electronique-pour-un-temps-mail-news-push/arguments/5549/report"
        },
        "has_user_voted": false,
        "has_user_reported": false
      },
      {
        "isContribuable": false,
        "id": 5413,
        "body": "C'est du domaine privé (service commercial), pas du domaine de la loi.",
        "created_at": "2015-10-17T17:44:24+0200",
        "updated_at": "2015-10-17T17:44:24+0200",
        "is_enabled": true,
        "votes_count": 2,
        "type": 0,
        "is_trashed": false,
        "author": {
          "username": "Tanéléo",
          "displayName": "Tanéléo",
          "uniqueId": "taneleo",
          "isAdmin": false,
          "media": null,
          "vip": false,
          "_links": {
            "profile": "https://www.republique-numerique.fr/profile/taneleo",
            "settings": "https://www.republique-numerique.fr/profile/edit-profile"
          }
        },
        "_links": {
          "show": "https://www.republique-numerique.fr/consultations/projet-de-loi-numerique/consultation/consultation/opinions/section-2-confidentialite-des-correspondances-privees/possibilite-de-suspendre-un-abonnement-electronique-pour-un-temps-mail-news-push#arg-5413",
          "edit": "https://www.republique-numerique.fr/consultations/projet-de-loi-numerique/consultation/consultation/opinions/section-2-confidentialite-des-correspondances-privees/possibilite-de-suspendre-un-abonnement-electronique-pour-un-temps-mail-news-push/arguments/5413/edit",
          "report": "https://www.republique-numerique.fr/consultations/projet-de-loi-numerique/consultation/consultation/opinions/section-2-confidentialite-des-correspondances-privees/possibilite-de-suspendre-un-abonnement-electronique-pour-un-temps-mail-news-push/arguments/5413/report"
        },
        "has_user_voted": false,
        "has_user_reported": false
      }
    ],
    "modals": [],
    "votes": [
      {
        "user": {
          "username": "Tanéléo",
          "displayName": "Tanéléo",
          "uniqueId": "taneleo",
          "isAdmin": false,
          "media": null,
          "vip": false,
          "_links": {
            "profile": "https://www.republique-numerique.fr/profile/taneleo",
            "settings": "https://www.republique-numerique.fr/profile/edit-profile"
          }
        }
      },
      {
        "user": {
          "username": "Jeanne Varasco",
          "displayName": "Jeanne Varasco",
          "uniqueId": "jeannevarasco",
          "isAdmin": false,
          "media": {
            "url": "/media/cache/default_avatar/default/0001/01/139_default_avatar.jpg"
          },
          "vip": false,
          "_links": {
            "profile": "https://www.republique-numerique.fr/profile/jeannevarasco",
            "settings": "https://www.republique-numerique.fr/profile/edit-profile"
          }
        }
      },
      {
        "user": {
          "username": "syll",
          "displayName": "syll",
          "uniqueId": "syll",
          "isAdmin": false,
          "media": null,
          "vip": false,
          "_links": {
            "profile": "https://www.republique-numerique.fr/profile/syll",
            "settings": "https://www.republique-numerique.fr/profile/edit-profile"
          }
        }
      },
      {
        "user": {
          "username": "MAU Joël",
          "displayName": "MAU Joël",
          "uniqueId": "maujoel",
          "isAdmin": false,
          "media": {
            "url": "/media/cache/default_avatar/default/0001/01/948_default_avatar.jpg"
          },
          "vip": false,
          "_links": {
            "profile": "https://www.republique-numerique.fr/profile/maujoel",
            "settings": "https://www.republique-numerique.fr/profile/edit-profile"
          }
        }
      }
    ],
    "appendices": [
      {
        "body": null,
        "type": {
          "title": "Explication de l'article"
        }
      }
    ],
    "ranking": 633,
    "is_trashed": false,
    "title": "Possibilité de suspendre un abonnement électronique pour un temps : mail, news, push",
    "votes_nok": 4,
    "votes_ok": 0,
    "votes_mitige": 0,
    "_links": {
      "show": "https://www.republique-numerique.fr/consultations/projet-de-loi-numerique/consultation/consultation/opinions/section-2-confidentialite-des-correspondances-privees/possibilite-de-suspendre-un-abonnement-electronique-pour-un-temps-mail-news-push",
      "edit": "https://www.republique-numerique.fr/consultations/projet-de-loi-numerique/consultation/consultation/opinions/section-2-confidentialite-des-correspondances-privees/possibilite-de-suspendre-un-abonnement-electronique-pour-un-temps-mail-news-push/edit",
      "report": "https://www.republique-numerique.fr/consultations/projet-de-loi-numerique/consultation/consultation/opinions/section-2-confidentialite-des-correspondances-privees/possibilite-de-suspendre-un-abonnement-electronique-pour-un-temps-mail-news-push/report",
      "type": "https://www.republique-numerique.fr/consultations/projet-de-loi-numerique/consultation/consultation/opinions/section-2-confidentialite-des-correspondances-privees"
    },
    "user_vote": null,
    "has_user_reported": false
  },
  "rankingThreshold": null,
  "opinionTerm": 1
}