{
  "version": {
    "isContribuable": false,
    "votes_total": 62,
    "arguments_yes_count": 3,
    "arguments_no_count": 7,
    "id": 753,
    "body": "<p>I. Les deuxi&egrave;me, troisi&egrave;me et quatri&egrave;me alin&eacute;as de l&rsquo;article 7 de la loi n&deg; 78-753 du 17 juillet 1978 sont remplac&eacute;s par les dispositions suivantes&nbsp;:</p>\r\n\r\n<p>&laquo;&nbsp;Les administrations mentionn&eacute;es &agrave; l&rsquo;article 1er, &agrave; l&#39;exception des personnes morales dont le nombre d&#39;agents ou de salari&eacute;s est inf&eacute;rieur &agrave; un seuil fix&eacute; par d&eacute;cret, diffusent publiquement en ligne dans un standard ouvert ais&eacute;ment r&eacute;utilisable les documents suivants, sous r&eacute;serve des dispositions de l&rsquo;article 6, lorsqu&rsquo;ils sont disponibles sous forme &eacute;lectronique&nbsp;:<br />\r\n1&deg;&nbsp;les documents qu&rsquo;elles communiquent en application des proc&eacute;dures pr&eacute;vues par le pr&eacute;sent titre, ainsi que leurs mises &agrave; jour&nbsp;;<br />\r\n2&deg; l&rsquo;ensemble des documents qui figurent dans le r&eacute;pertoire mentionn&eacute; &agrave; l&rsquo;article 17&nbsp;;<br />\r\n3&deg; les bases de donn&eacute;es qu&rsquo;elles produisent ou qu&rsquo;elles re&ccedil;oivent, ainsi que les donn&eacute;es dont la publication pr&eacute;sente un int&eacute;r&ecirc;t &eacute;conomique, social ou environnemental.</p>\r\n\r\n<p>&laquo;&nbsp;Lorsque ces documents comportent des donn&eacute;es &agrave; caract&egrave;re personnel, ils ne peuvent &ecirc;tre diffus&eacute;s qu&rsquo;apr&egrave;s anonymisation de ces donn&eacute;es, sauf si une disposition l&eacute;gislative ou r&eacute;glementaire autorise leur diffusion sans anonymisation pr&eacute;alable ou si la personne int&eacute;ress&eacute;e y a consenti.</p>\r\n\r\n<p>&laquo;&nbsp;Les administrations mentionn&eacute;es &agrave; l&rsquo;article 1er ne sont pas tenues de publier les archives publiques issues des op&eacute;rations de s&eacute;lection pr&eacute;vues aux articles L. 212-2 et L.&nbsp;212-3 du code du patrimoine.</p>\r\n\r\n<p>&laquo;&nbsp;Sans pr&eacute;judice des dispositions de l&rsquo;article L. 1112-23 du code g&eacute;n&eacute;ral des collectivit&eacute;s territoriales et de l&rsquo;article L. 125-12 du code des communes de Nouvelle-Cal&eacute;donie, les dispositions du deuxi&egrave;me &agrave; sixi&egrave;me alin&eacute;a du pr&eacute;sent article ne s&rsquo;appliquent pas aux collectivit&eacute;s territoriales, ni aux EPCI &agrave; fiscalit&eacute; propre auxquels elles appartiennent.</p>\r\n\r\n<p>&laquo;&nbsp;Un d&eacute;cret en Conseil d&rsquo;Etat pris apr&egrave;s avis de la commission mentionn&eacute;e au chapitre III d&eacute;finit les modalit&eacute;s d&rsquo;application du pr&eacute;sent article.&nbsp;&raquo;</p>\r\n\r\n<p>II. A l&rsquo;article 9 de la m&ecirc;me loi, apr&egrave;s les mots&nbsp;: &laquo;&nbsp;sont communiqu&eacute;s&nbsp;&raquo;, sont ins&eacute;r&eacute;s les mots&nbsp;: &laquo;&nbsp;ou diffus&eacute;s&nbsp;&raquo;.</p>\r\n\r\n<p>III. Sans pr&eacute;judice des dispositions de l&rsquo;article L. 1112-23 du code g&eacute;n&eacute;ral des collectivit&eacute;s territoriales et de l&rsquo;article L. 125-12 du code des communes de Nouvelle-Cal&eacute;donie, les dispositions du I du pr&eacute;sent article entrent en vigueur &agrave; une date fix&eacute;e par d&eacute;cret et au plus tard deux ans apr&egrave;s la publication de la pr&eacute;sente loi.</p>\r\n\r\n<p>Dans un d&eacute;lai de six mois &agrave; compter de la publication de la pr&eacute;sente loi, les administrations mentionn&eacute;es au&nbsp;I diffusent publiquement les documents qu&rsquo;elles communiquent en application des proc&eacute;dures pr&eacute;vues par le pr&eacute;sent titre.</p>\r\n\r\n<p>Dans un d&eacute;lai d&rsquo;un an &agrave; compter de la publication de la pr&eacute;sente loi, les administrations mentionn&eacute;es au&nbsp;I diffusent publiquement l&rsquo;ensemble des documents qui figurent dans le r&eacute;pertoire mentionn&eacute; &agrave; l&rsquo;article 17 de la loi du 7 juillet 1978.</p>",
    "comment": "<p>Ce n&#39;est qu&#39;un commentaire a l&#39;article 1, les donnees doivent pouvoir etre utilisees librement par nos universites mais sous conditions pour les entreprises privees.</p>\n\n<p>Si on regarde Uber par exemple, leur fortune colossale ne vient d&#39;aucune production mais juste d&#39;une utilisation intelligente de donnees. Il ne serait pas souhaitable qu&#39;une entreprise privee recolte des fortunes (en chiffre d&#39;affaire, actions...) en utilisant des donnes publiques, donc financee par l&#39;Etat et les citoyen.</p>",
    "author": {
      "username": "Alexandre Martinez",
      "displayName": "Alexandre Martinez",
      "uniqueId": "alexandremartinez",
      "isAdmin": false,
      "media": {
        "url": "/media/cache/default_avatar/default/0001/01/486_default_avatar.jpg"
      },
      "vip": false,
      "_links": {
        "profile": "https://www.republique-numerique.fr/profile/alexandremartinez",
        "settings": "https://www.republique-numerique.fr/profile/edit-profile"
      }
    },
    "arguments": [
      {
        "isContribuable": false,
        "id": 2899,
        "body": "L'argent public utilisé pour la production de ces données vient à la fois des prélèvements obligatoires sur les des personnes privées mais aussi sur les sociétés commerciales. Si l'utilisations des données peut en effet être utilisée par des entreprises commerciales et contribuer à leur succès alors tant mieux ! ",
        "created_at": "2015-10-10T07:28:45+0200",
        "updated_at": "2015-10-10T07:28:45+0200",
        "is_enabled": true,
        "votes_count": 3,
        "type": 0,
        "is_trashed": false,
        "author": {
          "username": "Valéry-Xavier Lentz",
          "displayName": "Valéry-Xavier Lentz",
          "uniqueId": "valeryxavierlentz",
          "isAdmin": false,
          "media": null,
          "vip": false,
          "_links": {
            "profile": "https://www.republique-numerique.fr/profile/valeryxavierlentz",
            "settings": "https://www.republique-numerique.fr/profile/edit-profile"
          }
        },
        "_links": {
          "show": "https://www.republique-numerique.fr/consultations/projet-de-loi-numerique/consultation/consultation/opinions/section-1-ouverture-des-donnees-publiques-1/article-1-elargissement-du-champ-de-diffusion-par-l-administration/versions/donnees-publiques-non-libre-pour-un-but-commercial#arg-2899",
          "edit": "https://www.republique-numerique.fr/consultations/projet-de-loi-numerique/consultation/consultation/opinions/section-1-ouverture-des-donnees-publiques-1/article-1-elargissement-du-champ-de-diffusion-par-l-administration/arguments/2899/edit",
          "report": "https://www.republique-numerique.fr/consultations/projet-de-loi-numerique/consultation/consultation/opinions/section-1-ouverture-des-donnees-publiques-1/article-1-elargissement-du-champ-de-diffusion-par-l-administration/arguments/2899/report"
        },
        "has_user_voted": false,
        "has_user_reported": false
      },
      {
        "isContribuable": false,
        "id": 3017,
        "body": "Forcer les entreprises àpayer pour utiliser des donnees penaliserait les pme et empercherait l'innovation. C'est une tres mauvaise idee.",
        "created_at": "2015-10-10T18:51:40+0200",
        "updated_at": "2015-10-10T18:51:40+0200",
        "is_enabled": true,
        "votes_count": 8,
        "type": 0,
        "is_trashed": false,
        "author": {
          "username": "Laurent Di Cesare",
          "displayName": "Laurent Di Cesare",
          "uniqueId": "laurentdicesare",
          "isAdmin": false,
          "media": null,
          "vip": false,
          "_links": {
            "profile": "https://www.republique-numerique.fr/profile/laurentdicesare",
            "settings": "https://www.republique-numerique.fr/profile/edit-profile"
          }
        },
        "_links": {
          "show": "https://www.republique-numerique.fr/consultations/projet-de-loi-numerique/consultation/consultation/opinions/section-1-ouverture-des-donnees-publiques-1/article-1-elargissement-du-champ-de-diffusion-par-l-administration/versions/donnees-publiques-non-libre-pour-un-but-commercial#arg-3017",
          "edit": "https://www.republique-numerique.fr/consultations/projet-de-loi-numerique/consultation/consultation/opinions/section-1-ouverture-des-donnees-publiques-1/article-1-elargissement-du-champ-de-diffusion-par-l-administration/arguments/3017/edit",
          "report": "https://www.republique-numerique.fr/consultations/projet-de-loi-numerique/consultation/consultation/opinions/section-1-ouverture-des-donnees-publiques-1/article-1-elargissement-du-champ-de-diffusion-par-l-administration/arguments/3017/report"
        },
        "has_user_voted": false,
        "has_user_reported": false
      },
      {
        "isContribuable": false,
        "id": 3300,
        "body": "Même si l'exemple Uber semble probant, ce n'est pas un argument. Limiter la réutilisation aux seuls services \"non commercial\" est impossible. Parce que: 1 Uber saura tout de même réutiliser le service sans en faire une redistibution commerciale , 2 d'autres société ne sauront pas le faire facilement. Limiter aux réutilisations \"non commerciales\" est dabord : peu clair (d'ou des possibilités d'utilisation par des entreprises commerciales), rend plus difficile pour tous donc tous les autres.",
        "created_at": "2015-10-12T14:51:40+0200",
        "updated_at": "2015-10-12T14:51:40+0200",
        "is_enabled": true,
        "votes_count": 3,
        "type": 0,
        "is_trashed": false,
        "author": {
          "username": "Denis Chenu",
          "displayName": "Denis Chenu",
          "uniqueId": "denischenu",
          "isAdmin": false,
          "media": null,
          "vip": false,
          "_links": {
            "profile": "https://www.republique-numerique.fr/profile/denischenu",
            "settings": "https://www.republique-numerique.fr/profile/edit-profile"
          }
        },
        "_links": {
          "show": "https://www.republique-numerique.fr/consultations/projet-de-loi-numerique/consultation/consultation/opinions/section-1-ouverture-des-donnees-publiques-1/article-1-elargissement-du-champ-de-diffusion-par-l-administration/versions/donnees-publiques-non-libre-pour-un-but-commercial#arg-3300",
          "edit": "https://www.republique-numerique.fr/consultations/projet-de-loi-numerique/consultation/consultation/opinions/section-1-ouverture-des-donnees-publiques-1/article-1-elargissement-du-champ-de-diffusion-par-l-administration/arguments/3300/edit",
          "report": "https://www.republique-numerique.fr/consultations/projet-de-loi-numerique/consultation/consultation/opinions/section-1-ouverture-des-donnees-publiques-1/article-1-elargissement-du-champ-de-diffusion-par-l-administration/arguments/3300/report"
        },
        "has_user_voted": false,
        "has_user_reported": false
      },
      {
        "isContribuable": false,
        "id": 3310,
        "body": "Tout a fait d'accord. Le problème n'est pas de savoir qui a financé la donnée mais bien de savoir pourquoi et comment d'autre vont l'utiliser. \nL'argent mis pas l'état et donc par nous, a servi à créer les données. Il n'y a aucune raison que l'état et ses services :\n1 - bradent la propriété intellectuelle de la donnée sans au moins une référence à ceux qui l'ont fait (base de la licence gratuite).\n2 - ne rentabilise pas cet investissement pour nos futurs impôts voir pour permettre la création et le maintien à jour des données existantes.\n\nIl faut OBLIGATOIREMENT communiquer et diffuser les données \"SOUS LICENCE\"  à titre lucratif ou non lucratif suivant le cas. Cela permettra, au moins d'avoir un moyen juridique pour les cas d'abus !\nPour rappel, ces licences existe déjà, il suffit juste de se placer dans le cadre qui va bien et éviter les abus !",
        "created_at": "2015-10-12T15:25:34+0200",
        "updated_at": "2015-10-12T15:25:34+0200",
        "is_enabled": true,
        "votes_count": 3,
        "type": 1,
        "is_trashed": false,
        "author": {
          "username": "DJP",
          "displayName": "DJP",
          "uniqueId": "djp1",
          "isAdmin": false,
          "media": null,
          "vip": false,
          "_links": {
            "profile": "https://www.republique-numerique.fr/profile/djp1",
            "settings": "https://www.republique-numerique.fr/profile/edit-profile"
          }
        },
        "_links": {
          "show": "https://www.republique-numerique.fr/consultations/projet-de-loi-numerique/consultation/consultation/opinions/section-1-ouverture-des-donnees-publiques-1/article-1-elargissement-du-champ-de-diffusion-par-l-administration/versions/donnees-publiques-non-libre-pour-un-but-commercial#arg-3310",
          "edit": "https://www.republique-numerique.fr/consultations/projet-de-loi-numerique/consultation/consultation/opinions/section-1-ouverture-des-donnees-publiques-1/article-1-elargissement-du-champ-de-diffusion-par-l-administration/arguments/3310/edit",
          "report": "https://www.republique-numerique.fr/consultations/projet-de-loi-numerique/consultation/consultation/opinions/section-1-ouverture-des-donnees-publiques-1/article-1-elargissement-du-champ-de-diffusion-par-l-administration/arguments/3310/report"
        },
        "has_user_voted": false,
        "has_user_reported": false
      },
      {
        "isContribuable": false,
        "id": 3389,
        "body": "Uber n'utilise aucune donnée... mais profite simplement d'une ouverture de marché qu'il a lui-même crée (illégalement pour Uber Pop)\n\nPS : Utilisation commerciale = Fortune = Taxe = Etat plein d'argent. (en règle générale, faire de l'argent : c'est bien )",
        "created_at": "2015-10-12T21:09:52+0200",
        "updated_at": "2015-10-12T21:09:52+0200",
        "is_enabled": true,
        "votes_count": 3,
        "type": 0,
        "is_trashed": false,
        "author": {
          "username": "Geoffroy Kirstetter",
          "displayName": "Geoffroy Kirstetter",
          "uniqueId": "geoffroykirstetter",
          "isAdmin": false,
          "media": null,
          "vip": false,
          "_links": {
            "profile": "https://www.republique-numerique.fr/profile/geoffroykirstetter",
            "settings": "https://www.republique-numerique.fr/profile/edit-profile"
          }
        },
        "_links": {
          "show": "https://www.republique-numerique.fr/consultations/projet-de-loi-numerique/consultation/consultation/opinions/section-1-ouverture-des-donnees-publiques-1/article-1-elargissement-du-champ-de-diffusion-par-l-administration/versions/donnees-publiques-non-libre-pour-un-but-commercial#arg-3389",
          "edit": "https://www.republique-numerique.fr/consultations/projet-de-loi-numerique/consultation/consultation/opinions/section-1-ouverture-des-donnees-publiques-1/article-1-elargissement-du-champ-de-diffusion-par-l-administration/arguments/3389/edit",
          "report": "https://www.republique-numerique.fr/consultations/projet-de-loi-numerique/consultation/consultation/opinions/section-1-ouverture-des-donnees-publiques-1/article-1-elargissement-du-champ-de-diffusion-par-l-administration/arguments/3389/report"
        },
        "has_user_voted": false,
        "has_user_reported": false
      },
      {
        "isContribuable": false,
        "id": 3666,
        "body": "Laisser le secteur privé valoriser les données que le public sous exploite... c'est créer de la richesse, de l'activité économique, des impôts, etc... ça s'appelle des \"externalités positives\".",
        "created_at": "2015-10-13T18:12:06+0200",
        "updated_at": "2015-10-13T18:12:06+0200",
        "is_enabled": true,
        "votes_count": 4,
        "type": 0,
        "is_trashed": false,
        "author": {
          "username": "Christian Quest",
          "displayName": "Christian Quest",
          "uniqueId": "christianquest",
          "isAdmin": false,
          "media": null,
          "vip": false,
          "_links": {
            "profile": "https://www.republique-numerique.fr/profile/christianquest",
            "settings": "https://www.republique-numerique.fr/profile/edit-profile"
          }
        },
        "_links": {
          "show": "https://www.republique-numerique.fr/consultations/projet-de-loi-numerique/consultation/consultation/opinions/section-1-ouverture-des-donnees-publiques-1/article-1-elargissement-du-champ-de-diffusion-par-l-administration/versions/donnees-publiques-non-libre-pour-un-but-commercial#arg-3666",
          "edit": "https://www.republique-numerique.fr/consultations/projet-de-loi-numerique/consultation/consultation/opinions/section-1-ouverture-des-donnees-publiques-1/article-1-elargissement-du-champ-de-diffusion-par-l-administration/arguments/3666/edit",
          "report": "https://www.republique-numerique.fr/consultations/projet-de-loi-numerique/consultation/consultation/opinions/section-1-ouverture-des-donnees-publiques-1/article-1-elargissement-du-champ-de-diffusion-par-l-administration/arguments/3666/report"
        },
        "has_user_voted": false,
        "has_user_reported": false
      },
      {
        "isContribuable": false,
        "id": 3710,
        "body": "Les données publiques ne sont pas des déchets dont on doit se débarrasser en les \"ouvrant\" au privé ou à la société civile, dont les associations, sans contrôle ni garde-fou.\n\nQue le \"privé\" en croisant des données d'un organisme avec celle d'un autre crée de la richesse intellectuelle ou financière n'a rien de choquant.\n\nMais les données publiques doivent avoir un statut juridique clairement établi comme une licence \"Common\" ou GPL et ceux qui réutilisent ces données doivent respecter la licence et les droits en découlant. Par exemple déposer un brevet en exploitant des données publiques ne doit pas empêcher la puissance publique de continuer à exploiter ses propres données.\n\nPar ailleurs il faut se préserver des méthodes consistant à modifier \"vaguement\" des données et à les revendre au public ou à d'autres entreprises, alors que les clients et autres entreprises ont déjà financé ces données avec leurs impôts.",
        "created_at": "2015-10-13T20:00:16+0200",
        "updated_at": "2015-10-13T20:00:16+0200",
        "is_enabled": true,
        "votes_count": 3,
        "type": 1,
        "is_trashed": false,
        "author": {
          "username": "Nicolas C",
          "displayName": "Nicolas C",
          "uniqueId": "nicolasc",
          "isAdmin": false,
          "media": null,
          "vip": false,
          "_links": {
            "profile": "https://www.republique-numerique.fr/profile/nicolasc",
            "settings": "https://www.republique-numerique.fr/profile/edit-profile"
          }
        },
        "_links": {
          "show": "https://www.republique-numerique.fr/consultations/projet-de-loi-numerique/consultation/consultation/opinions/section-1-ouverture-des-donnees-publiques-1/article-1-elargissement-du-champ-de-diffusion-par-l-administration/versions/donnees-publiques-non-libre-pour-un-but-commercial#arg-3710",
          "edit": "https://www.republique-numerique.fr/consultations/projet-de-loi-numerique/consultation/consultation/opinions/section-1-ouverture-des-donnees-publiques-1/article-1-elargissement-du-champ-de-diffusion-par-l-administration/arguments/3710/edit",
          "report": "https://www.republique-numerique.fr/consultations/projet-de-loi-numerique/consultation/consultation/opinions/section-1-ouverture-des-donnees-publiques-1/article-1-elargissement-du-champ-de-diffusion-par-l-administration/arguments/3710/report"
        },
        "has_user_voted": false,
        "has_user_reported": false
      },
      {
        "isContribuable": false,
        "id": 3960,
        "body": "Ces conditions sont actuellement définis par la licence dite \"Licence ouverte\" ou \"Open Licence\" mise au point par ETALAB en la rendant compatible avec les licences libres \"Creative Commons\" et \"OpenData Licences\" notamment (voir source).\n\nCette licence applicable à l'ensemble de l'OpenData française autorise l'exploitation commerciale des données, sans conditions particulières.\n\nIl serait intéressant de déterminer dans quelle mesure l'exploitation légale de ces données pourraient être \"taxées\" ou \"imposées\" afin de restituer des bénéfices au producteur des données, pour lui permettre de récompenser l'effort rendu, ainsi que de contribuer à l'amélioration ou la pérennité du service, en assurant, par exemple, la mise à jour régulière ou plus fréquence des données, leur enrichissement, etc... qui ne serait pas possible sans investissement retour.",
        "created_at": "2015-10-14T17:19:17+0200",
        "updated_at": "2015-10-14T17:19:17+0200",
        "is_enabled": true,
        "votes_count": 2,
        "type": 1,
        "is_trashed": false,
        "author": {
          "username": "D.R.",
          "displayName": "D.R.",
          "uniqueId": "dr",
          "isAdmin": false,
          "media": null,
          "vip": false,
          "_links": {
            "profile": "https://www.republique-numerique.fr/profile/dr",
            "settings": "https://www.republique-numerique.fr/profile/edit-profile"
          }
        },
        "_links": {
          "show": "https://www.republique-numerique.fr/consultations/projet-de-loi-numerique/consultation/consultation/opinions/section-1-ouverture-des-donnees-publiques-1/article-1-elargissement-du-champ-de-diffusion-par-l-administration/versions/donnees-publiques-non-libre-pour-un-but-commercial#arg-3960",
          "edit": "https://www.republique-numerique.fr/consultations/projet-de-loi-numerique/consultation/consultation/opinions/section-1-ouverture-des-donnees-publiques-1/article-1-elargissement-du-champ-de-diffusion-par-l-administration/arguments/3960/edit",
          "report": "https://www.republique-numerique.fr/consultations/projet-de-loi-numerique/consultation/consultation/opinions/section-1-ouverture-des-donnees-publiques-1/article-1-elargissement-du-champ-de-diffusion-par-l-administration/arguments/3960/report"
        },
        "has_user_voted": false,
        "has_user_reported": false
      },
      {
        "isContribuable": false,
        "id": 4221,
        "body": "Les données publiques doivent être exploitables par tous et librement, les commerçants compris.\nSi quelques uns trouvent des idées géniales qui permettent de proposer des services innovants et utiles en exploitant ces données, ce sera bénéfique pour tous.\n\nLe danger serait que des intérêts privés s'accaparent de données publiques mais ce n'est pas du tout le sens du texte proposé.",
        "created_at": "2015-10-15T14:18:27+0200",
        "updated_at": "2015-10-15T14:18:27+0200",
        "is_enabled": true,
        "votes_count": 2,
        "type": 0,
        "is_trashed": false,
        "author": {
          "username": "Arnaud Vauthier",
          "displayName": "Arnaud Vauthier",
          "uniqueId": "arnaudvauthier",
          "isAdmin": false,
          "media": null,
          "vip": false,
          "_links": {
            "profile": "https://www.republique-numerique.fr/profile/arnaudvauthier",
            "settings": "https://www.republique-numerique.fr/profile/edit-profile"
          }
        },
        "_links": {
          "show": "https://www.republique-numerique.fr/consultations/projet-de-loi-numerique/consultation/consultation/opinions/section-1-ouverture-des-donnees-publiques-1/article-1-elargissement-du-champ-de-diffusion-par-l-administration/versions/donnees-publiques-non-libre-pour-un-but-commercial#arg-4221",
          "edit": "https://www.republique-numerique.fr/consultations/projet-de-loi-numerique/consultation/consultation/opinions/section-1-ouverture-des-donnees-publiques-1/article-1-elargissement-du-champ-de-diffusion-par-l-administration/arguments/4221/edit",
          "report": "https://www.republique-numerique.fr/consultations/projet-de-loi-numerique/consultation/consultation/opinions/section-1-ouverture-des-donnees-publiques-1/article-1-elargissement-du-champ-de-diffusion-par-l-administration/arguments/4221/report"
        },
        "has_user_voted": false,
        "has_user_reported": false
      },
      {
        "isContribuable": false,
        "id": 4391,
        "body": "A partir du moment où la donnée est publique, aucune raison de faire une différence entre les publics et les utilisations qu'ils font des données. Ce serait discriminatoire. \nPour ce qui concerne la finalité d'un traitement de données, il y a d'autres règles de droit qui encadrent la mauvaise utilisation des données et l'utilisation pour d'autres finalités que celles prévues initialement, notamment la loi Informatique et libertés pour les données à caractère personnel. Mais là, il s'agit de données anonymisées.... ",
        "created_at": "2015-10-15T19:09:57+0200",
        "updated_at": "2015-10-15T19:09:57+0200",
        "is_enabled": true,
        "votes_count": 1,
        "type": 0,
        "is_trashed": false,
        "author": {
          "username": "Clémentine Hutin",
          "displayName": "Clémentine Hutin",
          "uniqueId": "clementinehutin",
          "isAdmin": false,
          "media": null,
          "vip": false,
          "_links": {
            "profile": "https://www.republique-numerique.fr/profile/clementinehutin",
            "settings": "https://www.republique-numerique.fr/profile/edit-profile"
          }
        },
        "_links": {
          "show": "https://www.republique-numerique.fr/consultations/projet-de-loi-numerique/consultation/consultation/opinions/section-1-ouverture-des-donnees-publiques-1/article-1-elargissement-du-champ-de-diffusion-par-l-administration/versions/donnees-publiques-non-libre-pour-un-but-commercial#arg-4391",
          "edit": "https://www.republique-numerique.fr/consultations/projet-de-loi-numerique/consultation/consultation/opinions/section-1-ouverture-des-donnees-publiques-1/article-1-elargissement-du-champ-de-diffusion-par-l-administration/arguments/4391/edit",
          "report": "https://www.republique-numerique.fr/consultations/projet-de-loi-numerique/consultation/consultation/opinions/section-1-ouverture-des-donnees-publiques-1/article-1-elargissement-du-champ-de-diffusion-par-l-administration/arguments/4391/report"
        },
        "has_user_voted": false,
        "has_user_reported": false
      }
    ],
    "sources": [
      {
        "isContribuable": false,
        "id": 316,
        "title": "ETALAB : Licence ouverte / Open Licence",
        "link": "https://www.etalab.gouv.fr/licence-ouverte-open-licence",
        "body": "Dans le cadre de la politique du Gouvernement en faveur de l’ouverture des données publiques (« Open Data »), Etalab a conçu la « Licence Ouverte / Open Licence ». Cette licence, élaborée en concertation avec l’ensemble des acteurs concernés, facilite et encourage la réutilisation des données publiques mises à disposition gratuitement.\n\nDepuis novembre 2011, la « Licence Ouverte / Open Licence » s’applique à l’ensemble des réutilisations libres gratuites de données publiques issues des administrations de l’Etat et de ses établissements publics administratifs, à l’exclusion de tout autre licence.\n\nhttps://www.etalab.gouv.fr/wp-content/uploads/2014/05/Licence_Ouverte.pdf",
        "created_at": "2015-10-14T16:51:52+0200",
        "updated_at": "2015-10-14T16:51:52+0200",
        "author": {
          "username": "D.R.",
          "displayName": "D.R.",
          "uniqueId": "dr",
          "isAdmin": false,
          "media": null,
          "vip": false,
          "_links": {
            "profile": "https://www.republique-numerique.fr/profile/dr",
            "settings": "https://www.republique-numerique.fr/profile/edit-profile"
          }
        },
        "category": "Lois et règlements",
        "votes_count": 0,
        "_links": {
          "edit": "https://www.republique-numerique.fr/consultations/projet-de-loi-numerique/consultation/consultation/opinions/section-1-ouverture-des-donnees-publiques-1/article-1-elargissement-du-champ-de-diffusion-par-l-administration/sources/etalab-licence-ouverte-open-licence/edit",
          "report": "https://www.republique-numerique.fr/consultations/projet-de-loi-numerique/consultation/consultation/opinions/section-1-ouverture-des-donnees-publiques-1/article-1-elargissement-du-champ-de-diffusion-par-l-administration/sources/etalab-licence-ouverte-open-licence/report"
        },
        "has_user_voted": false,
        "has_user_reported": false
      }
    ],
    "parent": {
      "isContribuable": false,
      "id": 61,
      "body": "<p>I. Les deuxi&egrave;me, troisi&egrave;me et quatri&egrave;me alin&eacute;as de l&rsquo;article 7 de la loi n&deg; 78-753 du 17 juillet 1978 sont remplac&eacute;s par les dispositions suivantes&nbsp;:</p>\r\n\r\n<p>&laquo;&nbsp;Les administrations mentionn&eacute;es &agrave; l&rsquo;article 1er, &agrave; l&#39;exception des personnes morales dont le nombre d&#39;agents ou de salari&eacute;s est inf&eacute;rieur &agrave; un seuil fix&eacute; par d&eacute;cret, diffusent publiquement en ligne dans un standard ouvert ais&eacute;ment r&eacute;utilisable les documents suivants, sous r&eacute;serve des dispositions de l&rsquo;article 6, lorsqu&rsquo;ils sont disponibles sous forme &eacute;lectronique&nbsp;:<br />\r\n1&deg;&nbsp;les documents qu&rsquo;elles communiquent en application des proc&eacute;dures pr&eacute;vues par le pr&eacute;sent titre, ainsi que leurs mises &agrave; jour&nbsp;;<br />\r\n2&deg; l&rsquo;ensemble des documents qui figurent dans le r&eacute;pertoire mentionn&eacute; &agrave; l&rsquo;article 17&nbsp;;<br />\r\n3&deg; les bases de donn&eacute;es qu&rsquo;elles produisent ou qu&rsquo;elles re&ccedil;oivent, ainsi que les donn&eacute;es dont la publication pr&eacute;sente un int&eacute;r&ecirc;t &eacute;conomique, social ou environnemental.</p>\r\n\r\n<p>&laquo;&nbsp;Lorsque ces documents comportent des donn&eacute;es &agrave; caract&egrave;re personnel, ils ne peuvent &ecirc;tre diffus&eacute;s qu&rsquo;apr&egrave;s anonymisation de ces donn&eacute;es, sauf si une disposition l&eacute;gislative ou r&eacute;glementaire autorise leur diffusion sans anonymisation pr&eacute;alable ou si la personne int&eacute;ress&eacute;e y a consenti.</p>\r\n\r\n<p>&laquo;&nbsp;Les administrations mentionn&eacute;es &agrave; l&rsquo;article 1er ne sont pas tenues de publier les archives publiques issues des op&eacute;rations de s&eacute;lection pr&eacute;vues aux articles L. 212-2 et L.&nbsp;212-3 du code du patrimoine.</p>\r\n\r\n<p>&laquo;&nbsp;Sans pr&eacute;judice des dispositions de l&rsquo;article L. 1112-23 du code g&eacute;n&eacute;ral des collectivit&eacute;s territoriales et de l&rsquo;article L. 125-12 du code des communes de Nouvelle-Cal&eacute;donie, les dispositions du deuxi&egrave;me &agrave; sixi&egrave;me alin&eacute;a du pr&eacute;sent article ne s&rsquo;appliquent pas aux collectivit&eacute;s territoriales, ni aux EPCI &agrave; fiscalit&eacute; propre auxquels elles appartiennent.</p>\r\n\r\n<p>&laquo;&nbsp;Un d&eacute;cret en Conseil d&rsquo;Etat pris apr&egrave;s avis de la commission mentionn&eacute;e au chapitre III d&eacute;finit les modalit&eacute;s d&rsquo;application du pr&eacute;sent article.&nbsp;&raquo;</p>\r\n\r\n<p>II. A l&rsquo;article 9 de la m&ecirc;me loi, apr&egrave;s les mots&nbsp;: &laquo;&nbsp;sont communiqu&eacute;s&nbsp;&raquo;, sont ins&eacute;r&eacute;s les mots&nbsp;: &laquo;&nbsp;ou diffus&eacute;s&nbsp;&raquo;.</p>\r\n\r\n<p>III. Sans pr&eacute;judice des dispositions de l&rsquo;article L. 1112-23 du code g&eacute;n&eacute;ral des collectivit&eacute;s territoriales et de l&rsquo;article L. 125-12 du code des communes de Nouvelle-Cal&eacute;donie, les dispositions du I du pr&eacute;sent article entrent en vigueur &agrave; une date fix&eacute;e par d&eacute;cret et au plus tard deux ans apr&egrave;s la publication de la pr&eacute;sente loi.</p>\r\n\r\n<p>Dans un d&eacute;lai de six mois &agrave; compter de la publication de la pr&eacute;sente loi, les administrations mentionn&eacute;es au&nbsp;I diffusent publiquement les documents qu&rsquo;elles communiquent en application des proc&eacute;dures pr&eacute;vues par le pr&eacute;sent titre.</p>\r\n\r\n<p>Dans un d&eacute;lai d&rsquo;un an &agrave; compter de la publication de la pr&eacute;sente loi, les administrations mentionn&eacute;es au&nbsp;I diffusent publiquement l&rsquo;ensemble des documents qui figurent dans le r&eacute;pertoire mentionn&eacute; &agrave; l&rsquo;article 17 de la loi du 7 juillet 1978.</p>",
      "type": {
        "id": 86,
        "title": "Section 1",
        "subtitle": "Ouverture des données publiques",
        "voteWidgetType": 2,
        "votesHelpText": "Pensez-vous que cette proposition permet d'atteindre les objectifs présentés dans l’explication de l’article ?",
        "commentSystem": 2,
        "color": "blue",
        "versionable": true,
        "sourceable": true,
        "votesThreshold": null,
        "votesThresholdHelpText": null
      },
      "modals": [
        {
          "key": "article 7 de la loi n° 78-753 du 17 juillet 1978",
          "before": "<p>Font l'objet d'une publication les directives, les instructions, les circulaires, ainsi que les notes et réponses ministérielles qui comportent une interprétation du droit positif ou une description des procédures administratives.</p><p>Les administrations mentionnées à l'article 1er peuvent en outre rendre publics les autres documents administratifs qu'elles produisent ou reçoivent.</p><p>Toutefois, sauf dispositions législatives contraires, les documents administratifs qui comportent des mentions entrant dans le champ d'application de l'article 6 ou, sans préjudice de l'article 13, des données à caractère personnel ne peuvent être rendus publics qu'après avoir fait l'objet d'un traitement afin d'occulter ces mentions ou de rendre impossible l'identification des personnes qui y sont nommées.</p><p>Un décret en Conseil d'Etat pris après avis de la commission mentionnée au chapitre III précise les modalités d'application du premier alinéa du présent article.</p>",
          "after": "<p>Font l'objet d'une publication les directives, les instructions, les circulaires, ainsi que les notes et réponses ministérielles qui comportent une interprétation du droit positif ou une description des procédures administratives.</p>Les administrations mentionnées à l’article 1er, à l'exception des personnes morales dont le nombre d'agents ou de salariés est inférieur à un seuil fixé par décret, diffusent publiquement en ligne dans un standard ouvert aisément réutilisable les documents suivants, sous réserve des dispositions de l’article 6, lorsqu’ils sont disponibles sous forme électronique :<br>1° les documents qu’elles communiquent en application des procédures prévues par le présent titre, ainsi que leurs mises à jour ;<br>2° l’ensemble des documents qui figurent dans le répertoire mentionné à l’article 17 ;<br>3° les bases de données qu’elles produisent ou qu’elles reçoivent, ainsi que les données dont la publication présente un intérêt économique, social ou environnemental.</p><p>Lorsque ces documents comportent des données à caractère personnel, ils ne peuvent être diffusés qu’après anonymisation de ces données, sauf si une disposition législative ou réglementaire autorise leur diffusion sans anonymisation préalable ou si la personne intéressée y a consenti.</p><p>Les administrations mentionnées à l’article 1er ne sont pas tenues de publier les archives publiques issues des opérations de sélection prévues aux articles L. 212-2 et L. 212-3 du code du patrimoine.</p><p>Sans préjudice des dispositions de l’article L. 1112-23 du code général des collectivités territoriales et de l’article L. 125-12 du code des communes de Nouvelle-Calédonie, les dispositions du deuxième à sixième alinéa du présent article ne s’appliquent pas aux collectivités territoriales, ni aux EPCI à fiscalité propre auxquels elles appartiennent.<br>Un décret en Conseil d'Etat pris après avis de la commission mentionnée au chapitre III définit les modalités d'application du présent article.</p>",
          "title": "Article 7 de la loi n°78-753 du 17 juillet 1978"
        },
        {
          "key": "article 9",
          "before": "<p>Les documents administratifs sont communiqués sous réserve des droits de propriété littéraire et artistique.</p>",
          "after": "<p>Les documents administratifs sont communiqués ou diffusés sous réserve des droits de propriété littéraire et artistique.</p>",
          "title": "Article 9 de la loi n°78-753 du 17 juillet 1978"
        }
      ],
      "appendices": [
        {
          "body": "<p><strong>Objectif :</strong> &eacute;largir massivement les obligations de diffusion spontan&eacute;e de documents et donn&eacute;es des organismes publics.</p>\r\n\r\n<p><strong>Explication :</strong> aujourd&rsquo;hui, la loi du 17 juillet 1978 (dite &laquo; loi CADA &raquo;) pr&eacute;voit qu&rsquo;un grand nombre de documents des organismes publics sont communicables : toute personne peut demander &agrave; l&rsquo;administration de les communiquer, mais ils ne sont pas publi&eacute;s. D&eacute;sormais, les organismes publics mettront spontan&eacute;ment en ligne ces documents (sans que l&rsquo;usager n&rsquo;ait besoin d&rsquo;en faire la demande).<br />\r\nMais cette mesure ne s&rsquo;appliquera qu&rsquo;aux documents les plus pertinents pour l&rsquo;open data (notamment les bases de donn&eacute;es), sera restreinte au flux des nouveaux documents en format &eacute;lectronique, et ne concernera ni les petits organismes ni les collectivit&eacute;s locales (pas de modification de l&rsquo;article 106 de la loi du 7 ao&ucirc;t 2015 portant nouvelle organisation territoriale de la R&eacute;publique). Une mise en &oelig;uvre diff&eacute;r&eacute;e est &eacute;galement pr&eacute;vue au III de cet article : l&rsquo;ensemble des obligations nouvelles ne s&rsquo;appliquera qu&rsquo;au bout de 2 ans.</p>\r\n\r\n<p><strong>Exemple :</strong> la liste des logements sociaux des organismes HLM est aujourd&rsquo;hui communicable sur demande mais non publi&eacute;e ; il sera pr&eacute;vu d&eacute;sormais que de telles bases de donn&eacute;es des organismes publics doivent &ecirc;tre mises en ligne.</p>",
          "type": {
            "title": "Explication de l'article"
          }
        }
      ],
      "title": "Article 1 - Open data par défaut (obligation de diffuser en ligne les principaux documents et données des organismes publics)",
      "_links": {
        "show": "https://www.republique-numerique.fr/consultations/projet-de-loi-numerique/consultation/consultation/opinions/section-1-ouverture-des-donnees-publiques-1/article-1-elargissement-du-champ-de-diffusion-par-l-administration",
        "edit": "https://www.republique-numerique.fr/consultations/projet-de-loi-numerique/consultation/consultation/opinions/section-1-ouverture-des-donnees-publiques-1/article-1-elargissement-du-champ-de-diffusion-par-l-administration/edit",
        "report": "https://www.republique-numerique.fr/consultations/projet-de-loi-numerique/consultation/consultation/opinions/section-1-ouverture-des-donnees-publiques-1/article-1-elargissement-du-champ-de-diffusion-par-l-administration/report",
        "type": "https://www.republique-numerique.fr/consultations/projet-de-loi-numerique/consultation/consultation/opinions/section-1-ouverture-des-donnees-publiques-1"
      },
      "user_vote": null,
      "has_user_reported": false
    },
    "sources_count": 1,
    "arguments_count": 10,
    "votes": [
      {
        "user": {
          "username": "Morgan Capron",
          "displayName": "Morgan Capron",
          "uniqueId": "morgancapron",
          "isAdmin": false,
          "media": null,
          "vip": false,
          "_links": {
            "profile": "https://www.republique-numerique.fr/profile/morgancapron",
            "settings": "https://www.republique-numerique.fr/profile/edit-profile"
          }
        },
        "value": -1
      },
      {
        "user": {
          "username": "François-Xavier Eon",
          "displayName": "François-Xavier Eon",
          "uniqueId": "francoisxaviereon",
          "isAdmin": false,
          "media": null,
          "vip": false,
          "_links": {
            "profile": "https://www.republique-numerique.fr/profile/francoisxaviereon",
            "settings": "https://www.republique-numerique.fr/profile/edit-profile"
          }
        },
        "value": 1
      },
      {
        "user": {
          "username": "Pierre Delobel",
          "displayName": "Pierre Delobel",
          "uniqueId": "pierredelobel",
          "isAdmin": false,
          "media": null,
          "vip": false,
          "_links": {
            "profile": "https://www.republique-numerique.fr/profile/pierredelobel",
            "settings": "https://www.republique-numerique.fr/profile/edit-profile"
          }
        },
        "value": 1
      },
      {
        "user": {
          "username": "Valéry-Xavier Lentz",
          "displayName": "Valéry-Xavier Lentz",
          "uniqueId": "valeryxavierlentz",
          "isAdmin": false,
          "media": null,
          "vip": false,
          "_links": {
            "profile": "https://www.republique-numerique.fr/profile/valeryxavierlentz",
            "settings": "https://www.republique-numerique.fr/profile/edit-profile"
          }
        },
        "value": -1
      },
      {
        "user": {
          "username": "Nathan Patry",
          "displayName": "Nathan Patry",
          "uniqueId": "nathanpatry",
          "isAdmin": false,
          "media": null,
          "vip": false,
          "_links": {
            "profile": "https://www.republique-numerique.fr/profile/nathanpatry",
            "settings": "https://www.republique-numerique.fr/profile/edit-profile"
          }
        },
        "value": 0
      }
    ],
    "updated_at": "2015-10-09T17:10:56+0200",
    "ranking": 188,
    "is_trashed": false,
    "title": "Donnees publiques non libre pour un but commercial",
    "slug": "donnees-publiques-non-libre-pour-un-but-commercial",
    "created_at": "2015-10-09T17:10:56+0200",
    "votes_nok": 30,
    "votes_ok": 24,
    "votes_mitige": 8,
    "_links": {
      "show": "https://www.republique-numerique.fr/consultations/projet-de-loi-numerique/consultation/consultation/opinions/section-1-ouverture-des-donnees-publiques-1/article-1-elargissement-du-champ-de-diffusion-par-l-administration/versions/donnees-publiques-non-libre-pour-un-but-commercial",
      "report": "https://www.republique-numerique.fr/consultations/projet-de-loi-numerique/consultation/consultation/opinions/section-1-ouverture-des-donnees-publiques-1/article-1-elargissement-du-champ-de-diffusion-par-l-administration/versions/donnees-publiques-non-libre-pour-un-but-commercial/report"
    },
    "user_vote": null,
    "has_user_reported": false
  },
  "rankingThreshold": null,
  "opinionTerm": 1
}