{
  "version": {
    "isContribuable": false,
    "votes_total": 70,
    "arguments_yes_count": 3,
    "arguments_no_count": 6,
    "id": 16,
    "body": "<p>I. Les deuxi&egrave;me, troisi&egrave;me et quatri&egrave;me alin&eacute;as de l&rsquo;article 7 de la loi n&deg; 78-753 du 17 juillet 1978 sont remplac&eacute;s par les dispositions suivantes&nbsp;:</p>\n\n<p>&laquo;&nbsp;Les administrations mentionn&eacute;es &agrave; l&rsquo;article 1er, &agrave; l&#39;exception des personnes morales dont le nombre d&#39;agents ou de salari&eacute;s est inf&eacute;rieur &agrave; un seuil fix&eacute; par d&eacute;cret, <strong>diffusent publiquement en ligne dans un standard ouvert ais&eacute;ment r&eacute;utilisable les documents suivants</strong>, sous r&eacute;serve des dispositions de l&rsquo;article 6, lorsqu&rsquo;ils sont disponibles sous forme &eacute;lectronique&nbsp;:<br />\n1&deg;&nbsp;les documents qu&rsquo;elles communiquent en application des proc&eacute;dures pr&eacute;vues par le pr&eacute;sent titre, ainsi que leurs mises &agrave; jour&nbsp;;<br />\n2&deg; l&rsquo;ensemble des documents qui figurent dans le r&eacute;pertoire mentionn&eacute; &agrave; l&rsquo;article 17&nbsp;;<br />\n3&deg; les bases de donn&eacute;es qu&rsquo;elles produisent ou qu&rsquo;elles re&ccedil;oivent, ainsi que les donn&eacute;es dont la publication pr&eacute;sente un int&eacute;r&ecirc;t &eacute;conomique, social ou environnemental.</p>\n\n<p>&laquo;&nbsp;Lorsque ces documents comportent des donn&eacute;es &agrave; caract&egrave;re personnel, ils ne peuvent &ecirc;tre diffus&eacute;s qu&rsquo;apr&egrave;s anonymisation de ces donn&eacute;es, sauf si une disposition l&eacute;gislative ou r&eacute;glementaire autorise leur diffusion sans anonymisation pr&eacute;alable ou si la personne int&eacute;ress&eacute;e y a consenti.</p>\n\n<p>&laquo;&nbsp;Les administrations mentionn&eacute;es &agrave; l&rsquo;article 1er ne sont pas tenues de publier les archives publiques issues des op&eacute;rations de s&eacute;lection pr&eacute;vues aux articles L. 212-2 et L.&nbsp;212-3 du code du patrimoine.</p>\n\n<p>&laquo;&nbsp;Sans pr&eacute;judice des dispositions de l&rsquo;article L. 1112-23 du code g&eacute;n&eacute;ral des collectivit&eacute;s territoriales et de l&rsquo;article L. 125-12 du code des communes de Nouvelle-Cal&eacute;donie, les dispositions du deuxi&egrave;me &agrave; sixi&egrave;me alin&eacute;a du pr&eacute;sent article ne s&rsquo;appliquent pas aux collectivit&eacute;s territoriales, ni aux EPCI &agrave; fiscalit&eacute; propre auxquels elles appartiennent.</p>\n\n<p>&laquo;&nbsp;Un d&eacute;cret en Conseil d&rsquo;Etat pris apr&egrave;s avis de la commission mentionn&eacute;e au chapitre III d&eacute;finit les modalit&eacute;s d&rsquo;application du pr&eacute;sent article.&nbsp;&raquo;</p>\n\n<p>II. A l&rsquo;article 9 de la m&ecirc;me loi, apr&egrave;s les mots&nbsp;: &laquo;&nbsp;sont communiqu&eacute;s&nbsp;&raquo;, sont ins&eacute;r&eacute;s les mots&nbsp;: &laquo;&nbsp;ou diffus&eacute;s&nbsp;&raquo;.</p>\n\n<p>III. Sans pr&eacute;judice des dispositions de l&rsquo;article L. 1112-23 du code g&eacute;n&eacute;ral des collectivit&eacute;s territoriales et de l&rsquo;article L. 125-12 du code des communes de Nouvelle-Cal&eacute;donie, les dispositions du I du pr&eacute;sent article entrent en vigueur &agrave; une date fix&eacute;e par d&eacute;cret et au plus tard deux ans apr&egrave;s la publication de la pr&eacute;sente loi.</p>\n\n<p><strong>Dans un d&eacute;lai de six mois &agrave; compter de la publication de la pr&eacute;sente loi, les administrations mentionn&eacute;es au&nbsp;I diffusent publiquement les documents qu&rsquo;elles communiquent en application des proc&eacute;dures pr&eacute;vues par le pr&eacute;sent titre.</strong></p>\n\n<p><strong>Dans un d&eacute;lai d&rsquo;un an &agrave; compter de la publication de la pr&eacute;sente loi, les administrations mentionn&eacute;es au&nbsp;I diffusent publiquement l&rsquo;ensemble des documents qui figurent dans le r&eacute;pertoire mentionn&eacute; &agrave; l&rsquo;article 17 de la loi du 7 juillet 1978.</strong></p>",
    "comment": "<p>Le texte impose aux administrations une obligation de diffuser publiquement les documents cit&eacute;s, mais ne pr&eacute;voit nullement de sanction applicable en cas d&#39;irrespect de celle-ci. Les seules sanctions concernent les personnes qui utilisent les donn&eacute;es sans respecter les dispositions de la loi CADA du 17 juillet 1978, mais pas les administrations elles-m&ecirc;mes.&nbsp;L&#39;absence de sanction pose ainsi la question de l&#39;effectivit&eacute; de cette disposition, susceptible de permettre &agrave; certaines administrations de s&#39;y soustraire.</p>\n\n<p>Par ailleurs, les derniers alin&eacute;as posent un d&eacute;lai de six mois pour mettre en ligne les documents communicables, et un an pour la mise en ligne des bases de donn&eacute;es et autres r&eacute;pertoires. L&agrave; encore, l&#39;absence de sanction invite &agrave; penser que les d&eacute;lais ne seront pas ou peu respect&eacute;s, d&#39;autant que l&#39;obligation de diffusion publique impose &agrave; la charge des administrations le d&eacute;ploiement de moyens d&#39;envergure. &nbsp;</p>\n\n<p>&nbsp;</p>",
    "author": {
      "username": "Léa Paravano",
      "displayName": "Léa Paravano",
      "uniqueId": "leaparavano",
      "isAdmin": false,
      "media": null,
      "vip": false,
      "_links": {
        "profile": "https://www.republique-numerique.fr/profile/leaparavano",
        "settings": "https://www.republique-numerique.fr/profile/edit-profile"
      }
    },
    "arguments": [
      {
        "isContribuable": false,
        "id": 14,
        "body": "Sans sanctions, cette mesure risque de ne pas être appliqué.\nEn effet le cas se présente déjà aujourd'hui lors de demandes d'accès aux documents administratifs,les administrations de sont pas tenues de transmettre les documents même après une décision CADA favorable.\n\nIl faut donc une sanction pour être sûr que cette article sera appliqué.",
        "created_at": "2015-09-26T12:10:20+0200",
        "updated_at": "2015-09-26T12:10:20+0200",
        "is_enabled": true,
        "votes_count": 11,
        "type": 1,
        "is_trashed": false,
        "author": {
          "username": "dattaz",
          "displayName": "dattaz",
          "uniqueId": "dattaz",
          "isAdmin": false,
          "media": {
            "url": "/media/cache/default_avatar/default/0001/01/94_default_avatar.jpg"
          },
          "vip": false,
          "_links": {
            "profile": "https://www.republique-numerique.fr/profile/dattaz",
            "settings": "https://www.republique-numerique.fr/profile/edit-profile"
          }
        },
        "_links": {
          "show": "https://www.republique-numerique.fr/consultations/projet-de-loi-numerique/consultation/consultation/opinions/section-1-ouverture-des-donnees-publiques-1/article-1-elargissement-du-champ-de-diffusion-par-l-administration/versions/absence-de-sanction-de-l-irrespect-de-l-obligation-de-diffusion-publique-en-ligne#arg-14",
          "edit": "https://www.republique-numerique.fr/consultations/projet-de-loi-numerique/consultation/consultation/opinions/section-1-ouverture-des-donnees-publiques-1/article-1-elargissement-du-champ-de-diffusion-par-l-administration/arguments/14/edit",
          "report": "https://www.republique-numerique.fr/consultations/projet-de-loi-numerique/consultation/consultation/opinions/section-1-ouverture-des-donnees-publiques-1/article-1-elargissement-du-champ-de-diffusion-par-l-administration/arguments/14/report"
        },
        "has_user_voted": false,
        "has_user_reported": false
      },
      {
        "isContribuable": false,
        "id": 876,
        "body": "Si on inscrit dans la loi des sanctions, il faut dans ce cas désigner une organisation permettant de recenser les abus et de constituer les dossiers à transmettre à la justice.",
        "created_at": "2015-09-28T14:27:51+0200",
        "updated_at": "2015-09-28T14:27:51+0200",
        "is_enabled": true,
        "votes_count": 1,
        "type": 0,
        "is_trashed": false,
        "author": {
          "username": "Reda Chiali",
          "displayName": "Reda Chiali",
          "uniqueId": "redachiali",
          "isAdmin": false,
          "media": null,
          "vip": false,
          "_links": {
            "profile": "https://www.republique-numerique.fr/profile/redachiali",
            "settings": "https://www.republique-numerique.fr/profile/edit-profile"
          }
        },
        "_links": {
          "show": "https://www.republique-numerique.fr/consultations/projet-de-loi-numerique/consultation/consultation/opinions/section-1-ouverture-des-donnees-publiques-1/article-1-elargissement-du-champ-de-diffusion-par-l-administration/versions/absence-de-sanction-de-l-irrespect-de-l-obligation-de-diffusion-publique-en-ligne#arg-876",
          "edit": "https://www.republique-numerique.fr/consultations/projet-de-loi-numerique/consultation/consultation/opinions/section-1-ouverture-des-donnees-publiques-1/article-1-elargissement-du-champ-de-diffusion-par-l-administration/arguments/876/edit",
          "report": "https://www.republique-numerique.fr/consultations/projet-de-loi-numerique/consultation/consultation/opinions/section-1-ouverture-des-donnees-publiques-1/article-1-elargissement-du-champ-de-diffusion-par-l-administration/arguments/876/report"
        },
        "has_user_voted": false,
        "has_user_reported": false
      },
      {
        "isContribuable": false,
        "id": 1160,
        "body": "A quelles sanctions pensez-vous? comment sanctionner une administration? N'est ce pas la priver de moyens et ressources qui auraient pu lui permettre de faire cette mise à disposition?",
        "created_at": "2015-09-29T10:07:05+0200",
        "updated_at": "2015-09-29T10:07:05+0200",
        "is_enabled": true,
        "votes_count": 1,
        "type": 0,
        "is_trashed": false,
        "author": {
          "username": "Sylvain Comte",
          "displayName": "Sylvain Comte",
          "uniqueId": "sylvaincomte",
          "isAdmin": false,
          "media": null,
          "vip": false,
          "_links": {
            "profile": "https://www.republique-numerique.fr/profile/sylvaincomte",
            "settings": "https://www.republique-numerique.fr/profile/edit-profile"
          }
        },
        "_links": {
          "show": "https://www.republique-numerique.fr/consultations/projet-de-loi-numerique/consultation/consultation/opinions/section-1-ouverture-des-donnees-publiques-1/article-1-elargissement-du-champ-de-diffusion-par-l-administration/versions/absence-de-sanction-de-l-irrespect-de-l-obligation-de-diffusion-publique-en-ligne#arg-1160",
          "edit": "https://www.republique-numerique.fr/consultations/projet-de-loi-numerique/consultation/consultation/opinions/section-1-ouverture-des-donnees-publiques-1/article-1-elargissement-du-champ-de-diffusion-par-l-administration/arguments/1160/edit",
          "report": "https://www.republique-numerique.fr/consultations/projet-de-loi-numerique/consultation/consultation/opinions/section-1-ouverture-des-donnees-publiques-1/article-1-elargissement-du-champ-de-diffusion-par-l-administration/arguments/1160/report"
        },
        "has_user_voted": false,
        "has_user_reported": false
      },
      {
        "isContribuable": false,
        "id": 1161,
        "body": "La modification proposée ici présente un délai de mise en œuvre qui ne renvoie pas à un décret tartempion, c'est un bonne chose. Mais quelle est la rédaction proposée exactement?",
        "created_at": "2015-09-29T10:09:53+0200",
        "updated_at": "2015-09-29T10:09:53+0200",
        "is_enabled": true,
        "votes_count": 1,
        "type": 1,
        "is_trashed": false,
        "author": {
          "username": "Sylvain Comte",
          "displayName": "Sylvain Comte",
          "uniqueId": "sylvaincomte",
          "isAdmin": false,
          "media": null,
          "vip": false,
          "_links": {
            "profile": "https://www.republique-numerique.fr/profile/sylvaincomte",
            "settings": "https://www.republique-numerique.fr/profile/edit-profile"
          }
        },
        "_links": {
          "show": "https://www.republique-numerique.fr/consultations/projet-de-loi-numerique/consultation/consultation/opinions/section-1-ouverture-des-donnees-publiques-1/article-1-elargissement-du-champ-de-diffusion-par-l-administration/versions/absence-de-sanction-de-l-irrespect-de-l-obligation-de-diffusion-publique-en-ligne#arg-1161",
          "edit": "https://www.republique-numerique.fr/consultations/projet-de-loi-numerique/consultation/consultation/opinions/section-1-ouverture-des-donnees-publiques-1/article-1-elargissement-du-champ-de-diffusion-par-l-administration/arguments/1161/edit",
          "report": "https://www.republique-numerique.fr/consultations/projet-de-loi-numerique/consultation/consultation/opinions/section-1-ouverture-des-donnees-publiques-1/article-1-elargissement-du-champ-de-diffusion-par-l-administration/arguments/1161/report"
        },
        "has_user_voted": false,
        "has_user_reported": false
      },
      {
        "isContribuable": false,
        "id": 1225,
        "body": "Proposition contre productive. \n\nEn cas de risque de sanction, a moins d'être blindé juridiquement, et ils n'ont forcement pas les moyens de recourir a l'expertise judiciaire, les administrations et leur agents préféreront l'inaction au risque de sanction. \n\nJe vois très bien l'effet de cette loi : \n\nPuisqu'en créant des données on risque juridiquement d'être condamné en cas de non publication dans les délais, la solution est de ne plus créer des données publiables (en les faisant passées en données a caractère sensible par exemple)\n\nAinsi, cette proposition non seulement détruira la publication des données, mais aussi leur accessibilité.",
        "created_at": "2015-09-29T13:32:23+0200",
        "updated_at": "2015-09-29T13:32:23+0200",
        "is_enabled": true,
        "votes_count": 1,
        "type": 0,
        "is_trashed": false,
        "author": {
          "username": "Metral Rémi",
          "displayName": "Metral Rémi",
          "uniqueId": "metralremi",
          "isAdmin": false,
          "media": null,
          "vip": false,
          "_links": {
            "profile": "https://www.republique-numerique.fr/profile/metralremi",
            "settings": "https://www.republique-numerique.fr/profile/edit-profile"
          }
        },
        "_links": {
          "show": "https://www.republique-numerique.fr/consultations/projet-de-loi-numerique/consultation/consultation/opinions/section-1-ouverture-des-donnees-publiques-1/article-1-elargissement-du-champ-de-diffusion-par-l-administration/versions/absence-de-sanction-de-l-irrespect-de-l-obligation-de-diffusion-publique-en-ligne#arg-1225",
          "edit": "https://www.republique-numerique.fr/consultations/projet-de-loi-numerique/consultation/consultation/opinions/section-1-ouverture-des-donnees-publiques-1/article-1-elargissement-du-champ-de-diffusion-par-l-administration/arguments/1225/edit",
          "report": "https://www.republique-numerique.fr/consultations/projet-de-loi-numerique/consultation/consultation/opinions/section-1-ouverture-des-donnees-publiques-1/article-1-elargissement-du-champ-de-diffusion-par-l-administration/arguments/1225/report"
        },
        "has_user_voted": false,
        "has_user_reported": false
      },
      {
        "isContribuable": false,
        "id": 1907,
        "body": "Comme pour toute obligation pesant sur les administrations, un dispositif transversal de sanction sera applicable : tout citoyen aura le droit de saisir le juge administratif, qui pourra forcer l'administration à publier les documents en question. L'article 3-IV du projet de loi prévoit aussi que le citoyen pourra demander son avis à la CADA en cas de non-publication par l'administration (ce qui est un moyen d'inciter l'administration à appliquer plus vite la loi).\nCe serait plus difficile d'imaginer un dispositif de sanctions spécifique (où les administrations devraient automatiquement payer une amende en cas de non-respect, même si aucun juge ne s'est prononcé). Cela existe dans quelques rares cas, mais l'amende versée revient généralement à une autre administration de l'Etat.\nPeut-être qu'on pourrait seulement prévoir un dispositif de suivi où l'Etat publie la liste des administrations qui ne publient pas leurs documents administratifs (\"name and shame\") ?  ",
        "created_at": "2015-10-01T17:43:15+0200",
        "updated_at": "2015-10-01T17:43:15+0200",
        "is_enabled": true,
        "votes_count": 1,
        "type": 0,
        "is_trashed": false,
        "author": {
          "username": "Laurent Evenos",
          "displayName": "Laurent Evenos",
          "uniqueId": "laurentevenos",
          "isAdmin": false,
          "media": null,
          "vip": false,
          "_links": {
            "profile": "https://www.republique-numerique.fr/profile/laurentevenos",
            "settings": "https://www.republique-numerique.fr/profile/edit-profile"
          }
        },
        "_links": {
          "show": "https://www.republique-numerique.fr/consultations/projet-de-loi-numerique/consultation/consultation/opinions/section-1-ouverture-des-donnees-publiques-1/article-1-elargissement-du-champ-de-diffusion-par-l-administration/versions/absence-de-sanction-de-l-irrespect-de-l-obligation-de-diffusion-publique-en-ligne#arg-1907",
          "edit": "https://www.republique-numerique.fr/consultations/projet-de-loi-numerique/consultation/consultation/opinions/section-1-ouverture-des-donnees-publiques-1/article-1-elargissement-du-champ-de-diffusion-par-l-administration/arguments/1907/edit",
          "report": "https://www.republique-numerique.fr/consultations/projet-de-loi-numerique/consultation/consultation/opinions/section-1-ouverture-des-donnees-publiques-1/article-1-elargissement-du-champ-de-diffusion-par-l-administration/arguments/1907/report"
        },
        "has_user_voted": false,
        "has_user_reported": false
      },
      {
        "isContribuable": false,
        "id": 4562,
        "body": "Comme il y a du travail à faire, ill est plus simple pour qui que ce soit de l'éviter, comme pour une administration. La possibilité de sanctions est nécessaire.",
        "created_at": "2015-10-16T10:49:09+0200",
        "updated_at": "2015-10-16T10:49:09+0200",
        "is_enabled": true,
        "votes_count": 0,
        "type": 1,
        "is_trashed": false,
        "author": {
          "username": "Duflot Jean-Luc",
          "displayName": "Duflot Jean-Luc",
          "uniqueId": "duflotjeanluc",
          "isAdmin": false,
          "media": null,
          "vip": false,
          "_links": {
            "profile": "https://www.republique-numerique.fr/profile/duflotjeanluc",
            "settings": "https://www.republique-numerique.fr/profile/edit-profile"
          }
        },
        "_links": {
          "show": "https://www.republique-numerique.fr/consultations/projet-de-loi-numerique/consultation/consultation/opinions/section-1-ouverture-des-donnees-publiques-1/article-1-elargissement-du-champ-de-diffusion-par-l-administration/versions/absence-de-sanction-de-l-irrespect-de-l-obligation-de-diffusion-publique-en-ligne#arg-4562",
          "edit": "https://www.republique-numerique.fr/consultations/projet-de-loi-numerique/consultation/consultation/opinions/section-1-ouverture-des-donnees-publiques-1/article-1-elargissement-du-champ-de-diffusion-par-l-administration/arguments/4562/edit",
          "report": "https://www.republique-numerique.fr/consultations/projet-de-loi-numerique/consultation/consultation/opinions/section-1-ouverture-des-donnees-publiques-1/article-1-elargissement-du-champ-de-diffusion-par-l-administration/arguments/4562/report"
        },
        "has_user_voted": false,
        "has_user_reported": false
      },
      {
        "isContribuable": false,
        "id": 4651,
        "body": "Plus qu'un modèle d'obligations et de sanctions, je pense que des modèles \"incitatifs\" tel celui de ORBI sont pertinents.\n\nExplication:\nRecrutements, avancements et financements dans les organes publics sur la base des productions effectivement diffusées ET en licence libre.\n\n\"Pas de diffusion publique et libre, pas d'argent publique.\" ne doit pas être une sanction mais le mode de fonctionnement normal des organes publiques.\n\nREF (The Liège ORBi model: Mandatory policy without rights retention but linked to assessment processes) ",
        "created_at": "2015-10-16T12:33:51+0200",
        "updated_at": "2015-10-16T12:33:51+0200",
        "is_enabled": true,
        "votes_count": 1,
        "type": 0,
        "is_trashed": false,
        "author": {
          "username": "Rudy Patard",
          "displayName": "Rudy Patard",
          "uniqueId": "rudypatard",
          "isAdmin": false,
          "media": null,
          "vip": false,
          "_links": {
            "profile": "https://www.republique-numerique.fr/profile/rudypatard",
            "settings": "https://www.republique-numerique.fr/profile/edit-profile"
          }
        },
        "_links": {
          "show": "https://www.republique-numerique.fr/consultations/projet-de-loi-numerique/consultation/consultation/opinions/section-1-ouverture-des-donnees-publiques-1/article-1-elargissement-du-champ-de-diffusion-par-l-administration/versions/absence-de-sanction-de-l-irrespect-de-l-obligation-de-diffusion-publique-en-ligne#arg-4651",
          "edit": "https://www.republique-numerique.fr/consultations/projet-de-loi-numerique/consultation/consultation/opinions/section-1-ouverture-des-donnees-publiques-1/article-1-elargissement-du-champ-de-diffusion-par-l-administration/arguments/4651/edit",
          "report": "https://www.republique-numerique.fr/consultations/projet-de-loi-numerique/consultation/consultation/opinions/section-1-ouverture-des-donnees-publiques-1/article-1-elargissement-du-champ-de-diffusion-par-l-administration/arguments/4651/report"
        },
        "has_user_voted": false,
        "has_user_reported": false
      },
      {
        "isContribuable": false,
        "id": 4892,
        "body": "le caractère obligatoire de la mise à disposition étant acté, le tribunal administratif peut statuer si dépôt de plainte. Dans les faits, il faudra plusieurs années pour relier tous les SI très disparates de notre Administration aux serveurs des big data. C'est une 1ère étape très importante mais la route sera longue ... ",
        "created_at": "2015-10-16T17:44:19+0200",
        "updated_at": "2015-10-16T17:44:19+0200",
        "is_enabled": true,
        "votes_count": 0,
        "type": 0,
        "is_trashed": false,
        "author": {
          "username": "Doll",
          "displayName": "Doll",
          "uniqueId": "doll",
          "isAdmin": false,
          "media": null,
          "vip": false,
          "_links": {
            "profile": "https://www.republique-numerique.fr/profile/doll",
            "settings": "https://www.republique-numerique.fr/profile/edit-profile"
          }
        },
        "_links": {
          "show": "https://www.republique-numerique.fr/consultations/projet-de-loi-numerique/consultation/consultation/opinions/section-1-ouverture-des-donnees-publiques-1/article-1-elargissement-du-champ-de-diffusion-par-l-administration/versions/absence-de-sanction-de-l-irrespect-de-l-obligation-de-diffusion-publique-en-ligne#arg-4892",
          "edit": "https://www.republique-numerique.fr/consultations/projet-de-loi-numerique/consultation/consultation/opinions/section-1-ouverture-des-donnees-publiques-1/article-1-elargissement-du-champ-de-diffusion-par-l-administration/arguments/4892/edit",
          "report": "https://www.republique-numerique.fr/consultations/projet-de-loi-numerique/consultation/consultation/opinions/section-1-ouverture-des-donnees-publiques-1/article-1-elargissement-du-champ-de-diffusion-par-l-administration/arguments/4892/report"
        },
        "has_user_voted": false,
        "has_user_reported": false
      }
    ],
    "sources": [],
    "parent": {
      "isContribuable": false,
      "id": 61,
      "body": "<p>I. Les deuxi&egrave;me, troisi&egrave;me et quatri&egrave;me alin&eacute;as de l&rsquo;article 7 de la loi n&deg; 78-753 du 17 juillet 1978 sont remplac&eacute;s par les dispositions suivantes&nbsp;:</p>\r\n\r\n<p>&laquo;&nbsp;Les administrations mentionn&eacute;es &agrave; l&rsquo;article 1er, &agrave; l&#39;exception des personnes morales dont le nombre d&#39;agents ou de salari&eacute;s est inf&eacute;rieur &agrave; un seuil fix&eacute; par d&eacute;cret, diffusent publiquement en ligne dans un standard ouvert ais&eacute;ment r&eacute;utilisable les documents suivants, sous r&eacute;serve des dispositions de l&rsquo;article 6, lorsqu&rsquo;ils sont disponibles sous forme &eacute;lectronique&nbsp;:<br />\r\n1&deg;&nbsp;les documents qu&rsquo;elles communiquent en application des proc&eacute;dures pr&eacute;vues par le pr&eacute;sent titre, ainsi que leurs mises &agrave; jour&nbsp;;<br />\r\n2&deg; l&rsquo;ensemble des documents qui figurent dans le r&eacute;pertoire mentionn&eacute; &agrave; l&rsquo;article 17&nbsp;;<br />\r\n3&deg; les bases de donn&eacute;es qu&rsquo;elles produisent ou qu&rsquo;elles re&ccedil;oivent, ainsi que les donn&eacute;es dont la publication pr&eacute;sente un int&eacute;r&ecirc;t &eacute;conomique, social ou environnemental.</p>\r\n\r\n<p>&laquo;&nbsp;Lorsque ces documents comportent des donn&eacute;es &agrave; caract&egrave;re personnel, ils ne peuvent &ecirc;tre diffus&eacute;s qu&rsquo;apr&egrave;s anonymisation de ces donn&eacute;es, sauf si une disposition l&eacute;gislative ou r&eacute;glementaire autorise leur diffusion sans anonymisation pr&eacute;alable ou si la personne int&eacute;ress&eacute;e y a consenti.</p>\r\n\r\n<p>&laquo;&nbsp;Les administrations mentionn&eacute;es &agrave; l&rsquo;article 1er ne sont pas tenues de publier les archives publiques issues des op&eacute;rations de s&eacute;lection pr&eacute;vues aux articles L. 212-2 et L.&nbsp;212-3 du code du patrimoine.</p>\r\n\r\n<p>&laquo;&nbsp;Sans pr&eacute;judice des dispositions de l&rsquo;article L. 1112-23 du code g&eacute;n&eacute;ral des collectivit&eacute;s territoriales et de l&rsquo;article L. 125-12 du code des communes de Nouvelle-Cal&eacute;donie, les dispositions du deuxi&egrave;me &agrave; sixi&egrave;me alin&eacute;a du pr&eacute;sent article ne s&rsquo;appliquent pas aux collectivit&eacute;s territoriales, ni aux EPCI &agrave; fiscalit&eacute; propre auxquels elles appartiennent.</p>\r\n\r\n<p>&laquo;&nbsp;Un d&eacute;cret en Conseil d&rsquo;Etat pris apr&egrave;s avis de la commission mentionn&eacute;e au chapitre III d&eacute;finit les modalit&eacute;s d&rsquo;application du pr&eacute;sent article.&nbsp;&raquo;</p>\r\n\r\n<p>II. A l&rsquo;article 9 de la m&ecirc;me loi, apr&egrave;s les mots&nbsp;: &laquo;&nbsp;sont communiqu&eacute;s&nbsp;&raquo;, sont ins&eacute;r&eacute;s les mots&nbsp;: &laquo;&nbsp;ou diffus&eacute;s&nbsp;&raquo;.</p>\r\n\r\n<p>III. Sans pr&eacute;judice des dispositions de l&rsquo;article L. 1112-23 du code g&eacute;n&eacute;ral des collectivit&eacute;s territoriales et de l&rsquo;article L. 125-12 du code des communes de Nouvelle-Cal&eacute;donie, les dispositions du I du pr&eacute;sent article entrent en vigueur &agrave; une date fix&eacute;e par d&eacute;cret et au plus tard deux ans apr&egrave;s la publication de la pr&eacute;sente loi.</p>\r\n\r\n<p>Dans un d&eacute;lai de six mois &agrave; compter de la publication de la pr&eacute;sente loi, les administrations mentionn&eacute;es au&nbsp;I diffusent publiquement les documents qu&rsquo;elles communiquent en application des proc&eacute;dures pr&eacute;vues par le pr&eacute;sent titre.</p>\r\n\r\n<p>Dans un d&eacute;lai d&rsquo;un an &agrave; compter de la publication de la pr&eacute;sente loi, les administrations mentionn&eacute;es au&nbsp;I diffusent publiquement l&rsquo;ensemble des documents qui figurent dans le r&eacute;pertoire mentionn&eacute; &agrave; l&rsquo;article 17 de la loi du 7 juillet 1978.</p>",
      "type": {
        "id": 86,
        "title": "Section 1",
        "subtitle": "Ouverture des données publiques",
        "voteWidgetType": 2,
        "votesHelpText": "Pensez-vous que cette proposition permet d'atteindre les objectifs présentés dans l’explication de l’article ?",
        "commentSystem": 2,
        "color": "blue",
        "versionable": true,
        "sourceable": true,
        "votesThreshold": null,
        "votesThresholdHelpText": null
      },
      "modals": [
        {
          "key": "article 7 de la loi n° 78-753 du 17 juillet 1978",
          "before": "<p>Font l'objet d'une publication les directives, les instructions, les circulaires, ainsi que les notes et réponses ministérielles qui comportent une interprétation du droit positif ou une description des procédures administratives.</p><p>Les administrations mentionnées à l'article 1er peuvent en outre rendre publics les autres documents administratifs qu'elles produisent ou reçoivent.</p><p>Toutefois, sauf dispositions législatives contraires, les documents administratifs qui comportent des mentions entrant dans le champ d'application de l'article 6 ou, sans préjudice de l'article 13, des données à caractère personnel ne peuvent être rendus publics qu'après avoir fait l'objet d'un traitement afin d'occulter ces mentions ou de rendre impossible l'identification des personnes qui y sont nommées.</p><p>Un décret en Conseil d'Etat pris après avis de la commission mentionnée au chapitre III précise les modalités d'application du premier alinéa du présent article.</p>",
          "after": "<p>Font l'objet d'une publication les directives, les instructions, les circulaires, ainsi que les notes et réponses ministérielles qui comportent une interprétation du droit positif ou une description des procédures administratives.</p>Les administrations mentionnées à l’article 1er, à l'exception des personnes morales dont le nombre d'agents ou de salariés est inférieur à un seuil fixé par décret, diffusent publiquement en ligne dans un standard ouvert aisément réutilisable les documents suivants, sous réserve des dispositions de l’article 6, lorsqu’ils sont disponibles sous forme électronique :<br>1° les documents qu’elles communiquent en application des procédures prévues par le présent titre, ainsi que leurs mises à jour ;<br>2° l’ensemble des documents qui figurent dans le répertoire mentionné à l’article 17 ;<br>3° les bases de données qu’elles produisent ou qu’elles reçoivent, ainsi que les données dont la publication présente un intérêt économique, social ou environnemental.</p><p>Lorsque ces documents comportent des données à caractère personnel, ils ne peuvent être diffusés qu’après anonymisation de ces données, sauf si une disposition législative ou réglementaire autorise leur diffusion sans anonymisation préalable ou si la personne intéressée y a consenti.</p><p>Les administrations mentionnées à l’article 1er ne sont pas tenues de publier les archives publiques issues des opérations de sélection prévues aux articles L. 212-2 et L. 212-3 du code du patrimoine.</p><p>Sans préjudice des dispositions de l’article L. 1112-23 du code général des collectivités territoriales et de l’article L. 125-12 du code des communes de Nouvelle-Calédonie, les dispositions du deuxième à sixième alinéa du présent article ne s’appliquent pas aux collectivités territoriales, ni aux EPCI à fiscalité propre auxquels elles appartiennent.<br>Un décret en Conseil d'Etat pris après avis de la commission mentionnée au chapitre III définit les modalités d'application du présent article.</p>",
          "title": "Article 7 de la loi n°78-753 du 17 juillet 1978"
        },
        {
          "key": "article 9",
          "before": "<p>Les documents administratifs sont communiqués sous réserve des droits de propriété littéraire et artistique.</p>",
          "after": "<p>Les documents administratifs sont communiqués ou diffusés sous réserve des droits de propriété littéraire et artistique.</p>",
          "title": "Article 9 de la loi n°78-753 du 17 juillet 1978"
        }
      ],
      "appendices": [
        {
          "body": "<p><strong>Objectif :</strong> &eacute;largir massivement les obligations de diffusion spontan&eacute;e de documents et donn&eacute;es des organismes publics.</p>\r\n\r\n<p><strong>Explication :</strong> aujourd&rsquo;hui, la loi du 17 juillet 1978 (dite &laquo; loi CADA &raquo;) pr&eacute;voit qu&rsquo;un grand nombre de documents des organismes publics sont communicables : toute personne peut demander &agrave; l&rsquo;administration de les communiquer, mais ils ne sont pas publi&eacute;s. D&eacute;sormais, les organismes publics mettront spontan&eacute;ment en ligne ces documents (sans que l&rsquo;usager n&rsquo;ait besoin d&rsquo;en faire la demande).<br />\r\nMais cette mesure ne s&rsquo;appliquera qu&rsquo;aux documents les plus pertinents pour l&rsquo;open data (notamment les bases de donn&eacute;es), sera restreinte au flux des nouveaux documents en format &eacute;lectronique, et ne concernera ni les petits organismes ni les collectivit&eacute;s locales (pas de modification de l&rsquo;article 106 de la loi du 7 ao&ucirc;t 2015 portant nouvelle organisation territoriale de la R&eacute;publique). Une mise en &oelig;uvre diff&eacute;r&eacute;e est &eacute;galement pr&eacute;vue au III de cet article : l&rsquo;ensemble des obligations nouvelles ne s&rsquo;appliquera qu&rsquo;au bout de 2 ans.</p>\r\n\r\n<p><strong>Exemple :</strong> la liste des logements sociaux des organismes HLM est aujourd&rsquo;hui communicable sur demande mais non publi&eacute;e ; il sera pr&eacute;vu d&eacute;sormais que de telles bases de donn&eacute;es des organismes publics doivent &ecirc;tre mises en ligne.</p>",
          "type": {
            "title": "Explication de l'article"
          }
        }
      ],
      "title": "Article 1 - Open data par défaut (obligation de diffuser en ligne les principaux documents et données des organismes publics)",
      "_links": {
        "show": "https://www.republique-numerique.fr/consultations/projet-de-loi-numerique/consultation/consultation/opinions/section-1-ouverture-des-donnees-publiques-1/article-1-elargissement-du-champ-de-diffusion-par-l-administration",
        "edit": "https://www.republique-numerique.fr/consultations/projet-de-loi-numerique/consultation/consultation/opinions/section-1-ouverture-des-donnees-publiques-1/article-1-elargissement-du-champ-de-diffusion-par-l-administration/edit",
        "report": "https://www.republique-numerique.fr/consultations/projet-de-loi-numerique/consultation/consultation/opinions/section-1-ouverture-des-donnees-publiques-1/article-1-elargissement-du-champ-de-diffusion-par-l-administration/report",
        "type": "https://www.republique-numerique.fr/consultations/projet-de-loi-numerique/consultation/consultation/opinions/section-1-ouverture-des-donnees-publiques-1"
      },
      "user_vote": null,
      "has_user_reported": false
    },
    "sources_count": 0,
    "arguments_count": 9,
    "votes": [
      {
        "user": {
          "username": "Caroline Le Goffic",
          "displayName": "Caroline Le Goffic",
          "uniqueId": "carolinelegoffic",
          "isAdmin": false,
          "media": null,
          "vip": false,
          "_links": {
            "profile": "https://www.republique-numerique.fr/profile/carolinelegoffic",
            "settings": "https://www.republique-numerique.fr/profile/edit-profile"
          }
        },
        "value": 1
      },
      {
        "user": {
          "username": "Mari Doucet",
          "displayName": "Mari Doucet",
          "uniqueId": "maridoucet",
          "isAdmin": false,
          "media": null,
          "vip": false,
          "_links": {
            "profile": "https://www.republique-numerique.fr/profile/maridoucet",
            "settings": "https://www.republique-numerique.fr/profile/edit-profile"
          }
        },
        "value": 1
      },
      {
        "user": {
          "username": "MOLLA",
          "displayName": "MOLLA",
          "uniqueId": "molla",
          "isAdmin": false,
          "media": null,
          "vip": false,
          "_links": {
            "profile": "https://www.republique-numerique.fr/profile/molla",
            "settings": "https://www.republique-numerique.fr/profile/edit-profile"
          }
        },
        "value": 1
      },
      {
        "user": {
          "username": "Matthieu CHASSAIN",
          "displayName": "Matthieu CHASSAIN",
          "uniqueId": "matthieuchassain",
          "isAdmin": false,
          "media": null,
          "vip": false,
          "_links": {
            "profile": "https://www.republique-numerique.fr/profile/matthieuchassain",
            "settings": "https://www.republique-numerique.fr/profile/edit-profile"
          }
        },
        "value": 1
      },
      {
        "user": {
          "username": "Pocquet",
          "displayName": "Pocquet",
          "uniqueId": "pocquet",
          "isAdmin": false,
          "media": null,
          "vip": false,
          "_links": {
            "profile": "https://www.republique-numerique.fr/profile/pocquet",
            "settings": "https://www.republique-numerique.fr/profile/edit-profile"
          }
        },
        "value": 1
      }
    ],
    "updated_at": "2015-09-26T11:41:18+0200",
    "ranking": 76,
    "is_trashed": false,
    "title": "Absence de sanction de l'irrespect de l'obligation de diffusion publique en ligne",
    "slug": "absence-de-sanction-de-l-irrespect-de-l-obligation-de-diffusion-publique-en-ligne",
    "created_at": "2015-09-26T11:41:18+0200",
    "votes_nok": 2,
    "votes_ok": 62,
    "votes_mitige": 6,
    "_links": {
      "show": "https://www.republique-numerique.fr/consultations/projet-de-loi-numerique/consultation/consultation/opinions/section-1-ouverture-des-donnees-publiques-1/article-1-elargissement-du-champ-de-diffusion-par-l-administration/versions/absence-de-sanction-de-l-irrespect-de-l-obligation-de-diffusion-publique-en-ligne",
      "report": "https://www.republique-numerique.fr/consultations/projet-de-loi-numerique/consultation/consultation/opinions/section-1-ouverture-des-donnees-publiques-1/article-1-elargissement-du-champ-de-diffusion-par-l-administration/versions/absence-de-sanction-de-l-irrespect-de-l-obligation-de-diffusion-publique-en-ligne/report"
    },
    "user_vote": null,
    "has_user_reported": false
  },
  "rankingThreshold": null,
  "opinionTerm": 1
}