{
  "version": {
    "isContribuable": false,
    "votes_total": 4,
    "arguments_yes_count": 5,
    "arguments_no_count": 0,
    "id": 1085,
    "body": "<p>ARTICLE 1 - Les documents des administrations publiques sont publi&eacute;s int&eacute;gralement et imm&eacute;diatement, sous domaines, serveurs, h&eacute;bergeurs, protocoles, formats, langages aussi universels et faciles d&#39;acc&egrave;s et de maintenance que possible. Ces documents peuvent contenir tout ce qui est dans l&#39;&Eacute;tat-Civil des citoyens mais pas d&#39;autres informations personnelles.</p>",
    "comment": "<p>1. OBJECTIF :<br />\nLa modification ici propos&eacute;e cherche &agrave; ordonner l&#39;application dans le domaine num&eacute;rique des principes de la d&eacute;mocratie, et au passage de r&eacute;parer autant que possible les quelques &eacute;rosions qu&#39;y ont laiss&eacute;es au cours du temps les strates in&eacute;vitablement conjoncturelles de la l&eacute;gislation. Elle implique sans doute une douzaine d&#39;autres modifications dans d&#39;autres lois existantes ou propos&eacute;es, qui faute des liens indispensables n&#39;ont pas pu &ecirc;tre consult&eacute;es ici, voir ma remarque dans les &quot;critiques&quot; ; dans cette perspective de transparence, justice, simplification, logification, clarification, ces modifications seraient sans doute toutes des suppressions, g&eacute;n&eacute;ralement substantielles et volumineuses.</p>\n\n<p>2. RAPPELS :<br />\nLa Chose Publique (Res Publica) appartient au peuple, qui la gouverne, qui donc en est inform&eacute; fid&egrave;lement, enti&egrave;rement, en permanence et imm&eacute;diatement, sans restriction ni exception. Les documents administratifs, ainsi que leurs &eacute;ventuelles modifications, doivent donc &ecirc;tre publi&eacute;s, imm&eacute;diatement, enti&egrave;rement, sans exception, &agrave; l&#39;instant m&ecirc;me de leur &eacute;laboration. La moindre r&eacute;tention serait une atteinte aux droits souverains du peuple.</p>\n\n<p>Parmi les informations personnelles des citoyens, sont publiques celles appel&eacute;es &quot;&Eacute;tat-Civil&quot; : nom et pr&eacute;noms, adresse postale de domicile (et aujourd&#39;hui adresse email), date et lieu de naissance, filiation, situation maritale et familiale, NIRPP (No de S&eacute;curit&eacute; Sociale), signalement y c. photo et empreintes digitales (ainsi qu&#39;ADN d&egrave;s qu&#39;il sera &agrave; son tour devenu v&eacute;rifiable par les propres moyens de tout citoyen), casier judiciaire. Les autres informations personnelles (c&agrave;d en principe celles relatives &agrave; ce qui se passe &agrave; l&#39;int&eacute;rieur des domiciles et v&eacute;hicules priv&eacute;s) sont priv&eacute;es et ne doivent donc &ecirc;tre, sauf accord des titulaires, ni publi&eacute;es, ni d&eacute;tenues par l&#39;administration, ni prises en compte dans les d&eacute;cisions ou documents administratifs, ni avec ni sans &quot;anonymisation&quot; (c&agrave;d agr&eacute;gation en classes assez nombreuses pour rendre difficiles les d&eacute;ductions concernant des individus ou des groupes restreints).</p>\n\n<p>3. D&Eacute;TAILS :<br />\nL&#39;&Eacute;tat-Civil est une n&eacute;cessit&eacute; fondamentale de l&#39;&eacute;galit&eacute; des citoyens devant la loi et de la paix dans la soci&eacute;t&eacute; ; c&#39;est le statut que chaque citoyen (qu&#39;il soit manoeuvre, chef de l&#39;&Eacute;tat, policier, PDG, juge, pr&eacute;fet, etc) poss&egrave;de au regard de ses concitoyens, et que pour cela il doit tenir en permanence imm&eacute;diatement accessible &agrave; tout autre citoyen (du manoeuvre au chef de l&#39;&Eacute;tat), par consultation publique ou sur simple demande. La distinction entre informations personnelles PUBLIQUES (&Eacute;tat-Civil) et PRIV&Eacute;ES doit &ecirc;tre assez pr&eacute;cise pour &ecirc;tre la m&ecirc;me pour tous.</p>\n\n<p>Les rapports (de commission, d&#39;enqu&ecirc;tes), CR d&#39;assembl&eacute;es (e.g. conseils minist&eacute;riels, r&eacute;gionaux, municipaux), les d&eacute;cisions (lois, d&eacute;crets, arr&ecirc;t&eacute;s), les lettres envoy&eacute;es &egrave;s-qualit&eacute; par les administratifs, sont publi&eacute;s d&egrave;s leur &eacute;laboration.</p>\n\n<p>En principe nul n&#39;est cens&eacute; ignorer la loi, mais en r&eacute;alit&eacute; nul ne peut la conna&icirc;tre de nos jours tant elle s&#39;est alourdie et complexifi&eacute;e. Pour y rem&eacute;dier il faudrait en revenir &agrave; des &eacute;critures l&eacute;gislatives les plus concises possible, et en m&ecirc;me temps les plus g&eacute;n&eacute;rales possible, donc soigneusement r&eacute;fl&eacute;chies, ne redisant pas ce qui est &eacute;vident ou d&eacute;j&agrave; dit ailleurs dans la loi. D&#39;o&ugrave; l&#39;essai de r&eacute;daction ci-joint.</p>\n\n<p>&quot;Publi&eacute;&quot; signifie r&eacute;ellement et commod&eacute;ment accessible au peuple, donc post&eacute; sur un domaine web toujours accessible et correctement maintenu, avec les serveurs et h&eacute;bergeurs appropri&eacute;s, en un format public, universel, efficace donc l&eacute;ger et n&eacute;anmoins puissant ; aujourd&#39;hui cela signifie : de pr&eacute;f&eacute;rence HTML, &agrave; d&eacute;faut PDF, &agrave; la rigueur DOC ou XLS ; de pr&eacute;f&eacute;rence sous protocole HTTP, &agrave; d&eacute;faut HTTPS.</p>\n\n<p>4. EXEMPLE :<br />\nUne commune attribue &agrave; Mr Lemoulin un emploi et un logement de fonction. Elle conna&icirc;t son &Eacute;tat-Civil (e.g. nom, domicile actuel, situation de famille, condamnation ancienne et purg&eacute;e, absence de r&eacute;cidive suffisamment longue au regard de la faute ancienne et de l&#39;emploi nouvellement attribu&eacute;) et peut tenir compte d&#39;informations qu&#39;il lui a donn&eacute;es (e.g. CV), mais d&egrave;s la d&eacute;cision prise elle doit publier (sur le web) la totalit&eacute; de ces informations (nom, famille, domiciles actuel et attribu&eacute;, CV, arr&ecirc;t&eacute;s ou autres d&eacute;cisions, etc ; sans n&eacute;cessairement le casier judiciaire, qui est d&eacute;j&agrave; publi&eacute; et identifiable par le d&eacute;but de l&#39;&Eacute;tat-Civil : nom, famille, domiciles).</p>\n\n<p>Versailles, Thu 15 Oct 2015 18:39:00 +0200</p>",
    "author": {
      "username": "Michel Merlin",
      "displayName": "Michel Merlin",
      "uniqueId": "michelmerlin",
      "isAdmin": false,
      "media": null,
      "vip": false,
      "_links": {
        "profile": "https://www.republique-numerique.fr/profile/michelmerlin",
        "settings": "https://www.republique-numerique.fr/profile/edit-profile"
      }
    },
    "arguments": [
      {
        "isContribuable": false,
        "id": 4380,
        "body": "Ce projet, pour le moment, éloigne encore le peuple de sa loi (1 de 5MM)\n~---~---~---~-- ~---~---~---~- -~---~---~---~- -~---~---~---~\nJe supporte entièrement et chaleureusement le but annoncé, de permettre au peuple \"une discussion publique ouverte et interactive\", qui d'ailleurs fait sans doute l'unanimité ; c'est pourquoi c'est dans les \"arguments pour\" que je soumets mes propositions, qui afin de servir encore mieux ce but, cherchent avant tout à clarifier et simplifier la loi. Car ce projet de loi va à mon avis malheureusement dans le sens opposé à son but. Pour commencer, en étant excessivement long (62549 caractères) il rate l'occasion de rompre pour une fois avec l'instinct de complexifier la loi sans raison, de l'alourdir d'exceptions injustifiées et parfois intéressées, et de cacher les lois au peuple qui pourtant en est théoriquement l'auteur.\nVersailles, Thu 15 Oct 2015 18:43:40 +0200",
        "created_at": "2015-10-15T18:43:40+0200",
        "updated_at": "2015-10-15T18:43:40+0200",
        "is_enabled": true,
        "votes_count": 0,
        "type": 1,
        "is_trashed": false,
        "author": {
          "username": "Michel Merlin",
          "displayName": "Michel Merlin",
          "uniqueId": "michelmerlin",
          "isAdmin": false,
          "media": null,
          "vip": false,
          "_links": {
            "profile": "https://www.republique-numerique.fr/profile/michelmerlin",
            "settings": "https://www.republique-numerique.fr/profile/edit-profile"
          }
        },
        "_links": {
          "show": "https://www.republique-numerique.fr/consultations/projet-de-loi-numerique/consultation/consultation/opinions/section-1-ouverture-des-donnees-publiques-1/article-1-elargissement-du-champ-de-diffusion-par-l-administration/versions/pour-etre-connue-et-appliquee-par-tous-la-loi-doit-etre-egalitaire-donc-generale-claire-donc-courte#arg-4380",
          "edit": "https://www.republique-numerique.fr/consultations/projet-de-loi-numerique/consultation/consultation/opinions/section-1-ouverture-des-donnees-publiques-1/article-1-elargissement-du-champ-de-diffusion-par-l-administration/arguments/4380/edit",
          "report": "https://www.republique-numerique.fr/consultations/projet-de-loi-numerique/consultation/consultation/opinions/section-1-ouverture-des-donnees-publiques-1/article-1-elargissement-du-champ-de-diffusion-par-l-administration/arguments/4380/report"
        },
        "has_user_voted": false,
        "has_user_reported": false
      },
      {
        "isContribuable": false,
        "id": 4382,
        "body": "Les références doivent être linkées (2 de 5MM)\n~---~---~-- ~---~---~-- ~---~---~--\nLe seul TITRE Ier, Chapitre Ier, Section 1, Article 1 \"Élargissement du champ de diffusion par l’administration\", est lourd de 2989 caractères, dont au moins 8 références à d'autres textes, souvent référencés incomplètement voire avec ambiguïté, et toujours sans les liens correspondants : il est donc certain que très rares seront les citoyens assez fous ou consciencieux pour avoir lu les autres articles de loi que celui-ci veut changer ; toujours le même instinct, peut-être irraisonné, de mettre la loi hors de portée du peuple. Le défaut d'information du peuple sur la loi sera encore pire plus tard lors de l'application.\nVersailles, Thu 15 Oct 2015 18:44:10 +0200",
        "created_at": "2015-10-15T18:44:10+0200",
        "updated_at": "2015-10-15T18:44:10+0200",
        "is_enabled": true,
        "votes_count": 0,
        "type": 1,
        "is_trashed": false,
        "author": {
          "username": "Michel Merlin",
          "displayName": "Michel Merlin",
          "uniqueId": "michelmerlin",
          "isAdmin": false,
          "media": null,
          "vip": false,
          "_links": {
            "profile": "https://www.republique-numerique.fr/profile/michelmerlin",
            "settings": "https://www.republique-numerique.fr/profile/edit-profile"
          }
        },
        "_links": {
          "show": "https://www.republique-numerique.fr/consultations/projet-de-loi-numerique/consultation/consultation/opinions/section-1-ouverture-des-donnees-publiques-1/article-1-elargissement-du-champ-de-diffusion-par-l-administration/versions/pour-etre-connue-et-appliquee-par-tous-la-loi-doit-etre-egalitaire-donc-generale-claire-donc-courte#arg-4382",
          "edit": "https://www.republique-numerique.fr/consultations/projet-de-loi-numerique/consultation/consultation/opinions/section-1-ouverture-des-donnees-publiques-1/article-1-elargissement-du-champ-de-diffusion-par-l-administration/arguments/4382/edit",
          "report": "https://www.republique-numerique.fr/consultations/projet-de-loi-numerique/consultation/consultation/opinions/section-1-ouverture-des-donnees-publiques-1/article-1-elargissement-du-champ-de-diffusion-par-l-administration/arguments/4382/report"
        },
        "has_user_voted": false,
        "has_user_reported": false
      },
      {
        "isContribuable": false,
        "id": 4383,
        "body": "Les documents publics doivent être réellement publics (3 de 5MM)\n~---~---~---~ --~---~---~-- ~---~---~---~ --~---~---~\nRes Publica, la Chose Publique, est la conséquence première et fondamentale de la démocratie : le peuple devant gouverner toutes les affaires publiques, doit les connaître toutes, immédiatement et en permanence, complètement, fidèlement. En particulier les documents des administrations des pouvoirs publics (nationaux ou locaux) ne sont pas la propriété de ses employés mais du peuple, et doivent donc être publiés en même temps qu'ils sont élaborés. Les centaines (ou milliers) d'exceptions accumulées au cours des décennies de luttes d'intérêts particuliers, doivent TOUTES être supprimées. C'est quelque peu le but du présent projet de loi mais il ne l'atteint pas, au contraire il ne fait que les maintenir, voire les aggraver, en alourdissant et complexifiant encore la loi.\nVersailles, Thu 15 Oct 2015 18:44:40 +0200",
        "created_at": "2015-10-15T18:44:40+0200",
        "updated_at": "2015-10-15T18:44:40+0200",
        "is_enabled": true,
        "votes_count": 0,
        "type": 1,
        "is_trashed": false,
        "author": {
          "username": "Michel Merlin",
          "displayName": "Michel Merlin",
          "uniqueId": "michelmerlin",
          "isAdmin": false,
          "media": null,
          "vip": false,
          "_links": {
            "profile": "https://www.republique-numerique.fr/profile/michelmerlin",
            "settings": "https://www.republique-numerique.fr/profile/edit-profile"
          }
        },
        "_links": {
          "show": "https://www.republique-numerique.fr/consultations/projet-de-loi-numerique/consultation/consultation/opinions/section-1-ouverture-des-donnees-publiques-1/article-1-elargissement-du-champ-de-diffusion-par-l-administration/versions/pour-etre-connue-et-appliquee-par-tous-la-loi-doit-etre-egalitaire-donc-generale-claire-donc-courte#arg-4383",
          "edit": "https://www.republique-numerique.fr/consultations/projet-de-loi-numerique/consultation/consultation/opinions/section-1-ouverture-des-donnees-publiques-1/article-1-elargissement-du-champ-de-diffusion-par-l-administration/arguments/4383/edit",
          "report": "https://www.republique-numerique.fr/consultations/projet-de-loi-numerique/consultation/consultation/opinions/section-1-ouverture-des-donnees-publiques-1/article-1-elargissement-du-champ-de-diffusion-par-l-administration/arguments/4383/report"
        },
        "has_user_voted": false,
        "has_user_reported": false
      },
      {
        "isContribuable": false,
        "id": 4384,
        "body": "Ce n'est pas à la loi d'être soumise à un décret mais l'inverse (4 de 5MM)\n~---~---~---~-- ~---~---~---~- -~---~---~---~- -~---~---~---~--\nCe projet de loi était une occasion unique de rompre avec bon nombre des habitudes anti-démocratiques accumulées depuis des lustres par l'administration (dont j'ai fait partie pendant 47 ans). En particulier les députés ne devraient pas se laisser faire par les administratifs qui glissent des phrases comme \"sera fixé par décret\", ou même ici, « Un décret en Conseil d’Etat pris après avis de la commission mentionnée au chapitre III définit les modalités d’application du présent article ».\n\nC'est rendre d'emblée impossible le \"Nul n'est censé ignorer la loi\" fondamental de \nNul n'est censé ignorer la loi, mais de nos jours personne ne peut la connaître tellement elle a été compliquée. Ce projet était une occasion de corriger cette tendance, malheureusement il ne fait que  renforcer les tristes habitudes de tout complexifier à outrance et sans aucune raison, et de priver systématiquement le peuple du contrôle des affaires publiques.\nVersailles, Thu 15 Oct 2015 18:45:10 +0200",
        "created_at": "2015-10-15T18:45:10+0200",
        "updated_at": "2015-10-15T18:45:10+0200",
        "is_enabled": true,
        "votes_count": 0,
        "type": 1,
        "is_trashed": false,
        "author": {
          "username": "Michel Merlin",
          "displayName": "Michel Merlin",
          "uniqueId": "michelmerlin",
          "isAdmin": false,
          "media": null,
          "vip": false,
          "_links": {
            "profile": "https://www.republique-numerique.fr/profile/michelmerlin",
            "settings": "https://www.republique-numerique.fr/profile/edit-profile"
          }
        },
        "_links": {
          "show": "https://www.republique-numerique.fr/consultations/projet-de-loi-numerique/consultation/consultation/opinions/section-1-ouverture-des-donnees-publiques-1/article-1-elargissement-du-champ-de-diffusion-par-l-administration/versions/pour-etre-connue-et-appliquee-par-tous-la-loi-doit-etre-egalitaire-donc-generale-claire-donc-courte#arg-4384",
          "edit": "https://www.republique-numerique.fr/consultations/projet-de-loi-numerique/consultation/consultation/opinions/section-1-ouverture-des-donnees-publiques-1/article-1-elargissement-du-champ-de-diffusion-par-l-administration/arguments/4384/edit",
          "report": "https://www.republique-numerique.fr/consultations/projet-de-loi-numerique/consultation/consultation/opinions/section-1-ouverture-des-donnees-publiques-1/article-1-elargissement-du-champ-de-diffusion-par-l-administration/arguments/4384/report"
        },
        "has_user_voted": false,
        "has_user_reported": false
      },
      {
        "isContribuable": false,
        "id": 4385,
        "body": "Les informations personnelles hors État-Civil sont privées (5 de 5MM)\n~---~---~---~-- ~---~---~---~ --~---~---~-- ~---~---~---~-\nLa meilleure protection de la sphère privée passe par le respect de ce qui doit être public, et que pour cela on appelait autrefois l'État-Civil. C'est nécessaire si l'on veut protéger la vie privée des plus exposés (artistes, responsables politiques ou industriels, etc) tout en maintenant l'égalité des citoyens devant la loi.\nVersailles, Thu 15 Oct 2015 18:45:40 +0200",
        "created_at": "2015-10-15T18:45:40+0200",
        "updated_at": "2015-10-15T18:45:40+0200",
        "is_enabled": true,
        "votes_count": 0,
        "type": 1,
        "is_trashed": false,
        "author": {
          "username": "Michel Merlin",
          "displayName": "Michel Merlin",
          "uniqueId": "michelmerlin",
          "isAdmin": false,
          "media": null,
          "vip": false,
          "_links": {
            "profile": "https://www.republique-numerique.fr/profile/michelmerlin",
            "settings": "https://www.republique-numerique.fr/profile/edit-profile"
          }
        },
        "_links": {
          "show": "https://www.republique-numerique.fr/consultations/projet-de-loi-numerique/consultation/consultation/opinions/section-1-ouverture-des-donnees-publiques-1/article-1-elargissement-du-champ-de-diffusion-par-l-administration/versions/pour-etre-connue-et-appliquee-par-tous-la-loi-doit-etre-egalitaire-donc-generale-claire-donc-courte#arg-4385",
          "edit": "https://www.republique-numerique.fr/consultations/projet-de-loi-numerique/consultation/consultation/opinions/section-1-ouverture-des-donnees-publiques-1/article-1-elargissement-du-champ-de-diffusion-par-l-administration/arguments/4385/edit",
          "report": "https://www.republique-numerique.fr/consultations/projet-de-loi-numerique/consultation/consultation/opinions/section-1-ouverture-des-donnees-publiques-1/article-1-elargissement-du-champ-de-diffusion-par-l-administration/arguments/4385/report"
        },
        "has_user_voted": false,
        "has_user_reported": false
      }
    ],
    "sources": [],
    "parent": {
      "isContribuable": false,
      "id": 61,
      "body": "<p>I. Les deuxi&egrave;me, troisi&egrave;me et quatri&egrave;me alin&eacute;as de l&rsquo;article 7 de la loi n&deg; 78-753 du 17 juillet 1978 sont remplac&eacute;s par les dispositions suivantes&nbsp;:</p>\r\n\r\n<p>&laquo;&nbsp;Les administrations mentionn&eacute;es &agrave; l&rsquo;article 1er, &agrave; l&#39;exception des personnes morales dont le nombre d&#39;agents ou de salari&eacute;s est inf&eacute;rieur &agrave; un seuil fix&eacute; par d&eacute;cret, diffusent publiquement en ligne dans un standard ouvert ais&eacute;ment r&eacute;utilisable les documents suivants, sous r&eacute;serve des dispositions de l&rsquo;article 6, lorsqu&rsquo;ils sont disponibles sous forme &eacute;lectronique&nbsp;:<br />\r\n1&deg;&nbsp;les documents qu&rsquo;elles communiquent en application des proc&eacute;dures pr&eacute;vues par le pr&eacute;sent titre, ainsi que leurs mises &agrave; jour&nbsp;;<br />\r\n2&deg; l&rsquo;ensemble des documents qui figurent dans le r&eacute;pertoire mentionn&eacute; &agrave; l&rsquo;article 17&nbsp;;<br />\r\n3&deg; les bases de donn&eacute;es qu&rsquo;elles produisent ou qu&rsquo;elles re&ccedil;oivent, ainsi que les donn&eacute;es dont la publication pr&eacute;sente un int&eacute;r&ecirc;t &eacute;conomique, social ou environnemental.</p>\r\n\r\n<p>&laquo;&nbsp;Lorsque ces documents comportent des donn&eacute;es &agrave; caract&egrave;re personnel, ils ne peuvent &ecirc;tre diffus&eacute;s qu&rsquo;apr&egrave;s anonymisation de ces donn&eacute;es, sauf si une disposition l&eacute;gislative ou r&eacute;glementaire autorise leur diffusion sans anonymisation pr&eacute;alable ou si la personne int&eacute;ress&eacute;e y a consenti.</p>\r\n\r\n<p>&laquo;&nbsp;Les administrations mentionn&eacute;es &agrave; l&rsquo;article 1er ne sont pas tenues de publier les archives publiques issues des op&eacute;rations de s&eacute;lection pr&eacute;vues aux articles L. 212-2 et L.&nbsp;212-3 du code du patrimoine.</p>\r\n\r\n<p>&laquo;&nbsp;Sans pr&eacute;judice des dispositions de l&rsquo;article L. 1112-23 du code g&eacute;n&eacute;ral des collectivit&eacute;s territoriales et de l&rsquo;article L. 125-12 du code des communes de Nouvelle-Cal&eacute;donie, les dispositions du deuxi&egrave;me &agrave; sixi&egrave;me alin&eacute;a du pr&eacute;sent article ne s&rsquo;appliquent pas aux collectivit&eacute;s territoriales, ni aux EPCI &agrave; fiscalit&eacute; propre auxquels elles appartiennent.</p>\r\n\r\n<p>&laquo;&nbsp;Un d&eacute;cret en Conseil d&rsquo;Etat pris apr&egrave;s avis de la commission mentionn&eacute;e au chapitre III d&eacute;finit les modalit&eacute;s d&rsquo;application du pr&eacute;sent article.&nbsp;&raquo;</p>\r\n\r\n<p>II. A l&rsquo;article 9 de la m&ecirc;me loi, apr&egrave;s les mots&nbsp;: &laquo;&nbsp;sont communiqu&eacute;s&nbsp;&raquo;, sont ins&eacute;r&eacute;s les mots&nbsp;: &laquo;&nbsp;ou diffus&eacute;s&nbsp;&raquo;.</p>\r\n\r\n<p>III. Sans pr&eacute;judice des dispositions de l&rsquo;article L. 1112-23 du code g&eacute;n&eacute;ral des collectivit&eacute;s territoriales et de l&rsquo;article L. 125-12 du code des communes de Nouvelle-Cal&eacute;donie, les dispositions du I du pr&eacute;sent article entrent en vigueur &agrave; une date fix&eacute;e par d&eacute;cret et au plus tard deux ans apr&egrave;s la publication de la pr&eacute;sente loi.</p>\r\n\r\n<p>Dans un d&eacute;lai de six mois &agrave; compter de la publication de la pr&eacute;sente loi, les administrations mentionn&eacute;es au&nbsp;I diffusent publiquement les documents qu&rsquo;elles communiquent en application des proc&eacute;dures pr&eacute;vues par le pr&eacute;sent titre.</p>\r\n\r\n<p>Dans un d&eacute;lai d&rsquo;un an &agrave; compter de la publication de la pr&eacute;sente loi, les administrations mentionn&eacute;es au&nbsp;I diffusent publiquement l&rsquo;ensemble des documents qui figurent dans le r&eacute;pertoire mentionn&eacute; &agrave; l&rsquo;article 17 de la loi du 7 juillet 1978.</p>",
      "type": {
        "id": 86,
        "title": "Section 1",
        "subtitle": "Ouverture des données publiques",
        "voteWidgetType": 2,
        "votesHelpText": "Pensez-vous que cette proposition permet d'atteindre les objectifs présentés dans l’explication de l’article ?",
        "commentSystem": 2,
        "color": "blue",
        "versionable": true,
        "sourceable": true,
        "votesThreshold": null,
        "votesThresholdHelpText": null
      },
      "modals": [
        {
          "key": "article 7 de la loi n° 78-753 du 17 juillet 1978",
          "before": "<p>Font l'objet d'une publication les directives, les instructions, les circulaires, ainsi que les notes et réponses ministérielles qui comportent une interprétation du droit positif ou une description des procédures administratives.</p><p>Les administrations mentionnées à l'article 1er peuvent en outre rendre publics les autres documents administratifs qu'elles produisent ou reçoivent.</p><p>Toutefois, sauf dispositions législatives contraires, les documents administratifs qui comportent des mentions entrant dans le champ d'application de l'article 6 ou, sans préjudice de l'article 13, des données à caractère personnel ne peuvent être rendus publics qu'après avoir fait l'objet d'un traitement afin d'occulter ces mentions ou de rendre impossible l'identification des personnes qui y sont nommées.</p><p>Un décret en Conseil d'Etat pris après avis de la commission mentionnée au chapitre III précise les modalités d'application du premier alinéa du présent article.</p>",
          "after": "<p>Font l'objet d'une publication les directives, les instructions, les circulaires, ainsi que les notes et réponses ministérielles qui comportent une interprétation du droit positif ou une description des procédures administratives.</p>Les administrations mentionnées à l’article 1er, à l'exception des personnes morales dont le nombre d'agents ou de salariés est inférieur à un seuil fixé par décret, diffusent publiquement en ligne dans un standard ouvert aisément réutilisable les documents suivants, sous réserve des dispositions de l’article 6, lorsqu’ils sont disponibles sous forme électronique :<br>1° les documents qu’elles communiquent en application des procédures prévues par le présent titre, ainsi que leurs mises à jour ;<br>2° l’ensemble des documents qui figurent dans le répertoire mentionné à l’article 17 ;<br>3° les bases de données qu’elles produisent ou qu’elles reçoivent, ainsi que les données dont la publication présente un intérêt économique, social ou environnemental.</p><p>Lorsque ces documents comportent des données à caractère personnel, ils ne peuvent être diffusés qu’après anonymisation de ces données, sauf si une disposition législative ou réglementaire autorise leur diffusion sans anonymisation préalable ou si la personne intéressée y a consenti.</p><p>Les administrations mentionnées à l’article 1er ne sont pas tenues de publier les archives publiques issues des opérations de sélection prévues aux articles L. 212-2 et L. 212-3 du code du patrimoine.</p><p>Sans préjudice des dispositions de l’article L. 1112-23 du code général des collectivités territoriales et de l’article L. 125-12 du code des communes de Nouvelle-Calédonie, les dispositions du deuxième à sixième alinéa du présent article ne s’appliquent pas aux collectivités territoriales, ni aux EPCI à fiscalité propre auxquels elles appartiennent.<br>Un décret en Conseil d'Etat pris après avis de la commission mentionnée au chapitre III définit les modalités d'application du présent article.</p>",
          "title": "Article 7 de la loi n°78-753 du 17 juillet 1978"
        },
        {
          "key": "article 9",
          "before": "<p>Les documents administratifs sont communiqués sous réserve des droits de propriété littéraire et artistique.</p>",
          "after": "<p>Les documents administratifs sont communiqués ou diffusés sous réserve des droits de propriété littéraire et artistique.</p>",
          "title": "Article 9 de la loi n°78-753 du 17 juillet 1978"
        }
      ],
      "appendices": [
        {
          "body": "<p><strong>Objectif :</strong> &eacute;largir massivement les obligations de diffusion spontan&eacute;e de documents et donn&eacute;es des organismes publics.</p>\r\n\r\n<p><strong>Explication :</strong> aujourd&rsquo;hui, la loi du 17 juillet 1978 (dite &laquo; loi CADA &raquo;) pr&eacute;voit qu&rsquo;un grand nombre de documents des organismes publics sont communicables : toute personne peut demander &agrave; l&rsquo;administration de les communiquer, mais ils ne sont pas publi&eacute;s. D&eacute;sormais, les organismes publics mettront spontan&eacute;ment en ligne ces documents (sans que l&rsquo;usager n&rsquo;ait besoin d&rsquo;en faire la demande).<br />\r\nMais cette mesure ne s&rsquo;appliquera qu&rsquo;aux documents les plus pertinents pour l&rsquo;open data (notamment les bases de donn&eacute;es), sera restreinte au flux des nouveaux documents en format &eacute;lectronique, et ne concernera ni les petits organismes ni les collectivit&eacute;s locales (pas de modification de l&rsquo;article 106 de la loi du 7 ao&ucirc;t 2015 portant nouvelle organisation territoriale de la R&eacute;publique). Une mise en &oelig;uvre diff&eacute;r&eacute;e est &eacute;galement pr&eacute;vue au III de cet article : l&rsquo;ensemble des obligations nouvelles ne s&rsquo;appliquera qu&rsquo;au bout de 2 ans.</p>\r\n\r\n<p><strong>Exemple :</strong> la liste des logements sociaux des organismes HLM est aujourd&rsquo;hui communicable sur demande mais non publi&eacute;e ; il sera pr&eacute;vu d&eacute;sormais que de telles bases de donn&eacute;es des organismes publics doivent &ecirc;tre mises en ligne.</p>",
          "type": {
            "title": "Explication de l'article"
          }
        }
      ],
      "title": "Article 1 - Open data par défaut (obligation de diffuser en ligne les principaux documents et données des organismes publics)",
      "_links": {
        "show": "https://www.republique-numerique.fr/consultations/projet-de-loi-numerique/consultation/consultation/opinions/section-1-ouverture-des-donnees-publiques-1/article-1-elargissement-du-champ-de-diffusion-par-l-administration",
        "edit": "https://www.republique-numerique.fr/consultations/projet-de-loi-numerique/consultation/consultation/opinions/section-1-ouverture-des-donnees-publiques-1/article-1-elargissement-du-champ-de-diffusion-par-l-administration/edit",
        "report": "https://www.republique-numerique.fr/consultations/projet-de-loi-numerique/consultation/consultation/opinions/section-1-ouverture-des-donnees-publiques-1/article-1-elargissement-du-champ-de-diffusion-par-l-administration/report",
        "type": "https://www.republique-numerique.fr/consultations/projet-de-loi-numerique/consultation/consultation/opinions/section-1-ouverture-des-donnees-publiques-1"
      },
      "user_vote": null,
      "has_user_reported": false
    },
    "sources_count": 0,
    "arguments_count": 5,
    "votes": [
      {
        "user": {
          "username": "Mathieu Bois",
          "displayName": "Mathieu Bois",
          "uniqueId": "mathieubois",
          "isAdmin": false,
          "media": null,
          "vip": false,
          "_links": {
            "profile": "https://www.republique-numerique.fr/profile/mathieubois",
            "settings": "https://www.republique-numerique.fr/profile/edit-profile"
          }
        },
        "value": -1
      },
      {
        "user": {
          "username": "Vincent Reverdy",
          "displayName": "Vincent Reverdy",
          "uniqueId": "vincentreverdy",
          "isAdmin": false,
          "media": {
            "url": "/media/cache/default_avatar/default/0001/01/268_default_avatar.jpg"
          },
          "vip": false,
          "_links": {
            "profile": "https://www.republique-numerique.fr/profile/vincentreverdy",
            "settings": "https://www.republique-numerique.fr/profile/edit-profile"
          }
        },
        "value": -1
      },
      {
        "user": {
          "username": "Jeanne Varasco",
          "displayName": "Jeanne Varasco",
          "uniqueId": "jeannevarasco",
          "isAdmin": false,
          "media": {
            "url": "/media/cache/default_avatar/default/0001/01/139_default_avatar.jpg"
          },
          "vip": false,
          "_links": {
            "profile": "https://www.republique-numerique.fr/profile/jeannevarasco",
            "settings": "https://www.republique-numerique.fr/profile/edit-profile"
          }
        },
        "value": -1
      },
      {
        "user": {
          "username": "Frédéric Daniel Luc Lehobey",
          "displayName": "Frédéric Daniel Luc Lehobey",
          "uniqueId": "fredericdanielluclehobey",
          "isAdmin": false,
          "media": null,
          "vip": false,
          "_links": {
            "profile": "https://www.republique-numerique.fr/profile/fredericdanielluclehobey",
            "settings": "https://www.republique-numerique.fr/profile/edit-profile"
          }
        },
        "value": 1
      }
    ],
    "updated_at": "2015-10-15T18:39:00+0200",
    "ranking": 1028,
    "is_trashed": false,
    "title": "Pour être connue et appliquée par tous, la loi doit être égalitaire donc générale, claire donc courte",
    "slug": "pour-etre-connue-et-appliquee-par-tous-la-loi-doit-etre-egalitaire-donc-generale-claire-donc-courte",
    "created_at": "2015-10-15T18:39:00+0200",
    "votes_nok": 3,
    "votes_ok": 1,
    "votes_mitige": 0,
    "_links": {
      "show": "https://www.republique-numerique.fr/consultations/projet-de-loi-numerique/consultation/consultation/opinions/section-1-ouverture-des-donnees-publiques-1/article-1-elargissement-du-champ-de-diffusion-par-l-administration/versions/pour-etre-connue-et-appliquee-par-tous-la-loi-doit-etre-egalitaire-donc-generale-claire-donc-courte",
      "report": "https://www.republique-numerique.fr/consultations/projet-de-loi-numerique/consultation/consultation/opinions/section-1-ouverture-des-donnees-publiques-1/article-1-elargissement-du-champ-de-diffusion-par-l-administration/versions/pour-etre-connue-et-appliquee-par-tous-la-loi-doit-etre-egalitaire-donc-generale-claire-donc-courte/report"
    },
    "user_vote": null,
    "has_user_reported": false
  },
  "rankingThreshold": null,
  "opinionTerm": 1
}