{
  "opinion": {
    "isContribuable": false,
    "votes_total": 13,
    "arguments_yes_count": 0,
    "arguments_no_count": 0,
    "id": 500,
    "created_at": "2015-10-09T17:44:58+0200",
    "updated_at": "2015-10-09T18:01:48+0200",
    "body": "<h1><strong>Des projets, des id&eacute;es pour la photo</strong></h1>\r\n\r\n<h2><strong>Authentifications des oeuvres /Archivages</strong></h2>\r\n\r\n<p>Articles : 13 -- 14<strong> </strong>- 16 -18 de la loi Numerique</p>\r\n\r\n<p>Dans le cadre de la confiance dans l&#39;&eacute;conomie num&eacute;rique, pour optimiser l&#39;archivage des donn&eacute;es dans le futur, ou la cr&eacute;ation d&#39;une plateforme iconographique, il serait souhaitable un acc&egrave;s r&eacute;glement&eacute; &agrave; la profession, la cr&eacute;ation d&#39;un num&eacute;ro d&#39;identification ou label permettant d&#39;identifier et/ou d&#39;accr&eacute;diter le photographe . Il serait d&eacute;livr&eacute; , lors de son inscription, si photographe amateur, des lors qu&#39;une de ses cr&eacute;ations est utilis&eacute;e a usage commercial.</p>\r\n\r\n<p>Le label serait port&eacute; par le photographe sur sa page internet, ses contrats, les exifs d&#39;une image etc..</p>\r\n\r\n<p>Le label pourrait servir a un suivi des oeuvres, telles aujourd&#39;hui les visuels des campagnes de publicit&eacute; via les plateforme d&#39;affiliation, moteurs etc..</p>\r\n\r\n<hr />\r\n<h2><strong>LES NOUVEAUX METIERS</strong></h2>\r\n\r\n<h2><strong>Validation des acquis &amp; Profession r&eacute;glement&eacute;e</strong></h2>\r\n\r\n<p>Notre monde change, les m&eacute;tiers aussi .. afin d&#39;&eacute;largir en terme de propositions, de gestion, renforcer la v&eacute;racit&eacute; des informations sur internet, soutenir le d&eacute;veloppement de la photographie et ses acteurs (entreprise, presse, institutions..), &nbsp;le m&eacute;tier de &quot;Photographe professionnel&quot; pourrait &ecirc;tre r&eacute;glement&eacute;, l&#39;acc&egrave;s &agrave; la profession soumis &agrave; l&#39;obtention d&#39;un dipl&ocirc;me ( comme cela se fait en optique, coiffure, assurances, voyage etc).</p>\r\n\r\n<p>Ce dipl&ocirc;me s&#39;assurait que le professionnel connait les bases du m&eacute;tier en terme de connaissances pratiques , mais obligerait aussi &agrave; avoir des connaissances de la gestion d&#39;une entreprise de photographie.</p>\r\n\r\n<p>Si l&#39;acc&egrave;s &agrave; la profession peut &ecirc;tre r&eacute;glement&eacute;e, une personne physique peut demander le statut librement, sans obligation de quitter sa profession ou son entreprise, cumulant alors deux activit&eacute;s.</p>\r\n\r\n<h2><strong>Un dipl&ocirc;me pour la Photographie ?</strong></h2>\r\n\r\n<p>Un grand nombre de photographes professionnels n&rsquo;ont pas fait d&rsquo;&eacute;cole photo, pourquoi, comment alors un dipl&ocirc;me pour acc&eacute;der &agrave; la profession ?</p>\r\n\r\n<p>La photographie professionnelle est tout d&rsquo;abord un chemin de vie, une passion qui fait qu&rsquo;un amateur veuille suivre cette voie. &nbsp;En perp&eacute;tuel changement, le photographe exp&eacute;rimente des projets d&rsquo;images, tendances et les nouvelles technologies en autodidacte.</p>\r\n\r\n<p>Dans le cadre de la libert&eacute; de cr&eacute;ation, de la photographie, &agrave; l&rsquo;&egrave;re du web, il ne serait possible d&rsquo;imaginer des limites, contraindre une personne &agrave; des horaires, &nbsp;le dipl&ocirc;me pourrait &ecirc;tre &agrave; la suite d&rsquo;un apprentissage et des tests &agrave; r&eacute;aliser en ligne permettant une validation des acquis et l&rsquo;obtention de ce dipl&ocirc;me.</p>\r\n\r\n<p>On pourrait imaginer plusieurs cat&eacute;gories, des sp&eacute;cialisations, des labels et des grades..</p>\r\n\r\n<p><strong>Un programme prof, &eacute;ducatif / Mooc Photo</strong></p>\r\n\r\n<hr />\r\n<h2><strong>L&#39;Economie sociale et Solidaire (ESS)</strong></h2>\r\n\r\n<p><em>&ldquo;12 millions de fran&ccedil;ais amateurs &nbsp;(th&eacute;&acirc;tre, peinture, photographie) doivent &ecirc;tre reconnus&rdquo;</em></p>\r\n\r\n<p><em>Fleur Pellerin &nbsp;&nbsp;28 septembre 2015</em></p>\r\n\r\n<p>&nbsp;</p>\r\n\r\n<p><em>&ldquo;L&rsquo;&eacute;conomie sociale et solidaire (ESS) rassemble les entreprises qui cherchent &agrave; concilier solidarit&eacute;, performances &eacute;conomiques et utilit&eacute; sociale. &ldquo;</em><a href=\"http://www.economie.gouv.frLe%20r%C3%B4le%20de%20la%20photographie%20dans%20l%E2%80%99%C3%A9conomie%20sociale%20et%20solidaire%20constitue%20un%20%C3%A9l%C3%A9ment%20majeur,%20quand%20par%20ailleurs%20la%20l%C3%A9gislation,%20les%20statuts%20actuels%20cr%C3%A9ent%20des%20diff%C3%A9rences,%20entra%C3%AEnent%20la%20pr%C3%A9carit%C3%A9%20pour%20des%20milliers%20de%20photographes%20professionnels.%20&amp;nbsp;\" style=\"text-decoration:none;\" target=\"_blank\"><u> www.economie.gouv.fr</u></a></p>\r\n\r\n<p><br />\r\n&nbsp;</p>\r\n\r\n<p>Le r&ocirc;le de la photographie dans l&rsquo;&eacute;conomie sociale et solidaire constitue un &eacute;l&eacute;ment majeur, quand par ailleurs la l&eacute;gislation, les statuts actuels cr&eacute;ent des diff&eacute;rences, entra&icirc;nent la pr&eacute;carit&eacute; pour des milliers de photographes professionnels. &nbsp;</p>\r\n\r\n<p>Consid&eacute;rant qu&#39;une oeuvre qu&#39;elle soit produite par un photographe amateur ou un professionnel est une oeuvre de l&#39;esprit, si celle ci est utilis&eacute;e &agrave; titre commercial, il ne peut exister de diff&eacute;rence entre eux concernant les droits et obligations, &nbsp;protections sociales et des lors qu&#39;un budget est communiqu&eacute;, leurs r&eacute;munerations.</p>\r\n\r\n<p>L&#39;oeuvre constituant alors un &quot;produit&quot;, une r&eacute;mun&eacute;ration et des cotisations sociales pourraient &ecirc;tre ainsi revers&eacute;es ouvrant des droits et des obligations &agrave; son auteur, &agrave; son client, ou la plateforme.</p>\r\n\r\n<p>Il n&#39;est pas envisageable de fixer une base, mais que celle ci puisse &ecirc;tre proportionnelle &agrave; l&#39;utilisation (priv&eacute;, public), la destination, (ex : le site d&eacute;nomm&eacute;/nombre de visiteurs), &nbsp;de parution, la zone (local, national, international) , le format (1/4 de page, demi, 4x3 etc), afin que le(s) client(s), puissent &eacute;valuer en toute transparence.</p>\r\n\r\n<p>Le calcul pourrait &ecirc;tre bas&eacute; sur le nombre de &quot;vues&quot; de la page, de publication dans le cadre d&#39;un magazine, de tirages pour des affiches, flyers etc.. et fait valeur de contreparties financi&egrave;res. Les taux et calculs sont librement fix&eacute;s par l&#39;auteur et r&eacute;visables &agrave; chacune des autres utilisations. &nbsp;</p>\r\n\r\n<p>Fiscalit&eacute; : Les remunerations et cotisations pourraient &ecirc;tre port&eacute;es dans autres revenus, d&eacute;nomm&eacute;s : - revenus provenant d&#39;activit&eacute;s artistiques = &gt; photographie.</p>\r\n\r\n<hr />\r\n<h2><strong>Gestion et suivi des images face &agrave; la transition num&eacute;rique</strong></h2>\r\n\r\n<p><strong>R&eacute;vision de la norme ISSN &eacute;largie aux oeuvres visuelles &nbsp;</strong></p>\r\n\r\n<p><strong>Cloud gouvernemental / presse / personnel</strong></p>\r\n\r\n<p>&nbsp;</p>\r\n\r\n<p>En lieu et place de t&eacute;l&eacute;charger les images sur diff&egrave;rents supports, nous pourrions les conserver dans des clouds et ne proposer que l&#39;affichage au travers une <strong>url permanente pour chaque image</strong>.<br />\r\nExemple Qrcode inser&eacute; dans cette proposition : <a href=\"http://images.maltese.fr/?v=cYx9R.png\" target=\"_blank\">http://images.maltese.fr/?v=cYx9R.png</a></p>\r\n\r\n<p>Ce syst&egrave;me ( mis en place depuis 2007 sur mon forum Pixelartese.com) a pour avantage</p>\r\n\r\n<p>- d&#39;identifier l&#39;auteur, la source, la date de parution</p>\r\n\r\n<p>- r&eacute;duire les co&ucirc;ts, capacit&eacute;s serveurs, consommation &eacute;nergetique.</p>\r\n\r\n<p>- offre des statistiques,</p>\r\n\r\n<p>- renforce les acc&eacute;s, s&eacute;curisations et pr&eacute;servations &nbsp;des donn&eacute;es</p>\r\n\r\n<p>- pourrait en d&eacute;veloppant plus encore le modele devenir un protocole de gestion pour les diffusions des images sur internet.</p>\r\n\r\n<p>Si ce type de service est propos&eacute; par des h&eacute;bergeurs d&#39;images gratuitement,certains ont disparu et avec eux des milliers d&#39;images.</p>\r\n\r\n<hr />\r\n<h2><strong>Le r&ocirc;le et les usages des donn&eacute;es</strong></h2>\r\n\r\n<p><strong>Afin de promouvoir un dialogue interprofessionnel, la r&eacute;vision de la norme qui r&eacute;git l&rsquo;ISSN (ISO 3297) prochainement pourrait &ecirc;tre &eacute;largie aux oeuvres visuelles et un code fix&eacute;. (</strong><a href=\"http://www.bnf.fr/fr/professionnels/s_informer_obtenir_issn.html\" style=\"text-decoration:none;\" target=\"_blank\"><u>+ infos</u></a><strong>)</strong></p>\r\n\r\n<p>Un espace personnel identifi&eacute; ISSN afin que chacun puisse disposer de ses oeuvres.. (Cf art 16 Loi Numerique)</p>\r\n\r\n<p>Les donn&eacute;es ne sont plus centralis&eacute;es mais g&eacute;ocalis&eacute;es, l&#39;auteur en conserve et en assure lui m&ecirc;me sa gestion (parution, diffusion, suppression).</p>\r\n\r\n<p>Webmarketing / Leads - Le r&ocirc;le et les usages, &nbsp;l&#39;offre et la v&eacute;racit&eacute; des oeuvres visuelles et des informations y sont renforc&eacute;es</p>\r\n\r\n<p>L&#39;absence de cr&eacute;dit photo ou la manipulation par l&#39;image au travers l&#39;histoire ont toujours exist&eacute;, elles peuvent porter un pr&eacute;judice &eacute;conomique, financier et politique, &agrave; l&#39;heure ou l&#39;intox fait rage, plus que jamais d&#39;actualit&eacute;s.</p>\r\n\r\n<p>L&rsquo;authentification et gestion des images seront incontournables demain avec la bio impression 3D.</p>\r\n\r\n<hr />\r\n<h2><strong>Soutien &agrave; la cr&eacute;ation &amp; financements</strong></h2>\r\n\r\n<h2><strong>Le revenu de base</strong></h2>\r\n\r\n<p>Un pourcentage sur le montant des abonnements fournisseurs d&#39;acc&egrave;s internet, t&eacute;l&eacute;phonie, t&eacute;l&eacute;vision pourrait ouvrir &agrave; un revenu de base pour les cr&eacute;ateurs visant au soutien des activit&eacute;s artistiques et num&eacute;riques</p>\r\n\r\n<hr />\r\n<h2><strong>Big Data &amp; Intelligence &eacute;conomique</strong></h2>\r\n\r\n<p>&ldquo;L&rsquo;intelligence &eacute;conomique est un outil strat&eacute;gique et d&eacute;cisif dans un contexte de comp&eacute;tition intense.&rdquo;</p>\r\n\r\n<p>&nbsp;</p>\r\n\r\n<p>Si la loi de la concurrence interdit toute entente. S&#39;il n&#39;est pas envisageable de d&eacute;finir des taux et calculs</p>\r\n\r\n<p>Il pourrait &ecirc;tre &agrave; partir des analyses des donn&eacute;es publiques, fix&eacute;s des seuils en dessous duquel l&#39;&eacute;quilibre ou le march&eacute; est en risque</p>\r\n\r\n<p>L&rsquo;intelligence &eacute;conomique pour aider &agrave; la transversalit&eacute; et &nbsp;la protection des informations, soutenir les jeunes cr&eacute;ateurs, d&eacute;finir des tendances, r&eacute;aliser des &eacute;tudes de march&eacute;s, &eacute;tablir un revenu de base...</p>\r\n\r\n<p>Des donn&eacute;es publiques (cf art 9) , des grilles tarifaires (telles que propos&eacute;es par l&#39;UPP, co ecrites avec des agences) sont de pr&eacute;cieuses bases, et pourraient &ecirc;tre mise &agrave; la disposition du public, des administrations, des entreprises via un site d&eacute;di&eacute;. Plus largement, il pourrait comprendre des formulaires permettant : d&#39;&eacute;valuer des modeles, budgets, transmettre des savoirs, valider des comp&eacute;tences ou des apprentissage : mooc photo etc..</p>\r\n\r\n<p>&nbsp;</p>\r\n\r\n<blockquote>\r\n<p><strong>La cr&eacute;ation d&#39;un statut unique pour la photo, &nbsp;de nouveaux droits et obligations pourraient permettre de nouveaux mod&egrave;les &eacute;conomiques et milliers d&#39;emplois dans un secteur qui est plus que jamais repr&eacute;sent&eacute; et plein de cr&eacute;ativit&eacute;.</strong></p>\r\n</blockquote>\r\n\r\n<hr />\r\n<p>&nbsp;</p>\r\n\r\n<p><img alt=\"\" src=\"http://images.maltese.fr/images/cYx9R.png\" style=\"float:left; height:200px; width:200px\" />En vue de participer &agrave; la consultation lanc&eacute;e par Mme Axelle Lemaire, secretaire d&#39;Etat au numerique, ce projet a &eacute;t&eacute; r&eacute;alis&eacute; &agrave; l&rsquo;aide d&rsquo;un outil collaboratif en ligne<a href=\"https://titanpad.com/S89UM3WtXf\" style=\"text-decoration:none;\"> <u>ici</u></a></p>\r\n\r\n<p>Auteur : Nadine Maltese</p>\r\n\r\n<p>Photographe - Webdesigner - Fondateur du forum Pixelartese.com</p>\r\n\r\n<p>Email : <u>contact@photomaltese.com</u></p>\r\n\r\n<p>Co auteurs - les photographes : Edouard de Blay, St&eacute;phane Saoudi, Bruno Cohen et des anonymes<br />\r\n<br />\r\nListe des articles propos&eacute;s par le gouvernement<br />\r\nDIAPORAMA et Permalien du projet :<a href=\"https://docs.google.com/presentation/d/1yVJDzawNlOYu-1sPOBVWP178oz5Sw9v8IS1ZByqyCok/edit?usp=sharing\" style=\"text-decoration:none;\"> <u>https://docs.google.com/presentation/d/1yVJDzawNlOYu-1sPOBVWP178oz5Sw9v8IS1ZByqyCok/edit?usp=sharing</u></a></p>",
    "versions_count": 1,
    "sources_count": 0,
    "arguments_count": 0,
    "author": {
      "username": "Maltese Nadine",
      "displayName": "Maltese Nadine",
      "uniqueId": "maltesenadine",
      "isAdmin": false,
      "media": {
        "url": "/media/cache/default_avatar/default/0001/01/113_default_avatar.png"
      },
      "vip": false,
      "_links": {
        "profile": "https://www.republique-numerique.fr/profile/maltesenadine",
        "settings": "https://www.republique-numerique.fr/profile/edit-profile"
      }
    },
    "type": {
      "id": 86,
      "title": "Section 1",
      "subtitle": "Ouverture des données publiques",
      "voteWidgetType": 2,
      "votesHelpText": "Pensez-vous que cette proposition permet d'atteindre les objectifs présentés dans l’explication de l’article ?",
      "commentSystem": 2,
      "color": "blue",
      "versionable": true,
      "sourceable": true,
      "votesThreshold": null,
      "votesThresholdHelpText": null
    },
    "sources": [],
    "arguments": [],
    "modals": [],
    "votes": [
      {
        "user": {
          "username": "laddassi",
          "displayName": "laddassi",
          "uniqueId": "laddassi",
          "isAdmin": false,
          "media": null,
          "vip": false,
          "_links": {
            "profile": "https://www.republique-numerique.fr/profile/laddassi",
            "settings": "https://www.republique-numerique.fr/profile/edit-profile"
          }
        }
      },
      {
        "user": {
          "username": "Pierre Fontenille",
          "displayName": "Pierre Fontenille",
          "uniqueId": "pierrefontenille1",
          "isAdmin": false,
          "media": {
            "url": "/media/cache/default_avatar/default/0001/01/512_default_avatar.jpg"
          },
          "vip": false,
          "_links": {
            "profile": "https://www.republique-numerique.fr/profile/pierrefontenille1",
            "settings": "https://www.republique-numerique.fr/profile/edit-profile"
          }
        }
      },
      {
        "user": {
          "username": "Glenn",
          "displayName": "Glenn",
          "uniqueId": "glenn",
          "isAdmin": false,
          "media": null,
          "vip": false,
          "_links": {
            "profile": "https://www.republique-numerique.fr/profile/glenn",
            "settings": "https://www.republique-numerique.fr/profile/edit-profile"
          }
        }
      },
      {
        "user": {
          "username": "Vincent Reverdy",
          "displayName": "Vincent Reverdy",
          "uniqueId": "vincentreverdy",
          "isAdmin": false,
          "media": {
            "url": "/media/cache/default_avatar/default/0001/01/268_default_avatar.jpg"
          },
          "vip": false,
          "_links": {
            "profile": "https://www.republique-numerique.fr/profile/vincentreverdy",
            "settings": "https://www.republique-numerique.fr/profile/edit-profile"
          }
        }
      },
      {
        "user": {
          "username": "Erwan MATHIEU",
          "displayName": "Erwan MATHIEU",
          "uniqueId": "erwanmathieu",
          "isAdmin": false,
          "media": null,
          "vip": false,
          "_links": {
            "profile": "https://www.republique-numerique.fr/profile/erwanmathieu",
            "settings": "https://www.republique-numerique.fr/profile/edit-profile"
          }
        }
      }
    ],
    "appendices": [
      {
        "body": "<h1 style=\"margin-left:30pt\"><em>Quelle photographie demain ? <img alt=\"\" src=\"http://images.maltese.fr/images/cYx9R.png\" style=\"float:right; height:200px; width:200px\" /></em></h1>\r\n\r\n<h2 style=\"margin-left:30pt\"><strong>Le citoyen et l&rsquo;image &agrave; l&rsquo;&egrave;re du num&eacute;rique..</strong></h2>\r\n\r\n<h2 style=\"margin-left:30pt\"><strong>Statut unique du Photographe</strong></h2>\r\n\r\n<p>&nbsp;</p>\r\n\r\n<p>Liste des articles et Permalien du projet :<a href=\"https://docs.google.com/presentation/d/1yVJDzawNlOYu-1sPOBVWP178oz5Sw9v8IS1ZByqyCok/edit?usp=sharing\" style=\"text-decoration:none;\" target=\"_blank\"> <u>https://docs.google.com/presentation/d/1yVJDzawNlOYu-1sPOBVWP178oz5Sw9v8IS1ZByqyCok/edit?usp=sharing</u></a><br />\r\n<br />\r\n&nbsp;</p>\r\n\r\n<p><em>Au coeur de notre soci&eacute;t&eacute; et de l&#39;&eacute;conomie num&eacute;rique, la photographie est l&#39;art le plus populaire au monde, en pleine mutation.</em></p>\r\n\r\n<p><em>Artiste, auteur, artisan, photo journaliste.. la multitude de statut en France pour designer le m&eacute;tier de &quot;photographe&quot; constitue un frein ne permettant pas de r&eacute;pondre d&#39;une voix aux grandes questions et enjeux actuels.</em></p>\r\n\r\n<h3><strong>La libert&eacute; de cr&eacute;ation ...</strong></h3>\r\n\r\n<p>L&#39;Assembl&eacute;e nationale a adopt&eacute; mardi 6 octobre le projet de loi &laquo; Libert&eacute; de cr&eacute;ation, architecture et patrimoine &raquo; La loi numerique propose la cr&eacute;ation de la libre disposition de ses donn&eacute;es et le droit de la personnalit&eacute;.<a href=\"https://www.republique-numerique.fr/consultations/projet-de-loi-numerique/consultation/consultation/opinions/section-1-protection-des-donnees-a-caractere-personnel/article-16-libre-disposition-de-ses-donnees-a-caractere-personnel\" style=\"text-decoration:none;\"> <u>(Loi numerique Art 16</u></a>)</p>\r\n\r\n<p>Consid&eacute;rant qu&#39;en vertu des propri&eacute;t&eacute;s intellectuelles, qu&#39;il soit amateur ou professionnel, les oeuvres d&#39;un cr&eacute;ateur sont prot&eacute;g&eacute;s par le droit d&#39;auteur et les droits voisins.</p>\r\n\r\n<p>Afin de clarifier, offrir un droit de la personnalit&eacute;, une r&eacute;flexion peut &ecirc;tre port&eacute;e pour un statut unique, visant &agrave; promouvoir, encourager, prot&eacute;ger la cr&eacute;ation photographique et ses auteurs au plus proche de la r&eacute;alit&eacute; du m&eacute;tier</p>\r\n\r\n<p>&nbsp;</p>\r\n\r\n<p><strong>Il affirmerait qu&#39;un photographe a le droit :</strong></p>\r\n\r\n<p>1 d&#39;&ecirc;tre libre dans sa cr&eacute;ation, son expression, sa libert&eacute; de diffusion ou de sa programmation.</p>\r\n\r\n<p>2 de r&eacute;aliser des prises de vue dans divers secteurs tels que des images de : portraits, sports, mariage, presse, scientifique, medicale, architecture, multimedia, mode, aerienne, paysage, animaux etc.., sans limite aucune.</p>\r\n\r\n<p>&nbsp;</p>\r\n\r\n<p><strong>La v&eacute;racit&eacute; des informations</strong></p>\r\n\r\n<p>dans le cadre des article 13, 14, 15, 18 de la Loi Numerique</p>\r\n\r\n<p>3. Un photographe qu&#39;il soit amateur ou professionnel peut seul d&eacute;cider de son choix de r&eacute;mun&eacute;ration, don, licence, partage.</p>\r\n\r\n<p>- Les droits patrimoniaux &eacute;tant immuables, s&#39;il peut d&eacute;cider de ne pas les faire valoir, ils ne sont pas cessibles.</p>\r\n\r\n<p>4. &nbsp;Dans le cadre de la v&eacute;racit&eacute; des informations et du respect des droits, &nbsp;&nbsp;une photo qu&#39;elle fut produite par un amateur ou un professionnel doit , des lors qu&#39;elle est reproduite, publi&eacute;e dans la presse, sur une plate-forme doit comporter le nom de l&#39;auteur. (CPI )</p>\r\n\r\n<p>- Si la photo entre dans le cadre d&#39;une production multim&eacute;dia, cin&eacute;matographie, le cr&eacute;dit photo peut &ecirc;tre port&eacute; en fin de g&eacute;n&eacute;rique, pour un catalogue dans l&#39;espace qui leur est d&eacute;di&eacute;, pour un site internet dans les mentions l&eacute;gales ou la politique publicitaire.</p>\r\n\r\n<p>- Les exifs de l&#39;image comportant les donn&eacute;es : nom(s) du(des) photographe(s) , adresse, description, donn&eacute;es techniques sont , ou doivent &ecirc;tre renseign&eacute;s. Elles ne peuvent &ecirc;tre effac&eacute;es par une manipulation ou logiciel</p>\r\n\r\n<p>- Dans le cadre des oeuvres des co -auteurs et signatures group&eacute;es, la photo publi&eacute;e doit pouvoir les identifier.</p>\r\n\r\n<p>&nbsp;</p>\r\n\r\n<p><strong>Droit de l&rsquo;image, Droit d&rsquo;auteur...</strong></p>\r\n\r\n<p>5. Lanceur d&#39;alerte / exception</p>\r\n\r\n<p>Le photographe peut choisir l&#39;anonymat ou un pseudo si les photos des lors de leur divulgation visent a d&eacute;noncer des faits, constituent une alerte ou s&#39;il estime ne pas pouvoir r&eacute;v&eacute;ler son identit&eacute; par s&eacute;curis&eacute;.</p>\r\n\r\n<p>Une plate forme pourrait &ecirc;tre cr&eacute;e visant a d&eacute;poser et enregistrer les originaux et leurs donn&eacute;es (date, lieu)</p>\r\n\r\n<p>6. Droit de l&rsquo;image</p>\r\n\r\n<p>Si les photos sont r&eacute;alis&eacute;es &agrave; titre priv&eacute;e, (exemple Mariage, Portraits) les personnes pourront les partager sur les r&eacute;seaux sociaux , leur blog, mais elles ne pourront &ecirc;tre utilis&eacute;es &agrave; titre commercial par un tiers, une plate forme, ou les b&eacute;n&eacute;ficiaires eux m&ecirc;mes sans en avertir le photographe, induisant une modification des droits et obligations.</p>\r\n\r\n<p>De m&ecirc;me un photographe ne pourra utiliser une photo d&#39;une personne, d&#39;un bien dans un cadre commercial sans en avertir celle ci et obtenir son accord. ( cf CPI, Droit de l&#39;image)</p>\r\n\r\n<p>&nbsp;</p>\r\n\r\n<p><strong>L&rsquo;image et les droits Fondamentaux</strong></p>\r\n\r\n<p>Le respect des droits fondamentaux, le r&ocirc;le de l&rsquo;image dans l&rsquo; Histoire et le Citoyen, et &nbsp;l&rsquo;information doivent devenir une priorit&eacute; afin de lutter contre &nbsp;la d&eacute;sinformation, la manipulation par l&rsquo;image, la diffamation ou l&rsquo;incitation &agrave; la haine..</p>\r\n\r\n<p>7. D&egrave;s lors qu&#39;une publication ou l&eacute;gende porte une atteinte morale ou diffamatoire &agrave; son auteur, et/ou &agrave; la personne reconnaissable, celle ci, conform&eacute;ment &agrave; la Loi LCEN 2004, peut &ecirc;tre signal&eacute;e au responsable de publication (internet, presse). Il peut &ecirc;tre saisi les tribunaux comp&eacute;tents afin de lutter contre la d&eacute;sinformation ou le non respect des droits.</p>\r\n\r\n<p><em>Projet : services d&eacute;di&eacute;s / recherche iconographique</em><br />\r\n&nbsp;</p>\r\n\r\n<p><strong>La libert&eacute; d&rsquo;&ecirc;tre photographe...</strong></p>\r\n\r\n<p>(Photographe et autres statuts : &eacute;tudiant, salari&eacute;, travailleurs, ind&eacute;pendant, &nbsp;professions lib&eacute;rales, avocats, chercheur, fonctionnaire, ) etc.</p>\r\n\r\n<p>8. Consid&eacute;rant que la libert&eacute; d&#39;expression est inscrite en Art 1 des Droits de l&#39; Homme, il est donn&eacute; &agrave; tous la libert&eacute; de cr&eacute;er une image, quelque soit son &acirc;ge, son statut professionnel, nul ne peut interdire le droit de cr&eacute;ation d&#39;une oeuvre photographique.</p>\r\n\r\n<p><em>Si l&#39;acc&egrave;s &agrave; la profession peut &ecirc;tre r&eacute;glement&eacute;e, une personne physique peut demander le statut librement, sans obligation de quitter sa profession ou son entreprise</em></p>\r\n\r\n<p>&nbsp;</p>\r\n\r\n<blockquote>\r\n<h3><strong>La cr&eacute;ation d&#39;un statut unique pour la photo, &nbsp;de nouveaux droits et obligations pourraient permettre de nouveaux mod&egrave;les &eacute;conomiques et milliers d&#39;emplois dans un secteur qui est plus que jamais repr&eacute;sent&eacute; et plein de cr&eacute;ativit&eacute;.</strong></h3>\r\n</blockquote>\r\n\r\n<p>&nbsp;</p>",
        "type": {
          "title": "Explication de l'article"
        }
      }
    ],
    "ranking": 341,
    "is_trashed": false,
    "title": "Le citoyen et l’image  à l’ère du numérique.. Statut unique du photographe",
    "votes_nok": 2,
    "votes_ok": 9,
    "votes_mitige": 2,
    "_links": {
      "show": "https://www.republique-numerique.fr/consultations/projet-de-loi-numerique/consultation/consultation/opinions/section-1-ouverture-des-donnees-publiques-1/le-citoyen-et-l-image-a-l-ere-du-numerique-statut-unique-du-photographe",
      "edit": "https://www.republique-numerique.fr/consultations/projet-de-loi-numerique/consultation/consultation/opinions/section-1-ouverture-des-donnees-publiques-1/le-citoyen-et-l-image-a-l-ere-du-numerique-statut-unique-du-photographe/edit",
      "report": "https://www.republique-numerique.fr/consultations/projet-de-loi-numerique/consultation/consultation/opinions/section-1-ouverture-des-donnees-publiques-1/le-citoyen-et-l-image-a-l-ere-du-numerique-statut-unique-du-photographe/report",
      "type": "https://www.republique-numerique.fr/consultations/projet-de-loi-numerique/consultation/consultation/opinions/section-1-ouverture-des-donnees-publiques-1"
    },
    "user_vote": null,
    "has_user_reported": false
  },
  "rankingThreshold": null,
  "opinionTerm": 1
}