{
  "opinion": {
    "isContribuable": false,
    "votes_total": 0,
    "arguments_yes_count": 0,
    "arguments_no_count": 0,
    "id": 780,
    "created_at": "2015-10-18T23:25:07+0200",
    "updated_at": "2015-10-18T23:25:07+0200",
    "body": "<p>Le conseil de laboratoire de l&#39;Irisa soutien l&#39;action du CNRS et d&#39;autres organismes (Inria, CPU, ...) demandant une r&eacute;vision de l&#39;article 9 du &laquo; Projet de loi pour une R&eacute;publique num&eacute;rique &raquo;, article portant sur le &laquo; Libre acc&egrave;s aux publications scientifiques de la recherche publique &raquo;.<br />\r\nNous estimons que plusieurs points sont contraires aux int&eacute;r&ecirc;ts de notre m&eacute;tier, en particulier le d&eacute;lai d&#39;embargo sur les publications et l&#39;exclusivit&eacute; des droits de fouille des donn&eacute;es accord&eacute;e &agrave; l&#39;&eacute;diteur<br />\r\n&nbsp;</p>\r\n\r\n<p>&nbsp;</p>\r\n\r\n<p>Charles Qu&eacute;guiner</p>",
    "versions_count": 0,
    "sources_count": 0,
    "arguments_count": 0,
    "author": {
      "username": "QUEGUINER CHARLES",
      "displayName": "QUEGUINER CHARLES",
      "uniqueId": "queguinercharles",
      "isAdmin": false,
      "media": null,
      "vip": false,
      "_links": {
        "profile": "https://www.republique-numerique.fr/profile/queguinercharles",
        "settings": "https://www.republique-numerique.fr/profile/edit-profile"
      }
    },
    "type": {
      "id": 91,
      "title": "Section 2",
      "subtitle": "Travaux de recherche et de statistique",
      "voteWidgetType": 2,
      "votesHelpText": "Pensez-vous que cette proposition permet d'atteindre les objectifs présentés dans l’explication de l’article ?",
      "commentSystem": 2,
      "color": "blue",
      "versionable": true,
      "sourceable": true,
      "votesThreshold": null,
      "votesThresholdHelpText": null
    },
    "sources": [],
    "arguments": [],
    "modals": [],
    "votes": [],
    "appendices": [
      {
        "body": null,
        "type": {
          "title": "Explication de l'article"
        }
      }
    ],
    "ranking": 633,
    "is_trashed": false,
    "title": "contre : le délai d'embargo sur les publications et l'exclusivité des droits de fouille des données accordée à l'éditeur",
    "votes_nok": 0,
    "votes_ok": 0,
    "votes_mitige": 0,
    "_links": {
      "show": "https://www.republique-numerique.fr/consultations/projet-de-loi-numerique/consultation/consultation/opinions/section-2-travaux-de-recherche-et-de-statistique/contre-le-delai-d-embargo-sur-les-publications-et-l-exclusivite-des-droits-de-fouille-des-donnees-accordee-a-l-editeur",
      "edit": "https://www.republique-numerique.fr/consultations/projet-de-loi-numerique/consultation/consultation/opinions/section-2-travaux-de-recherche-et-de-statistique/contre-le-delai-d-embargo-sur-les-publications-et-l-exclusivite-des-droits-de-fouille-des-donnees-accordee-a-l-editeur/edit",
      "report": "https://www.republique-numerique.fr/consultations/projet-de-loi-numerique/consultation/consultation/opinions/section-2-travaux-de-recherche-et-de-statistique/contre-le-delai-d-embargo-sur-les-publications-et-l-exclusivite-des-droits-de-fouille-des-donnees-accordee-a-l-editeur/report",
      "type": "https://www.republique-numerique.fr/consultations/projet-de-loi-numerique/consultation/consultation/opinions/section-2-travaux-de-recherche-et-de-statistique"
    },
    "user_vote": null,
    "has_user_reported": false
  },
  "rankingThreshold": null,
  "opinionTerm": 1
}