{
  "opinion": {
    "isContribuable": false,
    "votes_total": 3,
    "arguments_yes_count": 1,
    "arguments_no_count": 0,
    "id": 732,
    "created_at": "2015-10-18T11:59:49+0200",
    "updated_at": "2015-10-18T11:59:49+0200",
    "body": "<p>Les programmes des formations pour les travailleurs sociaux d&eacute;crits dans le livre V du code de l&#39;action sociale et des&nbsp; familles doivent inclure une composante sur l&#39;informatique et les pratiques num&eacute;riques</p>\r\n\r\n<p>Les conseils d&eacute;partementaux et r&eacute;gionaux, les collectivit&eacute;s locales doivent avoir les moyens de mettre &agrave; disposition des Espaces Publics Num&eacute;riques des personnels form&eacute;s &agrave; l&#39;action sociale et l&#39;aide aux familles et au num&eacute;rique</p>",
    "versions_count": 0,
    "sources_count": 0,
    "arguments_count": 1,
    "author": {
      "username": "Emmanuelle Helly",
      "displayName": "Emmanuelle Helly",
      "uniqueId": "emmanuellehelly",
      "isAdmin": false,
      "media": null,
      "vip": false,
      "_links": {
        "profile": "https://www.republique-numerique.fr/profile/emmanuellehelly",
        "settings": "https://www.republique-numerique.fr/profile/edit-profile"
      }
    },
    "type": {
      "id": 103,
      "title": "Section 1",
      "subtitle": "Compétences et organisation",
      "voteWidgetType": 2,
      "votesHelpText": "Pensez-vous que cette proposition permet d'atteindre les objectifs présentés dans l’explication de l’article ?",
      "commentSystem": 2,
      "color": "blue",
      "versionable": true,
      "sourceable": true,
      "votesThreshold": null,
      "votesThresholdHelpText": null
    },
    "sources": [],
    "arguments": [
      {
        "isContribuable": false,
        "id": 5866,
        "body": "Les recommandations du CNNUm pour lutter contre l'exclusion numérique : http://www.cnnumerique.fr/inclusion/",
        "created_at": "2015-10-18T15:36:11+0200",
        "updated_at": "2015-10-18T15:36:11+0200",
        "is_enabled": true,
        "votes_count": 0,
        "type": 1,
        "is_trashed": false,
        "author": {
          "username": "Emmanuelle Helly",
          "displayName": "Emmanuelle Helly",
          "uniqueId": "emmanuellehelly",
          "isAdmin": false,
          "media": null,
          "vip": false,
          "_links": {
            "profile": "https://www.republique-numerique.fr/profile/emmanuellehelly",
            "settings": "https://www.republique-numerique.fr/profile/edit-profile"
          }
        },
        "_links": {
          "show": "https://www.republique-numerique.fr/consultations/projet-de-loi-numerique/consultation/consultation/opinions/section-1-competences-et-organisation/aider-les-citoyens-dans-leurs-pratiques-numeriques#arg-5866",
          "edit": "https://www.republique-numerique.fr/consultations/projet-de-loi-numerique/consultation/consultation/opinions/section-1-competences-et-organisation/aider-les-citoyens-dans-leurs-pratiques-numeriques/arguments/5866/edit",
          "report": "https://www.republique-numerique.fr/consultations/projet-de-loi-numerique/consultation/consultation/opinions/section-1-competences-et-organisation/aider-les-citoyens-dans-leurs-pratiques-numeriques/arguments/5866/report"
        },
        "has_user_voted": false,
        "has_user_reported": false
      }
    ],
    "modals": [],
    "votes": [
      {
        "user": {
          "username": "Simon Deleruyelle",
          "displayName": "Simon Deleruyelle",
          "uniqueId": "simondeleruyelle",
          "isAdmin": false,
          "media": null,
          "vip": false,
          "_links": {
            "profile": "https://www.republique-numerique.fr/profile/simondeleruyelle",
            "settings": "https://www.republique-numerique.fr/profile/edit-profile"
          }
        }
      },
      {
        "user": {
          "username": "Jeanne Varasco",
          "displayName": "Jeanne Varasco",
          "uniqueId": "jeannevarasco",
          "isAdmin": false,
          "media": {
            "url": "/media/cache/default_avatar/default/0001/01/139_default_avatar.jpg"
          },
          "vip": false,
          "_links": {
            "profile": "https://www.republique-numerique.fr/profile/jeannevarasco",
            "settings": "https://www.republique-numerique.fr/profile/edit-profile"
          }
        }
      },
      {
        "user": {
          "username": "Gami",
          "displayName": "Gami",
          "uniqueId": "gami",
          "isAdmin": false,
          "media": null,
          "vip": false,
          "_links": {
            "profile": "https://www.republique-numerique.fr/profile/gami",
            "settings": "https://www.republique-numerique.fr/profile/edit-profile"
          }
        }
      }
    ],
    "appendices": [
      {
        "body": "<p>&Agrave; l&#39;heure du num&eacute;rique les services administratifs notamment sont de plus en plus disponibles en ligne, et parfois uniquement par ce biais. Nombre de citoyens ne savent pas se servir d&#39;un ordinateur, et rencontrent donc des difficult&eacute;s &agrave; effectuer notamment des d&eacute;marches e-administratives ; cela peut devenir bloquant pour certaines personnes dans leur vie quotidienne.</p>\r\n\r\n<p><strong>Cette situation cr&eacute;e des in&eacute;galit&eacute;s, et ainsi risque d&#39;amener &agrave; de l&#39;exclusion.</strong></p>\r\n\r\n<p>De plus, il est important pour chaque citoyen de conna&icirc;tre les concepts informatiques afin de prot&eacute;ger au mieux sa vie priv&eacute;e num&eacute;rique. Alors que nous utilisons de plus en plus les outils num&eacute;riques mis &agrave; notre disposition, le plus souvent par des grandes firmes (les GAFAM), nous n&#39;avons pas forc&eacute;ment id&eacute;e de la port&eacute;e que cela peut avoir sur notre vie priv&eacute;e et celle de nos proches.</p>\r\n\r\n<p>&nbsp;</p>\r\n\r\n<p>Les Espaces Publics Num&eacute;riques (EPN) sont un outil pour lutter contre ces in&eacute;galit&eacute;s, mais il faut les renforcer, et encourager leur multiplication sous diverses formes (que ce soit g&eacute;r&eacute; par des collectivit&eacute;s ou des associations). Mais cela n&#39;est pas suffisant, il faut des animateurs form&eacute;s &agrave; la fois &agrave; l&#39;action sociale et au num&eacute;rique, afin de soutenir au mieux les populations ayant besoin d&#39;aide.</p>\r\n\r\n<p>Les EPN peuvent donc prendre diff&eacute;rentes formes : un lieu d&eacute;di&eacute;, un ordinateur mis &agrave; disposition dans un lieu social ou une biblioth&egrave;que, un bus comme les bibliobus ... Ces formes ne doivent pas &ecirc;tre contraintes pour favoriser le maillage et l&#39;acc&egrave;s &agrave; tous, mais pour les animer il faut des personnes form&eacute;es.</p>",
        "type": {
          "title": "Explication de l'article"
        }
      }
    ],
    "ranking": 506,
    "is_trashed": false,
    "title": "Aider les citoyens dans leurs pratiques numériques",
    "votes_nok": 0,
    "votes_ok": 3,
    "votes_mitige": 0,
    "_links": {
      "show": "https://www.republique-numerique.fr/consultations/projet-de-loi-numerique/consultation/consultation/opinions/section-1-competences-et-organisation/aider-les-citoyens-dans-leurs-pratiques-numeriques",
      "edit": "https://www.republique-numerique.fr/consultations/projet-de-loi-numerique/consultation/consultation/opinions/section-1-competences-et-organisation/aider-les-citoyens-dans-leurs-pratiques-numeriques/edit",
      "report": "https://www.republique-numerique.fr/consultations/projet-de-loi-numerique/consultation/consultation/opinions/section-1-competences-et-organisation/aider-les-citoyens-dans-leurs-pratiques-numeriques/report",
      "type": "https://www.republique-numerique.fr/consultations/projet-de-loi-numerique/consultation/consultation/opinions/section-1-competences-et-organisation"
    },
    "user_vote": null,
    "has_user_reported": false
  },
  "rankingThreshold": null,
  "opinionTerm": 1
}