{
  "version": {
    "isContribuable": false,
    "votes_total": 0,
    "arguments_yes_count": 0,
    "arguments_no_count": 0,
    "id": 1347,
    "body": "<p>Imposer aux fournisseurs d&#39;objets connect&eacute;s, et des objets intelligents embarquant un programme, un protocole robuste de s&eacute;curisation de l&#39;acc&egrave;s aux donn&eacute;es collect&eacute;es via les objets connect&eacute;s.</p>\n\n<p>Etablir une norme &eacute;lev&eacute;e de s&eacute;curisation de la connexion aux objects connect&eacute;s pour &eacute;viter le piratage.</p>\n\n<p>Permettre, via un service d&#39;analyse tiers de confiance, une agence d&#39;&eacute;tat ou des chercheurs, de v&eacute;rifier que la s&eacute;curit&eacute; des objets connect&eacute;s est &eacute;tanche.</p>\n\n<p>Renforcer la p&eacute;nalisation d&#39;actes d&eacute;lictueux sur les objets connect&eacute;s.</p>\n\n<p>Obliger &agrave; une ouverture du code &agrave; l&#39;arr&ecirc;t de la maintenance par le fabricant initial, ou en cas de faillite/fermeture sans cession des droits &agrave; un tier repreuneur. Ouverture du code quoiqu&#39;il arrive apr&egrave;s 20 ans (idem brevet).</p>\n\n<p>&nbsp;</p>",
    "comment": "<p>Extension aux objets intelligents embarquant un processeur et un code pour fonctionner (voiture, t&eacute;l&eacute;, machine &agrave; laver...)</p>\n\n<p>Le moindre objet, par forc&eacute;ment connect&eacute;,&nbsp; comporte aujourd&#39;hui un code lui permettant de fonctionner sur un syst&egrave;me autonome. Ce code pour, comme un exemple r&eacute;cent l&#39;a montr&eacute; comporter des &eacute;l&eacute;ments destiner pour tromper le consommateur/utilisateur et l&#39;&eacute;tat.</p>\n\n<p>Permettre l&#39;audit de ces codes en cas de soup&ccedil;on par l&#39;autorit&eacute; publique ou un organisme ind&eacute;pendant apporterait une s&eacute;curit&eacute;.</p>\n\n<p>Certains de ces objets peuvent aussi devenir obsol&egrave;te du fait de l&#39;arr&ecirc;t de la maintenance ou mise &agrave; jours par leur fabricant. L&#39;ouverture du code &agrave; la fin de la commercialisation de l&#39;objet doit devenir la r&egrave;gle pour permettre &agrave; l&#39;utilisateur ou la communaut&eacute; des d&eacute;veloppeurs de poursuivre la mise &agrave; jour du logiciel et repousser l&#39;obsolescence de l&#39;objet.</p>",
    "author": {
      "username": "Alexandre VERNIER",
      "displayName": "Alexandre VERNIER",
      "uniqueId": "alexandrevernier",
      "isAdmin": false,
      "media": null,
      "vip": false,
      "_links": {
        "profile": "https://www.republique-numerique.fr/profile/alexandrevernier",
        "settings": "https://www.republique-numerique.fr/profile/edit-profile"
      }
    },
    "arguments": [],
    "sources": [],
    "parent": {
      "isContribuable": false,
      "id": 356,
      "body": "<p>Imposer aux fournisseurs d&#39;objets connect&eacute;s un protocole robuste de s&eacute;curisation de l&#39;acc&egrave;s aux donn&eacute;es collect&eacute;es via les objets connect&eacute;s.</p>\r\n\r\n<p>Etablir une norme &eacute;lev&eacute;e de s&eacute;curisation de la connexion aux objects connect&eacute;s pour &eacute;viter le piratage.</p>\r\n\r\n<p>Permettre, via un service d&#39;analyse tiers de confiance, de v&eacute;rifier que la s&eacute;curit&eacute; des objets connect&eacute;s est &eacute;tanche.</p>\r\n\r\n<p>Renforcer la p&eacute;nalisation d&#39;actes d&eacute;lictueux sur les objets connect&eacute;s.</p>",
      "type": {
        "id": 106,
        "title": "Section 1",
        "subtitle": "Recommandé électronique",
        "voteWidgetType": 2,
        "votesHelpText": "Pensez-vous que cette proposition permet d'atteindre les objectifs présentés dans l’explication de l’article ?",
        "commentSystem": 2,
        "color": "blue",
        "versionable": true,
        "sourceable": true,
        "votesThreshold": null,
        "votesThresholdHelpText": null
      },
      "modals": [],
      "appendices": [
        {
          "body": "<p>Les objets connect&eacute;s permettent de g&eacute;err son chauffage, l&#39;ouverture de ses volets, l&#39;arrosage des plantes, de surveiller son int&eacute;rieur. D&#39;enrgistrer ses perfomances sportives, de surveiller sa sant&eacute;...</p>\r\n\r\n<p>Que ce soit via des capteurs, des cam&eacute;ras, des micros, la s&eacute;curit&eacute; de ses objets connect&eacute;s est pimordiale pour &eacute;viter que leur utilisation soit d&eacute;tourn&eacute;e &agrave; des fins criminelles (cambriolage) ou d&#39;&eacute;valuation d&#39;une personne &agrave; son insu.</p>\r\n\r\n<p>&nbsp;</p>",
          "type": {
            "title": "Explication de l'article"
          }
        }
      ],
      "title": "Sécurisation renforcée des objets connectés",
      "_links": {
        "show": "https://www.republique-numerique.fr/consultations/projet-de-loi-numerique/consultation/consultation/opinions/section-1-recommande-electronique/securisation-renforcee-des-objets-connectes",
        "edit": "https://www.republique-numerique.fr/consultations/projet-de-loi-numerique/consultation/consultation/opinions/section-1-recommande-electronique/securisation-renforcee-des-objets-connectes/edit",
        "report": "https://www.republique-numerique.fr/consultations/projet-de-loi-numerique/consultation/consultation/opinions/section-1-recommande-electronique/securisation-renforcee-des-objets-connectes/report",
        "type": "https://www.republique-numerique.fr/consultations/projet-de-loi-numerique/consultation/consultation/opinions/section-1-recommande-electronique"
      },
      "user_vote": null,
      "has_user_reported": false
    },
    "sources_count": 0,
    "arguments_count": 0,
    "votes": [],
    "updated_at": "2015-10-18T12:44:10+0200",
    "ranking": 1201,
    "is_trashed": false,
    "title": "Etendre aux codes des objets intelligents + ouverture du code en fin de vie commerciale",
    "slug": "etendre-aux-codes-des-objets-intelligents-ouverture-du-code-en-fin-de-vie-commerciale",
    "created_at": "2015-10-18T12:44:10+0200",
    "votes_nok": 0,
    "votes_ok": 0,
    "votes_mitige": 0,
    "_links": {
      "show": "https://www.republique-numerique.fr/consultations/projet-de-loi-numerique/consultation/consultation/opinions/section-1-recommande-electronique/securisation-renforcee-des-objets-connectes/versions/etendre-aux-codes-des-objets-intelligents-ouverture-du-code-en-fin-de-vie-commerciale",
      "report": "https://www.republique-numerique.fr/consultations/projet-de-loi-numerique/consultation/consultation/opinions/section-1-recommande-electronique/securisation-renforcee-des-objets-connectes/versions/etendre-aux-codes-des-objets-intelligents-ouverture-du-code-en-fin-de-vie-commerciale/report"
    },
    "user_vote": null,
    "has_user_reported": false
  },
  "rankingThreshold": null,
  "opinionTerm": 1
}