{
  "version": {
    "isContribuable": false,
    "votes_total": 10,
    "arguments_yes_count": 1,
    "arguments_no_count": 0,
    "id": 613,
    "body": "<p>Interdiction du d&eacute;marchage t&eacute;l&eacute;phonique en France sur lignes fixes et mobiles, sans consentement explicite du client, qui ne doit pas par ce fait se voir imposer un&quot;d&eacute;ni de service&quot; par l&#39;op&eacute;rateur.</p>",
    "comment": null,
    "author": {
      "username": "LAUNAY",
      "displayName": "LAUNAY",
      "uniqueId": "launay",
      "isAdmin": false,
      "media": {
        "url": "/media/cache/default_avatar/default/0001/01/348_default_avatar.jpg"
      },
      "vip": false,
      "_links": {
        "profile": "https://www.republique-numerique.fr/profile/launay",
        "settings": "https://www.republique-numerique.fr/profile/edit-profile"
      }
    },
    "arguments": [
      {
        "isContribuable": false,
        "id": 4844,
        "body": "je suis d'accord mais comment prouver qu'il y a consentement ?",
        "created_at": "2015-10-16T16:31:20+0200",
        "updated_at": "2015-10-16T16:31:20+0200",
        "is_enabled": true,
        "votes_count": 1,
        "type": 1,
        "is_trashed": false,
        "author": {
          "username": "BERNARD Loïc",
          "displayName": "BERNARD Loïc",
          "uniqueId": "bernardloic",
          "isAdmin": false,
          "media": {
            "url": "/media/cache/default_avatar/default/0001/01/805_default_avatar.jpg"
          },
          "vip": false,
          "_links": {
            "profile": "https://www.republique-numerique.fr/profile/bernardloic",
            "settings": "https://www.republique-numerique.fr/profile/edit-profile"
          }
        },
        "_links": {
          "show": "https://www.republique-numerique.fr/consultations/projet-de-loi-numerique/consultation/consultation/opinions/section-1-protection-des-donnees-a-caractere-personnel/interdiction-du-demarchage-telephonique-en-france/versions/ajout-sans-consentement-explicite-du-client#arg-4844",
          "edit": "https://www.republique-numerique.fr/consultations/projet-de-loi-numerique/consultation/consultation/opinions/section-1-protection-des-donnees-a-caractere-personnel/interdiction-du-demarchage-telephonique-en-france/arguments/4844/edit",
          "report": "https://www.republique-numerique.fr/consultations/projet-de-loi-numerique/consultation/consultation/opinions/section-1-protection-des-donnees-a-caractere-personnel/interdiction-du-demarchage-telephonique-en-france/arguments/4844/report"
        },
        "has_user_voted": false,
        "has_user_reported": false
      }
    ],
    "sources": [],
    "parent": {
      "isContribuable": false,
      "id": 114,
      "body": "<p>Interdiction du d&eacute;marchage t&eacute;l&eacute;phonique en France sur lignes fixes et mobiles.</p>",
      "type": {
        "id": 99,
        "title": "Section 1",
        "subtitle": "Protection des données à caractère personnel",
        "voteWidgetType": 2,
        "votesHelpText": "Pensez-vous que cette proposition permet d'atteindre les objectifs présentés dans l’explication de l’article ?",
        "commentSystem": 2,
        "color": "blue",
        "versionable": true,
        "sourceable": true,
        "votesThreshold": null,
        "votesThresholdHelpText": null
      },
      "modals": [],
      "appendices": [
        {
          "body": "<p>Nombre de citoyens subissent le d&eacute;marchage t&eacute;l&eacute;phonique comme un harc&egrave;lement. ils deviennent plus difficilement joignables par leurs proches et les appels justifi&eacute;s. Les dispositifs Pacitel et filtres box ne sont pas efficaces.</p>",
          "type": {
            "title": "Explication de l'article"
          }
        }
      ],
      "title": "Interdiction du démarchage téléphonique en France",
      "_links": {
        "show": "https://www.republique-numerique.fr/consultations/projet-de-loi-numerique/consultation/consultation/opinions/section-1-protection-des-donnees-a-caractere-personnel/interdiction-du-demarchage-telephonique-en-france",
        "edit": "https://www.republique-numerique.fr/consultations/projet-de-loi-numerique/consultation/consultation/opinions/section-1-protection-des-donnees-a-caractere-personnel/interdiction-du-demarchage-telephonique-en-france/edit",
        "report": "https://www.republique-numerique.fr/consultations/projet-de-loi-numerique/consultation/consultation/opinions/section-1-protection-des-donnees-a-caractere-personnel/interdiction-du-demarchage-telephonique-en-france/report",
        "type": "https://www.republique-numerique.fr/consultations/projet-de-loi-numerique/consultation/consultation/opinions/section-1-protection-des-donnees-a-caractere-personnel"
      },
      "user_vote": null,
      "has_user_reported": false
    },
    "sources_count": 0,
    "arguments_count": 1,
    "votes": [
      {
        "user": {
          "username": "Vincent Reverdy",
          "displayName": "Vincent Reverdy",
          "uniqueId": "vincentreverdy",
          "isAdmin": false,
          "media": {
            "url": "/media/cache/default_avatar/default/0001/01/268_default_avatar.jpg"
          },
          "vip": false,
          "_links": {
            "profile": "https://www.republique-numerique.fr/profile/vincentreverdy",
            "settings": "https://www.republique-numerique.fr/profile/edit-profile"
          }
        },
        "value": 1
      },
      {
        "user": {
          "username": "Serge Noiraud",
          "displayName": "Serge Noiraud",
          "uniqueId": "sergenoiraud",
          "isAdmin": false,
          "media": null,
          "vip": false,
          "_links": {
            "profile": "https://www.republique-numerique.fr/profile/sergenoiraud",
            "settings": "https://www.republique-numerique.fr/profile/edit-profile"
          }
        },
        "value": 1
      },
      {
        "user": {
          "username": "Sosthèn Gaillard",
          "displayName": "Sosthèn Gaillard",
          "uniqueId": "sosthengaillard",
          "isAdmin": false,
          "media": null,
          "vip": false,
          "_links": {
            "profile": "https://www.republique-numerique.fr/profile/sosthengaillard",
            "settings": "https://www.republique-numerique.fr/profile/edit-profile"
          }
        },
        "value": 1
      },
      {
        "user": {
          "username": "Anthoine Bourgeois",
          "displayName": "Anthoine Bourgeois",
          "uniqueId": "anthoinebourgeois",
          "isAdmin": false,
          "media": null,
          "vip": false,
          "_links": {
            "profile": "https://www.republique-numerique.fr/profile/anthoinebourgeois",
            "settings": "https://www.republique-numerique.fr/profile/edit-profile"
          }
        },
        "value": 1
      },
      {
        "user": {
          "username": "Laurent Odermatt",
          "displayName": "Laurent Odermatt",
          "uniqueId": "laurentodermatt",
          "isAdmin": false,
          "media": null,
          "vip": false,
          "_links": {
            "profile": "https://www.republique-numerique.fr/profile/laurentodermatt",
            "settings": "https://www.republique-numerique.fr/profile/edit-profile"
          }
        },
        "value": 1
      }
    ],
    "updated_at": "2015-10-05T10:51:52+0200",
    "ranking": 405,
    "is_trashed": false,
    "title": "ajout « sans consentement explicite du client »",
    "slug": "ajout-sans-consentement-explicite-du-client",
    "created_at": "2015-10-05T10:50:59+0200",
    "votes_nok": 0,
    "votes_ok": 10,
    "votes_mitige": 0,
    "_links": {
      "show": "https://www.republique-numerique.fr/consultations/projet-de-loi-numerique/consultation/consultation/opinions/section-1-protection-des-donnees-a-caractere-personnel/interdiction-du-demarchage-telephonique-en-france/versions/ajout-sans-consentement-explicite-du-client",
      "report": "https://www.republique-numerique.fr/consultations/projet-de-loi-numerique/consultation/consultation/opinions/section-1-protection-des-donnees-a-caractere-personnel/interdiction-du-demarchage-telephonique-en-france/versions/ajout-sans-consentement-explicite-du-client/report"
    },
    "user_vote": null,
    "has_user_reported": false
  },
  "rankingThreshold": null,
  "opinionTerm": 1
}