{
  "opinion": {
    "isContribuable": false,
    "votes_total": 3,
    "arguments_yes_count": 1,
    "arguments_no_count": 0,
    "id": 663,
    "created_at": "2015-10-16T08:56:10+0200",
    "updated_at": "2015-10-16T08:56:10+0200",
    "body": "<p>Apr&egrave;s le troisi&egrave;me alin&eacute;a de l&rsquo;article 40 de la loi n&deg;78-17 du 6 janvier 1978 relative &agrave; l&rsquo;informatique, aux fichiers et aux libert&eacute;s, sont ins&eacute;r&eacute;s les alin&eacute;as suivants :</p>\r\n\r\n<p>Le responsable du traitement est tenu d&#39;effacer dans les meilleurs d&eacute;lais les donn&eacute;es &agrave; caract&egrave;re personnel qui ont &eacute;t&eacute; collect&eacute;es dans le cadre de l&rsquo;offre de services de la soci&eacute;t&eacute; de l&rsquo;information lorsque la personne concern&eacute;e sollicite cette action et cela apr&egrave;s un d&eacute;lai de 10 ans. Cette suppression est d&egrave;s la source.</p>\r\n\r\n<p>S&#39;il y existe un int&eacute;r&ecirc;t g&eacute;n&eacute;ral &agrave; la diffusion de ces documents, le responsable du traitement &agrave; la possibilit&eacute; d&#39;anonymiser les documents gr&acirc;ce aux initiales de la persone et l&#39;absence de photos.</p>\r\n\r\n<p>En cas de refus ou d&rsquo;absence de r&eacute;ponse de la part du responsable de traitement &agrave; l&rsquo;&eacute;gard de la personne concern&eacute;e, cette derni&egrave;re peut saisir la Commission nationale de l&rsquo;informatique et des libert&eacute;s, qui se prononce sur la demande dans un d&eacute;lai de 1 mois.</p>\r\n\r\n<p>Ce droit &agrave; l&rsquo;oubli concerne notamment les photos, revues de presse et toutes formes de documents mentionnant le nom et/ou le pr&eacute;nom de la personne concern&eacute;e.</p>",
    "versions_count": 0,
    "sources_count": 0,
    "arguments_count": 1,
    "author": {
      "username": "Brémand",
      "displayName": "Brémand",
      "uniqueId": "bremand",
      "isAdmin": false,
      "media": null,
      "vip": false,
      "_links": {
        "profile": "https://www.republique-numerique.fr/profile/bremand",
        "settings": "https://www.republique-numerique.fr/profile/edit-profile"
      }
    },
    "type": {
      "id": 99,
      "title": "Section 1",
      "subtitle": "Protection des données à caractère personnel",
      "voteWidgetType": 2,
      "votesHelpText": "Pensez-vous que cette proposition permet d'atteindre les objectifs présentés dans l’explication de l’article ?",
      "commentSystem": 2,
      "color": "blue",
      "versionable": true,
      "sourceable": true,
      "votesThreshold": null,
      "votesThresholdHelpText": null
    },
    "sources": [],
    "arguments": [
      {
        "isContribuable": false,
        "id": 5033,
        "body": "Doublon avec \"droit à l'oubli pour les mineurs\" et tous les arguments y attenant.",
        "created_at": "2015-10-16T21:03:15+0200",
        "updated_at": "2015-10-16T21:03:15+0200",
        "is_enabled": true,
        "votes_count": 1,
        "type": 1,
        "is_trashed": false,
        "author": {
          "username": "Jeanne Varasco",
          "displayName": "Jeanne Varasco",
          "uniqueId": "jeannevarasco",
          "isAdmin": false,
          "media": {
            "url": "/media/cache/default_avatar/default/0001/01/139_default_avatar.jpg"
          },
          "vip": false,
          "_links": {
            "profile": "https://www.republique-numerique.fr/profile/jeannevarasco",
            "settings": "https://www.republique-numerique.fr/profile/edit-profile"
          }
        },
        "_links": {
          "show": "https://www.republique-numerique.fr/consultations/projet-de-loi-numerique/consultation/consultation/opinions/section-1-protection-des-donnees-a-caractere-personnel/droit-a-l-oubli-pour-les-citoyens#arg-5033",
          "edit": "https://www.republique-numerique.fr/consultations/projet-de-loi-numerique/consultation/consultation/opinions/section-1-protection-des-donnees-a-caractere-personnel/droit-a-l-oubli-pour-les-citoyens/arguments/5033/edit",
          "report": "https://www.republique-numerique.fr/consultations/projet-de-loi-numerique/consultation/consultation/opinions/section-1-protection-des-donnees-a-caractere-personnel/droit-a-l-oubli-pour-les-citoyens/arguments/5033/report"
        },
        "has_user_voted": false,
        "has_user_reported": false
      }
    ],
    "modals": [],
    "votes": [
      {
        "user": {
          "username": "Brémand",
          "displayName": "Brémand",
          "uniqueId": "bremand",
          "isAdmin": false,
          "media": null,
          "vip": false,
          "_links": {
            "profile": "https://www.republique-numerique.fr/profile/bremand",
            "settings": "https://www.republique-numerique.fr/profile/edit-profile"
          }
        }
      },
      {
        "user": {
          "username": "Jeanne Varasco",
          "displayName": "Jeanne Varasco",
          "uniqueId": "jeannevarasco",
          "isAdmin": false,
          "media": {
            "url": "/media/cache/default_avatar/default/0001/01/139_default_avatar.jpg"
          },
          "vip": false,
          "_links": {
            "profile": "https://www.republique-numerique.fr/profile/jeannevarasco",
            "settings": "https://www.republique-numerique.fr/profile/edit-profile"
          }
        }
      },
      {
        "user": {
          "username": "Mélanie Baybaud",
          "displayName": "Mélanie Baybaud",
          "uniqueId": "melaniebaybaud",
          "isAdmin": false,
          "media": null,
          "vip": false,
          "_links": {
            "profile": "https://www.republique-numerique.fr/profile/melaniebaybaud",
            "settings": "https://www.republique-numerique.fr/profile/edit-profile"
          }
        }
      }
    ],
    "appendices": [
      {
        "body": "<p>&Agrave; l&rsquo;image du droit de prescription, ce droit &agrave; l&rsquo;oubli repose sur les m&ecirc;mes fondements. Il est n&eacute;cessaire dans notre soci&eacute;t&eacute;, o&ugrave; l&rsquo;image est primordiale. En droit fran&ccedil;ais la prescription est g&eacute;n&eacute;rale. La prescription est proportionn&eacute;e, par exemple de 1 an &agrave; 10 ans selon la gravit&eacute; d&#39;une infraction. La France estime que passer un certain d&eacute;lai la personne concern&eacute;e doit &ecirc;tre oubli&eacute;e.</p>\r\n\r\n<p>Elle reprend &eacute;galement la jurisprudence de la CJUE du 14 mai 2014. Cet arr&ecirc;t qui doit s&rsquo;appliquer au sein des &Eacute;tats membres &eacute;nonce que L&rsquo;exploitant d&rsquo;un moteur de recherche sur Internet est responsable du traitement qu&rsquo;il effectue des donn&eacute;es &agrave; caract&egrave;re personnel qui apparaissent sur des pages web publi&eacute;es par des tiers. Ainsi, lorsque, &agrave; la suite d&rsquo;une recherche effectu&eacute;e &agrave; partir du nom d&rsquo;une personne, la liste de r&eacute;sultats affiche un lien vers une page web qui contient des informations sur la personne en question, la personne concern&eacute;e peut s&rsquo;adresser directement &agrave; l&rsquo;exploitant ou, lorsque celui-ci ne donne pas suite &agrave; sa demande, saisir les autorit&eacute;s comp&eacute;tentes pour obtenir, sous certaines conditions, la suppression de ce lien de la liste de r&eacute;sultats.</p>\r\n\r\n<p>Conform&eacute;ment au souhait&nbsp; du premier ministre, il me para&icirc;t n&eacute;cessaire de prot&eacute;ger les concitoyens d&rsquo;une information qui resterait &agrave; vie sur la toile. Le d&eacute;lai de prescription &eacute;tant depuis longtemps accept&eacute; et appliqu&eacute; en France, celui-ci est le meilleur fondement.</p>",
        "type": {
          "title": "Explication de l'article"
        }
      }
    ],
    "ranking": 506,
    "is_trashed": false,
    "title": "Droit à l’oubli pour les citoyens",
    "votes_nok": 0,
    "votes_ok": 3,
    "votes_mitige": 0,
    "_links": {
      "show": "https://www.republique-numerique.fr/consultations/projet-de-loi-numerique/consultation/consultation/opinions/section-1-protection-des-donnees-a-caractere-personnel/droit-a-l-oubli-pour-les-citoyens",
      "edit": "https://www.republique-numerique.fr/consultations/projet-de-loi-numerique/consultation/consultation/opinions/section-1-protection-des-donnees-a-caractere-personnel/droit-a-l-oubli-pour-les-citoyens/edit",
      "report": "https://www.republique-numerique.fr/consultations/projet-de-loi-numerique/consultation/consultation/opinions/section-1-protection-des-donnees-a-caractere-personnel/droit-a-l-oubli-pour-les-citoyens/report",
      "type": "https://www.republique-numerique.fr/consultations/projet-de-loi-numerique/consultation/consultation/opinions/section-1-protection-des-donnees-a-caractere-personnel"
    },
    "user_vote": null,
    "has_user_reported": false
  },
  "rankingThreshold": null,
  "opinionTerm": 1
}