{
  "opinion": {
    "isContribuable": false,
    "votes_total": 13,
    "arguments_yes_count": 2,
    "arguments_no_count": 1,
    "id": 278,
    "created_at": "2015-09-29T05:58:22+0200",
    "updated_at": "2015-09-29T05:58:22+0200",
    "body": "<p>Consid&eacute;rant que la quasi-totalit&eacute; des dispositifs d&#39;aide ou de soutien actuels, qu&#39;ils soient financiers ou techniques, &eacute;manant des institutions sont destin&eacute;s &agrave; des projets num&eacute;riques port&eacute;s par des entreprises pour accro&icirc;tre leurs parts de march&eacute; ou leurs revenus, la loi pr&eacute;voit que tout appel &agrave; projets, dispositif de subvention ou tout autre mode de financement public de projets num&eacute;riques devra comprendre la participation en pourcentage fixe et incompressible d&#39;outils de citoyennet&eacute;, ou relevant du num&eacute;rique social, ou concernant le bien public en r&egrave;gle g&eacute;n&eacute;rale.</p>",
    "versions_count": 0,
    "sources_count": 0,
    "arguments_count": 3,
    "author": {
      "username": "Alain Brégy",
      "displayName": "Alain Brégy",
      "uniqueId": "alainbregy",
      "isAdmin": false,
      "media": null,
      "vip": false,
      "_links": {
        "profile": "https://www.republique-numerique.fr/profile/alainbregy",
        "settings": "https://www.republique-numerique.fr/profile/edit-profile"
      }
    },
    "type": {
      "id": 90,
      "title": "Section 1",
      "subtitle": "Les Communs",
      "voteWidgetType": 2,
      "votesHelpText": "Pensez-vous que cette proposition permet d'atteindre les objectifs présentés dans l’explication de l’article ?",
      "commentSystem": 2,
      "color": "blue",
      "versionable": true,
      "sourceable": true,
      "votesThreshold": null,
      "votesThresholdHelpText": null
    },
    "sources": [],
    "arguments": [
      {
        "isContribuable": false,
        "id": 3294,
        "body": "D'accord. Nous pourrions imaginer comme le préconise Michel Bauwens une assemblée citoyenne (la chambre des communs ) capable d'aider pour chaque appel à projet à déterminer les communs à utiliser pour faire les réponses. La chambre des communs jouerait le rôle de médiateur entre prestataire et commoners. Cela aiderait les acteurs marchands à se baser sur ces communs et permettrait parfois d'atteindre des 90% ou 100% de réponses développées à partir de communs. Par exemple, si il y a un appel à projet pour développer une base d'adresse nationale, la chambre des communs pourrait aider le prestataire retenu à se baser sur le travail d'OSM qui développe en ce moment une base d'adresse nationale en logique de commun (la BANO d'open street map). Le prestataire verserait alors la plus grosse partie de son financement à OSM plutôt que de créer une nouvelle base concurrente. Cet exemple existe, et c'est l'Etalab qui a fait le lien mais je crois que l'argent qui était payé avant à La Poste et l'IGN pour une base d'adresse propriétaire (payée donc 2 fois ou plus par le contribuable) n'est pas pour autant reversée à OSM pour le travail réalisé au sein de la BANO (même pas 1%). Plus d'informations : http://p2pfoundation.net/index.php?title=Chambre_des_communs et http://unisson.co/wiki/prestation",
        "created_at": "2015-10-12T14:24:48+0200",
        "updated_at": "2015-10-12T14:27:06+0200",
        "is_enabled": true,
        "votes_count": 1,
        "type": 1,
        "is_trashed": false,
        "author": {
          "username": "Simon Sarazin",
          "displayName": "Simon Sarazin",
          "uniqueId": "simonsarazin",
          "isAdmin": false,
          "media": null,
          "vip": false,
          "_links": {
            "profile": "https://www.republique-numerique.fr/profile/simonsarazin",
            "settings": "https://www.republique-numerique.fr/profile/edit-profile"
          }
        },
        "_links": {
          "show": "https://www.republique-numerique.fr/consultations/projet-de-loi-numerique/consultation/consultation/opinions/section-1-les-communs/l-etat-s-engage-egalement-a-soutenir-le-numerique-citoyen-et-social#arg-3294",
          "edit": "https://www.republique-numerique.fr/consultations/projet-de-loi-numerique/consultation/consultation/opinions/section-1-les-communs/l-etat-s-engage-egalement-a-soutenir-le-numerique-citoyen-et-social/arguments/3294/edit",
          "report": "https://www.republique-numerique.fr/consultations/projet-de-loi-numerique/consultation/consultation/opinions/section-1-les-communs/l-etat-s-engage-egalement-a-soutenir-le-numerique-citoyen-et-social/arguments/3294/report"
        },
        "has_user_voted": false,
        "has_user_reported": false
      },
      {
        "isContribuable": false,
        "id": 2902,
        "body": "Le contribuable ne paie pas deux fois : il paie plutôt « en deux fois », la partie payée par la contribuable permet de baisser le prix à payé en tant que client.\n\nPar ailleurs, il faudrait définir « outils de citoyenneté, ou relevant du numérique social ». Est-ce que faire appel aux différentes subventions dont peuvent bénéficier le secteur associatif ne pourraient pas financer les outils en question ?",
        "created_at": "2015-10-10T10:33:46+0200",
        "updated_at": "2015-10-10T10:33:46+0200",
        "is_enabled": true,
        "votes_count": 1,
        "type": 0,
        "is_trashed": false,
        "author": {
          "username": "Bernard Martinez",
          "displayName": "Bernard Martinez",
          "uniqueId": "bernardmartinez",
          "isAdmin": false,
          "media": null,
          "vip": false,
          "_links": {
            "profile": "https://www.republique-numerique.fr/profile/bernardmartinez",
            "settings": "https://www.republique-numerique.fr/profile/edit-profile"
          }
        },
        "_links": {
          "show": "https://www.republique-numerique.fr/consultations/projet-de-loi-numerique/consultation/consultation/opinions/section-1-les-communs/l-etat-s-engage-egalement-a-soutenir-le-numerique-citoyen-et-social#arg-2902",
          "edit": "https://www.republique-numerique.fr/consultations/projet-de-loi-numerique/consultation/consultation/opinions/section-1-les-communs/l-etat-s-engage-egalement-a-soutenir-le-numerique-citoyen-et-social/arguments/2902/edit",
          "report": "https://www.republique-numerique.fr/consultations/projet-de-loi-numerique/consultation/consultation/opinions/section-1-les-communs/l-etat-s-engage-egalement-a-soutenir-le-numerique-citoyen-et-social/arguments/2902/report"
        },
        "has_user_voted": false,
        "has_user_reported": false
      },
      {
        "isContribuable": false,
        "id": 1535,
        "body": "Par exemple, l'accès aux citoyens moins aisé.",
        "created_at": "2015-09-30T14:27:23+0200",
        "updated_at": "2015-09-30T14:27:23+0200",
        "is_enabled": true,
        "votes_count": 1,
        "type": 1,
        "is_trashed": false,
        "author": {
          "username": "Jeanne Varasco",
          "displayName": "Jeanne Varasco",
          "uniqueId": "jeannevarasco",
          "isAdmin": false,
          "media": {
            "url": "/media/cache/default_avatar/default/0001/01/139_default_avatar.jpg"
          },
          "vip": false,
          "_links": {
            "profile": "https://www.republique-numerique.fr/profile/jeannevarasco",
            "settings": "https://www.republique-numerique.fr/profile/edit-profile"
          }
        },
        "_links": {
          "show": "https://www.republique-numerique.fr/consultations/projet-de-loi-numerique/consultation/consultation/opinions/section-1-les-communs/l-etat-s-engage-egalement-a-soutenir-le-numerique-citoyen-et-social#arg-1535",
          "edit": "https://www.republique-numerique.fr/consultations/projet-de-loi-numerique/consultation/consultation/opinions/section-1-les-communs/l-etat-s-engage-egalement-a-soutenir-le-numerique-citoyen-et-social/arguments/1535/edit",
          "report": "https://www.republique-numerique.fr/consultations/projet-de-loi-numerique/consultation/consultation/opinions/section-1-les-communs/l-etat-s-engage-egalement-a-soutenir-le-numerique-citoyen-et-social/arguments/1535/report"
        },
        "has_user_voted": false,
        "has_user_reported": false
      }
    ],
    "modals": [],
    "votes": [
      {
        "user": {
          "username": "Alain Brégy",
          "displayName": "Alain Brégy",
          "uniqueId": "alainbregy",
          "isAdmin": false,
          "media": null,
          "vip": false,
          "_links": {
            "profile": "https://www.republique-numerique.fr/profile/alainbregy",
            "settings": "https://www.republique-numerique.fr/profile/edit-profile"
          }
        }
      },
      {
        "user": {
          "username": "Jeanne Varasco",
          "displayName": "Jeanne Varasco",
          "uniqueId": "jeannevarasco",
          "isAdmin": false,
          "media": {
            "url": "/media/cache/default_avatar/default/0001/01/139_default_avatar.jpg"
          },
          "vip": false,
          "_links": {
            "profile": "https://www.republique-numerique.fr/profile/jeannevarasco",
            "settings": "https://www.republique-numerique.fr/profile/edit-profile"
          }
        }
      },
      {
        "user": {
          "username": "Vincent Reverdy",
          "displayName": "Vincent Reverdy",
          "uniqueId": "vincentreverdy",
          "isAdmin": false,
          "media": {
            "url": "/media/cache/default_avatar/default/0001/01/268_default_avatar.jpg"
          },
          "vip": false,
          "_links": {
            "profile": "https://www.republique-numerique.fr/profile/vincentreverdy",
            "settings": "https://www.republique-numerique.fr/profile/edit-profile"
          }
        }
      },
      {
        "user": {
          "username": "François Briat",
          "displayName": "François Briat",
          "uniqueId": "francoisbriat",
          "isAdmin": false,
          "media": {
            "url": "/media/cache/default_avatar/default/0001/01/243_default_avatar.jpg"
          },
          "vip": false,
          "_links": {
            "profile": "https://www.republique-numerique.fr/profile/francoisbriat",
            "settings": "https://www.republique-numerique.fr/profile/edit-profile"
          }
        }
      },
      {
        "user": {
          "username": "Hugo Mathieu",
          "displayName": "Hugo Mathieu",
          "uniqueId": "hugomathieu",
          "isAdmin": false,
          "media": null,
          "vip": false,
          "_links": {
            "profile": "https://www.republique-numerique.fr/profile/hugomathieu",
            "settings": "https://www.republique-numerique.fr/profile/edit-profile"
          }
        }
      }
    ],
    "appendices": [
      {
        "body": "<p>S&#39;agissant d&#39;argent public appartenant &agrave; la collectivit&eacute;, il n&#39;est ni juste ni &eacute;quitable que le contribuable paie deux fois, la premi&egrave;re sous forme de subventions via l&#39;imp&ocirc;t et la seconde lorsqu&#39;il ach&egrave;te le bien ou le service num&eacute;rique &agrave; l&#39;entreprise qui l&#39;a con&ccedil;u, r&eacute;alis&eacute; et commercialis&eacute;. Pour cela, tout appel &agrave; projet ou tout dispositif d&#39;aide ou d&#39;appui, qu&#39;il soit financier, logistique ou technique, comprendra obligatoirement un pourcentage &agrave; d&eacute;finir de projets libres et gratuits, non-marchands, relevant des &quot;communs&quot;. Ces outils peuvent &ecirc;tre de diff&eacute;rentes natures : p2p (de citoyen &agrave; citoyen), i2c (d&#39;institution &agrave; citoyen) ou c2i (de citoyen &agrave; institution). Ils permettront par exemple de co-&eacute;laborer des politiques territoriales, favoriseront l&#39;implication sociale dans la vie du territoire ou cr&eacute;eront du lien entre toutes les composantes de la soci&eacute;t&eacute;. La hauteur du pourcentage retenu par la loi montrera l&#39;implication du gouvernement dans la d&eacute;marche : 5% serait cosm&eacute;tique, 50% assez audacieux.</p>",
        "type": {
          "title": "Explication de l'article"
        }
      }
    ],
    "ranking": 341,
    "is_trashed": false,
    "title": "L'Etat s'engage également à soutenir le numérique citoyen et social",
    "votes_nok": 2,
    "votes_ok": 9,
    "votes_mitige": 2,
    "_links": {
      "show": "https://www.republique-numerique.fr/consultations/projet-de-loi-numerique/consultation/consultation/opinions/section-1-les-communs/l-etat-s-engage-egalement-a-soutenir-le-numerique-citoyen-et-social",
      "edit": "https://www.republique-numerique.fr/consultations/projet-de-loi-numerique/consultation/consultation/opinions/section-1-les-communs/l-etat-s-engage-egalement-a-soutenir-le-numerique-citoyen-et-social/edit",
      "report": "https://www.republique-numerique.fr/consultations/projet-de-loi-numerique/consultation/consultation/opinions/section-1-les-communs/l-etat-s-engage-egalement-a-soutenir-le-numerique-citoyen-et-social/report",
      "type": "https://www.republique-numerique.fr/consultations/projet-de-loi-numerique/consultation/consultation/opinions/section-1-les-communs"
    },
    "user_vote": null,
    "has_user_reported": false
  },
  "rankingThreshold": null,
  "opinionTerm": 1
}