{
  "version": {
    "isContribuable": false,
    "votes_total": 10,
    "arguments_yes_count": 1,
    "arguments_no_count": 1,
    "id": 183,
    "body": "<p>&nbsp;Lorsque qu&#39;un projet ou une proposition de loi est propos&eacute;e &agrave; l&#39;Assembl&eacute;e Nationale ou au S&eacute;nat, elle est tout d&#39;abord <strong>&eacute;tudi&eacute;e en commission</strong>.</p>\r\n\r\n<p><br />\r\n&nbsp;Avant ce travail en commission, les citoyens seraient <strong>consult&eacute;s via une plateforme officielle</strong> pour<strong> amender des articles</strong>, en <strong>proposer de nouveaux </strong>et <strong>voter pour ou contre </strong>les articles initiaux et ceux propos&eacute;s par les citoyens.</p>\r\n\r\n<p><br />\r\n&nbsp;Cette participation serait <strong>consultative</strong> et destin&eacute;e &agrave; la <strong>commission</strong> charg&eacute;e de l&#39;&eacute;tude du texte.</p>",
    "comment": "Peut &ecirc;tre un pr&eacute;texte pour supprimer les permanences des &eacute;lus, couper encore plus le peuple de leurs repr&eacute;sentants et l&eacute;gitimer tout texte de loi sans tenir compte des publications sur les plateformes (comme les commentaires sur les sites web des journaux qui ne sont lus que par les lecteurs).",
    "author": {
      "username": "David VANTYGHEM",
      "displayName": "David VANTYGHEM",
      "uniqueId": "davidvantyghem",
      "isAdmin": false,
      "media": null,
      "vip": false,
      "_links": {
        "profile": "https://www.republique-numerique.fr/profile/davidvantyghem",
        "settings": "https://www.republique-numerique.fr/profile/edit-profile"
      }
    },
    "arguments": [
      {
        "isContribuable": false,
        "id": 2613,
        "body": "l'élu est là pour représenter le peuple. un outil pour demander son avis au citoyen lui permetrait de conforter sa légitimité et aiderait l'élu. Ce serait une autre forme des permanence au contraire. L'élu pourrait etre plus élu de la république que de son secteur",
        "created_at": "2015-10-08T09:47:33+0200",
        "updated_at": "2015-10-08T09:47:33+0200",
        "is_enabled": true,
        "votes_count": 1,
        "type": 0,
        "is_trashed": false,
        "author": {
          "username": "Mathieu Sutter",
          "displayName": "Mathieu Sutter",
          "uniqueId": "mathieusutter",
          "isAdmin": false,
          "media": null,
          "vip": false,
          "_links": {
            "profile": "https://www.republique-numerique.fr/profile/mathieusutter",
            "settings": "https://www.republique-numerique.fr/profile/edit-profile"
          }
        },
        "_links": {
          "show": "https://www.republique-numerique.fr/consultations/projet-de-loi-numerique/consultation/consultation/opinions/section-1-competences-et-organisation/implication-des-citoyens-dans-la-redaction-et-l-elaboration-des-lois-via-le-net/versions/attention-a-ne-pas-remplacer-les-permanences-des-elus#arg-2613",
          "edit": "https://www.republique-numerique.fr/consultations/projet-de-loi-numerique/consultation/consultation/opinions/section-1-competences-et-organisation/implication-des-citoyens-dans-la-redaction-et-l-elaboration-des-lois-via-le-net/arguments/2613/edit",
          "report": "https://www.republique-numerique.fr/consultations/projet-de-loi-numerique/consultation/consultation/opinions/section-1-competences-et-organisation/implication-des-citoyens-dans-la-redaction-et-l-elaboration-des-lois-via-le-net/arguments/2613/report"
        },
        "has_user_voted": false,
        "has_user_reported": false
      },
      {
        "isContribuable": false,
        "id": 3503,
        "body": "pour ce que je les vois les élus. Au contraire, il faut généraliser l'usage des nouvelles techno pour obliger le gouvernement à consulter plus souvent les citoyens sur  les lois qu'il entend promulguer. Cela permettra de sortir de la notion de démocratie représentative qui  n'a de démocrate que le nom. Et ensuite de tirer au sort les élus (comme les jurés) pour éviter d'avoir des professionnels de la politique. Cela permettra d'économiser l'argent des élections et dépersonnalisera la politique au profit des citoyens.",
        "created_at": "2015-10-13T10:51:50+0200",
        "updated_at": "2015-10-13T10:51:50+0200",
        "is_enabled": true,
        "votes_count": 2,
        "type": 1,
        "is_trashed": false,
        "author": {
          "username": "Bernard Ludwig",
          "displayName": "Bernard Ludwig",
          "uniqueId": "bernardludwig",
          "isAdmin": false,
          "media": null,
          "vip": false,
          "_links": {
            "profile": "https://www.republique-numerique.fr/profile/bernardludwig",
            "settings": "https://www.republique-numerique.fr/profile/edit-profile"
          }
        },
        "_links": {
          "show": "https://www.republique-numerique.fr/consultations/projet-de-loi-numerique/consultation/consultation/opinions/section-1-competences-et-organisation/implication-des-citoyens-dans-la-redaction-et-l-elaboration-des-lois-via-le-net/versions/attention-a-ne-pas-remplacer-les-permanences-des-elus#arg-3503",
          "edit": "https://www.republique-numerique.fr/consultations/projet-de-loi-numerique/consultation/consultation/opinions/section-1-competences-et-organisation/implication-des-citoyens-dans-la-redaction-et-l-elaboration-des-lois-via-le-net/arguments/3503/edit",
          "report": "https://www.republique-numerique.fr/consultations/projet-de-loi-numerique/consultation/consultation/opinions/section-1-competences-et-organisation/implication-des-citoyens-dans-la-redaction-et-l-elaboration-des-lois-via-le-net/arguments/3503/report"
        },
        "has_user_voted": false,
        "has_user_reported": false
      }
    ],
    "sources": [],
    "parent": {
      "isContribuable": false,
      "id": 123,
      "body": "<p>&nbsp;Lorsque qu&#39;un projet ou une proposition de loi est propos&eacute;e &agrave; l&#39;Assembl&eacute;e Nationale ou au S&eacute;nat, elle est tout d&#39;abord <strong>&eacute;tudi&eacute;e en commission</strong>.</p>\r\n\r\n<p><br />\r\n&nbsp;Avant ce travail en commission, les citoyens seraient <strong>consult&eacute;s via une plateforme officielle</strong> pour<strong> amender des articles</strong>, en <strong>proposer de nouveaux </strong>et <strong>voter pour ou contre </strong>les articles initiaux et ceux propos&eacute;s par les citoyens.</p>\r\n\r\n<p><br />\r\n&nbsp;Cette participation serait <strong>consultative</strong> et destin&eacute;e &agrave; la <strong>commission</strong> charg&eacute;e de l&#39;&eacute;tude du texte.</p>",
      "type": {
        "id": 103,
        "title": "Section 1",
        "subtitle": "Compétences et organisation",
        "voteWidgetType": 2,
        "votesHelpText": "Pensez-vous que cette proposition permet d'atteindre les objectifs présentés dans l’explication de l’article ?",
        "commentSystem": 2,
        "color": "blue",
        "versionable": true,
        "sourceable": true,
        "votesThreshold": null,
        "votesThresholdHelpText": null
      },
      "modals": [],
      "appendices": [
        {
          "body": "<p>&nbsp;Cette participation permettrait <strong>une plus grande implication des citoyens </strong>dans la vie politique via <strong>les nouvaux outils de communic</strong>ation, &agrave; l&#39;heure o&ugrave; les Fran&ccedil;ais se d&eacute;sint&eacute;ressent de la politique, voici pourquoi :</p>\r\n\r\n<p><br />\r\n&nbsp;Tout d&#39;abord, cette participation<strong> ouverte au plus grand nombre </strong>gr&acirc;ce au net donnerait aux citoyens une impression de <strong>pouvoir agir r&eacute;ellement </strong>sans que cela soit compliqu&eacute;. En effet, tout un chacun peut s&#39;impliquer dans la r&eacute;daction des lois <strong>en quelques clics</strong>.</p>\r\n\r\n<p><br />\r\n&nbsp;De plus, cela permettrait au rapporteur de la commission de <strong>s&#39;appuyer l&#39;avis r&eacute;el des citoyens</strong> et ainsi de replacer sa parole <strong>au centre du d&eacute;bat parlementaire</strong>, bien que les r&eacute;sultats soient consultatifs.</p>\r\n\r\n<p>&nbsp;</p>\r\n\r\n<p>&nbsp;En conclusion, cette participation citoyenne gr&acirc;ce au net serait <strong>utile au d&eacute;bat politique</strong>.</p>",
          "type": {
            "title": "Explication de l'article"
          }
        }
      ],
      "title": "Implication des citoyens dans la rédaction et l'élaboration des lois via le net",
      "_links": {
        "show": "https://www.republique-numerique.fr/consultations/projet-de-loi-numerique/consultation/consultation/opinions/section-1-competences-et-organisation/implication-des-citoyens-dans-la-redaction-et-l-elaboration-des-lois-via-le-net",
        "edit": "https://www.republique-numerique.fr/consultations/projet-de-loi-numerique/consultation/consultation/opinions/section-1-competences-et-organisation/implication-des-citoyens-dans-la-redaction-et-l-elaboration-des-lois-via-le-net/edit",
        "report": "https://www.republique-numerique.fr/consultations/projet-de-loi-numerique/consultation/consultation/opinions/section-1-competences-et-organisation/implication-des-citoyens-dans-la-redaction-et-l-elaboration-des-lois-via-le-net/report",
        "type": "https://www.republique-numerique.fr/consultations/projet-de-loi-numerique/consultation/consultation/opinions/section-1-competences-et-organisation"
      },
      "user_vote": null,
      "has_user_reported": false
    },
    "sources_count": 0,
    "arguments_count": 2,
    "votes": [
      {
        "user": {
          "username": "Mathieu Sutter",
          "displayName": "Mathieu Sutter",
          "uniqueId": "mathieusutter",
          "isAdmin": false,
          "media": null,
          "vip": false,
          "_links": {
            "profile": "https://www.republique-numerique.fr/profile/mathieusutter",
            "settings": "https://www.republique-numerique.fr/profile/edit-profile"
          }
        },
        "value": -1
      },
      {
        "user": {
          "username": "Julien Marin",
          "displayName": "Julien Marin",
          "uniqueId": "julienmarin",
          "isAdmin": false,
          "media": null,
          "vip": false,
          "_links": {
            "profile": "https://www.republique-numerique.fr/profile/julienmarin",
            "settings": "https://www.republique-numerique.fr/profile/edit-profile"
          }
        },
        "value": -1
      },
      {
        "user": {
          "username": "Valéry-Xavier Lentz",
          "displayName": "Valéry-Xavier Lentz",
          "uniqueId": "valeryxavierlentz",
          "isAdmin": false,
          "media": null,
          "vip": false,
          "_links": {
            "profile": "https://www.republique-numerique.fr/profile/valeryxavierlentz",
            "settings": "https://www.republique-numerique.fr/profile/edit-profile"
          }
        },
        "value": -1
      },
      {
        "user": {
          "username": "David VANTYGHEM",
          "displayName": "David VANTYGHEM",
          "uniqueId": "davidvantyghem",
          "isAdmin": false,
          "media": null,
          "vip": false,
          "_links": {
            "profile": "https://www.republique-numerique.fr/profile/davidvantyghem",
            "settings": "https://www.republique-numerique.fr/profile/edit-profile"
          }
        },
        "value": 1
      },
      {
        "user": {
          "username": "FAVREAU",
          "displayName": "FAVREAU",
          "uniqueId": "favreau",
          "isAdmin": false,
          "media": null,
          "vip": false,
          "_links": {
            "profile": "https://www.republique-numerique.fr/profile/favreau",
            "settings": "https://www.republique-numerique.fr/profile/edit-profile"
          }
        },
        "value": 1
      }
    ],
    "updated_at": "2015-09-26T23:22:56+0200",
    "ranking": 880,
    "is_trashed": false,
    "title": "Attention à ne pas remplacer les permanences des élus",
    "slug": "attention-a-ne-pas-remplacer-les-permanences-des-elus",
    "created_at": "2015-09-26T23:22:56+0200",
    "votes_nok": 7,
    "votes_ok": 2,
    "votes_mitige": 1,
    "_links": {
      "show": "https://www.republique-numerique.fr/consultations/projet-de-loi-numerique/consultation/consultation/opinions/section-1-competences-et-organisation/implication-des-citoyens-dans-la-redaction-et-l-elaboration-des-lois-via-le-net/versions/attention-a-ne-pas-remplacer-les-permanences-des-elus",
      "report": "https://www.republique-numerique.fr/consultations/projet-de-loi-numerique/consultation/consultation/opinions/section-1-competences-et-organisation/implication-des-citoyens-dans-la-redaction-et-l-elaboration-des-lois-via-le-net/versions/attention-a-ne-pas-remplacer-les-permanences-des-elus/report"
    },
    "user_vote": null,
    "has_user_reported": false
  },
  "rankingThreshold": null,
  "opinionTerm": 1
}