{
  "version": {
    "isContribuable": false,
    "votes_total": 2,
    "arguments_yes_count": 0,
    "arguments_no_count": 0,
    "id": 1262,
    "body": "<p><strong>L&#39;informatique, science et technique qui sous-tend le num&eacute;rique, est une composante de la culture g&eacute;n&eacute;rale du 21&egrave;me si&egrave;cle. Elle est enseign&eacute;e &agrave; tous les &eacute;l&egrave;ves <u>&agrave; l&#39;&eacute;cole</u>, au coll&egrave;ge et au lyc&eacute;e sous la forme d&#39;une discipline en tant que telle. <s>apr&egrave;s une sensibilisation d&egrave;s l&#39;&eacute;cole primaire</s>.&nbsp; <u>Elle inclut une initiation &agrave; la programmation. Tous les enseignants recoivent une formation adapt&eacute;e&nbsp;et sont dot&eacute;s de l&#39;&eacute;quipement informatique n&eacute;cessaire &agrave; l&#39;exercice de leur m&eacute;tier</u>. Un Capes et une agr&eacute;gation d&#39;informatique sont cr&eacute;&eacute;s.</strong></p>\n\n<p>&nbsp;</p>",
    "comment": "<p>La proposition d&#39;EPI, tr&egrave;s bonne, me semble n&#39;&ecirc;tre pas suffisante.</p>\n\n<p>Plusieurs autres pays, dont le Royaume Uni, ont int&eacute;gr&eacute; un v&eacute;ritable enseignement de l&#39;informatique &agrave; tous les niveaux, comme une discipline fondamentale. (voir mes &quot;sources&quot;)</p>\n\n<p>Pour le primaire, pourquoi se contenter d&#39;une &quot;sensibilisation&quot;? A l&#39;&eacute;cole on ne se contente pas de sensibiliser aux maths, au fran&ccedil;ais, &agrave; une premi&egrave;re langue &eacute;trang&egrave;re ... L&#39;informatique doit &ecirc;tre une discipline comme une autre.</p>\n\n<p>Il ne faut pas omettre l&#39;initiation &agrave; la programmation. Voir mon &quot;argument&quot; sur l&#39;article 23.</p>\n\n<p>En outre l&#39;informatique est d&#39;un usage universel. Tous les enseignants sont appel&eacute;s &agrave; l&#39;utiliser en classe, dans leur(s) discipline(s). Or, ils ne sont, pour beaucoup, pas form&eacute;s. Leur formation &agrave; l&#39;usage des outils informatiques doit &ecirc;tre incluse dans leur cursus de formation.</p>\n\n<p>Autre manquement grave dans la situation actuelle. Ce sont les enseignants qui s&#39;&eacute;quipent en mat&eacute;riel, sur leurs propres deniers. Partout ailleurs, dans les autres m&eacute;tiers et, singuli&egrave;rement dans les entreprises priv&eacute;es, ce sont les employeurs qui dotent leurs collaborateurs en mat&eacute;riel informatique n&eacute;cessaire &agrave; leur mission professionnelle. Les enseignants doivent &ecirc;tre &eacute;quip&eacute;s de la m&ecirc;me fa&ccedil;on.</p>",
    "author": {
      "username": "Philippe Le Roux",
      "displayName": "Philippe Le Roux",
      "uniqueId": "philippeleroux",
      "isAdmin": false,
      "media": {
        "url": "/media/cache/default_avatar/default/0001/01/205_default_avatar.jpg"
      },
      "vip": false,
      "_links": {
        "profile": "https://www.republique-numerique.fr/profile/philippeleroux",
        "settings": "https://www.republique-numerique.fr/profile/edit-profile"
      }
    },
    "arguments": [],
    "sources": [
      {
        "isContribuable": false,
        "id": 368,
        "title": "L'enseignement de l'informatique au Royaume Uni",
        "link": "https://www.gov.uk/government/publications/national-curriculum-in-england-computing-programmes-of-study/national-curriculum-in-england-computing-programmes-of-study",
        "body": "Référentiel anglais de l'enseignement de l'informatique",
        "created_at": "2015-10-17T00:13:40+0200",
        "updated_at": "2015-10-17T00:13:40+0200",
        "author": {
          "username": "Philippe Le Roux",
          "displayName": "Philippe Le Roux",
          "uniqueId": "philippeleroux",
          "isAdmin": false,
          "media": {
            "url": "/media/cache/default_avatar/default/0001/01/205_default_avatar.jpg"
          },
          "vip": false,
          "_links": {
            "profile": "https://www.republique-numerique.fr/profile/philippeleroux",
            "settings": "https://www.republique-numerique.fr/profile/edit-profile"
          }
        },
        "category": "Lois et règlements",
        "votes_count": 0,
        "_links": {
          "edit": "https://www.republique-numerique.fr/consultations/projet-de-loi-numerique/consultation/consultation/opinions/section-1-competences-et-organisation/l-enseignement-de-l-informatique-pour-tous/sources/l-enseignement-de-l-informatique-au-royaume-uni-1/edit",
          "report": "https://www.republique-numerique.fr/consultations/projet-de-loi-numerique/consultation/consultation/opinions/section-1-competences-et-organisation/l-enseignement-de-l-informatique-pour-tous/sources/l-enseignement-de-l-informatique-au-royaume-uni-1/report"
        },
        "has_user_voted": false,
        "has_user_reported": false
      }
    ],
    "parent": {
      "isContribuable": false,
      "id": 494,
      "body": "<p><strong>L&#39;informatique, science et technique qui sous-tend le num&eacute;rique, est une composante de la culture g&eacute;n&eacute;rale du 21&egrave;me si&egrave;cle. Elle est enseign&eacute;e &agrave; tous les &eacute;l&egrave;ves au coll&egrave;ge et au lyc&eacute;e sous la forme d&#39;une discipline en tant que telle, apr&egrave;s une sensibilisation d&egrave;s l&#39;&eacute;cole primaire.&nbsp; Un Capes et une agr&eacute;gation d&#39;informatique sont cr&eacute;&eacute;s.</strong></p>\r\n\r\n<p><strong>Association Enseignement Public et Informatique (EPI)</strong></p>",
      "type": {
        "id": 103,
        "title": "Section 1",
        "subtitle": "Compétences et organisation",
        "voteWidgetType": 2,
        "votesHelpText": "Pensez-vous que cette proposition permet d'atteindre les objectifs présentés dans l’explication de l’article ?",
        "commentSystem": 2,
        "color": "blue",
        "versionable": true,
        "sourceable": true,
        "votesThreshold": null,
        "votesThresholdHelpText": null
      },
      "modals": [],
      "appendices": [
        {
          "body": "<p><em>Les arguments sont d&eacute;velopp&eacute;s dans la contribution de l&#39;EPI :</em></p>\r\n\r\n<p><strong>Pourquoi et comment un enseignement d&#39;informatique pour tous les &eacute;l&egrave;ves</strong></p>\r\n\r\n<p><a href=\"http://www.epi.asso.fr/revue/articles/a1412e.htm\" target=\"_blank\">http://www.epi.asso.fr/revue/articles/a1412e.htm</a></p>\r\n\r\n<p>Suite au courrier de Madame Axelle Lemaire, Secr&eacute;taire d&#39;&Eacute;tat au Num&eacute;rique, voici la contribution de Jean-Pierre Archambault, pr&eacute;sident de l&#39;EPI, &agrave; la consultation &laquo;&nbsp;L&#39;ambition num&eacute;rique de la France&nbsp;&raquo;&nbsp;: &laquo;&nbsp;La soci&eacute;t&eacute; face &agrave; la m&eacute;tamorphose num&eacute;rique&nbsp;&raquo;.<br />\r\nL&#39;informatique, science de la repr&eacute;sentation et du traitement de l&#39;information num&eacute;ris&eacute;e, est au coeur du num&eacute;rique, comme les sciences physiques le sont au coeur de l&#39;industrie de l&#39;&eacute;nergie et la biologie l&#39;est au coeur du vivant. &Agrave; ce titre, elle est la cl&eacute; de la compr&eacute;hension du monde num&eacute;rique en construction. Dans cette contribution, nous verrons la n&eacute;cessit&eacute; de &laquo;&nbsp;fixer un cap&nbsp;&raquo; (un enseignement d&#39;informatique pour tous les &eacute;l&egrave;ves et la question essentielle de la formation des enseignants), les diff&eacute;rents statuts &eacute;ducatifs de l&#39;informatique et du num&eacute;rique.</p>",
          "type": {
            "title": "Explication de l'article"
          }
        }
      ],
      "title": "L'enseignement de l'informatique pour tous",
      "_links": {
        "show": "https://www.republique-numerique.fr/consultations/projet-de-loi-numerique/consultation/consultation/opinions/section-1-competences-et-organisation/l-enseignement-de-l-informatique-pour-tous",
        "edit": "https://www.republique-numerique.fr/consultations/projet-de-loi-numerique/consultation/consultation/opinions/section-1-competences-et-organisation/l-enseignement-de-l-informatique-pour-tous/edit",
        "report": "https://www.republique-numerique.fr/consultations/projet-de-loi-numerique/consultation/consultation/opinions/section-1-competences-et-organisation/l-enseignement-de-l-informatique-pour-tous/report",
        "type": "https://www.republique-numerique.fr/consultations/projet-de-loi-numerique/consultation/consultation/opinions/section-1-competences-et-organisation"
      },
      "user_vote": null,
      "has_user_reported": false
    },
    "sources_count": 1,
    "arguments_count": 0,
    "votes": [
      {
        "user": {
          "username": "Bastien Hoffstetter",
          "displayName": "Bastien Hoffstetter",
          "uniqueId": "bastienhoffstetter",
          "isAdmin": false,
          "media": null,
          "vip": false,
          "_links": {
            "profile": "https://www.republique-numerique.fr/profile/bastienhoffstetter",
            "settings": "https://www.republique-numerique.fr/profile/edit-profile"
          }
        },
        "value": 1
      },
      {
        "user": {
          "username": "Nicolas",
          "displayName": "Nicolas",
          "uniqueId": "nicolas6",
          "isAdmin": false,
          "media": null,
          "vip": false,
          "_links": {
            "profile": "https://www.republique-numerique.fr/profile/nicolas6",
            "settings": "https://www.republique-numerique.fr/profile/edit-profile"
          }
        },
        "value": 1
      }
    ],
    "updated_at": "2015-10-17T00:06:18+0200",
    "ranking": 880,
    "is_trashed": false,
    "title": "Enseigner l'informatique à tous",
    "slug": "enseigner-l-informatique-a-tous",
    "created_at": "2015-10-17T00:06:18+0200",
    "votes_nok": 0,
    "votes_ok": 2,
    "votes_mitige": 0,
    "_links": {
      "show": "https://www.republique-numerique.fr/consultations/projet-de-loi-numerique/consultation/consultation/opinions/section-1-competences-et-organisation/l-enseignement-de-l-informatique-pour-tous/versions/enseigner-l-informatique-a-tous",
      "report": "https://www.republique-numerique.fr/consultations/projet-de-loi-numerique/consultation/consultation/opinions/section-1-competences-et-organisation/l-enseignement-de-l-informatique-pour-tous/versions/enseigner-l-informatique-a-tous/report"
    },
    "user_vote": null,
    "has_user_reported": false
  },
  "rankingThreshold": null,
  "opinionTerm": 1
}