{
  "version": {
    "isContribuable": false,
    "votes_total": 4,
    "arguments_yes_count": 1,
    "arguments_no_count": 0,
    "id": 114,
    "body": "<p>La plateforme ne permet pas d&#39;expliquer un avis mitig&eacute;.</p>\n\n<p>La plateforme utilise des cookies non-n&eacute;cessaires</p>\n\n<p>&nbsp;</p>",
    "comment": ":)",
    "author": {
      "username": "Cellular1988",
      "displayName": "Cellular1988",
      "uniqueId": "cellular1988",
      "isAdmin": false,
      "media": null,
      "vip": false,
      "_links": {
        "profile": "https://www.republique-numerique.fr/profile/cellular1988",
        "settings": "https://www.republique-numerique.fr/profile/edit-profile"
      }
    },
    "arguments": [
      {
        "isContribuable": false,
        "id": 1436,
        "body": "Cette plateformes souffre d'un gros problème de sécurité. Il serait facile de fausser les votes aux moyens de bots.",
        "created_at": "2015-09-30T04:03:08+0200",
        "updated_at": "2015-09-30T04:03:08+0200",
        "is_enabled": true,
        "votes_count": 1,
        "type": 1,
        "is_trashed": false,
        "author": {
          "username": "Vincent Reverdy",
          "displayName": "Vincent Reverdy",
          "uniqueId": "vincentreverdy",
          "isAdmin": false,
          "media": {
            "url": "/media/cache/default_avatar/default/0001/01/268_default_avatar.jpg"
          },
          "vip": false,
          "_links": {
            "profile": "https://www.republique-numerique.fr/profile/vincentreverdy",
            "settings": "https://www.republique-numerique.fr/profile/edit-profile"
          }
        },
        "_links": {
          "show": "https://www.republique-numerique.fr/consultations/projet-de-loi-numerique/consultation/consultation/opinions/section-1-recommande-electronique/article-26bis-portage-de-la-plateforme-contribuez-republique-numerique-fr-a-d-autre-projet-de-loi/versions/seulement-en-cas-de-modification-de-la-plateforme#arg-1436",
          "edit": "https://www.republique-numerique.fr/consultations/projet-de-loi-numerique/consultation/consultation/opinions/section-1-recommande-electronique/article-26bis-portage-de-la-plateforme-contribuez-republique-numerique-fr-a-d-autre-projet-de-loi/arguments/1436/edit",
          "report": "https://www.republique-numerique.fr/consultations/projet-de-loi-numerique/consultation/consultation/opinions/section-1-recommande-electronique/article-26bis-portage-de-la-plateforme-contribuez-republique-numerique-fr-a-d-autre-projet-de-loi/arguments/1436/report"
        },
        "has_user_voted": false,
        "has_user_reported": false
      }
    ],
    "sources": [],
    "parent": {
      "isContribuable": false,
      "id": 98,
      "body": "<p>A Rediger.</p>",
      "type": {
        "id": 106,
        "title": "Section 1",
        "subtitle": "Recommandé électronique",
        "voteWidgetType": 2,
        "votesHelpText": "Pensez-vous que cette proposition permet d'atteindre les objectifs présentés dans l’explication de l’article ?",
        "commentSystem": 2,
        "color": "blue",
        "versionable": true,
        "sourceable": true,
        "votesThreshold": null,
        "votesThresholdHelpText": null
      },
      "modals": [],
      "appendices": [
        {
          "body": "<p>Comme nous pouvons le voir, la plateforme sur lequel nous lisons les articles de la republique numerique est assez bien pens&eacute; et nous pouvons enfin avoir un impact direct sur ce projet de lois. Pourquoi ne pas &eacute;largir ce concept pour pouvoir discuter d&#39;autre projet de lois tous ensemble ?&nbsp;</p>",
          "type": {
            "title": "Explication de l'article"
          }
        }
      ],
      "title": "Article 26bis - Portage de la plateforme contribuez.republique-numerique.fr à d'autre projet de loi",
      "_links": {
        "show": "https://www.republique-numerique.fr/consultations/projet-de-loi-numerique/consultation/consultation/opinions/section-1-recommande-electronique/article-26bis-portage-de-la-plateforme-contribuez-republique-numerique-fr-a-d-autre-projet-de-loi",
        "edit": "https://www.republique-numerique.fr/consultations/projet-de-loi-numerique/consultation/consultation/opinions/section-1-recommande-electronique/article-26bis-portage-de-la-plateforme-contribuez-republique-numerique-fr-a-d-autre-projet-de-loi/edit",
        "report": "https://www.republique-numerique.fr/consultations/projet-de-loi-numerique/consultation/consultation/opinions/section-1-recommande-electronique/article-26bis-portage-de-la-plateforme-contribuez-republique-numerique-fr-a-d-autre-projet-de-loi/report",
        "type": "https://www.republique-numerique.fr/consultations/projet-de-loi-numerique/consultation/consultation/opinions/section-1-recommande-electronique"
      },
      "user_vote": null,
      "has_user_reported": false
    },
    "sources_count": 0,
    "arguments_count": 1,
    "votes": [
      {
        "user": {
          "username": "Paul",
          "displayName": "Paul",
          "uniqueId": "paul",
          "isAdmin": false,
          "media": null,
          "vip": false,
          "_links": {
            "profile": "https://www.republique-numerique.fr/profile/paul",
            "settings": "https://www.republique-numerique.fr/profile/edit-profile"
          }
        },
        "value": 1
      },
      {
        "user": {
          "username": "Olivier SERY",
          "displayName": "Olivier SERY",
          "uniqueId": "oliviersery",
          "isAdmin": false,
          "media": null,
          "vip": false,
          "_links": {
            "profile": "https://www.republique-numerique.fr/profile/oliviersery",
            "settings": "https://www.republique-numerique.fr/profile/edit-profile"
          }
        },
        "value": 1
      },
      {
        "user": {
          "username": "Vincent Reverdy",
          "displayName": "Vincent Reverdy",
          "uniqueId": "vincentreverdy",
          "isAdmin": false,
          "media": {
            "url": "/media/cache/default_avatar/default/0001/01/268_default_avatar.jpg"
          },
          "vip": false,
          "_links": {
            "profile": "https://www.republique-numerique.fr/profile/vincentreverdy",
            "settings": "https://www.republique-numerique.fr/profile/edit-profile"
          }
        },
        "value": 1
      },
      {
        "user": {
          "username": "Roux",
          "displayName": "Roux",
          "uniqueId": "roux3",
          "isAdmin": false,
          "media": null,
          "vip": false,
          "_links": {
            "profile": "https://www.republique-numerique.fr/profile/roux3",
            "settings": "https://www.republique-numerique.fr/profile/edit-profile"
          }
        },
        "value": 1
      }
    ],
    "updated_at": "2015-09-26T14:34:31+0200",
    "ranking": 696,
    "is_trashed": false,
    "title": "Seulement en cas de modification de la plateforme",
    "slug": "seulement-en-cas-de-modification-de-la-plateforme",
    "created_at": "2015-09-26T14:34:31+0200",
    "votes_nok": 0,
    "votes_ok": 4,
    "votes_mitige": 0,
    "_links": {
      "show": "https://www.republique-numerique.fr/consultations/projet-de-loi-numerique/consultation/consultation/opinions/section-1-recommande-electronique/article-26bis-portage-de-la-plateforme-contribuez-republique-numerique-fr-a-d-autre-projet-de-loi/versions/seulement-en-cas-de-modification-de-la-plateforme",
      "report": "https://www.republique-numerique.fr/consultations/projet-de-loi-numerique/consultation/consultation/opinions/section-1-recommande-electronique/article-26bis-portage-de-la-plateforme-contribuez-republique-numerique-fr-a-d-autre-projet-de-loi/versions/seulement-en-cas-de-modification-de-la-plateforme/report"
    },
    "user_vote": null,
    "has_user_reported": false
  },
  "rankingThreshold": null,
  "opinionTerm": 1
}