{
  "version": {
    "isContribuable": false,
    "votes_total": 2,
    "arguments_yes_count": 0,
    "arguments_no_count": 0,
    "id": 814,
    "body": "<p>L&rsquo;article L.&nbsp;32-3 du code des postes et des communications &eacute;lectroniques est ainsi modifi&eacute;&nbsp;:</p>\n\n<p>1&deg; Au d&eacute;but du premier alin&eacute;a, est ajout&eacute;e la mention : &laquo; I. &ndash; &raquo; ;</p>\n\n<p>2&deg; Sont ajout&eacute;s cinq alin&eacute;as ainsi r&eacute;dig&eacute;s&nbsp;:</p>\n\n<p>&laquo;&nbsp;II. &ndash; Les &eacute;diteurs de services de communication au public en ligne permettant aux utilisateurs de ces services d&rsquo;&eacute;changer des correspondances sont tenus de respecter le secret de celles-ci. Le secret couvre le contenu de la correspondance en ligne, l&rsquo;en-t&ecirc;te du message ainsi que les documents joints &agrave; la correspondance, le cas &eacute;ch&eacute;ant.</p>\n\n<p>&laquo;&nbsp;Tout traitement automatis&eacute; d&rsquo;analyse du contenu de la correspondance en ligne ou des documents joints &agrave; celle-ci constitue une atteinte au secret des correspondances, sauf lorsque ce traitement a pour fonction l&rsquo;affichage, le tri ou l&rsquo;acheminement de ces correspondances, ou la d&eacute;tection de contenus non sollicit&eacute;s ou malveillants.</p>\n\n<p>&laquo;&nbsp;L&rsquo;&eacute;diteur prend les mesures n&eacute;cessaires pour garantir le secret et l&rsquo;int&eacute;grit&eacute; des correspondances &eacute;chang&eacute;es par l&rsquo;interm&eacute;diaire de ses services. Ainsi l&#39;&eacute;dtieur devra utiliser une m&eacute;thode de chiffrement pour pouvoir communiquer et de pouvoir changer r&eacute;guli&egrave;rement les m&eacute;thodes de s&eacute;curisation.</p>\n\n<p>&laquo;&nbsp;III. &ndash; Les infractions aux dispositions du pr&eacute;sent article sont sanctionn&eacute;es des peines pr&eacute;vues aux articles 226-1, 226-2, 226-3 et 226-15 du code p&eacute;nal.</p>\n\n<p>&laquo;&nbsp;Les op&eacute;rateurs et les &eacute;diteurs mentionn&eacute;s au II sont tenus de porter &agrave; la connaissance de leur personnel les peines encourues au titre du pr&eacute;sent article.&nbsp;&raquo;</p>",
    "comment": null,
    "author": {
      "username": "ced beg",
      "displayName": "ced beg",
      "uniqueId": "cedbeg",
      "isAdmin": false,
      "media": null,
      "vip": false,
      "_links": {
        "profile": "https://www.republique-numerique.fr/profile/cedbeg",
        "settings": "https://www.republique-numerique.fr/profile/edit-profile"
      }
    },
    "arguments": [],
    "sources": [],
    "parent": {
      "isContribuable": false,
      "id": 82,
      "body": "<p>L&rsquo;article L.&nbsp;32-3 du code des postes et des communications &eacute;lectroniques est ainsi modifi&eacute;&nbsp;:</p>\r\n\r\n<p>1&deg; Au d&eacute;but du premier alin&eacute;a, est ajout&eacute;e la mention : &laquo; I. &ndash; &raquo; ;</p>\r\n\r\n<p>2&deg; Sont ajout&eacute;s cinq alin&eacute;as ainsi r&eacute;dig&eacute;s&nbsp;:</p>\r\n\r\n<p>&laquo;&nbsp;II. &ndash; Les &eacute;diteurs de services de communication au public en ligne permettant aux utilisateurs de ces services d&rsquo;&eacute;changer des correspondances sont tenus de respecter le secret de celles-ci. Le secret couvre le contenu de la correspondance en ligne, l&rsquo;en-t&ecirc;te du message ainsi que les documents joints &agrave; la correspondance, le cas &eacute;ch&eacute;ant.</p>\r\n\r\n<p>&laquo;&nbsp;Tout traitement automatis&eacute; d&rsquo;analyse du contenu de la correspondance en ligne ou des documents joints &agrave; celle-ci constitue une atteinte au secret des correspondances, sauf lorsque ce traitement a pour fonction l&rsquo;affichage, le tri ou l&rsquo;acheminement de ces correspondances, ou la d&eacute;tection de contenus non sollicit&eacute;s ou malveillants.</p>\r\n\r\n<p>&laquo;&nbsp;L&rsquo;&eacute;diteur prend les mesures n&eacute;cessaires pour garantir le secret et l&rsquo;int&eacute;grit&eacute; des correspondances &eacute;chang&eacute;es par l&rsquo;interm&eacute;diaire de ses services.</p>\r\n\r\n<p>&laquo;&nbsp;III. &ndash; Les infractions aux dispositions du pr&eacute;sent article sont sanctionn&eacute;es des peines pr&eacute;vues aux articles 226-1, 226-2, 226-3 et 226-15 du code p&eacute;nal.</p>\r\n\r\n<p>&laquo;&nbsp;Les op&eacute;rateurs et les &eacute;diteurs mentionn&eacute;s au II sont tenus de porter &agrave; la connaissance de leur personnel les peines encourues au titre du pr&eacute;sent article.&nbsp;&raquo;</p>",
      "type": {
        "id": 100,
        "title": "Section 2",
        "subtitle": "Confidentialité des correspondances privées",
        "voteWidgetType": 2,
        "votesHelpText": "Pensez-vous que cette proposition permet d'atteindre les objectifs présentés dans l’explication de l’article ?",
        "commentSystem": 2,
        "color": "blue",
        "versionable": true,
        "sourceable": true,
        "votesThreshold": null,
        "votesThresholdHelpText": null
      },
      "modals": [
        {
          "key": "article L. 32-3",
          "before": "<p>Les opérateurs, ainsi que les membres de leur personnel, sont tenus de respecter le secret des correspondances.</p>",
          "after": "<p>I. Les opérateurs, ainsi que les membres de leur personnel, sont tenus de respecter le secret des correspondances.</p><p>II. – Les éditeurs de services de communication au public en ligne permettant aux utilisateurs de ces services d’échanger des correspondances sont tenus de respecter le secret de celles-ci. Le secret couvre le contenu de la correspondance en ligne, l’en-tête du message ainsi que les documents joints à la correspondance, le cas échéant.</p><p>Tout traitement automatisé d’analyse du contenu de la correspondance en ligne ou des documents joints à celle-ci constitue une atteinte au secret des correspondances, sauf lorsque ce traitement a pour fonction l’affichage, le tri ou l’acheminement de ces correspondances, ou la détection de contenus non sollicités ou malveillants.</p><p>L’éditeur prend les mesures nécessaires pour garantir le secret et l’intégrité des correspondances échangées par l’intermédiaire de ses services.</p><p>III. – Les infractions aux dispositions du présent article sont sanctionnées des peines prévues aux articles 226-1, 226-2, 226-3 et 226-15 du code pénal.</p><p>Les opérateurs et les éditeurs mentionnés au II sont tenus de porter à la connaissance de leur personnel les peines encourues au titre du présent article. »</p>",
          "title": "Article L32-3 du code des postes et des communications électroniques"
        }
      ],
      "appendices": [
        {
          "body": "<p><strong>Objectif :</strong> Renforcer le secret des correspondances priv&eacute;es</p>\r\n\r\n<p><strong>Explications :</strong> Cet article est destin&eacute; &agrave; rappeler et renforcer le respect du principe du secret des correspondances priv&eacute;es. Contrairement aux services de t&eacute;l&eacute;phonie ou de SMS, de nombreux services en ligne (services de t&eacute;l&eacute;phonie sur IP, r&eacute;seaux sociaux, services de messagerie en ligne, courrier &eacute;lectronique etc.) analysent le contenu des messages pour commercialiser des offres.<br />\r\nCes pratiques doivent &ecirc;tre encadr&eacute;es pour pr&eacute;server la confiance des utilisateurs dans ces services Cet article r&eacute;affirme donc le principe essentiel du secret des correspondances en pr&eacute;cisant l&rsquo;application aux correspondances num&eacute;riques. L&rsquo;article pr&eacute;cise les cas limit&eacute;s o&ugrave; des traitements automatis&eacute;s peuvent analyser le contenu des correspondances (affichage, tri, acheminement, anti-spam, anti-virus).</p>\r\n\r\n<p><strong>Exemple :</strong> Certains services de correspondance priv&eacute;e en ligne offerts aux usagers ne pourront plus dor&eacute;navant examiner automatiquement le contenu des correspondances pour des fins commerciales.</p>",
          "type": {
            "title": "Explication de l'article"
          }
        }
      ],
      "title": "Article 22 - Secret des correspondances numériques",
      "_links": {
        "show": "https://www.republique-numerique.fr/consultations/projet-de-loi-numerique/consultation/consultation/opinions/section-2-confidentialite-des-correspondances-privees/article-22-respect-des-correspondances-privees-numeriques",
        "edit": "https://www.republique-numerique.fr/consultations/projet-de-loi-numerique/consultation/consultation/opinions/section-2-confidentialite-des-correspondances-privees/article-22-respect-des-correspondances-privees-numeriques/edit",
        "report": "https://www.republique-numerique.fr/consultations/projet-de-loi-numerique/consultation/consultation/opinions/section-2-confidentialite-des-correspondances-privees/article-22-respect-des-correspondances-privees-numeriques/report",
        "type": "https://www.republique-numerique.fr/consultations/projet-de-loi-numerique/consultation/consultation/opinions/section-2-confidentialite-des-correspondances-privees"
      },
      "user_vote": null,
      "has_user_reported": false
    },
    "sources_count": 0,
    "arguments_count": 0,
    "votes": [
      {
        "user": {
          "username": "Vincent Reverdy",
          "displayName": "Vincent Reverdy",
          "uniqueId": "vincentreverdy",
          "isAdmin": false,
          "media": {
            "url": "/media/cache/default_avatar/default/0001/01/268_default_avatar.jpg"
          },
          "vip": false,
          "_links": {
            "profile": "https://www.republique-numerique.fr/profile/vincentreverdy",
            "settings": "https://www.republique-numerique.fr/profile/edit-profile"
          }
        },
        "value": 1
      },
      {
        "user": {
          "username": "Jérôme",
          "displayName": "Jérôme",
          "uniqueId": "jerome",
          "isAdmin": false,
          "media": null,
          "vip": false,
          "_links": {
            "profile": "https://www.republique-numerique.fr/profile/jerome",
            "settings": "https://www.republique-numerique.fr/profile/edit-profile"
          }
        },
        "value": 0
      }
    ],
    "updated_at": "2015-10-12T10:20:43+0200",
    "ranking": 1028,
    "is_trashed": false,
    "title": "Secret des correspondances numériques",
    "slug": "secret-des-correspondances-numeriques",
    "created_at": "2015-10-12T10:20:43+0200",
    "votes_nok": 0,
    "votes_ok": 1,
    "votes_mitige": 1,
    "_links": {
      "show": "https://www.republique-numerique.fr/consultations/projet-de-loi-numerique/consultation/consultation/opinions/section-2-confidentialite-des-correspondances-privees/article-22-respect-des-correspondances-privees-numeriques/versions/secret-des-correspondances-numeriques",
      "report": "https://www.republique-numerique.fr/consultations/projet-de-loi-numerique/consultation/consultation/opinions/section-2-confidentialite-des-correspondances-privees/article-22-respect-des-correspondances-privees-numeriques/versions/secret-des-correspondances-numeriques/report"
    },
    "user_vote": null,
    "has_user_reported": false
  },
  "rankingThreshold": null,
  "opinionTerm": 1
}