{
  "version": {
    "isContribuable": false,
    "votes_total": 1,
    "arguments_yes_count": 0,
    "arguments_no_count": 0,
    "id": 1259,
    "body": "<p>Face &agrave; la d&eacute;fiance et &agrave; la crise de confiance vis &agrave; vis des Institutions, L&#39;enjeu, c&#39;est de permettre aux individus de r&eacute;cup&eacute;rer, produire, exploiter et partager leurs propres donn&eacute;es pour en faire ce qui a du sens pour eux. Cr&eacute;er pour cela avec France-connect une base de donn&eacute;es o&ugrave; figurent tous les sites &agrave; qui on a donn&eacute; des donn&eacute;es afin de pouvoir les consulter, modifier, retirer. Le tout sous contr&ocirc;le de la CNIL.</p>",
    "comment": "<a _src=\"http://etatplateforme.modernisation.gouv.fr/actualite/france-connect-une-clef-de-voute-pour-letat-plateforme\" class=\"external-link\" href=\"http://etatplateforme.modernisation.gouv.fr/actualite/france-connect-une-clef-de-voute-pour-letat-plateforme\">http://etatplateforme.modernisation.gouv.fr/actualite/france-connect-une-clef-de-voute-pour-letat-plateforme</a>&nbsp; France-connect nous fera un pass pour nous identifier sur les sites. Ils pourraient r&eacute;cup&eacute;rer les adresses de ces sites afin qu&#39;on puisse, si on a envie, de r&eacute;cup&eacute;rer, modifier, supprimer nos donn&eacute;es comme c&#39;est oblig&eacute; par la CNIL.",
    "author": {
      "username": "Jeanne Varasco",
      "displayName": "Jeanne Varasco",
      "uniqueId": "jeannevarasco",
      "isAdmin": false,
      "media": {
        "url": "/media/cache/default_avatar/default/0001/01/139_default_avatar.jpg"
      },
      "vip": false,
      "_links": {
        "profile": "https://www.republique-numerique.fr/profile/jeannevarasco",
        "settings": "https://www.republique-numerique.fr/profile/edit-profile"
      }
    },
    "arguments": [],
    "sources": [],
    "parent": {
      "isContribuable": false,
      "id": 645,
      "body": "<p>Face &agrave; la d&eacute;fiance et &agrave; la crise de confiance vis &agrave; vis des Institutions, L&#39;enjeu, c&#39;est de permettre aux individus de r&eacute;cup&eacute;rer, produire, exploiter et partager leurs propres donn&eacute;es pour en faire ce qui a du sens pour eux.</p>",
      "type": {
        "id": 86,
        "title": "Section 1",
        "subtitle": "Ouverture des données publiques",
        "voteWidgetType": 2,
        "votesHelpText": "Pensez-vous que cette proposition permet d'atteindre les objectifs présentés dans l’explication de l’article ?",
        "commentSystem": 2,
        "color": "blue",
        "versionable": true,
        "sourceable": true,
        "votesThreshold": null,
        "votesThresholdHelpText": null
      },
      "modals": [],
      "appendices": [
        {
          "body": null,
          "type": {
            "title": "Explication de l'article"
          }
        }
      ],
      "title": "le retour des données personnelles aux individus et citoyens",
      "_links": {
        "show": "https://www.republique-numerique.fr/consultations/projet-de-loi-numerique/consultation/consultation/opinions/section-1-ouverture-des-donnees-publiques-1/le-retour-des-donnees-personnelles-aux-individus-et-citoyens",
        "edit": "https://www.republique-numerique.fr/consultations/projet-de-loi-numerique/consultation/consultation/opinions/section-1-ouverture-des-donnees-publiques-1/le-retour-des-donnees-personnelles-aux-individus-et-citoyens/edit",
        "report": "https://www.republique-numerique.fr/consultations/projet-de-loi-numerique/consultation/consultation/opinions/section-1-ouverture-des-donnees-publiques-1/le-retour-des-donnees-personnelles-aux-individus-et-citoyens/report",
        "type": "https://www.republique-numerique.fr/consultations/projet-de-loi-numerique/consultation/consultation/opinions/section-1-ouverture-des-donnees-publiques-1"
      },
      "user_vote": null,
      "has_user_reported": false
    },
    "sources_count": 0,
    "arguments_count": 0,
    "votes": [
      {
        "user": {
          "username": "Jeanne Varasco",
          "displayName": "Jeanne Varasco",
          "uniqueId": "jeannevarasco",
          "isAdmin": false,
          "media": {
            "url": "/media/cache/default_avatar/default/0001/01/139_default_avatar.jpg"
          },
          "vip": false,
          "_links": {
            "profile": "https://www.republique-numerique.fr/profile/jeannevarasco",
            "settings": "https://www.republique-numerique.fr/profile/edit-profile"
          }
        },
        "value": 1
      }
    ],
    "updated_at": "2015-10-16T23:11:50+0200",
    "ranking": 1028,
    "is_trashed": false,
    "title": "Avec France-connect",
    "slug": "avec-france-connect",
    "created_at": "2015-10-16T23:11:50+0200",
    "votes_nok": 0,
    "votes_ok": 1,
    "votes_mitige": 0,
    "_links": {
      "show": "https://www.republique-numerique.fr/consultations/projet-de-loi-numerique/consultation/consultation/opinions/section-1-ouverture-des-donnees-publiques-1/le-retour-des-donnees-personnelles-aux-individus-et-citoyens/versions/avec-france-connect",
      "report": "https://www.republique-numerique.fr/consultations/projet-de-loi-numerique/consultation/consultation/opinions/section-1-ouverture-des-donnees-publiques-1/le-retour-des-donnees-personnelles-aux-individus-et-citoyens/versions/avec-france-connect/report"
    },
    "user_vote": null,
    "has_user_reported": false
  },
  "rankingThreshold": null,
  "opinionTerm": 1
}