{
  "version": {
    "isContribuable": false,
    "votes_total": 25,
    "arguments_yes_count": 0,
    "arguments_no_count": 1,
    "id": 987,
    "body": "<p>L&#39;article L.122-5 du code de la propri&eacute;t&eacute; intellectuelle est ainsi modifi&eacute; :</p>\n\n<p>Apr&egrave;s le dix-neuvi&egrave;me alin&eacute;a, il est ins&eacute;r&eacute; un alin&eacute;a ainsi r&eacute;dig&eacute; :</p>\n\n<p>10&deg;) Les reproductions et repr&eacute;sentation des oeuvres architecturales et des sculptures, r&eacute;alis&eacute;es pour &ecirc;tre plac&eacute;es en permanence dans des lieux publics.</p>\n\n<p>si et seulement si , c&#39;est pour un usage personnel et/ou&nbsp;&nbsp;non lucratif, &agrave; l&#39;exception des&nbsp;&nbsp;campagnes&nbsp;de communication des marques et entreprises , dans la mesure ou l&#39;usage de l&#39;image de l&#39;artiste et/ou de l&#39;&oelig;uvre&nbsp;qui pourrait ainsi &ecirc;tre exploit&eacute;, deviendraient&nbsp;n&eacute;cessairement indirectement&nbsp;&nbsp; lucrative .</p>\n\n<p>si c&#39;est une institution publique ou une association &nbsp;qui veut faire usage de l&#39;image en question &nbsp;, elle en aura l&#39;autorisation &nbsp;, si et seulement si l&#39;auteur de l&#39;&oelig;uvre en question est mentionn&eacute; dans les documents produits.</p>\n\n<p>Si c&#39;est une association &agrave; but non lucratif &nbsp;et pas une institution publique, il sera de plus n&eacute;cessaire de demander l&#39;autorisation de l&#39;artiste.</p>\n\n<p>( &agrave; l&#39;exception ,pour ce derni&egrave;re point, des ayants droits si ce dernier est d&eacute;c&eacute;d&eacute;, il ne sera en effet pas n&eacute;cessaire de les consulter si l&#39;exploitation est non lucrative&nbsp;&nbsp;)&nbsp;</p>",
    "comment": "<p>De nombreuses firmes et communiants pay&eacute;s et li&eacute;s &agrave; ces m&ecirc;me firmes seraient susceptible d&#39;exploiter ces failles du droit d&#39;auteur , &agrave; des buts lucratifs ou de d&eacute;tournement de l&#39;image de l&#39;&oelig;uvre &nbsp;ou de l&#39;artiste et de sa notori&eacute;t&eacute; .</p>\n\n<p>Dans le monde d&#39;aujourd&#39;hui , ou la redistribution des richesses n&#39;est pas toujours &eacute;quitables et ou la puissance financi&egrave;re et id&eacute;ologique&nbsp;&nbsp;de certaines entreprises ou de certaines entreprises de communications est sans commune mesure avec la force ou le droit &agrave; l&#39;image et financier de la plupart des artistes.</p>\n\n<p>Il n&#39;est ni souhaitable ni admissible d&#39;agrandir l&#39;affaiblissement des droits des cr&eacute;ateurs sur ce point pr&eacute;cis .</p>\n\n<p>en revanche il est certain qu&#39;il est absurde d&#39;emp&ecirc;cher l&#39;usage personnel ou non lucratif ou informationnel des ces images , m&ecirc;me s&#39;il est n&eacute;cessaire de prot&eacute;ger le droit &agrave; la propri&eacute;t&eacute; intellectuelle et d&#39;usage de l&#39;&oelig;uvre de l&#39;esprit afin que ces derniers ne soit pas d&eacute;tourn&eacute;s.</p>\n\n<p>il est simplement n&eacute;cessaire de prot&eacute;ger les droits &eacute;conomiques et &agrave; la subsistance des cr&eacute;ateurs ainsi que le droit &agrave; la limitation de l&#39;&nbsp;exploitation et du d&eacute;tournement du sens d&#39;une oeuvre&nbsp;dans la mesure ou ces&nbsp;droits sont d&eacute;j&agrave; la plupart du temps tr&egrave;s fragiles.</p>",
    "author": {
      "username": "Lamm",
      "displayName": "Lamm",
      "uniqueId": "lamm",
      "isAdmin": false,
      "media": null,
      "vip": false,
      "_links": {
        "profile": "https://www.republique-numerique.fr/profile/lamm",
        "settings": "https://www.republique-numerique.fr/profile/edit-profile"
      }
    },
    "arguments": [
      {
        "isContribuable": false,
        "id": 5691,
        "body": "La notion d'usage non lucratif n'est pas précisée. Est-ce que si je mets une photo sur mon site Web et que mon hébergeur rajoute une bannière publicitaire dessus, c'est de l'usage lucratif?\n\nPar ailleurs, le droit moral d'attribution des œuvres aux auteurs existe déjà dans la loi, inutile de le remettre une deuxième fois.",
        "created_at": "2015-10-18T10:03:16+0200",
        "updated_at": "2015-10-18T10:03:16+0200",
        "is_enabled": true,
        "votes_count": 1,
        "type": 0,
        "is_trashed": false,
        "author": {
          "username": "David Monniaux",
          "displayName": "David Monniaux",
          "uniqueId": "davidmonniaux",
          "isAdmin": false,
          "media": null,
          "vip": false,
          "_links": {
            "profile": "https://www.republique-numerique.fr/profile/davidmonniaux",
            "settings": "https://www.republique-numerique.fr/profile/edit-profile"
          }
        },
        "_links": {
          "show": "https://www.republique-numerique.fr/consultations/projet-de-loi-numerique/consultation/consultation/opinions/section-1-les-communs/instaurer-la-liberte-de-panorama-en-france/versions/droit-de-reproductions-et-de-diffusions-a-but-non-lucratifs-et-exempts-d-exploitation-commerciale-ou-a-des-fins-de-la-communication-de-firmes-ou-d-entreprise#arg-5691",
          "edit": "https://www.republique-numerique.fr/consultations/projet-de-loi-numerique/consultation/consultation/opinions/section-1-les-communs/instaurer-la-liberte-de-panorama-en-france/arguments/5691/edit",
          "report": "https://www.republique-numerique.fr/consultations/projet-de-loi-numerique/consultation/consultation/opinions/section-1-les-communs/instaurer-la-liberte-de-panorama-en-france/arguments/5691/report"
        },
        "has_user_voted": false,
        "has_user_reported": false
      }
    ],
    "sources": [],
    "parent": {
      "isContribuable": false,
      "id": 265,
      "body": "<p>L&#39;article L.122-5 du code de la propri&eacute;t&eacute; intellectuelle est ainsi modifi&eacute; :</p>\r\n\r\n<p>Apr&egrave;s le dix-neuvi&egrave;me alin&eacute;a, il est ins&eacute;r&eacute; un alin&eacute;a ainsi r&eacute;dig&eacute; :</p>\r\n\r\n<p>10&deg;) Les reproductions et repr&eacute;sentation des oeuvres architecturales et des sculptures, r&eacute;alis&eacute;es pour &ecirc;tre plac&eacute;es en permanence dans des lieux publics.</p>",
      "type": {
        "id": 90,
        "title": "Section 1",
        "subtitle": "Les Communs",
        "voteWidgetType": 2,
        "votesHelpText": "Pensez-vous que cette proposition permet d'atteindre les objectifs présentés dans l’explication de l’article ?",
        "commentSystem": 2,
        "color": "blue",
        "versionable": true,
        "sourceable": true,
        "votesThreshold": null,
        "votesThresholdHelpText": null
      },
      "modals": [],
      "appendices": [
        {
          "body": "<p>La libert&eacute; de panorama est la libert&eacute; de diffuser des images de b&acirc;timents et d&rsquo;&oelig;uvres d&#39;art qui ne sont pas encore tomb&eacute;s dans le domaine public, et que l&#39;on peut observer depuis des lieux publics. Cette libert&eacute; autorise, par exemple, les familles &agrave; publier des photos de vacances sur Internet m&ecirc;me lorsque se trouve au centre de l&#39;image un b&acirc;timent ou une sculpture r&eacute;cents. Elle permet &eacute;galement &agrave; chacun de publier ses propres photos sur des sites comme l&rsquo;encyclop&eacute;die Wikip&eacute;dia afin d&#39;illustrer des articles de celle-ci.</p>\r\n\r\n<p>La plupart des personnes tiennent pour acquis qu&#39;elles sont libres de partager de telles photographies d&egrave;s lors qu&#39;elles les ont prises elles-m&ecirc;mes. Dans plusieurs &Eacute;tats membres de l&rsquo;Union europ&eacute;enne, la diffusion de ces images requiert une autorisation explicite du d&eacute;tenteur des droits d&#39;auteur de l&rsquo;&oelig;uvre repr&eacute;sent&eacute;e. C&rsquo;est le cas de la France &agrave; l&rsquo;heure actuelle.</p>\r\n\r\n<p>Le fait que cette exception n&rsquo;ait pas &eacute;t&eacute; introduite en droit fran&ccedil;ais pose de nombreux probl&egrave;mes car cela emp&ecirc;che le rayonnement du patrimoine fran&ccedil;ais aupr&egrave;s de 3 milliards d&rsquo;internautes. Il nous semble regrettable que la France, &agrave; dessein, ne facilite pas le rayonnement de sa propre culture.</p>\r\n\r\n<p>Sur Wikip&eacute;dia, il est par exemple impossible d&rsquo;illustrer les articles consacr&eacute;s aux architectes contemporains avec des images de leurs r&eacute;alisations situ&eacute;es en France. Aucune photo de la D&eacute;fense, pr&egrave;s de Paris, n&rsquo;est sur la Wikip&eacute;dia francophone, et ce n&rsquo;est qu&rsquo;en 2013, au moment o&ugrave; l&rsquo;&oelig;uvre de Hector Guimard est entr&eacute;e dans le domaine public, que des images de bouches de m&eacute;tro parisiennes ont pu &ecirc;tre publi&eacute;es. Cette situation ne profite &agrave; personne, et certainement pas aux architectes, dont l&rsquo;&oelig;uvre ne peut pas &ecirc;tre mise en valeur.</p>\r\n\r\n<p>Ainsi il est souhaitable que toute reproduction int&eacute;grale ou partielle, faite sans le consentement de l&#39;auteur ou de ses ayants droit ou ayants cause devienne l&eacute;gale pour les &oelig;uvres architecturales, sculptures et &oelig;uvres d&rsquo;art permanentes plac&eacute;es dans des lieux accessibles par le public. Elles constituent donc une grande partie patrimoine culturel fran&ccedil;ais, &agrave; plus forte raison dans le cas de b&acirc;timents pay&eacute;s sur des fonds publics, qu&rsquo;il s&rsquo;agisse de la biblioth&egrave;que Fran&ccedil;ois-Mitterrand ou du Stade de France.</p>\r\n\r\n<p>&nbsp;</p>",
          "type": {
            "title": "Explication de l'article"
          }
        }
      ],
      "title": "Instaurer la liberté de panorama en France",
      "_links": {
        "show": "https://www.republique-numerique.fr/consultations/projet-de-loi-numerique/consultation/consultation/opinions/section-1-les-communs/instaurer-la-liberte-de-panorama-en-france",
        "edit": "https://www.republique-numerique.fr/consultations/projet-de-loi-numerique/consultation/consultation/opinions/section-1-les-communs/instaurer-la-liberte-de-panorama-en-france/edit",
        "report": "https://www.republique-numerique.fr/consultations/projet-de-loi-numerique/consultation/consultation/opinions/section-1-les-communs/instaurer-la-liberte-de-panorama-en-france/report",
        "type": "https://www.republique-numerique.fr/consultations/projet-de-loi-numerique/consultation/consultation/opinions/section-1-les-communs"
      },
      "user_vote": null,
      "has_user_reported": false
    },
    "sources_count": 0,
    "arguments_count": 1,
    "votes": [
      {
        "user": {
          "username": "Pierre-Julien Fieux",
          "displayName": "Pierre-Julien Fieux",
          "uniqueId": "pierrejulienfieux",
          "isAdmin": false,
          "media": null,
          "vip": false,
          "_links": {
            "profile": "https://www.republique-numerique.fr/profile/pierrejulienfieux",
            "settings": "https://www.republique-numerique.fr/profile/edit-profile"
          }
        },
        "value": 1
      },
      {
        "user": {
          "username": "Annick Blanchard",
          "displayName": "Annick Blanchard",
          "uniqueId": "annickblanchard",
          "isAdmin": false,
          "media": null,
          "vip": false,
          "_links": {
            "profile": "https://www.republique-numerique.fr/profile/annickblanchard",
            "settings": "https://www.republique-numerique.fr/profile/edit-profile"
          }
        },
        "value": 1
      },
      {
        "user": {
          "username": "Maltese Nadine",
          "displayName": "Maltese Nadine",
          "uniqueId": "maltesenadine",
          "isAdmin": false,
          "media": {
            "url": "/media/cache/default_avatar/default/0001/01/113_default_avatar.png"
          },
          "vip": false,
          "_links": {
            "profile": "https://www.republique-numerique.fr/profile/maltesenadine",
            "settings": "https://www.republique-numerique.fr/profile/edit-profile"
          }
        },
        "value": 1
      },
      {
        "user": {
          "username": "Ozmoze Land",
          "displayName": "Ozmoze Land",
          "uniqueId": "ozmozeland",
          "isAdmin": false,
          "media": null,
          "vip": false,
          "_links": {
            "profile": "https://www.republique-numerique.fr/profile/ozmozeland",
            "settings": "https://www.republique-numerique.fr/profile/edit-profile"
          }
        },
        "value": 1
      },
      {
        "user": {
          "username": "loubet",
          "displayName": "loubet",
          "uniqueId": "loubet",
          "isAdmin": false,
          "media": null,
          "vip": false,
          "_links": {
            "profile": "https://www.republique-numerique.fr/profile/loubet",
            "settings": "https://www.republique-numerique.fr/profile/edit-profile"
          }
        },
        "value": 1
      }
    ],
    "updated_at": "2015-10-14T19:00:22+0200",
    "ranking": 253,
    "is_trashed": false,
    "title": "Droit de reproductions et de diffusions à but non lucratifs et exempts d'exploitation commerciale ou à des fins de la communication de firmes ou d'entreprise",
    "slug": "droit-de-reproductions-et-de-diffusions-a-but-non-lucratifs-et-exempts-d-exploitation-commerciale-ou-a-des-fins-de-la-communication-de-firmes-ou-d-entreprise",
    "created_at": "2015-10-14T19:00:22+0200",
    "votes_nok": 6,
    "votes_ok": 18,
    "votes_mitige": 1,
    "_links": {
      "show": "https://www.republique-numerique.fr/consultations/projet-de-loi-numerique/consultation/consultation/opinions/section-1-les-communs/instaurer-la-liberte-de-panorama-en-france/versions/droit-de-reproductions-et-de-diffusions-a-but-non-lucratifs-et-exempts-d-exploitation-commerciale-ou-a-des-fins-de-la-communication-de-firmes-ou-d-entreprise",
      "report": "https://www.republique-numerique.fr/consultations/projet-de-loi-numerique/consultation/consultation/opinions/section-1-les-communs/instaurer-la-liberte-de-panorama-en-france/versions/droit-de-reproductions-et-de-diffusions-a-but-non-lucratifs-et-exempts-d-exploitation-commerciale-ou-a-des-fins-de-la-communication-de-firmes-ou-d-entreprise/report"
    },
    "user_vote": null,
    "has_user_reported": false
  },
  "rankingThreshold": null,
  "opinionTerm": 1
}