{
  "version": {
    "isContribuable": false,
    "votes_total": 257,
    "arguments_yes_count": 3,
    "arguments_no_count": 9,
    "id": 806,
    "body": "<p>L&#39;article L.122-5 du code de la propri&eacute;t&eacute; intellectuelle est ainsi modifi&eacute; :</p>\n\n<p>Apr&egrave;s le dix-neuvi&egrave;me alin&eacute;a, il est ins&eacute;r&eacute; un alin&eacute;a ainsi r&eacute;dig&eacute; :</p>\n\n<p>10&deg;) Les reproductions et repr&eacute;sentation&nbsp; &agrave; usage non commercial et partage dans les memes conditions (Licence CC BY-NC-SA 3.0 FR) des oeuvres architecturales et des sculptures, r&eacute;alis&eacute;es pour &ecirc;tre plac&eacute;es en permanence dans des lieux publics.</p>",
    "comment": "<p>Il est fort regrettable que nous ne puissions montrer la France d&#39;aujourd&#39;hui , la licence Creativecommons CC BY-NC-SA 3.0 FR pourrait etre la licence a choisir pour les photos illustrant les pages des sculptures, batiment sur les plateformes educatives ou encyclopedique, telle Wikipedia.</p>\n\n<p>Attribution - Pas d&rsquo;Utilisation Commerciale - Partage dans les M&ecirc;mes Conditions 3.0 France<br />\nhttp://creativecommons.org/licenses/by-nc-sa/3.0/fr/</p>",
    "author": {
      "username": "Maltese Nadine",
      "displayName": "Maltese Nadine",
      "uniqueId": "maltesenadine",
      "isAdmin": false,
      "media": {
        "url": "/media/cache/default_avatar/default/0001/01/113_default_avatar.png"
      },
      "vip": false,
      "_links": {
        "profile": "https://www.republique-numerique.fr/profile/maltesenadine",
        "settings": "https://www.republique-numerique.fr/profile/edit-profile"
      }
    },
    "arguments": [
      {
        "isContribuable": false,
        "id": 3338,
        "body": "La licence de la photo en elle même doit rester libre (donc éventuellement privatrice). Cela n'empèchera pas d'autres diffusion sous licence CC-BY-SA ou autre.",
        "created_at": "2015-10-12T17:14:20+0200",
        "updated_at": "2015-10-12T17:14:20+0200",
        "is_enabled": true,
        "votes_count": 3,
        "type": 0,
        "is_trashed": false,
        "author": {
          "username": "Denis Chenu",
          "displayName": "Denis Chenu",
          "uniqueId": "denischenu",
          "isAdmin": false,
          "media": null,
          "vip": false,
          "_links": {
            "profile": "https://www.republique-numerique.fr/profile/denischenu",
            "settings": "https://www.republique-numerique.fr/profile/edit-profile"
          }
        },
        "_links": {
          "show": "https://www.republique-numerique.fr/consultations/projet-de-loi-numerique/consultation/consultation/opinions/section-1-les-communs/instaurer-la-liberte-de-panorama-en-france/versions/liberte-de-panorama-sous-licence-cc-by-nc-sa-3-0-fr#arg-3338",
          "edit": "https://www.republique-numerique.fr/consultations/projet-de-loi-numerique/consultation/consultation/opinions/section-1-les-communs/instaurer-la-liberte-de-panorama-en-france/arguments/3338/edit",
          "report": "https://www.republique-numerique.fr/consultations/projet-de-loi-numerique/consultation/consultation/opinions/section-1-les-communs/instaurer-la-liberte-de-panorama-en-france/arguments/3338/report"
        },
        "has_user_voted": false,
        "has_user_reported": false
      },
      {
        "isContribuable": false,
        "id": 3360,
        "body": "Une liberté de panorama \"non commerciale\" ne serait pas compatible avec une utilisation dans Wikipedia par exemple.\n\nWikipedia exige des licences libres, et les clauses \"non commerciales\" ne sont pas compatibles avec ces licences.",
        "created_at": "2015-10-12T20:18:31+0200",
        "updated_at": "2015-10-12T20:18:31+0200",
        "is_enabled": true,
        "votes_count": 3,
        "type": 0,
        "is_trashed": false,
        "author": {
          "username": "Guillaume Allègre",
          "displayName": "Guillaume Allègre",
          "uniqueId": "guillaumeallegre1",
          "isAdmin": false,
          "media": null,
          "vip": false,
          "_links": {
            "profile": "https://www.republique-numerique.fr/profile/guillaumeallegre1",
            "settings": "https://www.republique-numerique.fr/profile/edit-profile"
          }
        },
        "_links": {
          "show": "https://www.republique-numerique.fr/consultations/projet-de-loi-numerique/consultation/consultation/opinions/section-1-les-communs/instaurer-la-liberte-de-panorama-en-france/versions/liberte-de-panorama-sous-licence-cc-by-nc-sa-3-0-fr#arg-3360",
          "edit": "https://www.republique-numerique.fr/consultations/projet-de-loi-numerique/consultation/consultation/opinions/section-1-les-communs/instaurer-la-liberte-de-panorama-en-france/arguments/3360/edit",
          "report": "https://www.republique-numerique.fr/consultations/projet-de-loi-numerique/consultation/consultation/opinions/section-1-les-communs/instaurer-la-liberte-de-panorama-en-france/arguments/3360/report"
        },
        "has_user_voted": false,
        "has_user_reported": false
      },
      {
        "isContribuable": false,
        "id": 3436,
        "body": "@Guillaume, Photographe et contributeur sur Wiki depuis pres de 10 ans, je sais que la licence CC BY-NC-SA 3.0 FR n'est pas compatible sur Wikipedia, avec une exception toutefois pour les logos. Aussi je propose cette licence en toute connaissance de cause. Une page dediée à un batiment, une sculpture n'a pas de \"logo\"; Wikipedia Fr n'applique pas les memes regles que la communauté US, en France le libre droit n'existant pas, il pourrait etre envisagé cette licence.",
        "created_at": "2015-10-13T03:17:42+0200",
        "updated_at": "2015-10-13T23:43:35+0200",
        "is_enabled": true,
        "votes_count": 1,
        "type": 0,
        "is_trashed": false,
        "author": {
          "username": "Maltese Nadine",
          "displayName": "Maltese Nadine",
          "uniqueId": "maltesenadine",
          "isAdmin": false,
          "media": {
            "url": "/media/cache/default_avatar/default/0001/01/113_default_avatar.png"
          },
          "vip": false,
          "_links": {
            "profile": "https://www.republique-numerique.fr/profile/maltesenadine",
            "settings": "https://www.republique-numerique.fr/profile/edit-profile"
          }
        },
        "_links": {
          "show": "https://www.republique-numerique.fr/consultations/projet-de-loi-numerique/consultation/consultation/opinions/section-1-les-communs/instaurer-la-liberte-de-panorama-en-france/versions/liberte-de-panorama-sous-licence-cc-by-nc-sa-3-0-fr#arg-3436",
          "edit": "https://www.republique-numerique.fr/consultations/projet-de-loi-numerique/consultation/consultation/opinions/section-1-les-communs/instaurer-la-liberte-de-panorama-en-france/arguments/3436/edit",
          "report": "https://www.republique-numerique.fr/consultations/projet-de-loi-numerique/consultation/consultation/opinions/section-1-les-communs/instaurer-la-liberte-de-panorama-en-france/arguments/3436/report"
        },
        "has_user_voted": false,
        "has_user_reported": false
      },
      {
        "isContribuable": false,
        "id": 3944,
        "body": "Une limitation de la liberté de panorama à un usage non-commercial n’est pas souhaitable car il n’y a pas de définitions strictes de ce qu’est un usage commercial ou non-commercial. Instaurer une telle limitation en présence de cette imprécision viderait la liberté de panorama de son intérêt. Nous nous retrouverions avec une liberté obsolète qui permettrait, en somme, de ne rien faire ou presque avec les photographies d’oeuvres.\n\nPrenons le cas des sites et blogs personnels. Ces pages incluent la plupart du temps des bannières publicitaires, que ce soit par choix du blogueur pour payer son hébergement, avoir un revenu supplémentaire, ou que se soit imposé par l’hébergeur en échange d’un espace d’hébergement “gratuit”. \n\nDans ce cas, il est déjà difficile de cerner le caractère non-commercial ou commercial de l’usage d’une photo présente sur la page. Si nous concevons l’utilisation commerciale comme remplissant un intérêt commercial ou visant une rémunération financière, on en arrive très rapidement à un usage commercial. A quel moment votre site perd-t-il son caractère non-commercial? Quand vous touchez une première rémunération pour publicité? Quand cette rémunération dépasse les simples coûts de gestion et d’hébergement de votre page? \n\nVient ensuite le cas des écoles, musées, et autres institutions non financés entièrement par des fonds publics ou des dons privés et qui dépendent de leurs propres revenus. Un usage commercial leur est nécessaire bien qu’ils remplissent une mission d’intérêt public. \n\nEn outre, l’utilisation de la liberté de panorama sera limitée par peur du risque qu’entraîne cette insécurité juridique...",
        "created_at": "2015-10-14T16:36:54+0200",
        "updated_at": "2015-10-14T16:36:54+0200",
        "is_enabled": true,
        "votes_count": 6,
        "type": 0,
        "is_trashed": false,
        "author": {
          "username": "Wikimédia France",
          "displayName": "Wikimédia France",
          "uniqueId": "wikimediafrance",
          "isAdmin": false,
          "media": {
            "url": "/media/cache/default_avatar/default/0001/01/240_default_avatar.png"
          },
          "vip": false,
          "_links": {
            "profile": "https://www.republique-numerique.fr/profile/wikimediafrance",
            "settings": "https://www.republique-numerique.fr/profile/edit-profile"
          }
        },
        "_links": {
          "show": "https://www.republique-numerique.fr/consultations/projet-de-loi-numerique/consultation/consultation/opinions/section-1-les-communs/instaurer-la-liberte-de-panorama-en-france/versions/liberte-de-panorama-sous-licence-cc-by-nc-sa-3-0-fr#arg-3944",
          "edit": "https://www.republique-numerique.fr/consultations/projet-de-loi-numerique/consultation/consultation/opinions/section-1-les-communs/instaurer-la-liberte-de-panorama-en-france/arguments/3944/edit",
          "report": "https://www.republique-numerique.fr/consultations/projet-de-loi-numerique/consultation/consultation/opinions/section-1-les-communs/instaurer-la-liberte-de-panorama-en-france/arguments/3944/report"
        },
        "has_user_voted": false,
        "has_user_reported": false
      },
      {
        "isContribuable": false,
        "id": 3957,
        "body": "Plumer les auteurs d'arts visuels n'est pas servir le public ! C'est desservir la création. D'ailleurs le \"public\" peut être auteur et les \"auteurs\" sont dans le public. Arrêtons les dichotomies absurdes et le détricotage des droits d'auteurs au profit des diffuseurs commerciaux.  ",
        "created_at": "2015-10-14T17:18:03+0200",
        "updated_at": "2015-10-14T17:18:03+0200",
        "is_enabled": true,
        "votes_count": 13,
        "type": 0,
        "is_trashed": false,
        "author": {
          "username": "katerine louineau",
          "displayName": "katerine louineau",
          "uniqueId": "katerinelouineau",
          "isAdmin": false,
          "media": null,
          "vip": false,
          "_links": {
            "profile": "https://www.republique-numerique.fr/profile/katerinelouineau",
            "settings": "https://www.republique-numerique.fr/profile/edit-profile"
          }
        },
        "_links": {
          "show": "https://www.republique-numerique.fr/consultations/projet-de-loi-numerique/consultation/consultation/opinions/section-1-les-communs/instaurer-la-liberte-de-panorama-en-france/versions/liberte-de-panorama-sous-licence-cc-by-nc-sa-3-0-fr#arg-3957",
          "edit": "https://www.republique-numerique.fr/consultations/projet-de-loi-numerique/consultation/consultation/opinions/section-1-les-communs/instaurer-la-liberte-de-panorama-en-france/arguments/3957/edit",
          "report": "https://www.republique-numerique.fr/consultations/projet-de-loi-numerique/consultation/consultation/opinions/section-1-les-communs/instaurer-la-liberte-de-panorama-en-france/arguments/3957/report"
        },
        "has_user_voted": false,
        "has_user_reported": false
      },
      {
        "isContribuable": false,
        "id": 4117,
        "body": "Ce détricotage systématique sous prétexte de réforme est insupportable. Nous allons vers une paupérisation d'une grande partie de la société au profit de la cupidité d'une poignée de personnes !",
        "created_at": "2015-10-15T09:38:53+0200",
        "updated_at": "2015-10-15T09:38:53+0200",
        "is_enabled": true,
        "votes_count": 2,
        "type": 1,
        "is_trashed": false,
        "author": {
          "username": "Yves OLLIER",
          "displayName": "Yves OLLIER",
          "uniqueId": "yvesollier",
          "isAdmin": false,
          "media": null,
          "vip": false,
          "_links": {
            "profile": "https://www.republique-numerique.fr/profile/yvesollier",
            "settings": "https://www.republique-numerique.fr/profile/edit-profile"
          }
        },
        "_links": {
          "show": "https://www.republique-numerique.fr/consultations/projet-de-loi-numerique/consultation/consultation/opinions/section-1-les-communs/instaurer-la-liberte-de-panorama-en-france/versions/liberte-de-panorama-sous-licence-cc-by-nc-sa-3-0-fr#arg-4117",
          "edit": "https://www.republique-numerique.fr/consultations/projet-de-loi-numerique/consultation/consultation/opinions/section-1-les-communs/instaurer-la-liberte-de-panorama-en-france/arguments/4117/edit",
          "report": "https://www.republique-numerique.fr/consultations/projet-de-loi-numerique/consultation/consultation/opinions/section-1-les-communs/instaurer-la-liberte-de-panorama-en-france/arguments/4117/report"
        },
        "has_user_voted": false,
        "has_user_reported": false
      },
      {
        "isContribuable": false,
        "id": 4138,
        "body": "La précarité des auteurs (pour certains) du secteur créatif et assez importante pour que l'on ne s'attaque pas en plus à la question du droit d'auteur via la diffusion/publication de leur œuvres au profit d'un étalage médiatique via les réseaux sociaux !!\n> Et l'aura de l’œuvre d'art à l'époque de la reproductibilité technique cela ne parle plus à personne??? Diffuser via les médias une œuvre est à priori positif pour l'artiste qui joui alors d'une médiatisation.... cependant cette dernière reste pour le moins subordonnée à la manière dont elle sera traitée (visuel, média utilisé...etc.) en cela il semble que cette prérogative revêt tout son sens au regard de notre société actuelle où  la question de l'image et de la représentation est omniprésente !",
        "created_at": "2015-10-15T11:09:31+0200",
        "updated_at": "2015-10-15T11:09:31+0200",
        "is_enabled": true,
        "votes_count": 6,
        "type": 0,
        "is_trashed": false,
        "author": {
          "username": "congiu amandine",
          "displayName": "congiu amandine",
          "uniqueId": "congiuamandine",
          "isAdmin": false,
          "media": null,
          "vip": false,
          "_links": {
            "profile": "https://www.republique-numerique.fr/profile/congiuamandine",
            "settings": "https://www.republique-numerique.fr/profile/edit-profile"
          }
        },
        "_links": {
          "show": "https://www.republique-numerique.fr/consultations/projet-de-loi-numerique/consultation/consultation/opinions/section-1-les-communs/instaurer-la-liberte-de-panorama-en-france/versions/liberte-de-panorama-sous-licence-cc-by-nc-sa-3-0-fr#arg-4138",
          "edit": "https://www.republique-numerique.fr/consultations/projet-de-loi-numerique/consultation/consultation/opinions/section-1-les-communs/instaurer-la-liberte-de-panorama-en-france/arguments/4138/edit",
          "report": "https://www.republique-numerique.fr/consultations/projet-de-loi-numerique/consultation/consultation/opinions/section-1-les-communs/instaurer-la-liberte-de-panorama-en-france/arguments/4138/report"
        },
        "has_user_voted": false,
        "has_user_reported": false
      },
      {
        "isContribuable": false,
        "id": 4190,
        "body": "La liberté de panorama pour alimenter Wikipédia??? On peut vivre \"sans wiki\", la Terre ne s’arrêtera pas de tourner si ce \"machin\" devient obsolète;\nPuisque les fondateurs de Wiki, Facebook et autres plateformes trouvent de l’intérêt à notre pays, notre production, nos créations-en fait:notre identité-, qu'ils commencent par respecter nos lois \"SANS EXCEPTION\"....!\n Il nous est interdit d'entrer aux États Unis avec un saucisson pur porc bio, ou un camembert au lait cru, pourquoi nous inclinerions nous devant des exigences qui n'ont pas de réciprocité???\nProtectionnisme à outrance d'un côté, et piétinement de nos lois de protection de la création, (et bien d'autres ! ), c'est encore une proposition de marché de dupes,avec la main dans la main, une Europe néo-libérale et les États Unis qui se proposent de nous déposséder de nos droits fondamentaux pour alimenter leurs fonds de commerce...Non merci !",
        "created_at": "2015-10-15T13:10:13+0200",
        "updated_at": "2015-10-15T13:10:13+0200",
        "is_enabled": true,
        "votes_count": 4,
        "type": 0,
        "is_trashed": false,
        "author": {
          "username": "Denis PUGNERE",
          "displayName": "Denis PUGNERE",
          "uniqueId": "denispugnere",
          "isAdmin": false,
          "media": null,
          "vip": false,
          "_links": {
            "profile": "https://www.republique-numerique.fr/profile/denispugnere",
            "settings": "https://www.republique-numerique.fr/profile/edit-profile"
          }
        },
        "_links": {
          "show": "https://www.republique-numerique.fr/consultations/projet-de-loi-numerique/consultation/consultation/opinions/section-1-les-communs/instaurer-la-liberte-de-panorama-en-france/versions/liberte-de-panorama-sous-licence-cc-by-nc-sa-3-0-fr#arg-4190",
          "edit": "https://www.republique-numerique.fr/consultations/projet-de-loi-numerique/consultation/consultation/opinions/section-1-les-communs/instaurer-la-liberte-de-panorama-en-france/arguments/4190/edit",
          "report": "https://www.republique-numerique.fr/consultations/projet-de-loi-numerique/consultation/consultation/opinions/section-1-les-communs/instaurer-la-liberte-de-panorama-en-france/arguments/4190/report"
        },
        "has_user_voted": false,
        "has_user_reported": false
      },
      {
        "isContribuable": false,
        "id": 4211,
        "body": "respecter les droits d'auteur",
        "created_at": "2015-10-15T14:02:01+0200",
        "updated_at": "2015-10-15T14:02:01+0200",
        "is_enabled": true,
        "votes_count": 4,
        "type": 0,
        "is_trashed": false,
        "author": {
          "username": "Alex Labejof",
          "displayName": "Alex Labejof",
          "uniqueId": "alexlabejof",
          "isAdmin": false,
          "media": null,
          "vip": false,
          "_links": {
            "profile": "https://www.republique-numerique.fr/profile/alexlabejof",
            "settings": "https://www.republique-numerique.fr/profile/edit-profile"
          }
        },
        "_links": {
          "show": "https://www.republique-numerique.fr/consultations/projet-de-loi-numerique/consultation/consultation/opinions/section-1-les-communs/instaurer-la-liberte-de-panorama-en-france/versions/liberte-de-panorama-sous-licence-cc-by-nc-sa-3-0-fr#arg-4211",
          "edit": "https://www.republique-numerique.fr/consultations/projet-de-loi-numerique/consultation/consultation/opinions/section-1-les-communs/instaurer-la-liberte-de-panorama-en-france/arguments/4211/edit",
          "report": "https://www.republique-numerique.fr/consultations/projet-de-loi-numerique/consultation/consultation/opinions/section-1-les-communs/instaurer-la-liberte-de-panorama-en-france/arguments/4211/report"
        },
        "has_user_voted": false,
        "has_user_reported": false
      },
      {
        "isContribuable": false,
        "id": 4351,
        "body": "@Wikipedia \nC'est la ou je ne comprends pas la logique , Wikipedia est une plateforme encyclopedique et se veut ici montrer les oeuvres des artistes contemporains. Pourquoi refuser une licence sans utilisation commerciale en lieu et place de la porter en modele et soutenir TOUS les auteurs amateurs et professionnels peut etre en devenir ? \nLes arguments evoqués concernant les blogs ne tiennent pas, on ne peut considerer les amateurs comme des professionnels quand bien meme ils tirent quelques centimes des pubs.. (et encore, connaissant le systeme des plateformes d'affiliation). bref.. \nQui pousse ? Une licence avec droit commerciaux, afin de creer une base image pour les agences de com, la presse, les offices de tourismes, les organismes , l'Etat ? et se rendre compte ensuite qu'une branche en recherche de modele, dans la pauperisation est coupée ? Quand les droits d'auteurs, artistes, photographes independants auront disparu, on expliquera aux jeunes contributeurs, apprentis que c'est fini, ils ne pourront jamais etre photographe professionnel, flatter l'ego pour servir des grands groupes a primé ?  \nJe contribue a Wikipedia, mais a titre pro certainement pas le pourquoi. Donnons nous la main, utilisons les licences du libre existantes afin de partager et soutenir les contributeurs et auteurs.\nLa photographie a été inventé en France defendons là. ",
        "created_at": "2015-10-15T18:08:17+0200",
        "updated_at": "2015-10-15T18:08:17+0200",
        "is_enabled": true,
        "votes_count": 0,
        "type": 1,
        "is_trashed": false,
        "author": {
          "username": "Maltese Nadine",
          "displayName": "Maltese Nadine",
          "uniqueId": "maltesenadine",
          "isAdmin": false,
          "media": {
            "url": "/media/cache/default_avatar/default/0001/01/113_default_avatar.png"
          },
          "vip": false,
          "_links": {
            "profile": "https://www.republique-numerique.fr/profile/maltesenadine",
            "settings": "https://www.republique-numerique.fr/profile/edit-profile"
          }
        },
        "_links": {
          "show": "https://www.republique-numerique.fr/consultations/projet-de-loi-numerique/consultation/consultation/opinions/section-1-les-communs/instaurer-la-liberte-de-panorama-en-france/versions/liberte-de-panorama-sous-licence-cc-by-nc-sa-3-0-fr#arg-4351",
          "edit": "https://www.republique-numerique.fr/consultations/projet-de-loi-numerique/consultation/consultation/opinions/section-1-les-communs/instaurer-la-liberte-de-panorama-en-france/arguments/4351/edit",
          "report": "https://www.republique-numerique.fr/consultations/projet-de-loi-numerique/consultation/consultation/opinions/section-1-les-communs/instaurer-la-liberte-de-panorama-en-france/arguments/4351/report"
        },
        "has_user_voted": false,
        "has_user_reported": false
      },
      {
        "isContribuable": false,
        "id": 5401,
        "body": "A minima, faisons en sorte d'inscrire dans le droit l'usage actuel [je cite, l'ADAGP : \"Ces diffusions non commerciales sont largement acceptées par les artistes et ne donnent jamais lieu à des procédures judiciaires\" - http://www.adagp.fr/fr/actualites/tout-ce-que-vous-avez-toujours-voulu-savoir-sur-l-exception-panorama].",
        "created_at": "2015-10-17T17:27:27+0200",
        "updated_at": "2015-10-17T17:27:27+0200",
        "is_enabled": true,
        "votes_count": 1,
        "type": 1,
        "is_trashed": false,
        "author": {
          "username": "Christelle Larrouy",
          "displayName": "Christelle Larrouy",
          "uniqueId": "christellelarrouy",
          "isAdmin": false,
          "media": null,
          "vip": false,
          "_links": {
            "profile": "https://www.republique-numerique.fr/profile/christellelarrouy",
            "settings": "https://www.republique-numerique.fr/profile/edit-profile"
          }
        },
        "_links": {
          "show": "https://www.republique-numerique.fr/consultations/projet-de-loi-numerique/consultation/consultation/opinions/section-1-les-communs/instaurer-la-liberte-de-panorama-en-france/versions/liberte-de-panorama-sous-licence-cc-by-nc-sa-3-0-fr#arg-5401",
          "edit": "https://www.republique-numerique.fr/consultations/projet-de-loi-numerique/consultation/consultation/opinions/section-1-les-communs/instaurer-la-liberte-de-panorama-en-france/arguments/5401/edit",
          "report": "https://www.republique-numerique.fr/consultations/projet-de-loi-numerique/consultation/consultation/opinions/section-1-les-communs/instaurer-la-liberte-de-panorama-en-france/arguments/5401/report"
        },
        "has_user_voted": false,
        "has_user_reported": false
      },
      {
        "isContribuable": false,
        "id": 5945,
        "body": "Le devoir de repartage impliqué par le SA suffit à gérer les craintes généralement liées au choix du NC. Ajouter une clause non-commerciale génère une grave insécurité juridique pour de nombreuses réutilisations légitimes : un blog qui dispose d'un bandeau de pub effectue-t-il une réutilisation commerciale ?",
        "created_at": "2015-10-18T17:41:11+0200",
        "updated_at": "2015-10-18T17:41:11+0200",
        "is_enabled": true,
        "votes_count": 0,
        "type": 0,
        "is_trashed": false,
        "author": {
          "username": "Roux",
          "displayName": "Roux",
          "uniqueId": "roux3",
          "isAdmin": false,
          "media": null,
          "vip": false,
          "_links": {
            "profile": "https://www.republique-numerique.fr/profile/roux3",
            "settings": "https://www.republique-numerique.fr/profile/edit-profile"
          }
        },
        "_links": {
          "show": "https://www.republique-numerique.fr/consultations/projet-de-loi-numerique/consultation/consultation/opinions/section-1-les-communs/instaurer-la-liberte-de-panorama-en-france/versions/liberte-de-panorama-sous-licence-cc-by-nc-sa-3-0-fr#arg-5945",
          "edit": "https://www.republique-numerique.fr/consultations/projet-de-loi-numerique/consultation/consultation/opinions/section-1-les-communs/instaurer-la-liberte-de-panorama-en-france/arguments/5945/edit",
          "report": "https://www.republique-numerique.fr/consultations/projet-de-loi-numerique/consultation/consultation/opinions/section-1-les-communs/instaurer-la-liberte-de-panorama-en-france/arguments/5945/report"
        },
        "has_user_voted": false,
        "has_user_reported": false
      }
    ],
    "sources": [],
    "parent": {
      "isContribuable": false,
      "id": 265,
      "body": "<p>L&#39;article L.122-5 du code de la propri&eacute;t&eacute; intellectuelle est ainsi modifi&eacute; :</p>\r\n\r\n<p>Apr&egrave;s le dix-neuvi&egrave;me alin&eacute;a, il est ins&eacute;r&eacute; un alin&eacute;a ainsi r&eacute;dig&eacute; :</p>\r\n\r\n<p>10&deg;) Les reproductions et repr&eacute;sentation des oeuvres architecturales et des sculptures, r&eacute;alis&eacute;es pour &ecirc;tre plac&eacute;es en permanence dans des lieux publics.</p>",
      "type": {
        "id": 90,
        "title": "Section 1",
        "subtitle": "Les Communs",
        "voteWidgetType": 2,
        "votesHelpText": "Pensez-vous que cette proposition permet d'atteindre les objectifs présentés dans l’explication de l’article ?",
        "commentSystem": 2,
        "color": "blue",
        "versionable": true,
        "sourceable": true,
        "votesThreshold": null,
        "votesThresholdHelpText": null
      },
      "modals": [],
      "appendices": [
        {
          "body": "<p>La libert&eacute; de panorama est la libert&eacute; de diffuser des images de b&acirc;timents et d&rsquo;&oelig;uvres d&#39;art qui ne sont pas encore tomb&eacute;s dans le domaine public, et que l&#39;on peut observer depuis des lieux publics. Cette libert&eacute; autorise, par exemple, les familles &agrave; publier des photos de vacances sur Internet m&ecirc;me lorsque se trouve au centre de l&#39;image un b&acirc;timent ou une sculpture r&eacute;cents. Elle permet &eacute;galement &agrave; chacun de publier ses propres photos sur des sites comme l&rsquo;encyclop&eacute;die Wikip&eacute;dia afin d&#39;illustrer des articles de celle-ci.</p>\r\n\r\n<p>La plupart des personnes tiennent pour acquis qu&#39;elles sont libres de partager de telles photographies d&egrave;s lors qu&#39;elles les ont prises elles-m&ecirc;mes. Dans plusieurs &Eacute;tats membres de l&rsquo;Union europ&eacute;enne, la diffusion de ces images requiert une autorisation explicite du d&eacute;tenteur des droits d&#39;auteur de l&rsquo;&oelig;uvre repr&eacute;sent&eacute;e. C&rsquo;est le cas de la France &agrave; l&rsquo;heure actuelle.</p>\r\n\r\n<p>Le fait que cette exception n&rsquo;ait pas &eacute;t&eacute; introduite en droit fran&ccedil;ais pose de nombreux probl&egrave;mes car cela emp&ecirc;che le rayonnement du patrimoine fran&ccedil;ais aupr&egrave;s de 3 milliards d&rsquo;internautes. Il nous semble regrettable que la France, &agrave; dessein, ne facilite pas le rayonnement de sa propre culture.</p>\r\n\r\n<p>Sur Wikip&eacute;dia, il est par exemple impossible d&rsquo;illustrer les articles consacr&eacute;s aux architectes contemporains avec des images de leurs r&eacute;alisations situ&eacute;es en France. Aucune photo de la D&eacute;fense, pr&egrave;s de Paris, n&rsquo;est sur la Wikip&eacute;dia francophone, et ce n&rsquo;est qu&rsquo;en 2013, au moment o&ugrave; l&rsquo;&oelig;uvre de Hector Guimard est entr&eacute;e dans le domaine public, que des images de bouches de m&eacute;tro parisiennes ont pu &ecirc;tre publi&eacute;es. Cette situation ne profite &agrave; personne, et certainement pas aux architectes, dont l&rsquo;&oelig;uvre ne peut pas &ecirc;tre mise en valeur.</p>\r\n\r\n<p>Ainsi il est souhaitable que toute reproduction int&eacute;grale ou partielle, faite sans le consentement de l&#39;auteur ou de ses ayants droit ou ayants cause devienne l&eacute;gale pour les &oelig;uvres architecturales, sculptures et &oelig;uvres d&rsquo;art permanentes plac&eacute;es dans des lieux accessibles par le public. Elles constituent donc une grande partie patrimoine culturel fran&ccedil;ais, &agrave; plus forte raison dans le cas de b&acirc;timents pay&eacute;s sur des fonds publics, qu&rsquo;il s&rsquo;agisse de la biblioth&egrave;que Fran&ccedil;ois-Mitterrand ou du Stade de France.</p>\r\n\r\n<p>&nbsp;</p>",
          "type": {
            "title": "Explication de l'article"
          }
        }
      ],
      "title": "Instaurer la liberté de panorama en France",
      "_links": {
        "show": "https://www.republique-numerique.fr/consultations/projet-de-loi-numerique/consultation/consultation/opinions/section-1-les-communs/instaurer-la-liberte-de-panorama-en-france",
        "edit": "https://www.republique-numerique.fr/consultations/projet-de-loi-numerique/consultation/consultation/opinions/section-1-les-communs/instaurer-la-liberte-de-panorama-en-france/edit",
        "report": "https://www.republique-numerique.fr/consultations/projet-de-loi-numerique/consultation/consultation/opinions/section-1-les-communs/instaurer-la-liberte-de-panorama-en-france/report",
        "type": "https://www.republique-numerique.fr/consultations/projet-de-loi-numerique/consultation/consultation/opinions/section-1-les-communs"
      },
      "user_vote": null,
      "has_user_reported": false
    },
    "sources_count": 0,
    "arguments_count": 12,
    "votes": [
      {
        "user": {
          "username": "Myriam Berard",
          "displayName": "Myriam Berard",
          "uniqueId": "myriamberard",
          "isAdmin": false,
          "media": null,
          "vip": false,
          "_links": {
            "profile": "https://www.republique-numerique.fr/profile/myriamberard",
            "settings": "https://www.republique-numerique.fr/profile/edit-profile"
          }
        },
        "value": -1
      },
      {
        "user": {
          "username": "Romain Heller",
          "displayName": "Romain Heller",
          "uniqueId": "romainheller",
          "isAdmin": false,
          "media": null,
          "vip": false,
          "_links": {
            "profile": "https://www.republique-numerique.fr/profile/romainheller",
            "settings": "https://www.republique-numerique.fr/profile/edit-profile"
          }
        },
        "value": -1
      },
      {
        "user": {
          "username": "Denis Chenu",
          "displayName": "Denis Chenu",
          "uniqueId": "denischenu",
          "isAdmin": false,
          "media": null,
          "vip": false,
          "_links": {
            "profile": "https://www.republique-numerique.fr/profile/denischenu",
            "settings": "https://www.republique-numerique.fr/profile/edit-profile"
          }
        },
        "value": -1
      },
      {
        "user": {
          "username": "Mathis Benguigui",
          "displayName": "Mathis Benguigui",
          "uniqueId": "mathisbenguigui",
          "isAdmin": false,
          "media": null,
          "vip": false,
          "_links": {
            "profile": "https://www.republique-numerique.fr/profile/mathisbenguigui",
            "settings": "https://www.republique-numerique.fr/profile/edit-profile"
          }
        },
        "value": -1
      },
      {
        "user": {
          "username": "Alexandre Delesse",
          "displayName": "Alexandre Delesse",
          "uniqueId": "alexandredelesse",
          "isAdmin": false,
          "media": null,
          "vip": false,
          "_links": {
            "profile": "https://www.republique-numerique.fr/profile/alexandredelesse",
            "settings": "https://www.republique-numerique.fr/profile/edit-profile"
          }
        },
        "value": -1
      }
    ],
    "updated_at": "2015-10-12T00:47:06+0200",
    "ranking": 306,
    "is_trashed": false,
    "title": "Liberté de panorama sous licence CC BY-NC-SA 3.0 FR",
    "slug": "liberte-de-panorama-sous-licence-cc-by-nc-sa-3-0-fr",
    "created_at": "2015-10-12T00:45:44+0200",
    "votes_nok": 236,
    "votes_ok": 14,
    "votes_mitige": 7,
    "_links": {
      "show": "https://www.republique-numerique.fr/consultations/projet-de-loi-numerique/consultation/consultation/opinions/section-1-les-communs/instaurer-la-liberte-de-panorama-en-france/versions/liberte-de-panorama-sous-licence-cc-by-nc-sa-3-0-fr",
      "report": "https://www.republique-numerique.fr/consultations/projet-de-loi-numerique/consultation/consultation/opinions/section-1-les-communs/instaurer-la-liberte-de-panorama-en-france/versions/liberte-de-panorama-sous-licence-cc-by-nc-sa-3-0-fr/report"
    },
    "user_vote": null,
    "has_user_reported": false
  },
  "rankingThreshold": null,
  "opinionTerm": 1
}