{
  "version": {
    "isContribuable": false,
    "votes_total": 2,
    "arguments_yes_count": 0,
    "arguments_no_count": 0,
    "id": 790,
    "body": "<p>SANCTUAIRE PUBLIC DE LA DONNEE :&nbsp;</p>\n\n<p>- L&#39;Etat et les fonctionnaires qui le composent s&#39;engagent &agrave; ne jamais divulguer, vendre, manipuler, d&eacute;truire, ..etc..les donn&eacute;es des citoyens qu&#39;il d&eacute;tient sur ses serveurs. Ses donn&eacute;es et meta-donn&eacute;es seront &agrave; terme, stock&eacute;e sur un Sanctuaire Public de la Donn&eacute;e, ouvert aux citoyens Fran&ccedil;ais et r&eacute;pondant des droits applicables en France</p>\n\n<p>- Le sanctuaire fonctionnera selon un &#39;Board&#39; de d&eacute;cideurs issus de la soci&eacute;t&eacute; civile, de l&#39;activisme &eacute;lectronique, et de l&#39;administration, ainsi que des &eacute;lus, des membres de la communaut&eacute; du renseignement, forces de l&#39;ordre, etc..&nbsp;</p>\n\n<p>- L&#39;Etat fixera un d&eacute;lai au dela duquel les donn&eacute;es et meta-donn&eacute;es des citoyens seront d&eacute;finitivement d&eacute;truites.&nbsp;</p>\n\n<p>- L&#39;Etat s&#39;engage &agrave; offrir un &#39;droit &agrave; l&#39;oubli&#39; o&ugrave; Google Act &agrave; tout citoyen Fran&ccedil;ais &agrave; l&#39;age de 18 ans, afin de&nbsp;prot&eacute;ger ses citoyens les plus jeunes, &agrave; l&#39;heure o&ugrave; ils s&#39;engagent sur le march&eacute; du travail et doivent donc optimiser leur E-Reputation. Cet engagement sera limit&eacute; &agrave; 2 interventions (dont une obligatoirement &agrave; l&#39;&acirc;ge de 18 ans)&nbsp;</p>\n\n<p>- Tout citoyen fran&ccedil;ais en faisant la demande, pourra d&eacute;poser ses donn&eacute;es num&eacute;rique et meta-donn&eacute;es dans un sanctuaire d&#39;etat, et pourra ainsi les &#39;l&eacute;guer&#39; &agrave; ses descendants etc..&nbsp;</p>",
    "comment": "<p>La France, membre de l&#39;UE, ne peut se soustraire des d&eacute;crets europ&eacute;ens, ni refuser aux fran&ccedil;ais des droits accord&eacute;s par l&#39;UE.</p>\n\n<p>&nbsp;</p>",
    "author": {
      "username": "Duprez Olivier",
      "displayName": "Duprez Olivier",
      "uniqueId": "duprezolivier",
      "isAdmin": false,
      "media": {
        "url": "/media/cache/default_avatar/default/0001/01/516_default_avatar.jpg"
      },
      "vip": false,
      "_links": {
        "profile": "https://www.republique-numerique.fr/profile/duprezolivier",
        "settings": "https://www.republique-numerique.fr/profile/edit-profile"
      }
    },
    "arguments": [],
    "sources": [],
    "parent": {
      "isContribuable": false,
      "id": 133,
      "body": "<p>SANCTUAIRE PUBLIQUE DE LA DONNEE :&nbsp;</p>\r\n\r\n<p>- L&#39;Etat et les fonctionnaires qui le composent s&#39;engagent &agrave; ne jamais divulguer, vendre, manipuler, d&eacute;truire, ..etc..les donn&eacute;es des citoyens qu&#39;il d&eacute;tient sur ses serveurs. Ses donn&eacute;es et meta-donn&eacute;es seront &agrave; terme, stock&eacute;e sur un Sanctuaire Publique de la Donn&eacute;e, ouvert aux citoyens Fran&ccedil;ais et r&eacute;pondant exclusivement du droit Fran&ccedil;ais (et non Europ&eacute;en)&nbsp;</p>\r\n\r\n<p>- Le sanctuaire fonctionnera selon un &#39;Board&#39; de d&eacute;cideurs issus de la soci&eacute;t&eacute; civile, de l&#39;activisme &eacute;lectronique, et de l&#39;administration, ainsi que des &eacute;lus, des membres de la communaut&eacute; du renseignement, forces de l&#39;ordre, etc..&nbsp;</p>\r\n\r\n<p>- L&#39;Etat fixera un d&eacute;lai au dela duquel les donn&eacute;es et meta-donn&eacute;es des citoyens seront d&eacute;finitivement d&eacute;truites.&nbsp;</p>\r\n\r\n<p>- L&#39;Etat s&#39;engage &agrave; offrir un &#39;droit &agrave; l&#39;oubli&#39; o&ugrave; Google Act &agrave; tout citoyen Fran&ccedil;ais &agrave; l&#39;age de 18 ans, afin de&nbsp;prot&eacute;ger ses citoyens les plus jeunes, &agrave; l&#39;heure o&ugrave; ils s&#39;engagent sur le march&eacute; du travail et doivent donc optimiser leur E-Reputation. Cet engagement sera limit&eacute; &agrave; 2 interventions (dont une obligatoirement &agrave; l&#39;&acirc;ge de 18 ans)&nbsp;</p>\r\n\r\n<p>- Tout citoyen fran&ccedil;ais en faisant la demande, pourra d&eacute;poser ses donn&eacute;es num&eacute;rique et meta-donn&eacute;es dans un sanctuaire d&#39;etat, et pourra ainsi les &#39;l&eacute;guer&#39; &agrave; ses descendants etc..&nbsp;</p>",
      "type": {
        "id": 87,
        "title": "Section 2",
        "subtitle": "Service public de la donnée",
        "voteWidgetType": 2,
        "votesHelpText": "Pensez-vous que cette proposition permet d'atteindre les objectifs présentés dans l’explication de l’article ?",
        "commentSystem": 2,
        "color": "blue",
        "versionable": true,
        "sourceable": true,
        "votesThreshold": null,
        "votesThresholdHelpText": null
      },
      "modals": [],
      "appendices": [
        {
          "body": "<p>- A terme, le sanctuaire pourra travailler avec des institutions statistiques, tels que l&#39;INSEE, les instituts de sondage, etc..&nbsp;</p>\r\n\r\n<p>- Le Sanctuaire formera aussi les Data Analysts qui iront ensuite aider &agrave; la transition num&eacute;rique de l&#39;ensemble de l&#39;administration (un jour)&nbsp;</p>",
          "type": {
            "title": "Explication de l'article"
          }
        }
      ],
      "title": "SANCTUAIRE PUBLIQUE DE LA DONNEE",
      "_links": {
        "show": "https://www.republique-numerique.fr/consultations/projet-de-loi-numerique/consultation/consultation/opinions/section-2-service-public-de-la-donnee-1/sanctuaire-publique-de-la-donnee",
        "edit": "https://www.republique-numerique.fr/consultations/projet-de-loi-numerique/consultation/consultation/opinions/section-2-service-public-de-la-donnee-1/sanctuaire-publique-de-la-donnee/edit",
        "report": "https://www.republique-numerique.fr/consultations/projet-de-loi-numerique/consultation/consultation/opinions/section-2-service-public-de-la-donnee-1/sanctuaire-publique-de-la-donnee/report",
        "type": "https://www.republique-numerique.fr/consultations/projet-de-loi-numerique/consultation/consultation/opinions/section-2-service-public-de-la-donnee-1"
      },
      "user_vote": null,
      "has_user_reported": false
    },
    "sources_count": 0,
    "arguments_count": 0,
    "votes": [
      {
        "user": {
          "username": "Duprez Olivier",
          "displayName": "Duprez Olivier",
          "uniqueId": "duprezolivier",
          "isAdmin": false,
          "media": {
            "url": "/media/cache/default_avatar/default/0001/01/516_default_avatar.jpg"
          },
          "vip": false,
          "_links": {
            "profile": "https://www.republique-numerique.fr/profile/duprezolivier",
            "settings": "https://www.republique-numerique.fr/profile/edit-profile"
          }
        },
        "value": 1
      },
      {
        "user": {
          "username": "Vincent Reverdy",
          "displayName": "Vincent Reverdy",
          "uniqueId": "vincentreverdy",
          "isAdmin": false,
          "media": {
            "url": "/media/cache/default_avatar/default/0001/01/268_default_avatar.jpg"
          },
          "vip": false,
          "_links": {
            "profile": "https://www.republique-numerique.fr/profile/vincentreverdy",
            "settings": "https://www.republique-numerique.fr/profile/edit-profile"
          }
        },
        "value": 1
      }
    ],
    "updated_at": "2015-10-11T12:38:46+0200",
    "ranking": 880,
    "is_trashed": false,
    "title": "Sanctuaire Public (...) répondant des droits applicables en France",
    "slug": "sanctuaire-public-repondant-des-droits-applicables-en-france",
    "created_at": "2015-10-11T12:38:46+0200",
    "votes_nok": 0,
    "votes_ok": 2,
    "votes_mitige": 0,
    "_links": {
      "show": "https://www.republique-numerique.fr/consultations/projet-de-loi-numerique/consultation/consultation/opinions/section-2-service-public-de-la-donnee-1/sanctuaire-publique-de-la-donnee/versions/sanctuaire-public-repondant-des-droits-applicables-en-france",
      "report": "https://www.republique-numerique.fr/consultations/projet-de-loi-numerique/consultation/consultation/opinions/section-2-service-public-de-la-donnee-1/sanctuaire-publique-de-la-donnee/versions/sanctuaire-public-repondant-des-droits-applicables-en-france/report"
    },
    "user_vote": null,
    "has_user_reported": false
  },
  "rankingThreshold": null,
  "opinionTerm": 1
}