{
  "opinion": {
    "isContribuable": false,
    "votes_total": 11,
    "arguments_yes_count": 0,
    "arguments_no_count": 0,
    "id": 624,
    "created_at": "2015-10-14T22:24:05+0200",
    "updated_at": "2015-10-14T22:24:05+0200",
    "body": "<p>&nbsp;La partie la plus vivante des communs est aujourd&#39;hui constitu&eacute;e par des ressources mises volontairement en partage par leurs cr&eacute;ateurs&nbsp;: logiciels libres ou Open Source, &oelig;uvres plac&eacute;es sous licence Creative Commons, objets en Open Design ou en Open Hardware, etc. Ces communs volontaires ou consentis m&eacute;ritent une existence l&eacute;gislative et une protection par la loi contre les tentatives de r&eacute;appropriation abusive. Il est aussi n&eacute;cessaire d&rsquo;emp&ecirc;cher&nbsp; que la num&eacute;risation des ressources culturelles puisse entra&icirc;ner l&rsquo;attribution de licences d&rsquo;exclusivit&eacute;. Ces accords ont pour cons&eacute;quences de limiter l&rsquo;acc&egrave;s du public &agrave; des &oelig;uvres qui se trouvent pourtant dans le domaine public, au profit d&rsquo;int&eacute;r&ecirc;ts commerciaux. Des titulaires de droits doivent pouvoir choisir d&#39;autoriser des usages communs sur leurs cr&eacute;ations, notamment par le biais de licences libres ou de libre diffusion<em>. &nbsp;</em></p>",
    "versions_count": 0,
    "sources_count": 0,
    "arguments_count": 0,
    "author": {
      "username": "Collectif Enjeux e-médias",
      "displayName": "Collectif Enjeux e-médias",
      "uniqueId": "collectifenjeuxemedias",
      "isAdmin": false,
      "media": {
        "url": "/media/cache/default_avatar/default/0001/01/712_default_avatar.png"
      },
      "vip": false,
      "_links": {
        "profile": "https://www.republique-numerique.fr/profile/collectifenjeuxemedias",
        "settings": "https://www.republique-numerique.fr/profile/edit-profile"
      }
    },
    "type": {
      "id": 90,
      "title": "Section 1",
      "subtitle": "Les Communs",
      "voteWidgetType": 2,
      "votesHelpText": "Pensez-vous que cette proposition permet d'atteindre les objectifs présentés dans l’explication de l’article ?",
      "commentSystem": 2,
      "color": "blue",
      "versionable": true,
      "sourceable": true,
      "votesThreshold": null,
      "votesThresholdHelpText": null
    },
    "sources": [],
    "arguments": [],
    "modals": [],
    "votes": [
      {
        "user": {
          "username": "Collectif Enjeux e-médias",
          "displayName": "Collectif Enjeux e-médias",
          "uniqueId": "collectifenjeuxemedias",
          "isAdmin": false,
          "media": {
            "url": "/media/cache/default_avatar/default/0001/01/712_default_avatar.png"
          },
          "vip": false,
          "_links": {
            "profile": "https://www.republique-numerique.fr/profile/collectifenjeuxemedias",
            "settings": "https://www.republique-numerique.fr/profile/edit-profile"
          }
        }
      },
      {
        "user": {
          "username": "Jeanne Varasco",
          "displayName": "Jeanne Varasco",
          "uniqueId": "jeannevarasco",
          "isAdmin": false,
          "media": {
            "url": "/media/cache/default_avatar/default/0001/01/139_default_avatar.jpg"
          },
          "vip": false,
          "_links": {
            "profile": "https://www.republique-numerique.fr/profile/jeannevarasco",
            "settings": "https://www.republique-numerique.fr/profile/edit-profile"
          }
        }
      },
      {
        "user": {
          "username": "Thomas Nagy",
          "displayName": "Thomas Nagy",
          "uniqueId": "thomasnagy",
          "isAdmin": false,
          "media": null,
          "vip": false,
          "_links": {
            "profile": "https://www.republique-numerique.fr/profile/thomasnagy",
            "settings": "https://www.republique-numerique.fr/profile/edit-profile"
          }
        }
      },
      {
        "user": {
          "username": "Emilien",
          "displayName": "Emilien",
          "uniqueId": "emilien",
          "isAdmin": false,
          "media": null,
          "vip": false,
          "_links": {
            "profile": "https://www.republique-numerique.fr/profile/emilien",
            "settings": "https://www.republique-numerique.fr/profile/edit-profile"
          }
        }
      },
      {
        "user": {
          "username": "Sébastien Geldreich",
          "displayName": "Sébastien Geldreich",
          "uniqueId": "sebastiengeldreich",
          "isAdmin": false,
          "media": null,
          "vip": false,
          "_links": {
            "profile": "https://www.republique-numerique.fr/profile/sebastiengeldreich",
            "settings": "https://www.republique-numerique.fr/profile/edit-profile"
          }
        }
      }
    ],
    "appendices": [
      {
        "body": null,
        "type": {
          "title": "Explication de l'article"
        }
      }
    ],
    "ranking": 316,
    "is_trashed": false,
    "title": "Reconnaitre les communs volontaires",
    "votes_nok": 0,
    "votes_ok": 11,
    "votes_mitige": 0,
    "_links": {
      "show": "https://www.republique-numerique.fr/consultations/projet-de-loi-numerique/consultation/consultation/opinions/section-1-les-communs/reconnaitre-les-communs-volontaires",
      "edit": "https://www.republique-numerique.fr/consultations/projet-de-loi-numerique/consultation/consultation/opinions/section-1-les-communs/reconnaitre-les-communs-volontaires/edit",
      "report": "https://www.republique-numerique.fr/consultations/projet-de-loi-numerique/consultation/consultation/opinions/section-1-les-communs/reconnaitre-les-communs-volontaires/report",
      "type": "https://www.republique-numerique.fr/consultations/projet-de-loi-numerique/consultation/consultation/opinions/section-1-les-communs"
    },
    "user_vote": null,
    "has_user_reported": false
  },
  "rankingThreshold": null,
  "opinionTerm": 1
}