{
  "opinion": {
    "isContribuable": false,
    "votes_total": 8,
    "arguments_yes_count": 0,
    "arguments_no_count": 0,
    "id": 408,
    "created_at": "2015-10-03T23:55:00+0200",
    "updated_at": "2015-10-04T00:48:52+0200",
    "body": "<p>La plateforme contributive num&eacute;rique est un moyen particuli&egrave;rement significatif pour remettre le citoyen fran&ccedil;ais au coeur de la vie politique de son pays. La possibilit&eacute; d&#39;&eacute;tendre&nbsp;ce processus &agrave; d&#39;autres lois, comme il en a d&eacute;j&agrave; &eacute;t&eacute; question dans plusieurs sujets (voir les sources), semble faire l&#39;unanimit&eacute;. Franchir ce pas impose cependant une red&eacute;finition pr&eacute;cise du cadre de la plateforme. Sommairement,&nbsp;voici les diff&eacute;rents points &agrave; d&eacute;finir&nbsp;:</p>\r\n\r\n<ul>\r\n\t<li>\r\n\t<p>Sa port&eacute;e (quels types de lois&nbsp;&agrave; y d&eacute;battre&nbsp;? &hellip;)</p>\r\n\t</li>\r\n\t<li>\r\n\t<p>Son pouvoir (exclusivement consultatif&nbsp;? propositionnel?&nbsp;l&eacute;gislatif?&nbsp;&hellip; &agrave; inscrire dans la constitution&nbsp;comme un nouveau pouvoir?)</p>\r\n\t</li>\r\n\t<li>\r\n\t<p>Son processus interne (s&eacute;curit&eacute;, facilit&eacute; d&rsquo;utilisation, pr&eacute;vention des effets n&eacute;fastes&hellip;)</p>\r\n\t</li>\r\n\t<li>\r\n\t<p>La s&eacute;lection de ses participants (volontariat&nbsp;? tirage au sort&nbsp;?...)</p>\r\n\t</li>\r\n\t<li>\r\n\t<p>Son encadrement (professionnels des sujets abord&eacute;s, sp&eacute;cialistes de la loi, mod&eacute;rateurs&hellip;)</p>\r\n\t</li>\r\n</ul>\r\n\r\n<p>&nbsp;</p>\r\n\r\n<p>Maintenant la question est&nbsp;: <strong>pourquoi ne pas utiliser un processus lui-m&ecirc;me contributif pour &eacute;tablir ce cadre&nbsp;?</strong></p>\r\n\r\n<p>Pour cela, on peut utiliser la plateforme actuelle pour aborder les diff&eacute;rents points. En premier lieu, un travail de synth&egrave;se devra &ecirc;tre effectu&eacute; pour d&eacute;finir le plus justement possible point par point le cadre de la plateforme actuelle (ce qui doit d&eacute;j&agrave; avoir &eacute;t&eacute; fait en partie). &nbsp;Ensuite, ces points et de nouvelles propositions seront d&eacute;battus selon les r&egrave;gles de la plateforme actuelle. Enfin, un nouveau cadre de la plateforme pourra &ecirc;tre extrait de ces r&eacute;flexions. Le moyen d&rsquo;extraire une synth&egrave;se des d&eacute;bats et de l&rsquo;adopter reste &agrave; r&eacute;fl&eacute;chir.</p>\r\n\r\n<p>Pour aller encore plus loin, &nbsp;apr&egrave;s adoption d&rsquo;une nouvelle plateforme, le moyen de la tester peut-&ecirc;tre de relancer le m&ecirc;me processus sur celle-ci pour en comprendre les nouveaux dysfonctionnements &eacute;ventuels. Une 3&egrave;me plateforme sera ainsi construite, probablement tr&egrave;s ressemblante &agrave; la 2&egrave;me. On pourra r&eacute;p&eacute;ter ce processus jusqu&rsquo;&agrave; atteindre une forme de consensus.</p>\r\n\r\n<div>&nbsp;</div>",
    "versions_count": 0,
    "sources_count": 2,
    "arguments_count": 0,
    "author": {
      "username": "Remi D.",
      "displayName": "Remi D.",
      "uniqueId": "remid",
      "isAdmin": false,
      "media": null,
      "vip": false,
      "_links": {
        "profile": "https://www.republique-numerique.fr/profile/remid",
        "settings": "https://www.republique-numerique.fr/profile/edit-profile"
      }
    },
    "type": {
      "id": 103,
      "title": "Section 1",
      "subtitle": "Compétences et organisation",
      "voteWidgetType": 2,
      "votesHelpText": "Pensez-vous que cette proposition permet d'atteindre les objectifs présentés dans l’explication de l’article ?",
      "commentSystem": 2,
      "color": "blue",
      "versionable": true,
      "sourceable": true,
      "votesThreshold": null,
      "votesThresholdHelpText": null
    },
    "sources": [
      {
        "isContribuable": false,
        "id": 213,
        "title": "Implication des citoyens dans la rédaction et l'élaboration des lois via le net",
        "link": "https://www.republique-numerique.fr/consultations/projet-de-loi-numerique/consultation/consultation/opinions/section-1-competences-et-organisation/implication-des-citoyens-dans-la-redaction-et-l-elaboration-des-lois-via-le-net",
        "body": "Lien vers la proposition de Limous",
        "created_at": "2015-10-04T00:00:36+0200",
        "updated_at": "2015-10-04T00:04:11+0200",
        "author": {
          "username": "Remi D.",
          "displayName": "Remi D.",
          "uniqueId": "remid",
          "isAdmin": false,
          "media": null,
          "vip": false,
          "_links": {
            "profile": "https://www.republique-numerique.fr/profile/remid",
            "settings": "https://www.republique-numerique.fr/profile/edit-profile"
          }
        },
        "category": "Autre",
        "votes_count": 0,
        "_links": {
          "edit": "https://www.republique-numerique.fr/consultations/projet-de-loi-numerique/consultation/consultation/opinions/section-1-competences-et-organisation/initier-un-nouveau-processus-contributif-pour-etablir-le-cadre-de-la-plateforme-contributive-numerique/sources/implication-des-citoyens-dans-la-redaction-et-l-elaboration-des-lois-via-le-net/edit",
          "report": "https://www.republique-numerique.fr/consultations/projet-de-loi-numerique/consultation/consultation/opinions/section-1-competences-et-organisation/initier-un-nouveau-processus-contributif-pour-etablir-le-cadre-de-la-plateforme-contributive-numerique/sources/implication-des-citoyens-dans-la-redaction-et-l-elaboration-des-lois-via-le-net/report"
        },
        "has_user_voted": false,
        "has_user_reported": false
      },
      {
        "isContribuable": false,
        "id": 214,
        "title": "Portage de la plateforme contribuez.republique-numerique.fr à d'autre projet de loi",
        "link": "https://www.republique-numerique.fr/consultations/projet-de-loi-numerique/consultation/consultation/opinions/section-1-recommande-electronique/article-26bis-portage-de-la-plateforme-contribuez-republique-numerique-fr-a-d-autre-projet-de-loi",
        "body": "Lien vers la proposition de Paul.",
        "created_at": "2015-10-04T00:03:36+0200",
        "updated_at": "2015-10-04T00:03:36+0200",
        "author": {
          "username": "Remi D.",
          "displayName": "Remi D.",
          "uniqueId": "remid",
          "isAdmin": false,
          "media": null,
          "vip": false,
          "_links": {
            "profile": "https://www.republique-numerique.fr/profile/remid",
            "settings": "https://www.republique-numerique.fr/profile/edit-profile"
          }
        },
        "category": "Autre",
        "votes_count": 0,
        "_links": {
          "edit": "https://www.republique-numerique.fr/consultations/projet-de-loi-numerique/consultation/consultation/opinions/section-1-competences-et-organisation/initier-un-nouveau-processus-contributif-pour-etablir-le-cadre-de-la-plateforme-contributive-numerique/sources/portage-de-la-plateforme-contribuez-republique-numerique-fr-a-d-autre-projet-de-loi/edit",
          "report": "https://www.republique-numerique.fr/consultations/projet-de-loi-numerique/consultation/consultation/opinions/section-1-competences-et-organisation/initier-un-nouveau-processus-contributif-pour-etablir-le-cadre-de-la-plateforme-contributive-numerique/sources/portage-de-la-plateforme-contribuez-republique-numerique-fr-a-d-autre-projet-de-loi/report"
        },
        "has_user_voted": false,
        "has_user_reported": false
      }
    ],
    "arguments": [],
    "modals": [],
    "votes": [
      {
        "user": {
          "username": "Jeanne Varasco",
          "displayName": "Jeanne Varasco",
          "uniqueId": "jeannevarasco",
          "isAdmin": false,
          "media": {
            "url": "/media/cache/default_avatar/default/0001/01/139_default_avatar.jpg"
          },
          "vip": false,
          "_links": {
            "profile": "https://www.republique-numerique.fr/profile/jeannevarasco",
            "settings": "https://www.republique-numerique.fr/profile/edit-profile"
          }
        }
      },
      {
        "user": {
          "username": "Remi D.",
          "displayName": "Remi D.",
          "uniqueId": "remid",
          "isAdmin": false,
          "media": null,
          "vip": false,
          "_links": {
            "profile": "https://www.republique-numerique.fr/profile/remid",
            "settings": "https://www.republique-numerique.fr/profile/edit-profile"
          }
        }
      },
      {
        "user": {
          "username": "Martinet Pierre",
          "displayName": "Martinet Pierre",
          "uniqueId": "martinetpierre",
          "isAdmin": false,
          "media": null,
          "vip": false,
          "_links": {
            "profile": "https://www.republique-numerique.fr/profile/martinetpierre",
            "settings": "https://www.republique-numerique.fr/profile/edit-profile"
          }
        }
      },
      {
        "user": {
          "username": "Maisonobe Luc",
          "displayName": "Maisonobe Luc",
          "uniqueId": "maisonobeluc",
          "isAdmin": false,
          "media": {
            "url": "/media/cache/default_avatar/default/0001/01/710_default_avatar.jpg"
          },
          "vip": false,
          "_links": {
            "profile": "https://www.republique-numerique.fr/profile/maisonobeluc",
            "settings": "https://www.republique-numerique.fr/profile/edit-profile"
          }
        }
      },
      {
        "user": {
          "username": "Vincent Reverdy",
          "displayName": "Vincent Reverdy",
          "uniqueId": "vincentreverdy",
          "isAdmin": false,
          "media": {
            "url": "/media/cache/default_avatar/default/0001/01/268_default_avatar.jpg"
          },
          "vip": false,
          "_links": {
            "profile": "https://www.republique-numerique.fr/profile/vincentreverdy",
            "settings": "https://www.republique-numerique.fr/profile/edit-profile"
          }
        }
      }
    ],
    "appendices": [
      {
        "body": null,
        "type": {
          "title": "Explication de l'article"
        }
      }
    ],
    "ranking": 397,
    "is_trashed": false,
    "title": "Initier un processus contributif pour établir les règles et la portée de la future plateforme contributive",
    "votes_nok": 1,
    "votes_ok": 7,
    "votes_mitige": 0,
    "_links": {
      "show": "https://www.republique-numerique.fr/consultations/projet-de-loi-numerique/consultation/consultation/opinions/section-1-competences-et-organisation/initier-un-nouveau-processus-contributif-pour-etablir-le-cadre-de-la-plateforme-contributive-numerique",
      "edit": "https://www.republique-numerique.fr/consultations/projet-de-loi-numerique/consultation/consultation/opinions/section-1-competences-et-organisation/initier-un-nouveau-processus-contributif-pour-etablir-le-cadre-de-la-plateforme-contributive-numerique/edit",
      "report": "https://www.republique-numerique.fr/consultations/projet-de-loi-numerique/consultation/consultation/opinions/section-1-competences-et-organisation/initier-un-nouveau-processus-contributif-pour-etablir-le-cadre-de-la-plateforme-contributive-numerique/report",
      "type": "https://www.republique-numerique.fr/consultations/projet-de-loi-numerique/consultation/consultation/opinions/section-1-competences-et-organisation"
    },
    "user_vote": null,
    "has_user_reported": false
  },
  "rankingThreshold": null,
  "opinionTerm": 1
}