{
  "version": {
    "isContribuable": false,
    "votes_total": 3,
    "arguments_yes_count": 0,
    "arguments_no_count": 0,
    "id": 142,
    "body": "<p>Le chapitre V du titre II du livre IV du code g&eacute;n&eacute;ral des collectivit&eacute;s territoriales est compl&eacute;t&eacute; par un article L. 1425-3 r&eacute;dig&eacute; comme suit&nbsp;:</p>\r\n\r\n<p>&laquo;&nbsp;Art. L. 1425-3 -Dans les domaines de comp&eacute;tence que la loi leur attribue, les conseils d&eacute;partementaux ou les conseils r&eacute;gionaux peuvent &eacute;tablir une strat&eacute;gie de d&eacute;veloppement des usages et services num&eacute;riques existants, identifier les zones qu&#39;ils desservent et pr&eacute;senter une strat&eacute;gie de d&eacute;veloppement de ceux-ci, sur leur territoire. Cette strat&eacute;gie, qui a une valeur indicative, vise &agrave; favoriser la coh&eacute;rence des initiatives publiques et leur bonne articulation avec l&#39;investissement priv&eacute;, ainsi que la mise en place de ressources partag&eacute;es et mutualis&eacute;es afin de doter l&rsquo;ensemble des territoires d&rsquo;un maillage &eacute;quilibr&eacute; de services num&eacute;riques. Elle est &eacute;tablie en coh&eacute;rence avec les sch&eacute;mas r&eacute;gionaux de d&eacute;veloppement &eacute;conomique. Cette strat&eacute;gie constitue un volet du sch&eacute;ma directeur territorial d&rsquo;am&eacute;nagement num&eacute;rique.&nbsp;&raquo;</p>",
    "comment": "<p>Structurer un r&eacute;f&eacute;rentiel &eacute;volutif de services num&eacute;riques r&eacute;ellement appropri&eacute;s par les publics pour &eacute;valuation des usages. Organiser r&eacute;guli&egrave;rement des s&eacute;quences participatives pr&eacute;sentielles/distancielles dans des collectivit&eacute;s volontaires (toutes strates) pour analyse qualitative des parcours d&#39;usage.<br />\n&nbsp;</p>",
    "author": {
      "username": "Florence Durand Tornare",
      "displayName": "Florence Durand Tornare",
      "uniqueId": "florencedurandtornare",
      "isAdmin": false,
      "media": null,
      "vip": false,
      "_links": {
        "profile": "https://www.republique-numerique.fr/profile/florencedurandtornare",
        "settings": "https://www.republique-numerique.fr/profile/edit-profile"
      }
    },
    "arguments": [],
    "sources": [],
    "parent": {
      "isContribuable": false,
      "id": 83,
      "body": "<p>Le chapitre V du titre II du livre IV du code g&eacute;n&eacute;ral des collectivit&eacute;s territoriales est compl&eacute;t&eacute; par un article L. 1425-3 r&eacute;dig&eacute; comme suit&nbsp;:</p>\r\n\r\n<p>&laquo;&nbsp;Art. L. 1425-3 -Dans les domaines de comp&eacute;tence que la loi leur attribue, les conseils d&eacute;partementaux ou les conseils r&eacute;gionaux peuvent &eacute;tablir une strat&eacute;gie de d&eacute;veloppement des usages et services num&eacute;riques existants, identifier les zones qu&#39;ils desservent et pr&eacute;senter une strat&eacute;gie de d&eacute;veloppement de ceux-ci, sur leur territoire. Cette strat&eacute;gie, qui a une valeur indicative, vise &agrave; favoriser la coh&eacute;rence des initiatives publiques et leur bonne articulation avec l&#39;investissement priv&eacute;, ainsi que la mise en place de ressources partag&eacute;es et mutualis&eacute;es afin de doter l&rsquo;ensemble des territoires d&rsquo;un maillage &eacute;quilibr&eacute; de services num&eacute;riques. Elle est &eacute;tablie en coh&eacute;rence avec les sch&eacute;mas r&eacute;gionaux de d&eacute;veloppement &eacute;conomique. Cette strat&eacute;gie constitue un volet du sch&eacute;ma directeur territorial d&rsquo;am&eacute;nagement num&eacute;rique.&nbsp;&raquo;</p>",
      "type": {
        "id": 103,
        "title": "Section 1",
        "subtitle": "Compétences et organisation",
        "voteWidgetType": 2,
        "votesHelpText": "Pensez-vous que cette proposition permet d'atteindre les objectifs présentés dans l’explication de l’article ?",
        "commentSystem": 2,
        "color": "blue",
        "versionable": true,
        "sourceable": true,
        "votesThreshold": null,
        "votesThresholdHelpText": null
      },
      "modals": [
        {
          "key": "article L. 1425-3",
          "before": "",
          "after": "<p>« Dans les domaines de compétence que la loi leur attribue, les conseils départementaux ou les conseils régionaux peuvent établir une stratégie de développement des usages et services numériques existants, identifier les zones qu'ils desservent et présenter une stratégie de développement de ceux-ci, sur leur territoire. Cette stratégie, qui a une valeur indicative, vise à favoriser la cohérence des initiatives publiques et leur bonne articulation avec l'investissement privé, ainsi que la mise en place de ressources partagées et mutualisées afin de doter l’ensemble des territoires d’un maillage équilibré de services numériques. Elle est établie en cohérence avec les schémas régionaux de développement économique. Cette stratégie constitue un volet du schéma directeur territorial d’aménagement numérique. »</p>",
          "title": "Création du nouvel article L1425-3 du code général des collectivités territoriales"
        }
      ],
      "appendices": [
        {
          "body": "<p><strong>Objectif :</strong> Etendre au domaine des services num&eacute;riques collectifs la d&eacute;marche de concertation et de d&eacute;finition des besoins locaux engag&eacute;e pour le d&eacute;ploiement des r&eacute;seaux.</p>\r\n\r\n<p><strong>Explication :</strong> Les sch&eacute;mas directeurs territoriaux d&rsquo;am&eacute;nagement num&eacute;rique (SDTAN) ont contribu&eacute; &agrave; structurer l&rsquo;intervention des collectivit&eacute;s territoriales pour le d&eacute;ploiement du tr&egrave;s haut d&eacute;bit et concernent d&eacute;sormais la quasi-totalit&eacute; des d&eacute;partements. L&rsquo;extension de cette d&eacute;marche au domaine des services num&eacute;riques va permettre aux collectivit&eacute;s territoriales de mettre en ad&eacute;quation leurs ambitions en mati&egrave;re de d&eacute;ploiement d&rsquo;infrastructures et leurs strat&eacute;gies de d&eacute;veloppement des services num&eacute;riques de proximit&eacute;, afin que l&rsquo;arriv&eacute;e du tr&egrave;s haut d&eacute;bit s&rsquo;inscrive dans une strat&eacute;gie globale au service de la population, pour la e-sant&eacute;, la ville intelligente ou l&rsquo;am&eacute;lioration des services locaux.</p>\r\n\r\n<p><strong>Exemple :</strong> un d&eacute;partement va pouvoir structurer l&rsquo;offre de service de maintien &agrave; domicile des personnes &acirc;g&eacute;es &agrave; mesure que du d&eacute;ploiement du tr&egrave;s haut d&eacute;bit sur l&rsquo;ensemble de son territoire.</p>",
          "type": {
            "title": "Explication de l'article"
          }
        }
      ],
      "title": "Article 23 - Développement des usages numériques dans les territoires",
      "_links": {
        "show": "https://www.republique-numerique.fr/consultations/projet-de-loi-numerique/consultation/consultation/opinions/section-1-competences-et-organisation/article-23-schema-directeur-numerique-des-collectivites",
        "edit": "https://www.republique-numerique.fr/consultations/projet-de-loi-numerique/consultation/consultation/opinions/section-1-competences-et-organisation/article-23-schema-directeur-numerique-des-collectivites/edit",
        "report": "https://www.republique-numerique.fr/consultations/projet-de-loi-numerique/consultation/consultation/opinions/section-1-competences-et-organisation/article-23-schema-directeur-numerique-des-collectivites/report",
        "type": "https://www.republique-numerique.fr/consultations/projet-de-loi-numerique/consultation/consultation/opinions/section-1-competences-et-organisation"
      },
      "user_vote": null,
      "has_user_reported": false
    },
    "sources_count": 0,
    "arguments_count": 0,
    "votes": [
      {
        "user": {
          "username": "Mathieu Sutter",
          "displayName": "Mathieu Sutter",
          "uniqueId": "mathieusutter",
          "isAdmin": false,
          "media": null,
          "vip": false,
          "_links": {
            "profile": "https://www.republique-numerique.fr/profile/mathieusutter",
            "settings": "https://www.republique-numerique.fr/profile/edit-profile"
          }
        },
        "value": 1
      },
      {
        "user": {
          "username": "Loïc Dayot",
          "displayName": "Loïc Dayot",
          "uniqueId": "loicdayot",
          "isAdmin": false,
          "media": {
            "url": "/media/cache/default_avatar/default/0001/01/519_default_avatar.jpg"
          },
          "vip": false,
          "_links": {
            "profile": "https://www.republique-numerique.fr/profile/loicdayot",
            "settings": "https://www.republique-numerique.fr/profile/edit-profile"
          }
        },
        "value": 1
      },
      {
        "user": {
          "username": "Vincent Reverdy",
          "displayName": "Vincent Reverdy",
          "uniqueId": "vincentreverdy",
          "isAdmin": false,
          "media": {
            "url": "/media/cache/default_avatar/default/0001/01/268_default_avatar.jpg"
          },
          "vip": false,
          "_links": {
            "profile": "https://www.republique-numerique.fr/profile/vincentreverdy",
            "settings": "https://www.republique-numerique.fr/profile/edit-profile"
          }
        },
        "value": 1
      }
    ],
    "updated_at": "2015-09-26T17:02:31+0200",
    "ranking": 777,
    "is_trashed": false,
    "title": "Instaurer un baromètre particpatif des services publics numériques essentiels à généraliser",
    "slug": "instaurer-un-barometre-particpatif-des-services-publics-numeriques-essentiels-a-generaliser",
    "created_at": "2015-09-26T17:02:31+0200",
    "votes_nok": 0,
    "votes_ok": 3,
    "votes_mitige": 0,
    "_links": {
      "show": "https://www.republique-numerique.fr/consultations/projet-de-loi-numerique/consultation/consultation/opinions/section-1-competences-et-organisation/article-23-schema-directeur-numerique-des-collectivites/versions/instaurer-un-barometre-particpatif-des-services-publics-numeriques-essentiels-a-generaliser",
      "report": "https://www.republique-numerique.fr/consultations/projet-de-loi-numerique/consultation/consultation/opinions/section-1-competences-et-organisation/article-23-schema-directeur-numerique-des-collectivites/versions/instaurer-un-barometre-particpatif-des-services-publics-numeriques-essentiels-a-generaliser/report"
    },
    "user_vote": null,
    "has_user_reported": false
  },
  "rankingThreshold": null,
  "opinionTerm": 1
}