{
  "version": {
    "isContribuable": false,
    "votes_total": 4,
    "arguments_yes_count": 0,
    "arguments_no_count": 1,
    "id": 134,
    "body": "<p>Le chapitre V du titre II du livre IV du code g&eacute;n&eacute;ral des collectivit&eacute;s territoriales est compl&eacute;t&eacute; par un article L. 1425-3 r&eacute;dig&eacute; comme suit&nbsp;:</p>\n\n<p>&laquo;&nbsp;Art. L. 1425-3 -Dans les domaines de comp&eacute;tence que la loi leur attribue, les conseils d&eacute;partementaux ou les conseils r&eacute;gionaux peuvent &eacute;tablir une strat&eacute;gie de d&eacute;veloppement des usages et services num&eacute;riques existants, identifier les zones qu&#39;ils desservent et pr&eacute;senter une strat&eacute;gie de d&eacute;veloppement de ceux-ci, sur leur territoire. Cette strat&eacute;gie, qui a une valeur indicative, vise &agrave; favoriser la coh&eacute;rence des initiatives publiques et leur bonne articulation avec l&#39;investissement priv&eacute;, ainsi que la mise en place de ressources partag&eacute;es et mutualis&eacute;es afin de doter l&rsquo;ensemble des territoires d&rsquo;un maillage &eacute;quilibr&eacute; de services num&eacute;riques. Elle est &eacute;tablie en coh&eacute;rence avec les sch&eacute;mas r&eacute;gionaux de d&eacute;veloppement &eacute;conomique. Cette strat&eacute;gie constitue un volet du sch&eacute;ma directeur territorial d&rsquo;am&eacute;nagement num&eacute;rique.&nbsp;&raquo;</p>\n\n<p>L&#39;interface d&#39;acc&egrave;s des usagers et les formulaires pour tout service territorial doivent &ecirc;tre identiques partout en France. Il s&#39;agit de donner une m&eacute;thodologie et terminologie commune, de mani&egrave;re &agrave; ce que tout le monde sait de quoi on parle. Il sera nuisible d&#39;avoir &agrave; changer ses habitudes apr&egrave;s avoir d&eacute;menag&eacute; quelques kilom&egrave;tres. Les gestionnaires territorriaux sont au service des citoyens, ils doivent assurer les m&ecirc;mes services.</p>",
    "comment": "Aujourd&#39;hui pour demander un extrait d&#39;acte de naissance on a 36000 interfaces, le co&ucirc;t est faramineux, et les citoyens ne s&#39;y retrouvent plus (Papi Jean, il est n&eacute; dans quel village avant la seconde guerre? C&#39;&eacute;tait quelque part &agrave; Pas-de-Calais, mais je ne m&#39;en souviens plus. Et &agrave; la fin on d&eacute;couvre que le village a chang&eacute; de nom! - c&#39;est du v&eacute;cu). Il s&#39;agit ne pas refaire la m&ecirc;me folie pour tout le reste.",
    "author": {
      "username": "Elisabeth Porteneuve",
      "displayName": "Elisabeth Porteneuve",
      "uniqueId": "elisabethporteneuve",
      "isAdmin": false,
      "media": null,
      "vip": false,
      "_links": {
        "profile": "https://www.republique-numerique.fr/profile/elisabethporteneuve",
        "settings": "https://www.republique-numerique.fr/profile/edit-profile"
      }
    },
    "arguments": [
      {
        "isContribuable": false,
        "id": 126,
        "body": "oui, mais",
        "created_at": "2015-09-26T16:24:55+0200",
        "updated_at": "2015-09-26T16:24:55+0200",
        "is_enabled": true,
        "votes_count": 0,
        "type": 0,
        "is_trashed": false,
        "author": {
          "username": "Elisabeth Porteneuve",
          "displayName": "Elisabeth Porteneuve",
          "uniqueId": "elisabethporteneuve",
          "isAdmin": false,
          "media": null,
          "vip": false,
          "_links": {
            "profile": "https://www.republique-numerique.fr/profile/elisabethporteneuve",
            "settings": "https://www.republique-numerique.fr/profile/edit-profile"
          }
        },
        "_links": {
          "show": "https://www.republique-numerique.fr/consultations/projet-de-loi-numerique/consultation/consultation/opinions/section-1-competences-et-organisation/article-23-schema-directeur-numerique-des-collectivites/versions/les-territoires-doivent-etre-aux-services-de-citoyens-meme-interface-meme-terminologie-pas-de-silos#arg-126",
          "edit": "https://www.republique-numerique.fr/consultations/projet-de-loi-numerique/consultation/consultation/opinions/section-1-competences-et-organisation/article-23-schema-directeur-numerique-des-collectivites/arguments/126/edit",
          "report": "https://www.republique-numerique.fr/consultations/projet-de-loi-numerique/consultation/consultation/opinions/section-1-competences-et-organisation/article-23-schema-directeur-numerique-des-collectivites/arguments/126/report"
        },
        "has_user_voted": false,
        "has_user_reported": false
      }
    ],
    "sources": [],
    "parent": {
      "isContribuable": false,
      "id": 83,
      "body": "<p>Le chapitre V du titre II du livre IV du code g&eacute;n&eacute;ral des collectivit&eacute;s territoriales est compl&eacute;t&eacute; par un article L. 1425-3 r&eacute;dig&eacute; comme suit&nbsp;:</p>\r\n\r\n<p>&laquo;&nbsp;Art. L. 1425-3 -Dans les domaines de comp&eacute;tence que la loi leur attribue, les conseils d&eacute;partementaux ou les conseils r&eacute;gionaux peuvent &eacute;tablir une strat&eacute;gie de d&eacute;veloppement des usages et services num&eacute;riques existants, identifier les zones qu&#39;ils desservent et pr&eacute;senter une strat&eacute;gie de d&eacute;veloppement de ceux-ci, sur leur territoire. Cette strat&eacute;gie, qui a une valeur indicative, vise &agrave; favoriser la coh&eacute;rence des initiatives publiques et leur bonne articulation avec l&#39;investissement priv&eacute;, ainsi que la mise en place de ressources partag&eacute;es et mutualis&eacute;es afin de doter l&rsquo;ensemble des territoires d&rsquo;un maillage &eacute;quilibr&eacute; de services num&eacute;riques. Elle est &eacute;tablie en coh&eacute;rence avec les sch&eacute;mas r&eacute;gionaux de d&eacute;veloppement &eacute;conomique. Cette strat&eacute;gie constitue un volet du sch&eacute;ma directeur territorial d&rsquo;am&eacute;nagement num&eacute;rique.&nbsp;&raquo;</p>",
      "type": {
        "id": 103,
        "title": "Section 1",
        "subtitle": "Compétences et organisation",
        "voteWidgetType": 2,
        "votesHelpText": "Pensez-vous que cette proposition permet d'atteindre les objectifs présentés dans l’explication de l’article ?",
        "commentSystem": 2,
        "color": "blue",
        "versionable": true,
        "sourceable": true,
        "votesThreshold": null,
        "votesThresholdHelpText": null
      },
      "modals": [
        {
          "key": "article L. 1425-3",
          "before": "",
          "after": "<p>« Dans les domaines de compétence que la loi leur attribue, les conseils départementaux ou les conseils régionaux peuvent établir une stratégie de développement des usages et services numériques existants, identifier les zones qu'ils desservent et présenter une stratégie de développement de ceux-ci, sur leur territoire. Cette stratégie, qui a une valeur indicative, vise à favoriser la cohérence des initiatives publiques et leur bonne articulation avec l'investissement privé, ainsi que la mise en place de ressources partagées et mutualisées afin de doter l’ensemble des territoires d’un maillage équilibré de services numériques. Elle est établie en cohérence avec les schémas régionaux de développement économique. Cette stratégie constitue un volet du schéma directeur territorial d’aménagement numérique. »</p>",
          "title": "Création du nouvel article L1425-3 du code général des collectivités territoriales"
        }
      ],
      "appendices": [
        {
          "body": "<p><strong>Objectif :</strong> Etendre au domaine des services num&eacute;riques collectifs la d&eacute;marche de concertation et de d&eacute;finition des besoins locaux engag&eacute;e pour le d&eacute;ploiement des r&eacute;seaux.</p>\r\n\r\n<p><strong>Explication :</strong> Les sch&eacute;mas directeurs territoriaux d&rsquo;am&eacute;nagement num&eacute;rique (SDTAN) ont contribu&eacute; &agrave; structurer l&rsquo;intervention des collectivit&eacute;s territoriales pour le d&eacute;ploiement du tr&egrave;s haut d&eacute;bit et concernent d&eacute;sormais la quasi-totalit&eacute; des d&eacute;partements. L&rsquo;extension de cette d&eacute;marche au domaine des services num&eacute;riques va permettre aux collectivit&eacute;s territoriales de mettre en ad&eacute;quation leurs ambitions en mati&egrave;re de d&eacute;ploiement d&rsquo;infrastructures et leurs strat&eacute;gies de d&eacute;veloppement des services num&eacute;riques de proximit&eacute;, afin que l&rsquo;arriv&eacute;e du tr&egrave;s haut d&eacute;bit s&rsquo;inscrive dans une strat&eacute;gie globale au service de la population, pour la e-sant&eacute;, la ville intelligente ou l&rsquo;am&eacute;lioration des services locaux.</p>\r\n\r\n<p><strong>Exemple :</strong> un d&eacute;partement va pouvoir structurer l&rsquo;offre de service de maintien &agrave; domicile des personnes &acirc;g&eacute;es &agrave; mesure que du d&eacute;ploiement du tr&egrave;s haut d&eacute;bit sur l&rsquo;ensemble de son territoire.</p>",
          "type": {
            "title": "Explication de l'article"
          }
        }
      ],
      "title": "Article 23 - Développement des usages numériques dans les territoires",
      "_links": {
        "show": "https://www.republique-numerique.fr/consultations/projet-de-loi-numerique/consultation/consultation/opinions/section-1-competences-et-organisation/article-23-schema-directeur-numerique-des-collectivites",
        "edit": "https://www.republique-numerique.fr/consultations/projet-de-loi-numerique/consultation/consultation/opinions/section-1-competences-et-organisation/article-23-schema-directeur-numerique-des-collectivites/edit",
        "report": "https://www.republique-numerique.fr/consultations/projet-de-loi-numerique/consultation/consultation/opinions/section-1-competences-et-organisation/article-23-schema-directeur-numerique-des-collectivites/report",
        "type": "https://www.republique-numerique.fr/consultations/projet-de-loi-numerique/consultation/consultation/opinions/section-1-competences-et-organisation"
      },
      "user_vote": null,
      "has_user_reported": false
    },
    "sources_count": 0,
    "arguments_count": 1,
    "votes": [
      {
        "user": {
          "username": "VIGIER Frederic",
          "displayName": "VIGIER Frederic",
          "uniqueId": "vigierfrederic",
          "isAdmin": false,
          "media": null,
          "vip": false,
          "_links": {
            "profile": "https://www.republique-numerique.fr/profile/vigierfrederic",
            "settings": "https://www.republique-numerique.fr/profile/edit-profile"
          }
        },
        "value": 1
      },
      {
        "user": {
          "username": "Mathieu Sutter",
          "displayName": "Mathieu Sutter",
          "uniqueId": "mathieusutter",
          "isAdmin": false,
          "media": null,
          "vip": false,
          "_links": {
            "profile": "https://www.republique-numerique.fr/profile/mathieusutter",
            "settings": "https://www.republique-numerique.fr/profile/edit-profile"
          }
        },
        "value": 1
      },
      {
        "user": {
          "username": "Vincent Reverdy",
          "displayName": "Vincent Reverdy",
          "uniqueId": "vincentreverdy",
          "isAdmin": false,
          "media": {
            "url": "/media/cache/default_avatar/default/0001/01/268_default_avatar.jpg"
          },
          "vip": false,
          "_links": {
            "profile": "https://www.republique-numerique.fr/profile/vincentreverdy",
            "settings": "https://www.republique-numerique.fr/profile/edit-profile"
          }
        },
        "value": 1
      },
      {
        "user": {
          "username": "bill duchemin",
          "displayName": "bill duchemin",
          "uniqueId": "billduchemin",
          "isAdmin": false,
          "media": null,
          "vip": false,
          "_links": {
            "profile": "https://www.republique-numerique.fr/profile/billduchemin",
            "settings": "https://www.republique-numerique.fr/profile/edit-profile"
          }
        },
        "value": 1
      }
    ],
    "updated_at": "2015-09-26T16:23:35+0200",
    "ranking": 696,
    "is_trashed": false,
    "title": "Les territoires doivent être aux services de citoyens, même interface, même terminologie, pas de silos",
    "slug": "les-territoires-doivent-etre-aux-services-de-citoyens-meme-interface-meme-terminologie-pas-de-silos",
    "created_at": "2015-09-26T16:23:35+0200",
    "votes_nok": 0,
    "votes_ok": 4,
    "votes_mitige": 0,
    "_links": {
      "show": "https://www.republique-numerique.fr/consultations/projet-de-loi-numerique/consultation/consultation/opinions/section-1-competences-et-organisation/article-23-schema-directeur-numerique-des-collectivites/versions/les-territoires-doivent-etre-aux-services-de-citoyens-meme-interface-meme-terminologie-pas-de-silos",
      "report": "https://www.republique-numerique.fr/consultations/projet-de-loi-numerique/consultation/consultation/opinions/section-1-competences-et-organisation/article-23-schema-directeur-numerique-des-collectivites/versions/les-territoires-doivent-etre-aux-services-de-citoyens-meme-interface-meme-terminologie-pas-de-silos/report"
    },
    "user_vote": null,
    "has_user_reported": false
  },
  "rankingThreshold": null,
  "opinionTerm": 1
}