{
  "opinion": {
    "isContribuable": false,
    "votes_total": 25,
    "arguments_yes_count": 2,
    "arguments_no_count": 3,
    "id": 276,
    "created_at": "2015-09-29T01:33:47+0200",
    "updated_at": "2015-09-29T01:33:47+0200",
    "body": "<p>Aujourd&#39;hui, seule la monnaie &eacute;lectronique est d&eacute;finie en r&eacute;sultat de deux&nbsp;directives europ&eacute;ennes (dont notamment la directive monnaie &eacute;lectronique) dont le r&eacute;sultat a &eacute;t&eacute; codifi&eacute; au sein du Code mon&eacute;taire et financier (cf. :&nbsp;<a _src=\"http://www.legifrance.gouv.fr/affichCodeArticle.do?idArticle=LEGIARTI000020866955&amp;cidTexte=LEGITEXT000006072026)\" class=\"external-link\" href=\"http://www.legifrance.gouv.fr/affichCodeArticle.do?idArticle=LEGIARTI000020866955&amp;cidTexte=LEGITEXT000006072026)\">http://www.legifrance.gouv.fr/affichCodeArticle.do?idArticle=LEGIARTI000020866955&amp;cidTexte=LEGITEXT000006072026)</a>&nbsp;mais la monnaie virtuelle n&#39;est quant &agrave; elle pas d&eacute;finie l&eacute;galement.</p>\r\n\r\n<p>La doctrine revient de fa&ccedil;on r&eacute;guli&egrave;re &agrave; parler de la &quot;monnaie en tout ses &eacute;tats&quot; sans pour autant d&eacute;finir la monnaie virtuelle autrement que par l&#39;usage effectivement r&eacute;alis&eacute; &agrave; travers les Bitcoin.</p>\r\n\r\n<p>La BCE tend dans son rapport Virtual Currency Schemes de 2012, au contraire, &agrave; consid&eacute;rer que les Bitcoin sont une monnaie virtuelle dont le r&eacute;gime devrait &ecirc;tre celui des monnaies &eacute;lectroniques : le r&eacute;sultat pratique n&#39;en est pas &eacute;clair&eacute;. (cf. :&nbsp;<a _src=\"https://www.ecb.europa.eu/pub/pdf/other/virtualcurrencyschemes201210en.pdf\" class=\"external-link\" href=\"https://www.ecb.europa.eu/pub/pdf/other/virtualcurrencyschemes201210en.pdf\">https://www.ecb.europa.eu/pub/pdf/other/virtualcurrencyschemes201210en.pdf</a>&nbsp;)</p>",
    "versions_count": 0,
    "sources_count": 5,
    "arguments_count": 5,
    "author": {
      "username": "Jade Caboche",
      "displayName": "Jade Caboche",
      "uniqueId": "jadecaboche",
      "isAdmin": false,
      "media": {
        "url": "/media/cache/default_avatar/default/0001/01/196_default_avatar.jpg"
      },
      "vip": false,
      "_links": {
        "profile": "https://www.republique-numerique.fr/profile/jadecaboche",
        "settings": "https://www.republique-numerique.fr/profile/edit-profile"
      }
    },
    "type": {
      "id": 107,
      "title": "Section 2",
      "subtitle": "Paiement par SMS",
      "voteWidgetType": 2,
      "votesHelpText": "Pensez-vous que cette proposition permet d'atteindre les objectifs présentés dans l’explication de l’article ?",
      "commentSystem": 2,
      "color": "blue",
      "versionable": true,
      "sourceable": true,
      "votesThreshold": null,
      "votesThresholdHelpText": null
    },
    "sources": [
      {
        "isContribuable": false,
        "id": 159,
        "title": "Quelques informations sur bitcoin , son histoire et ses conséquences",
        "link": "https://fr.wikipedia.org/wiki/Bitcoin?oldformat=true",
        "body": "\" (...) Le terme bitcoin (de l'anglais « bit » : unité d'information binaire et « coin » : pièce de monnaie) désigne à la fois un système de paiement à travers le réseau Internet et l'unité de compte utilisée par ce système de paiement. Cependant, quand il est employé comme un nom propre (il commence par une majuscule et n'est pas précédé d'un article), il réfère au système de paiement et quand il est utilisé comme un nom commun (il commence par une minuscule, est précédé d'un article et peut se mettre au pluriel), il réfère à l'unité de compte. (...) \"",
        "created_at": "2015-10-01T10:48:19+0200",
        "updated_at": "2015-10-01T10:48:19+0200",
        "author": {
          "username": "Pierre",
          "displayName": "Pierre",
          "uniqueId": "pierre1",
          "isAdmin": false,
          "media": {
            "url": "/media/cache/default_avatar/default/0001/01/199_default_avatar.png"
          },
          "vip": false,
          "_links": {
            "profile": "https://www.republique-numerique.fr/profile/pierre1",
            "settings": "https://www.republique-numerique.fr/profile/edit-profile"
          }
        },
        "category": "Site internet",
        "votes_count": 0,
        "_links": {
          "edit": "https://www.republique-numerique.fr/consultations/projet-de-loi-numerique/consultation/consultation/opinions/section-2-paiement-par-sms/article-27-definir-la-monnaie-virtuelle-a-distinguer-de-la-monnaie-electronique/sources/quelques-informations-sur-bitcoin-son-histoire-et-ses-consequences/edit",
          "report": "https://www.republique-numerique.fr/consultations/projet-de-loi-numerique/consultation/consultation/opinions/section-2-paiement-par-sms/article-27-definir-la-monnaie-virtuelle-a-distinguer-de-la-monnaie-electronique/sources/quelques-informations-sur-bitcoin-son-histoire-et-ses-consequences/report"
        },
        "has_user_voted": false,
        "has_user_reported": false
      },
      {
        "isContribuable": false,
        "id": 157,
        "title": "Bitcoin",
        "link": "https://bitcoin.org/fr/",
        "body": "Site officiel et en français de Bitcoin",
        "created_at": "2015-10-01T10:47:14+0200",
        "updated_at": "2015-10-01T10:47:14+0200",
        "author": {
          "username": "Pierre",
          "displayName": "Pierre",
          "uniqueId": "pierre1",
          "isAdmin": false,
          "media": {
            "url": "/media/cache/default_avatar/default/0001/01/199_default_avatar.png"
          },
          "vip": false,
          "_links": {
            "profile": "https://www.republique-numerique.fr/profile/pierre1",
            "settings": "https://www.republique-numerique.fr/profile/edit-profile"
          }
        },
        "category": "Site internet",
        "votes_count": 0,
        "_links": {
          "edit": "https://www.republique-numerique.fr/consultations/projet-de-loi-numerique/consultation/consultation/opinions/section-2-paiement-par-sms/article-27-definir-la-monnaie-virtuelle-a-distinguer-de-la-monnaie-electronique/sources/bitcoin/edit",
          "report": "https://www.republique-numerique.fr/consultations/projet-de-loi-numerique/consultation/consultation/opinions/section-2-paiement-par-sms/article-27-definir-la-monnaie-virtuelle-a-distinguer-de-la-monnaie-electronique/sources/bitcoin/report"
        },
        "has_user_voted": false,
        "has_user_reported": false
      },
      {
        "isContribuable": false,
        "id": 75,
        "title": "Distinction juridique entre monnaie virtuelle et monnaie électronique",
        "link": "http://www.tendancedroit.fr/monnaie-virtuelle-et-monnaie-electronique-distinction-et-encadrement-contractuel-des-porte-monnaie-virtuels-affectes/",
        "body": "Mise en avant des différences relatives aux monnaies dématérialisées.",
        "created_at": "2015-09-29T13:08:20+0200",
        "updated_at": "2015-09-29T13:08:20+0200",
        "author": {
          "username": "Jade Caboche",
          "displayName": "Jade Caboche",
          "uniqueId": "jadecaboche",
          "isAdmin": false,
          "media": {
            "url": "/media/cache/default_avatar/default/0001/01/196_default_avatar.jpg"
          },
          "vip": false,
          "_links": {
            "profile": "https://www.republique-numerique.fr/profile/jadecaboche",
            "settings": "https://www.republique-numerique.fr/profile/edit-profile"
          }
        },
        "category": "Billet de blog",
        "votes_count": 2,
        "_links": {
          "edit": "https://www.republique-numerique.fr/consultations/projet-de-loi-numerique/consultation/consultation/opinions/section-2-paiement-par-sms/article-27-definir-la-monnaie-virtuelle-a-distinguer-de-la-monnaie-electronique/sources/distinction-juridique-entre-monnaie-virtuelle-et-monnaie-electronique/edit",
          "report": "https://www.republique-numerique.fr/consultations/projet-de-loi-numerique/consultation/consultation/opinions/section-2-paiement-par-sms/article-27-definir-la-monnaie-virtuelle-a-distinguer-de-la-monnaie-electronique/sources/distinction-juridique-entre-monnaie-virtuelle-et-monnaie-electronique/report"
        },
        "has_user_voted": false,
        "has_user_reported": false
      },
      {
        "isContribuable": false,
        "id": 74,
        "title": "Rapport du Ministère de l'Economie sur l'Encadrement des monnaies virtuelles",
        "link": "http://www.economie.gouv.fr/files/rapport_monnaiesvirtuelles_web.pdf",
        "body": "Recommandations visant à prévenir leurs usages à des fins frauduleuses ou de blanchiment - Juin 2014",
        "created_at": "2015-09-29T13:04:19+0200",
        "updated_at": "2015-09-29T13:04:19+0200",
        "author": {
          "username": "Jade Caboche",
          "displayName": "Jade Caboche",
          "uniqueId": "jadecaboche",
          "isAdmin": false,
          "media": {
            "url": "/media/cache/default_avatar/default/0001/01/196_default_avatar.jpg"
          },
          "vip": false,
          "_links": {
            "profile": "https://www.republique-numerique.fr/profile/jadecaboche",
            "settings": "https://www.republique-numerique.fr/profile/edit-profile"
          }
        },
        "category": "Rapport / Étude",
        "votes_count": 2,
        "_links": {
          "edit": "https://www.republique-numerique.fr/consultations/projet-de-loi-numerique/consultation/consultation/opinions/section-2-paiement-par-sms/article-27-definir-la-monnaie-virtuelle-a-distinguer-de-la-monnaie-electronique/sources/rapport-du-ministere-de-l-economie-sur-l-encadrement-des-monnaies-virtuelles/edit",
          "report": "https://www.republique-numerique.fr/consultations/projet-de-loi-numerique/consultation/consultation/opinions/section-2-paiement-par-sms/article-27-definir-la-monnaie-virtuelle-a-distinguer-de-la-monnaie-electronique/sources/rapport-du-ministere-de-l-economie-sur-l-encadrement-des-monnaies-virtuelles/report"
        },
        "has_user_voted": false,
        "has_user_reported": false
      },
      {
        "isContribuable": false,
        "id": 61,
        "title": "BCE - Virtual Currency Schemes",
        "link": "https://www.ecb.europa.eu/pub/pdf/other/virtualcurrencyschemes201210en.pdf",
        "body": "Rapport de la Banque centrale européenne d'octobre 2012",
        "created_at": "2015-09-29T10:12:52+0200",
        "updated_at": "2015-09-29T10:12:52+0200",
        "author": {
          "username": "Jade Caboche",
          "displayName": "Jade Caboche",
          "uniqueId": "jadecaboche",
          "isAdmin": false,
          "media": {
            "url": "/media/cache/default_avatar/default/0001/01/196_default_avatar.jpg"
          },
          "vip": false,
          "_links": {
            "profile": "https://www.republique-numerique.fr/profile/jadecaboche",
            "settings": "https://www.republique-numerique.fr/profile/edit-profile"
          }
        },
        "category": "Rapport / Étude",
        "votes_count": 2,
        "_links": {
          "edit": "https://www.republique-numerique.fr/consultations/projet-de-loi-numerique/consultation/consultation/opinions/section-2-paiement-par-sms/article-27-definir-la-monnaie-virtuelle-a-distinguer-de-la-monnaie-electronique/sources/bce-virtual-currency-schemes/edit",
          "report": "https://www.republique-numerique.fr/consultations/projet-de-loi-numerique/consultation/consultation/opinions/section-2-paiement-par-sms/article-27-definir-la-monnaie-virtuelle-a-distinguer-de-la-monnaie-electronique/sources/bce-virtual-currency-schemes/report"
        },
        "has_user_voted": false,
        "has_user_reported": false
      }
    ],
    "arguments": [
      {
        "isContribuable": false,
        "id": 5477,
        "body": "Aucune urgence, aucun impératif à définir plus avant une monnaie qui relève plus du proof of concept ou d'une arnaque spéculative qu'autre chose.",
        "created_at": "2015-10-17T18:50:01+0200",
        "updated_at": "2015-10-17T18:50:01+0200",
        "is_enabled": true,
        "votes_count": 1,
        "type": 0,
        "is_trashed": false,
        "author": {
          "username": "Tanéléo",
          "displayName": "Tanéléo",
          "uniqueId": "taneleo",
          "isAdmin": false,
          "media": null,
          "vip": false,
          "_links": {
            "profile": "https://www.republique-numerique.fr/profile/taneleo",
            "settings": "https://www.republique-numerique.fr/profile/edit-profile"
          }
        },
        "_links": {
          "show": "https://www.republique-numerique.fr/consultations/projet-de-loi-numerique/consultation/consultation/opinions/section-2-paiement-par-sms/article-27-definir-la-monnaie-virtuelle-a-distinguer-de-la-monnaie-electronique#arg-5477",
          "edit": "https://www.republique-numerique.fr/consultations/projet-de-loi-numerique/consultation/consultation/opinions/section-2-paiement-par-sms/article-27-definir-la-monnaie-virtuelle-a-distinguer-de-la-monnaie-electronique/arguments/5477/edit",
          "report": "https://www.republique-numerique.fr/consultations/projet-de-loi-numerique/consultation/consultation/opinions/section-2-paiement-par-sms/article-27-definir-la-monnaie-virtuelle-a-distinguer-de-la-monnaie-electronique/arguments/5477/report"
        },
        "has_user_voted": false,
        "has_user_reported": false
      },
      {
        "isContribuable": false,
        "id": 1698,
        "body": "N'oublions pas que la monnaie virtuelle ne se résume en aucun cas au Bitcoin : il en existe des dizaines d'autres...",
        "created_at": "2015-09-30T21:00:20+0200",
        "updated_at": "2015-09-30T21:00:20+0200",
        "is_enabled": true,
        "votes_count": 1,
        "type": 1,
        "is_trashed": false,
        "author": {
          "username": "Superchaton",
          "displayName": "Superchaton",
          "uniqueId": "superchaton",
          "isAdmin": false,
          "media": null,
          "vip": false,
          "_links": {
            "profile": "https://www.republique-numerique.fr/profile/superchaton",
            "settings": "https://www.republique-numerique.fr/profile/edit-profile"
          }
        },
        "_links": {
          "show": "https://www.republique-numerique.fr/consultations/projet-de-loi-numerique/consultation/consultation/opinions/section-2-paiement-par-sms/article-27-definir-la-monnaie-virtuelle-a-distinguer-de-la-monnaie-electronique#arg-1698",
          "edit": "https://www.republique-numerique.fr/consultations/projet-de-loi-numerique/consultation/consultation/opinions/section-2-paiement-par-sms/article-27-definir-la-monnaie-virtuelle-a-distinguer-de-la-monnaie-electronique/arguments/1698/edit",
          "report": "https://www.republique-numerique.fr/consultations/projet-de-loi-numerique/consultation/consultation/opinions/section-2-paiement-par-sms/article-27-definir-la-monnaie-virtuelle-a-distinguer-de-la-monnaie-electronique/arguments/1698/report"
        },
        "has_user_voted": false,
        "has_user_reported": false
      },
      {
        "isContribuable": false,
        "id": 1211,
        "body": "La monnaie virtuelle n'a pas de définition juridique : la qualifier comme telle n'est pas réducteur. C'est juste pour en préciser son régime juridique en conséquence. Cependant, le bitcoin ne se résume pas à la monnaie virtuelle et inversement.",
        "created_at": "2015-09-29T12:54:34+0200",
        "updated_at": "2015-09-29T13:06:25+0200",
        "is_enabled": true,
        "votes_count": 0,
        "type": 0,
        "is_trashed": false,
        "author": {
          "username": "Jade Caboche",
          "displayName": "Jade Caboche",
          "uniqueId": "jadecaboche",
          "isAdmin": false,
          "media": {
            "url": "/media/cache/default_avatar/default/0001/01/196_default_avatar.jpg"
          },
          "vip": false,
          "_links": {
            "profile": "https://www.republique-numerique.fr/profile/jadecaboche",
            "settings": "https://www.republique-numerique.fr/profile/edit-profile"
          }
        },
        "_links": {
          "show": "https://www.republique-numerique.fr/consultations/projet-de-loi-numerique/consultation/consultation/opinions/section-2-paiement-par-sms/article-27-definir-la-monnaie-virtuelle-a-distinguer-de-la-monnaie-electronique#arg-1211",
          "edit": "https://www.republique-numerique.fr/consultations/projet-de-loi-numerique/consultation/consultation/opinions/section-2-paiement-par-sms/article-27-definir-la-monnaie-virtuelle-a-distinguer-de-la-monnaie-electronique/arguments/1211/edit",
          "report": "https://www.republique-numerique.fr/consultations/projet-de-loi-numerique/consultation/consultation/opinions/section-2-paiement-par-sms/article-27-definir-la-monnaie-virtuelle-a-distinguer-de-la-monnaie-electronique/arguments/1211/report"
        },
        "has_user_voted": false,
        "has_user_reported": false
      },
      {
        "isContribuable": false,
        "id": 1212,
        "body": "Pour information : les bitcoins sont qualifiés de monnaie virtuelle a contrario de la définition de monnaie électronique : ils ne correspondent pas à une créancre sur l'émetteur au sens de l'article du CMF : http://www.legifrance.gouv.fr/affichCodeArticle.do?cidTexte=LEGITEXT000006072026&idArticle=LEGIARTI000020861441&dateTexte=&categorieLien=cid",
        "created_at": "2015-09-29T12:59:02+0200",
        "updated_at": "2015-09-29T12:59:02+0200",
        "is_enabled": true,
        "votes_count": 0,
        "type": 1,
        "is_trashed": false,
        "author": {
          "username": "Jade Caboche",
          "displayName": "Jade Caboche",
          "uniqueId": "jadecaboche",
          "isAdmin": false,
          "media": {
            "url": "/media/cache/default_avatar/default/0001/01/196_default_avatar.jpg"
          },
          "vip": false,
          "_links": {
            "profile": "https://www.republique-numerique.fr/profile/jadecaboche",
            "settings": "https://www.republique-numerique.fr/profile/edit-profile"
          }
        },
        "_links": {
          "show": "https://www.republique-numerique.fr/consultations/projet-de-loi-numerique/consultation/consultation/opinions/section-2-paiement-par-sms/article-27-definir-la-monnaie-virtuelle-a-distinguer-de-la-monnaie-electronique#arg-1212",
          "edit": "https://www.republique-numerique.fr/consultations/projet-de-loi-numerique/consultation/consultation/opinions/section-2-paiement-par-sms/article-27-definir-la-monnaie-virtuelle-a-distinguer-de-la-monnaie-electronique/arguments/1212/edit",
          "report": "https://www.republique-numerique.fr/consultations/projet-de-loi-numerique/consultation/consultation/opinions/section-2-paiement-par-sms/article-27-definir-la-monnaie-virtuelle-a-distinguer-de-la-monnaie-electronique/arguments/1212/report"
        },
        "has_user_voted": false,
        "has_user_reported": false
      },
      {
        "isContribuable": false,
        "id": 1189,
        "body": "Le bitcoin est-il moins réel que ces millions d'euros qu'on d’échanges tous les jours et qui pourtant n'existent que sur nos relevés de comptes et sur nos écrans ?\nBien qu'ils n'aient pas d’existence matérielle les bitcoins existent effectivement, ce n'est donc pas une monnaie virtuelle pour moi.",
        "created_at": "2015-09-29T11:34:38+0200",
        "updated_at": "2015-09-29T11:34:38+0200",
        "is_enabled": true,
        "votes_count": 2,
        "type": 0,
        "is_trashed": false,
        "author": {
          "username": "Djan GICQUEL",
          "displayName": "Djan GICQUEL",
          "uniqueId": "djangicquel",
          "isAdmin": false,
          "media": {
            "url": "/media/cache/default_avatar/default/0001/01/122_default_avatar.jpg"
          },
          "vip": false,
          "_links": {
            "profile": "https://www.republique-numerique.fr/profile/djangicquel",
            "settings": "https://www.republique-numerique.fr/profile/edit-profile"
          }
        },
        "_links": {
          "show": "https://www.republique-numerique.fr/consultations/projet-de-loi-numerique/consultation/consultation/opinions/section-2-paiement-par-sms/article-27-definir-la-monnaie-virtuelle-a-distinguer-de-la-monnaie-electronique#arg-1189",
          "edit": "https://www.republique-numerique.fr/consultations/projet-de-loi-numerique/consultation/consultation/opinions/section-2-paiement-par-sms/article-27-definir-la-monnaie-virtuelle-a-distinguer-de-la-monnaie-electronique/arguments/1189/edit",
          "report": "https://www.republique-numerique.fr/consultations/projet-de-loi-numerique/consultation/consultation/opinions/section-2-paiement-par-sms/article-27-definir-la-monnaie-virtuelle-a-distinguer-de-la-monnaie-electronique/arguments/1189/report"
        },
        "has_user_voted": false,
        "has_user_reported": false
      }
    ],
    "modals": [],
    "votes": [
      {
        "user": {
          "username": "Yoann Sculo",
          "displayName": "Yoann Sculo",
          "uniqueId": "yoannsculo",
          "isAdmin": false,
          "media": null,
          "vip": false,
          "_links": {
            "profile": "https://www.republique-numerique.fr/profile/yoannsculo",
            "settings": "https://www.republique-numerique.fr/profile/edit-profile"
          }
        }
      },
      {
        "user": {
          "username": "Pierre",
          "displayName": "Pierre",
          "uniqueId": "pierre1",
          "isAdmin": false,
          "media": {
            "url": "/media/cache/default_avatar/default/0001/01/199_default_avatar.png"
          },
          "vip": false,
          "_links": {
            "profile": "https://www.republique-numerique.fr/profile/pierre1",
            "settings": "https://www.republique-numerique.fr/profile/edit-profile"
          }
        }
      },
      {
        "user": {
          "username": "Delphine Viguan",
          "displayName": "Delphine Viguan",
          "uniqueId": "delphineviguan",
          "isAdmin": false,
          "media": {
            "url": "/media/cache/default_avatar/default/0001/01/269_default_avatar.png"
          },
          "vip": false,
          "_links": {
            "profile": "https://www.republique-numerique.fr/profile/delphineviguan",
            "settings": "https://www.republique-numerique.fr/profile/edit-profile"
          }
        }
      },
      {
        "user": {
          "username": "NADPERR",
          "displayName": "NADPERR",
          "uniqueId": "nadperr",
          "isAdmin": false,
          "media": {
            "url": "/media/cache/default_avatar/default/0001/01/154_default_avatar.jpg"
          },
          "vip": false,
          "_links": {
            "profile": "https://www.republique-numerique.fr/profile/nadperr",
            "settings": "https://www.republique-numerique.fr/profile/edit-profile"
          }
        }
      },
      {
        "user": {
          "username": "Mathias Blanchemanche",
          "displayName": "Mathias Blanchemanche",
          "uniqueId": "mathiasblanchemanche",
          "isAdmin": false,
          "media": null,
          "vip": false,
          "_links": {
            "profile": "https://www.republique-numerique.fr/profile/mathiasblanchemanche",
            "settings": "https://www.republique-numerique.fr/profile/edit-profile"
          }
        }
      }
    ],
    "appendices": [
      {
        "body": null,
        "type": {
          "title": "Explication de l'article"
        }
      }
    ],
    "ranking": 243,
    "is_trashed": false,
    "title": "Article 27 - Définir la monnaie virtuelle (à distinguer de la monnaie électronique)",
    "votes_nok": 3,
    "votes_ok": 17,
    "votes_mitige": 5,
    "_links": {
      "show": "https://www.republique-numerique.fr/consultations/projet-de-loi-numerique/consultation/consultation/opinions/section-2-paiement-par-sms/article-27-definir-la-monnaie-virtuelle-a-distinguer-de-la-monnaie-electronique",
      "edit": "https://www.republique-numerique.fr/consultations/projet-de-loi-numerique/consultation/consultation/opinions/section-2-paiement-par-sms/article-27-definir-la-monnaie-virtuelle-a-distinguer-de-la-monnaie-electronique/edit",
      "report": "https://www.republique-numerique.fr/consultations/projet-de-loi-numerique/consultation/consultation/opinions/section-2-paiement-par-sms/article-27-definir-la-monnaie-virtuelle-a-distinguer-de-la-monnaie-electronique/report",
      "type": "https://www.republique-numerique.fr/consultations/projet-de-loi-numerique/consultation/consultation/opinions/section-2-paiement-par-sms"
    },
    "user_vote": null,
    "has_user_reported": false
  },
  "rankingThreshold": null,
  "opinionTerm": 1
}