{
  "opinion": {
    "isContribuable": false,
    "votes_total": 7,
    "arguments_yes_count": 1,
    "arguments_no_count": 0,
    "id": 686,
    "created_at": "2015-10-16T19:56:01+0200",
    "updated_at": "2015-10-16T19:56:01+0200",
    "body": "<p>La carte d&#39;identit&eacute; pourrait r&eacute;unir les informations d&#39;autre cartes, comme le permis de conduire, la carte vitale ou la carte d&#39;electeur par exemple.</p>\r\n\r\n<p>Un moyen d&#39;authentification principal limitant ainsi la complexit&eacute; et le co&ucirc;t de d&eacute;marches administratives</p>",
    "versions_count": 0,
    "sources_count": 1,
    "arguments_count": 1,
    "author": {
      "username": "Florian Nouviale",
      "displayName": "Florian Nouviale",
      "uniqueId": "floriannouviale",
      "isAdmin": false,
      "media": null,
      "vip": false,
      "_links": {
        "profile": "https://www.republique-numerique.fr/profile/floriannouviale",
        "settings": "https://www.republique-numerique.fr/profile/edit-profile"
      }
    },
    "type": {
      "id": 87,
      "title": "Section 2",
      "subtitle": "Service public de la donnée",
      "voteWidgetType": 2,
      "votesHelpText": "Pensez-vous que cette proposition permet d'atteindre les objectifs présentés dans l’explication de l’article ?",
      "commentSystem": 2,
      "color": "blue",
      "versionable": true,
      "sourceable": true,
      "votesThreshold": null,
      "votesThresholdHelpText": null
    },
    "sources": [
      {
        "isContribuable": false,
        "id": 411,
        "title": "France-connect",
        "link": "http://etatplateforme.modernisation.gouv.fr/actualite/france-connect-une-clef-de-voute-pour-letat-plateforme",
        "body": "France-connect, identité numérique. Il faudrait l'associer à un \"multipass\" lié à ce compte et qui regrouperait tous les papiers.",
        "created_at": "2015-10-18T19:16:15+0200",
        "updated_at": "2015-10-18T19:19:30+0200",
        "author": {
          "username": "Jeanne Varasco",
          "displayName": "Jeanne Varasco",
          "uniqueId": "jeannevarasco",
          "isAdmin": false,
          "media": {
            "url": "/media/cache/default_avatar/default/0001/01/139_default_avatar.jpg"
          },
          "vip": false,
          "_links": {
            "profile": "https://www.republique-numerique.fr/profile/jeannevarasco",
            "settings": "https://www.republique-numerique.fr/profile/edit-profile"
          }
        },
        "category": "Billet de blog",
        "votes_count": 1,
        "_links": {
          "edit": "https://www.republique-numerique.fr/consultations/projet-de-loi-numerique/consultation/consultation/opinions/section-2-service-public-de-la-donnee-1/aggregation-des-documents-comme-la-carte-d-identite-le-permis-de-conduire-la-carte-vitale/sources/france-connect/edit",
          "report": "https://www.republique-numerique.fr/consultations/projet-de-loi-numerique/consultation/consultation/opinions/section-2-service-public-de-la-donnee-1/aggregation-des-documents-comme-la-carte-d-identite-le-permis-de-conduire-la-carte-vitale/sources/france-connect/report"
        },
        "has_user_voted": false,
        "has_user_reported": false
      }
    ],
    "arguments": [
      {
        "isContribuable": false,
        "id": 5073,
        "body": "En cours avec France-connect. Mais jusqu'à quel point ?",
        "created_at": "2015-10-16T22:49:35+0200",
        "updated_at": "2015-10-16T22:49:35+0200",
        "is_enabled": true,
        "votes_count": 1,
        "type": 1,
        "is_trashed": false,
        "author": {
          "username": "Jeanne Varasco",
          "displayName": "Jeanne Varasco",
          "uniqueId": "jeannevarasco",
          "isAdmin": false,
          "media": {
            "url": "/media/cache/default_avatar/default/0001/01/139_default_avatar.jpg"
          },
          "vip": false,
          "_links": {
            "profile": "https://www.republique-numerique.fr/profile/jeannevarasco",
            "settings": "https://www.republique-numerique.fr/profile/edit-profile"
          }
        },
        "_links": {
          "show": "https://www.republique-numerique.fr/consultations/projet-de-loi-numerique/consultation/consultation/opinions/section-2-service-public-de-la-donnee-1/aggregation-des-documents-comme-la-carte-d-identite-le-permis-de-conduire-la-carte-vitale#arg-5073",
          "edit": "https://www.republique-numerique.fr/consultations/projet-de-loi-numerique/consultation/consultation/opinions/section-2-service-public-de-la-donnee-1/aggregation-des-documents-comme-la-carte-d-identite-le-permis-de-conduire-la-carte-vitale/arguments/5073/edit",
          "report": "https://www.republique-numerique.fr/consultations/projet-de-loi-numerique/consultation/consultation/opinions/section-2-service-public-de-la-donnee-1/aggregation-des-documents-comme-la-carte-d-identite-le-permis-de-conduire-la-carte-vitale/arguments/5073/report"
        },
        "has_user_voted": false,
        "has_user_reported": false
      }
    ],
    "modals": [],
    "votes": [
      {
        "user": {
          "username": "Françoise Pommier",
          "displayName": "Françoise Pommier",
          "uniqueId": "francoisepommier",
          "isAdmin": false,
          "media": null,
          "vip": false,
          "_links": {
            "profile": "https://www.republique-numerique.fr/profile/francoisepommier",
            "settings": "https://www.republique-numerique.fr/profile/edit-profile"
          }
        }
      },
      {
        "user": {
          "username": "Gianolio Pierre",
          "displayName": "Gianolio Pierre",
          "uniqueId": "gianoliopierre",
          "isAdmin": false,
          "media": {
            "url": "/media/cache/default_avatar/default/0001/01/93_default_avatar.jpg"
          },
          "vip": false,
          "_links": {
            "profile": "https://www.republique-numerique.fr/profile/gianoliopierre",
            "settings": "https://www.republique-numerique.fr/profile/edit-profile"
          }
        }
      },
      {
        "user": {
          "username": "Jeanne Varasco",
          "displayName": "Jeanne Varasco",
          "uniqueId": "jeannevarasco",
          "isAdmin": false,
          "media": {
            "url": "/media/cache/default_avatar/default/0001/01/139_default_avatar.jpg"
          },
          "vip": false,
          "_links": {
            "profile": "https://www.republique-numerique.fr/profile/jeannevarasco",
            "settings": "https://www.republique-numerique.fr/profile/edit-profile"
          }
        }
      },
      {
        "user": {
          "username": "Bertrand EMERIT",
          "displayName": "Bertrand EMERIT",
          "uniqueId": "bertrandemerit",
          "isAdmin": false,
          "media": null,
          "vip": false,
          "_links": {
            "profile": "https://www.republique-numerique.fr/profile/bertrandemerit",
            "settings": "https://www.republique-numerique.fr/profile/edit-profile"
          }
        }
      },
      {
        "user": {
          "username": "Maisonobe Luc",
          "displayName": "Maisonobe Luc",
          "uniqueId": "maisonobeluc",
          "isAdmin": false,
          "media": {
            "url": "/media/cache/default_avatar/default/0001/01/710_default_avatar.jpg"
          },
          "vip": false,
          "_links": {
            "profile": "https://www.republique-numerique.fr/profile/maisonobeluc",
            "settings": "https://www.republique-numerique.fr/profile/edit-profile"
          }
        }
      }
    ],
    "appendices": [
      {
        "body": null,
        "type": {
          "title": "Explication de l'article"
        }
      }
    ],
    "ranking": 427,
    "is_trashed": false,
    "title": "Aggrégation des documents comme la carte d'identité, le permis de conduire, la carte vitale, ...",
    "votes_nok": 0,
    "votes_ok": 6,
    "votes_mitige": 1,
    "_links": {
      "show": "https://www.republique-numerique.fr/consultations/projet-de-loi-numerique/consultation/consultation/opinions/section-2-service-public-de-la-donnee-1/aggregation-des-documents-comme-la-carte-d-identite-le-permis-de-conduire-la-carte-vitale",
      "edit": "https://www.republique-numerique.fr/consultations/projet-de-loi-numerique/consultation/consultation/opinions/section-2-service-public-de-la-donnee-1/aggregation-des-documents-comme-la-carte-d-identite-le-permis-de-conduire-la-carte-vitale/edit",
      "report": "https://www.republique-numerique.fr/consultations/projet-de-loi-numerique/consultation/consultation/opinions/section-2-service-public-de-la-donnee-1/aggregation-des-documents-comme-la-carte-d-identite-le-permis-de-conduire-la-carte-vitale/report",
      "type": "https://www.republique-numerique.fr/consultations/projet-de-loi-numerique/consultation/consultation/opinions/section-2-service-public-de-la-donnee-1"
    },
    "user_vote": null,
    "has_user_reported": false
  },
  "rankingThreshold": null,
  "opinionTerm": 1
}