{
  "opinion": {
    "isContribuable": false,
    "votes_total": 12,
    "arguments_yes_count": 1,
    "arguments_no_count": 1,
    "id": 505,
    "created_at": "2015-10-09T20:34:18+0200",
    "updated_at": "2015-10-09T20:34:18+0200",
    "body": "<p>Tout appareils informatiques commercialis&eacute;s en France doit permettre &agrave; son propri&eacute;taire (acheteurs) un acc&egrave;s clair et facile aux droits d&#39;adminsitrations et (par exemple ) supprimer toute application qu&#39;il juge inutile.</p>",
    "versions_count": 1,
    "sources_count": 0,
    "arguments_count": 2,
    "author": {
      "username": "mammoutux",
      "displayName": "mammoutux",
      "uniqueId": "mammoutux",
      "isAdmin": false,
      "media": null,
      "vip": false,
      "_links": {
        "profile": "https://www.republique-numerique.fr/profile/mammoutux",
        "settings": "https://www.republique-numerique.fr/profile/edit-profile"
      }
    },
    "type": {
      "id": 90,
      "title": "Section 1",
      "subtitle": "Les Communs",
      "voteWidgetType": 2,
      "votesHelpText": "Pensez-vous que cette proposition permet d'atteindre les objectifs présentés dans l’explication de l’article ?",
      "commentSystem": 2,
      "color": "blue",
      "versionable": true,
      "sourceable": true,
      "votesThreshold": null,
      "votesThresholdHelpText": null
    },
    "sources": [],
    "arguments": [
      {
        "isContribuable": false,
        "id": 4424,
        "body": "Pierre Lavayssière\nOui mais le gouvernement peut imposer des règles de qualité comme on le fait avec beaucoup de choses (ex: le plastique) Le fait d'avoir laissé faire les vendeurs de matériel est une faute grave et doit être inversé (s'il y avait une alternative existante je n’aurais rien dit mais dans le monde du cellulaire il n'y a aucune offre libre) \nUn consommateur doit être maître du matériel qu'il utilise rien ne doivent pouvoir l'empêcher d'atteindre ce but s'il le désire. Aujourd'hui ce n'est pas le cas nos sommes obliger à faire de la retro-ingégnieurie pour pouvoir rendre du matériel libre ce qui demande BEAUCOUP de temps.\nvoir ici\nhttps://www.republique-numerique.fr/consultations/projet-de-loi-numerique/consultation/consultation/opinions/section-3-donnees-d-interet-general/utilisation-de-gnu-linux-dans-l-administration/versions/ajouter-le-faite-d-utiliser-du-materiel-ouvert-libre",
        "created_at": "2015-10-15T21:37:45+0200",
        "updated_at": "2015-10-15T21:37:45+0200",
        "is_enabled": true,
        "votes_count": 1,
        "type": 1,
        "is_trashed": false,
        "author": {
          "username": "BERNARD Loïc",
          "displayName": "BERNARD Loïc",
          "uniqueId": "bernardloic",
          "isAdmin": false,
          "media": {
            "url": "/media/cache/default_avatar/default/0001/01/805_default_avatar.jpg"
          },
          "vip": false,
          "_links": {
            "profile": "https://www.republique-numerique.fr/profile/bernardloic",
            "settings": "https://www.republique-numerique.fr/profile/edit-profile"
          }
        },
        "_links": {
          "show": "https://www.republique-numerique.fr/consultations/projet-de-loi-numerique/consultation/consultation/opinions/section-1-les-communs/terminaux-informatiques-et-droits-d-administrations#arg-4424",
          "edit": "https://www.republique-numerique.fr/consultations/projet-de-loi-numerique/consultation/consultation/opinions/section-1-les-communs/terminaux-informatiques-et-droits-d-administrations/arguments/4424/edit",
          "report": "https://www.republique-numerique.fr/consultations/projet-de-loi-numerique/consultation/consultation/opinions/section-1-les-communs/terminaux-informatiques-et-droits-d-administrations/arguments/4424/report"
        },
        "has_user_voted": false,
        "has_user_reported": false
      },
      {
        "isContribuable": false,
        "id": 3878,
        "body": "Les fonctions permises par l'appareil font parti de l'offre. Vous avez ce que vous achetez.",
        "created_at": "2015-10-14T12:56:35+0200",
        "updated_at": "2015-10-14T12:56:35+0200",
        "is_enabled": true,
        "votes_count": 0,
        "type": 0,
        "is_trashed": false,
        "author": {
          "username": "Pierre Lavayssière",
          "displayName": "Pierre Lavayssière",
          "uniqueId": "pierrelavayssiere",
          "isAdmin": false,
          "media": null,
          "vip": false,
          "_links": {
            "profile": "https://www.republique-numerique.fr/profile/pierrelavayssiere",
            "settings": "https://www.republique-numerique.fr/profile/edit-profile"
          }
        },
        "_links": {
          "show": "https://www.republique-numerique.fr/consultations/projet-de-loi-numerique/consultation/consultation/opinions/section-1-les-communs/terminaux-informatiques-et-droits-d-administrations#arg-3878",
          "edit": "https://www.republique-numerique.fr/consultations/projet-de-loi-numerique/consultation/consultation/opinions/section-1-les-communs/terminaux-informatiques-et-droits-d-administrations/arguments/3878/edit",
          "report": "https://www.republique-numerique.fr/consultations/projet-de-loi-numerique/consultation/consultation/opinions/section-1-les-communs/terminaux-informatiques-et-droits-d-administrations/arguments/3878/report"
        },
        "has_user_voted": false,
        "has_user_reported": false
      }
    ],
    "modals": [],
    "votes": [
      {
        "user": {
          "username": "Bernard Martinez",
          "displayName": "Bernard Martinez",
          "uniqueId": "bernardmartinez",
          "isAdmin": false,
          "media": null,
          "vip": false,
          "_links": {
            "profile": "https://www.republique-numerique.fr/profile/bernardmartinez",
            "settings": "https://www.republique-numerique.fr/profile/edit-profile"
          }
        }
      },
      {
        "user": {
          "username": "Christophe Osswald",
          "displayName": "Christophe Osswald",
          "uniqueId": "christopheosswald",
          "isAdmin": false,
          "media": null,
          "vip": false,
          "_links": {
            "profile": "https://www.republique-numerique.fr/profile/christopheosswald",
            "settings": "https://www.republique-numerique.fr/profile/edit-profile"
          }
        }
      },
      {
        "user": {
          "username": "Jeanne Varasco",
          "displayName": "Jeanne Varasco",
          "uniqueId": "jeannevarasco",
          "isAdmin": false,
          "media": {
            "url": "/media/cache/default_avatar/default/0001/01/139_default_avatar.jpg"
          },
          "vip": false,
          "_links": {
            "profile": "https://www.republique-numerique.fr/profile/jeannevarasco",
            "settings": "https://www.republique-numerique.fr/profile/edit-profile"
          }
        }
      },
      {
        "user": {
          "username": "Raphael Tricot",
          "displayName": "Raphael Tricot",
          "uniqueId": "raphaeltricot",
          "isAdmin": false,
          "media": null,
          "vip": false,
          "_links": {
            "profile": "https://www.republique-numerique.fr/profile/raphaeltricot",
            "settings": "https://www.republique-numerique.fr/profile/edit-profile"
          }
        }
      },
      {
        "user": {
          "username": "Maltese Nadine",
          "displayName": "Maltese Nadine",
          "uniqueId": "maltesenadine",
          "isAdmin": false,
          "media": {
            "url": "/media/cache/default_avatar/default/0001/01/113_default_avatar.png"
          },
          "vip": false,
          "_links": {
            "profile": "https://www.republique-numerique.fr/profile/maltesenadine",
            "settings": "https://www.republique-numerique.fr/profile/edit-profile"
          }
        }
      }
    ],
    "appendices": [
      {
        "body": "<p>Il est scandaleux de voir tous ses appareils Android&nbsp; commercialis&eacute;s sans que le propri&eacute;taire ait les droits d&#39;administrations sur son appareil avec des applications dont on ne peut se d&eacute;barresser faute d&#39;avoir les droits d&#39;administrations. Les fabricant de mat&eacute;riel informatique et Google peuvent faire ce qu&#39;ils veulent des terminaux &agrave; l&#39;insu de leurs utilisateurs.</p>\r\n\r\n<p>Comment dans ses conditions peut on rendre responsables les personnes d&#39;une utilisation malveillante de leur portable ??</p>",
        "type": {
          "title": "Explication de l'article"
        }
      }
    ],
    "ranking": 316,
    "is_trashed": false,
    "title": "Terminaux informatiques et droits d'administrations",
    "votes_nok": 1,
    "votes_ok": 11,
    "votes_mitige": 0,
    "_links": {
      "show": "https://www.republique-numerique.fr/consultations/projet-de-loi-numerique/consultation/consultation/opinions/section-1-les-communs/terminaux-informatiques-et-droits-d-administrations",
      "edit": "https://www.republique-numerique.fr/consultations/projet-de-loi-numerique/consultation/consultation/opinions/section-1-les-communs/terminaux-informatiques-et-droits-d-administrations/edit",
      "report": "https://www.republique-numerique.fr/consultations/projet-de-loi-numerique/consultation/consultation/opinions/section-1-les-communs/terminaux-informatiques-et-droits-d-administrations/report",
      "type": "https://www.republique-numerique.fr/consultations/projet-de-loi-numerique/consultation/consultation/opinions/section-1-les-communs"
    },
    "user_vote": null,
    "has_user_reported": false
  },
  "rankingThreshold": null,
  "opinionTerm": 1
}