{
  "opinion": {
    "isContribuable": false,
    "votes_total": 5,
    "arguments_yes_count": 1,
    "arguments_no_count": 0,
    "id": 688,
    "created_at": "2015-10-16T21:11:47+0200",
    "updated_at": "2015-10-17T11:05:04+0200",
    "body": "<div>\r\n<p>Les donn&eacute;es personnelles repr&eacute;sentent un formidable levier de simplification, d&#39;interop&eacute;rabilit&eacute;, de business, d&rsquo;innovations EU+FR port&eacute;s par le r&eacute;glementaire EU+FR, de n&eacute;gociation de groupe ou individuelle, et in-fine et de &quot;r&eacute;empowerment&quot; du citoyen lambda quant &agrave; sa vie priv&eacute;e pure : achats, contrats divers, r&eacute;seaux sociaux, dur&eacute;e de consentement, consentement, r&eacute;vocation du consentement, etc ...et donc &agrave; une facilitation de gestion des donn&eacute;es personnelles.</p>\r\n\r\n<p>Les g&eacute;o-localisations par d&eacute;faut sur des applications de smartphones, notamment lors du consentement demand&eacute; lors des installations, obligatoires si l&rsquo;on veut utiliser l&rsquo;application, ont fait &eacute;merger de nouvelles applications dites &laquo;&nbsp;permissives&nbsp;&raquo;. L&rsquo;apparition d&rsquo;acteurs .FR (par exemple &laquo;&nbsp;permiloc&nbsp;&raquo;) ouvrent une nouvelle approche de la privacy via le mode &laquo;&nbsp;permissif&nbsp;&raquo; et d&eacute;montrent l&rsquo;apport technologique pur pour y r&eacute;pondre tout en s&rsquo;appuyant sur les textes 78+04&nbsp;!! Le mode permissif dans notre exemple permet &agrave; l&rsquo;utilisateur, et donc au citoyen de d&eacute;cider directement de sa g&eacute;olocalisation ou pas et donc de son consentement, m&ecirc;me si il a consenti auparavant &agrave; donner cette &laquo;&nbsp;autorisation&nbsp;&raquo; lors de l&rsquo;installation de ses applications&nbsp;!</p>\r\n\r\n<p>Par extension de cette approche &laquo;&nbsp;permissive&nbsp;&raquo; application par application, ouvre la voie &agrave; l&rsquo;imagination de niveaux de consentements, applicables &agrave; des sous-ensemble de donn&eacute;es, pour tout type de contrat, etc &hellip; tout en restant libre et acteur de cet acte&nbsp;! Attentes citoyennes de ce qui en 1978 avait particip&eacute; &agrave; la cr&eacute;ation de la Cnil.</p>\r\n\r\n<p>Cette &laquo;&nbsp;technologie/norme/approche&nbsp;&raquo; de donn&eacute;es de la personne peut permettre une gestion par son propri&eacute;taire en totalit&eacute;, de l&rsquo;ensemble de consentements de la sph&egrave;re &laquo;&nbsp;vie priv&eacute;e&nbsp;&raquo;, et repr&eacute;sente un formidable levier de :<br />\r\n- r&eacute;-appropriation de ses donn&eacute;es personnelles &agrave; son propri&eacute;taire<br />\r\n- r&eacute;appropriation des finalit&eacute;s, consentement, dur&eacute;e de consentement, etc... au proprio-citoyen !!<br />\r\n- libre choix du consentement, de la finalit&eacute;, du contrat, de la dur&eacute;e de conservation<br />\r\n- libre choix de r&eacute;vocation du consentement<br />\r\n- etc &hellip;<br />\r\n<br />\r\n- et ayant un lien tr&egrave;s direct avec la consultation&nbsp;: R&eacute;publique num&eacute;rique&nbsp;!! &nbsp;</p>\r\n\r\n<p>Ce mode non intrusif, et &laquo;&nbsp;centr&eacute; sur la personne physique&nbsp;&raquo; permet d&rsquo;envisager des red&eacute;finitions du contrat sur le plan juridique (dur&eacute;e, consentement, CGU) et des possibilit&eacute;s de r&eacute;vocation personnelle du consentement de l&rsquo;int&eacute;ress&eacute;, etc &hellip;<br />\r\n<br />\r\nC&ocirc;t&eacute; L&eacute;gislateur<br />\r\n-----------------------<br />\r\nLe r&ocirc;le de l&rsquo;Etat serait de favoriser un dispositif l&eacute;gislatif et incitatif visant &agrave; l&rsquo;&eacute;mergence de&nbsp;:<br />\r\n- normes / interop&eacute;rabilit&eacute; / formats / portabilit&eacute; &nbsp;/ droit<br />\r\n- acteurs priv&eacute;s &eacute;diteurs de solutions gratuites ou payantes &egrave; business ou &eacute;conomie sociale et s.<br />\r\n(de type projets / &laquo;&nbsp;idenum&nbsp;&raquo; ou fond de type &laquo;&nbsp;/ schweitzer&nbsp;10M&euro; &raquo; )<br />\r\nvisant &agrave; favoriser l&rsquo;&eacute;mergence d&rsquo;acteurs-&eacute;diteurs de solutions et d&rsquo;apps smarpthones orient&eacute;es permissif et gratuites pour le &laquo;&nbsp;citoyen-utilisateur&nbsp;&raquo;.<br />\r\n<br />\r\nC&ocirc;t&eacute; Citoyens<br />\r\n-------------------<br />\r\nCes nouveaux &eacute;l&eacute;ments permettraient d&rsquo;assurer le contr&ocirc;le du consentement du citoyen/utilisateur ainsi que les finalit&eacute;s, dur&eacute;e de conservations etc &hellip; par l&rsquo;int&eacute;ress&eacute; lui-m&ecirc;me, favorisant la fiabilit&eacute; et l&rsquo;agilit&eacute; des identit&eacute;s num&eacute;riques, l&rsquo;oubli num&eacute;rique, la mort num&eacute;rique, l&rsquo;acheteur num&eacute;rique, le citoyen num&eacute;rique, le lanceur d&rsquo;alerte, etc &hellip;<br />\r\n<br />\r\nC&ocirc;t&eacute; Gestionnaire des donn&eacute;es perso<br />\r\n---------------------------------------------------<br />\r\nPour les entreprises et les administrations, etc &hellip; le fait d&rsquo;utiliser ou d&rsquo;impl&eacute;menter des technologies &nbsp;certifi&eacute;s&nbsp;&laquo;&nbsp;DP&nbsp;&raquo; (DonnesPerso) assurerait un transfert de risques et de responsabilit&eacute; total.<br />\r\n<br />\r\nCes m&ecirc;mes organismes pourraient &laquo;&nbsp;par fili&egrave;re&nbsp;&raquo; d&eacute;velopper des outils adapt&eacute;s &agrave; leurs secteurs et &agrave; leurs exigences propres &egrave; levier de business + collaboration inter-fili&egrave;res<br />\r\nLa cr&eacute;ation d&rsquo;un code APE sp&eacute;cifique validant ces nouvelles fili&egrave;res d&rsquo;innovation num&eacute;riques.</p>\r\n\r\n<p>&nbsp;</p>\r\n\r\n<p><strong>Proposition de structuration d&rsquo;une nouvelle fili&egrave;re &laquo;&nbsp;Donn&eacute;ePersonnelles&nbsp;&raquo; :</strong></p>\r\n\r\n<p>Etat<br />\r\n------<br />\r\n- norme&nbsp;unique :<br />\r\n&nbsp;&nbsp;&nbsp;&nbsp;&nbsp;&nbsp;&nbsp;&nbsp;&nbsp;&nbsp;&nbsp;&nbsp;&nbsp;&nbsp;&nbsp;&nbsp;&nbsp;&nbsp;&nbsp;&nbsp;&nbsp;&nbsp;&nbsp; - obligations sp&eacute;cifiques unique &laquo;&nbsp;DP&nbsp;&raquo;<br />\r\n&nbsp;&nbsp;&nbsp;&nbsp;&nbsp;&nbsp;&nbsp;&nbsp;&nbsp;&nbsp;&nbsp;&nbsp;&nbsp;&nbsp; &nbsp;&nbsp;&nbsp;&nbsp;&nbsp;&nbsp;&nbsp;&nbsp; - portabilit&eacute;<br />\r\n&nbsp;&nbsp;&nbsp;&nbsp;&nbsp;&nbsp;&nbsp;&nbsp;&nbsp;&nbsp;&nbsp;&nbsp;&nbsp;&nbsp;&nbsp; &nbsp;&nbsp;&nbsp;&nbsp;&nbsp;&nbsp;&nbsp; - d&eacute;finition des niveaux de sensibilit&eacute; / conteneurs<br />\r\n- r&eacute;gulateur des dur&eacute;es de consentement par fili&egrave;re pro / contrats + / donn&eacute;es administratives<br />\r\n- lois, r&egrave;glements&hellip;<br />\r\n- &laquo;&nbsp;recovery&nbsp;&raquo; et garant<br />\r\n- etat de l&rsquo;art (by ANSSI)<br />\r\n- incitation / financement</p>\r\n\r\n<p>Cnil &nbsp;(pourrait devenir ANSDP l&rsquo;Agence Nationale de S&eacute;curit&eacute; des Donn&eacute;es Personnelles)<br />\r\n------<br />\r\n- audit de conformit&eacute; &agrave; la norme&nbsp;&laquo;&nbsp;DP&nbsp;&raquo; unique<br />\r\n- label de certification DP<br />\r\n- sanctions &amp; r&ocirc;les actuels<br />\r\n&egrave; simplification par norme unique des NS, AU, etc &hellip;</p>\r\n\r\n<p>Cabinets Audits / Normes<br />\r\n----------------------------------<br />\r\n- accompagnement &agrave; la certification DP<br />\r\n- audits de conformit&eacute; DP<br />\r\n&egrave; &euro;&euro;&euro;</p>\r\n\r\n<p>Administrations &amp; Entreprises / utilisatrices conformit&eacute;<br />\r\n------------------------------------------------------------------------<br />\r\n- utilisatrices<br />\r\n- transfert de risques et de responsabilit&eacute;<br />\r\n- CIL&nbsp;: super-utilisateur / administrateur<br />\r\n- co-financeurs<br />\r\n&egrave;&euro;&euro;&euro;<br />\r\n<br />\r\nEntreprises / &eacute;ditrices<br />\r\n------------------------------<br />\r\n- d&eacute;veloppement et vente de solutions agiles mais s&eacute;curis&eacute;es &laquo;&nbsp;Donn&eacute;ePerso&nbsp;&raquo;<br />\r\n- d&eacute;veloppement d&rsquo;une fili&egrave;re innovation DP<br />\r\n- auditables par ANSDP / CNIL<br />\r\n&egrave; &euro;&euro;&euro;</p>\r\n\r\n<p>Citoyen-Utilisateur&nbsp;<br />\r\n-------------------------<br />\r\n- gestion directe et personnelle de ses consentements / contrats / abonnements / dur&eacute;e / etc &hellip;<br />\r\n- y compris pour ses utilisations / Gafa&nbsp;!!<br />\r\n- freemium, premium, etc &hellip;<br />\r\n<br />\r\nRESULTATS&nbsp;:<br />\r\n- Le droit identique, mais transfert r&eacute;el du consentement &agrave; la personne physique<br />\r\n- Nouvelle fili&egrave;re, innovations, &euro;&euro;&euro;<br />\r\n- Big Data<br />\r\n<br />\r\nCQFD</p>\r\n\r\n<p>CPY<br />\r\n&nbsp;</p>\r\n\r\n<p><br />\r\n<br />\r\n<br />\r\n&nbsp;</p>\r\n\r\n<p>&nbsp;</p>\r\n</div>",
    "versions_count": 0,
    "sources_count": 0,
    "arguments_count": 1,
    "author": {
      "username": "Christophe Pi.",
      "displayName": "Christophe Pi.",
      "uniqueId": "christophepi",
      "isAdmin": false,
      "media": null,
      "vip": false,
      "_links": {
        "profile": "https://www.republique-numerique.fr/profile/christophepi",
        "settings": "https://www.republique-numerique.fr/profile/edit-profile"
      }
    },
    "type": {
      "id": 99,
      "title": "Section 1",
      "subtitle": "Protection des données à caractère personnel",
      "voteWidgetType": 2,
      "votesHelpText": "Pensez-vous que cette proposition permet d'atteindre les objectifs présentés dans l’explication de l’article ?",
      "commentSystem": 2,
      "color": "blue",
      "versionable": true,
      "sourceable": true,
      "votesThreshold": null,
      "votesThresholdHelpText": null
    },
    "sources": [],
    "arguments": [
      {
        "isContribuable": false,
        "id": 6188,
        "body": "Trop long je n'ai pu tout lire/comprendre",
        "created_at": "2015-10-18T23:18:37+0200",
        "updated_at": "2015-10-18T23:18:37+0200",
        "is_enabled": true,
        "votes_count": 1,
        "type": 1,
        "is_trashed": false,
        "author": {
          "username": "MAU Joël",
          "displayName": "MAU Joël",
          "uniqueId": "maujoel",
          "isAdmin": false,
          "media": {
            "url": "/media/cache/default_avatar/default/0001/01/948_default_avatar.jpg"
          },
          "vip": false,
          "_links": {
            "profile": "https://www.republique-numerique.fr/profile/maujoel",
            "settings": "https://www.republique-numerique.fr/profile/edit-profile"
          }
        },
        "_links": {
          "show": "https://www.republique-numerique.fr/consultations/projet-de-loi-numerique/consultation/consultation/opinions/section-1-protection-des-donnees-a-caractere-personnel/innovation-et-donnees-personelles-un-formidable-levier-pour-fr-et-eu#arg-6188",
          "edit": "https://www.republique-numerique.fr/consultations/projet-de-loi-numerique/consultation/consultation/opinions/section-1-protection-des-donnees-a-caractere-personnel/innovation-et-donnees-personelles-un-formidable-levier-pour-fr-et-eu/arguments/6188/edit",
          "report": "https://www.republique-numerique.fr/consultations/projet-de-loi-numerique/consultation/consultation/opinions/section-1-protection-des-donnees-a-caractere-personnel/innovation-et-donnees-personelles-un-formidable-levier-pour-fr-et-eu/arguments/6188/report"
        },
        "has_user_voted": false,
        "has_user_reported": false
      }
    ],
    "modals": [],
    "votes": [
      {
        "user": {
          "username": "Christophe Pi.",
          "displayName": "Christophe Pi.",
          "uniqueId": "christophepi",
          "isAdmin": false,
          "media": null,
          "vip": false,
          "_links": {
            "profile": "https://www.republique-numerique.fr/profile/christophepi",
            "settings": "https://www.republique-numerique.fr/profile/edit-profile"
          }
        }
      },
      {
        "user": {
          "username": "Jeanne Varasco",
          "displayName": "Jeanne Varasco",
          "uniqueId": "jeannevarasco",
          "isAdmin": false,
          "media": {
            "url": "/media/cache/default_avatar/default/0001/01/139_default_avatar.jpg"
          },
          "vip": false,
          "_links": {
            "profile": "https://www.republique-numerique.fr/profile/jeannevarasco",
            "settings": "https://www.republique-numerique.fr/profile/edit-profile"
          }
        }
      },
      {
        "user": {
          "username": "Maisonobe Luc",
          "displayName": "Maisonobe Luc",
          "uniqueId": "maisonobeluc",
          "isAdmin": false,
          "media": {
            "url": "/media/cache/default_avatar/default/0001/01/710_default_avatar.jpg"
          },
          "vip": false,
          "_links": {
            "profile": "https://www.republique-numerique.fr/profile/maisonobeluc",
            "settings": "https://www.republique-numerique.fr/profile/edit-profile"
          }
        }
      },
      {
        "user": {
          "username": "Maltese Nadine",
          "displayName": "Maltese Nadine",
          "uniqueId": "maltesenadine",
          "isAdmin": false,
          "media": {
            "url": "/media/cache/default_avatar/default/0001/01/113_default_avatar.png"
          },
          "vip": false,
          "_links": {
            "profile": "https://www.republique-numerique.fr/profile/maltesenadine",
            "settings": "https://www.republique-numerique.fr/profile/edit-profile"
          }
        }
      },
      {
        "user": {
          "username": "MAU Joël",
          "displayName": "MAU Joël",
          "uniqueId": "maujoel",
          "isAdmin": false,
          "media": {
            "url": "/media/cache/default_avatar/default/0001/01/948_default_avatar.jpg"
          },
          "vip": false,
          "_links": {
            "profile": "https://www.republique-numerique.fr/profile/maujoel",
            "settings": "https://www.republique-numerique.fr/profile/edit-profile"
          }
        }
      }
    ],
    "appendices": [
      {
        "body": null,
        "type": {
          "title": "Explication de l'article"
        }
      }
    ],
    "ranking": 577,
    "is_trashed": false,
    "title": "innovation et données personnelles : un formidable levier pour .FR et .EU",
    "votes_nok": 2,
    "votes_ok": 1,
    "votes_mitige": 2,
    "_links": {
      "show": "https://www.republique-numerique.fr/consultations/projet-de-loi-numerique/consultation/consultation/opinions/section-1-protection-des-donnees-a-caractere-personnel/innovation-et-donnees-personelles-un-formidable-levier-pour-fr-et-eu",
      "edit": "https://www.republique-numerique.fr/consultations/projet-de-loi-numerique/consultation/consultation/opinions/section-1-protection-des-donnees-a-caractere-personnel/innovation-et-donnees-personelles-un-formidable-levier-pour-fr-et-eu/edit",
      "report": "https://www.republique-numerique.fr/consultations/projet-de-loi-numerique/consultation/consultation/opinions/section-1-protection-des-donnees-a-caractere-personnel/innovation-et-donnees-personelles-un-formidable-levier-pour-fr-et-eu/report",
      "type": "https://www.republique-numerique.fr/consultations/projet-de-loi-numerique/consultation/consultation/opinions/section-1-protection-des-donnees-a-caractere-personnel"
    },
    "user_vote": null,
    "has_user_reported": false
  },
  "rankingThreshold": null,
  "opinionTerm": 1
}