{
  "opinion": {
    "isContribuable": false,
    "votes_total": 278,
    "arguments_yes_count": 11,
    "arguments_no_count": 8,
    "id": 108,
    "created_at": "2015-09-26T14:58:15+0200",
    "updated_at": "2015-09-26T14:58:15+0200",
    "body": "<p>Dans l&#39;objectif de performance, de transparence et de s&eacute;curit&eacute; de la Nation et de la R&eacute;publique, tous les services publiques tendent &agrave; utiliser et promouvoir les logiciels libres et les pr&eacute;f&eacute;rer aux solutions dont l&#39;acc&egrave;s au code source par les citoyens et les services de l&#39;&eacute;tat est limit&eacute; ou interdit.</p>",
    "versions_count": 3,
    "sources_count": 0,
    "arguments_count": 19,
    "author": {
      "username": "F. Gonzalez",
      "displayName": "F. Gonzalez",
      "uniqueId": "fgonzalez",
      "isAdmin": false,
      "media": null,
      "vip": false,
      "_links": {
        "profile": "https://www.republique-numerique.fr/profile/fgonzalez",
        "settings": "https://www.republique-numerique.fr/profile/edit-profile"
      }
    },
    "type": {
      "id": 86,
      "title": "Section 1",
      "subtitle": "Ouverture des données publiques",
      "voteWidgetType": 2,
      "votesHelpText": "Pensez-vous que cette proposition permet d'atteindre les objectifs présentés dans l’explication de l’article ?",
      "commentSystem": 2,
      "color": "blue",
      "versionable": true,
      "sourceable": true,
      "votesThreshold": null,
      "votesThresholdHelpText": null
    },
    "sources": [],
    "arguments": [
      {
        "isContribuable": false,
        "id": 6197,
        "body": "Une nécessité absolue.",
        "created_at": "2015-10-18T23:24:50+0200",
        "updated_at": "2015-10-18T23:24:50+0200",
        "is_enabled": true,
        "votes_count": 0,
        "type": 1,
        "is_trashed": false,
        "author": {
          "username": "Ludovic Marchal",
          "displayName": "Ludovic Marchal",
          "uniqueId": "ludovicmarchal",
          "isAdmin": false,
          "media": {
            "url": "/media/cache/default_avatar/default/0001/02/1053_default_avatar.png"
          },
          "vip": false,
          "_links": {
            "profile": "https://www.republique-numerique.fr/profile/ludovicmarchal",
            "settings": "https://www.republique-numerique.fr/profile/edit-profile"
          }
        },
        "_links": {
          "show": "https://www.republique-numerique.fr/consultations/projet-de-loi-numerique/consultation/consultation/opinions/section-1-ouverture-des-donnees-publiques-1/article-numero-a-incrementer-de-l-acces-au-code-source#arg-6197",
          "edit": "https://www.republique-numerique.fr/consultations/projet-de-loi-numerique/consultation/consultation/opinions/section-1-ouverture-des-donnees-publiques-1/article-numero-a-incrementer-de-l-acces-au-code-source/arguments/6197/edit",
          "report": "https://www.republique-numerique.fr/consultations/projet-de-loi-numerique/consultation/consultation/opinions/section-1-ouverture-des-donnees-publiques-1/article-numero-a-incrementer-de-l-acces-au-code-source/arguments/6197/report"
        },
        "has_user_voted": false,
        "has_user_reported": false
      },
      {
        "isContribuable": false,
        "id": 5876,
        "body": "@Tanéléo :\nDéjà dit par ailleurs, la sécurité par l'obscurantime ne marche pas. Publier le code source permet de détecter les failles et de les corriger. Actuellement, on mise plutôt sur le code ouvert pour les produits ayant des besoins de sécurité élevés.",
        "created_at": "2015-10-18T15:50:32+0200",
        "updated_at": "2015-10-18T15:50:32+0200",
        "is_enabled": true,
        "votes_count": 3,
        "type": 1,
        "is_trashed": false,
        "author": {
          "username": "Maisonobe Luc",
          "displayName": "Maisonobe Luc",
          "uniqueId": "maisonobeluc",
          "isAdmin": false,
          "media": {
            "url": "/media/cache/default_avatar/default/0001/01/710_default_avatar.jpg"
          },
          "vip": false,
          "_links": {
            "profile": "https://www.republique-numerique.fr/profile/maisonobeluc",
            "settings": "https://www.republique-numerique.fr/profile/edit-profile"
          }
        },
        "_links": {
          "show": "https://www.republique-numerique.fr/consultations/projet-de-loi-numerique/consultation/consultation/opinions/section-1-ouverture-des-donnees-publiques-1/article-numero-a-incrementer-de-l-acces-au-code-source#arg-5876",
          "edit": "https://www.republique-numerique.fr/consultations/projet-de-loi-numerique/consultation/consultation/opinions/section-1-ouverture-des-donnees-publiques-1/article-numero-a-incrementer-de-l-acces-au-code-source/arguments/5876/edit",
          "report": "https://www.republique-numerique.fr/consultations/projet-de-loi-numerique/consultation/consultation/opinions/section-1-ouverture-des-donnees-publiques-1/article-numero-a-incrementer-de-l-acces-au-code-source/arguments/5876/report"
        },
        "has_user_voted": false,
        "has_user_reported": false
      },
      {
        "isContribuable": false,
        "id": 5283,
        "body": "Publier les codes sources c'est publier les failles de sécurité. C'est beaucoup trop dangereux pour une administration.",
        "created_at": "2015-10-17T15:14:56+0200",
        "updated_at": "2015-10-17T15:14:56+0200",
        "is_enabled": true,
        "votes_count": 0,
        "type": 0,
        "is_trashed": false,
        "author": {
          "username": "Tanéléo",
          "displayName": "Tanéléo",
          "uniqueId": "taneleo",
          "isAdmin": false,
          "media": null,
          "vip": false,
          "_links": {
            "profile": "https://www.republique-numerique.fr/profile/taneleo",
            "settings": "https://www.republique-numerique.fr/profile/edit-profile"
          }
        },
        "_links": {
          "show": "https://www.republique-numerique.fr/consultations/projet-de-loi-numerique/consultation/consultation/opinions/section-1-ouverture-des-donnees-publiques-1/article-numero-a-incrementer-de-l-acces-au-code-source#arg-5283",
          "edit": "https://www.republique-numerique.fr/consultations/projet-de-loi-numerique/consultation/consultation/opinions/section-1-ouverture-des-donnees-publiques-1/article-numero-a-incrementer-de-l-acces-au-code-source/arguments/5283/edit",
          "report": "https://www.republique-numerique.fr/consultations/projet-de-loi-numerique/consultation/consultation/opinions/section-1-ouverture-des-donnees-publiques-1/article-numero-a-incrementer-de-l-acces-au-code-source/arguments/5283/report"
        },
        "has_user_voted": false,
        "has_user_reported": false
      },
      {
        "isContribuable": false,
        "id": 4170,
        "body": "Attention, se limiter à la mise à disposition du code source est insuffisant. Voir l'exemple de la société Microsoft qui met le code source de ses produits à disposition des États, car elle a surfé sur la vague du Libre que les gens réduisent à la mise à disposition du code source. Le libre, ce n'est pas que cela, c'est aussi le droit de pouvoir créer soi-même son logiciel à partir du code source fournit, ce que naturellement les sociétés comme Microsoft interdisent même aux États. Et pensez-vous réellement que le programme fournit correspond au code source fournit !",
        "created_at": "2015-10-15T12:29:21+0200",
        "updated_at": "2015-10-15T12:29:21+0200",
        "is_enabled": true,
        "votes_count": 1,
        "type": 0,
        "is_trashed": false,
        "author": {
          "username": "Fred.S",
          "displayName": "Fred.S",
          "uniqueId": "freds",
          "isAdmin": false,
          "media": null,
          "vip": false,
          "_links": {
            "profile": "https://www.republique-numerique.fr/profile/freds",
            "settings": "https://www.republique-numerique.fr/profile/edit-profile"
          }
        },
        "_links": {
          "show": "https://www.republique-numerique.fr/consultations/projet-de-loi-numerique/consultation/consultation/opinions/section-1-ouverture-des-donnees-publiques-1/article-numero-a-incrementer-de-l-acces-au-code-source#arg-4170",
          "edit": "https://www.republique-numerique.fr/consultations/projet-de-loi-numerique/consultation/consultation/opinions/section-1-ouverture-des-donnees-publiques-1/article-numero-a-incrementer-de-l-acces-au-code-source/arguments/4170/edit",
          "report": "https://www.republique-numerique.fr/consultations/projet-de-loi-numerique/consultation/consultation/opinions/section-1-ouverture-des-donnees-publiques-1/article-numero-a-incrementer-de-l-acces-au-code-source/arguments/4170/report"
        },
        "has_user_voted": false,
        "has_user_reported": false
      },
      {
        "isContribuable": false,
        "id": 3718,
        "body": "Il n'y a pas que l'Etat et les Citoyens que je sache ? Le monde est vaste et plus encore avec les réseaux.\n",
        "created_at": "2015-10-13T21:34:08+0200",
        "updated_at": "2015-10-13T21:34:08+0200",
        "is_enabled": true,
        "votes_count": 1,
        "type": 1,
        "is_trashed": false,
        "author": {
          "username": "Patrick Van Minden",
          "displayName": "Patrick Van Minden",
          "uniqueId": "patrickvanminden",
          "isAdmin": false,
          "media": null,
          "vip": false,
          "_links": {
            "profile": "https://www.republique-numerique.fr/profile/patrickvanminden",
            "settings": "https://www.republique-numerique.fr/profile/edit-profile"
          }
        },
        "_links": {
          "show": "https://www.republique-numerique.fr/consultations/projet-de-loi-numerique/consultation/consultation/opinions/section-1-ouverture-des-donnees-publiques-1/article-numero-a-incrementer-de-l-acces-au-code-source#arg-3718",
          "edit": "https://www.republique-numerique.fr/consultations/projet-de-loi-numerique/consultation/consultation/opinions/section-1-ouverture-des-donnees-publiques-1/article-numero-a-incrementer-de-l-acces-au-code-source/arguments/3718/edit",
          "report": "https://www.republique-numerique.fr/consultations/projet-de-loi-numerique/consultation/consultation/opinions/section-1-ouverture-des-donnees-publiques-1/article-numero-a-incrementer-de-l-acces-au-code-source/arguments/3718/report"
        },
        "has_user_voted": false,
        "has_user_reported": false
      },
      {
        "isContribuable": false,
        "id": 3571,
        "body": "Le logiciel libre, c'est bien souvent plus de sécurité, et certainement pas moins que les logiciels propriétaires. De plus la \"philosophie\" derrière ce mouvement est plutôt concordante avec les principes de la démocratie.  \nCela permettrait en outre de s'affranchir du pouvoir de l'oligopole Microsoft/Apple/Google (pour résumer), qui sont des entreprises américaines. Il faut soutenir le logiciel libre et les développeurs français.",
        "created_at": "2015-10-13T13:49:52+0200",
        "updated_at": "2015-10-13T13:49:52+0200",
        "is_enabled": true,
        "votes_count": 3,
        "type": 1,
        "is_trashed": false,
        "author": {
          "username": "Nathan Frenot",
          "displayName": "Nathan Frenot",
          "uniqueId": "nathanfrenot",
          "isAdmin": false,
          "media": null,
          "vip": false,
          "_links": {
            "profile": "https://www.republique-numerique.fr/profile/nathanfrenot",
            "settings": "https://www.republique-numerique.fr/profile/edit-profile"
          }
        },
        "_links": {
          "show": "https://www.republique-numerique.fr/consultations/projet-de-loi-numerique/consultation/consultation/opinions/section-1-ouverture-des-donnees-publiques-1/article-numero-a-incrementer-de-l-acces-au-code-source#arg-3571",
          "edit": "https://www.republique-numerique.fr/consultations/projet-de-loi-numerique/consultation/consultation/opinions/section-1-ouverture-des-donnees-publiques-1/article-numero-a-incrementer-de-l-acces-au-code-source/arguments/3571/edit",
          "report": "https://www.republique-numerique.fr/consultations/projet-de-loi-numerique/consultation/consultation/opinions/section-1-ouverture-des-donnees-publiques-1/article-numero-a-incrementer-de-l-acces-au-code-source/arguments/3571/report"
        },
        "has_user_voted": false,
        "has_user_reported": false
      },
      {
        "isContribuable": false,
        "id": 2596,
        "body": "je suis parfaitement pour! https://www.republique-numerique.fr/consultations/projet-de-loi-numerique/consultation/consultation/opinions/section-2-portabilite-des-donnees/interdire-la-non-interoperabilite-voulu-sur-les-formats-de-fichiers",
        "created_at": "2015-10-08T02:25:00+0200",
        "updated_at": "2015-10-08T02:25:00+0200",
        "is_enabled": true,
        "votes_count": 1,
        "type": 1,
        "is_trashed": false,
        "author": {
          "username": "Micka Letatek Tuxun",
          "displayName": "Micka Letatek Tuxun",
          "uniqueId": "mickaletatektuxun",
          "isAdmin": false,
          "media": null,
          "vip": false,
          "_links": {
            "profile": "https://www.republique-numerique.fr/profile/mickaletatektuxun",
            "settings": "https://www.republique-numerique.fr/profile/edit-profile"
          }
        },
        "_links": {
          "show": "https://www.republique-numerique.fr/consultations/projet-de-loi-numerique/consultation/consultation/opinions/section-1-ouverture-des-donnees-publiques-1/article-numero-a-incrementer-de-l-acces-au-code-source#arg-2596",
          "edit": "https://www.republique-numerique.fr/consultations/projet-de-loi-numerique/consultation/consultation/opinions/section-1-ouverture-des-donnees-publiques-1/article-numero-a-incrementer-de-l-acces-au-code-source/arguments/2596/edit",
          "report": "https://www.republique-numerique.fr/consultations/projet-de-loi-numerique/consultation/consultation/opinions/section-1-ouverture-des-donnees-publiques-1/article-numero-a-incrementer-de-l-acces-au-code-source/arguments/2596/report"
        },
        "has_user_voted": false,
        "has_user_reported": false
      },
      {
        "isContribuable": false,
        "id": 1876,
        "body": "Pas d'accord pour ouvrir les codes source car trop dangereux, mais oui aux algorithmes de décisions de cette proposition : https://www.republique-numerique.fr/consultations/projet-de-loi-numerique/consultation/consultation/opinions/section-1-ouverture-des-donnees-publiques-1/ouverture-du-code-des-algorithmes-publics.",
        "created_at": "2015-10-01T14:47:36+0200",
        "updated_at": "2015-10-01T14:47:36+0200",
        "is_enabled": true,
        "votes_count": 0,
        "type": 0,
        "is_trashed": false,
        "author": {
          "username": "Samuel Doring",
          "displayName": "Samuel Doring",
          "uniqueId": "samueldoring",
          "isAdmin": false,
          "media": null,
          "vip": false,
          "_links": {
            "profile": "https://www.republique-numerique.fr/profile/samueldoring",
            "settings": "https://www.republique-numerique.fr/profile/edit-profile"
          }
        },
        "_links": {
          "show": "https://www.republique-numerique.fr/consultations/projet-de-loi-numerique/consultation/consultation/opinions/section-1-ouverture-des-donnees-publiques-1/article-numero-a-incrementer-de-l-acces-au-code-source#arg-1876",
          "edit": "https://www.republique-numerique.fr/consultations/projet-de-loi-numerique/consultation/consultation/opinions/section-1-ouverture-des-donnees-publiques-1/article-numero-a-incrementer-de-l-acces-au-code-source/arguments/1876/edit",
          "report": "https://www.republique-numerique.fr/consultations/projet-de-loi-numerique/consultation/consultation/opinions/section-1-ouverture-des-donnees-publiques-1/article-numero-a-incrementer-de-l-acces-au-code-source/arguments/1876/report"
        },
        "has_user_voted": false,
        "has_user_reported": false
      },
      {
        "isContribuable": false,
        "id": 1556,
        "body": "@Quentin Burny : l'état doit utiliser du logiciel libre et le promovoir dans ses administrations, car, ayant accès au code, les équipes de l'anssi pourront ainsi y déceler des failles. Pour le promovoir, l'état le fait aussi utiliser dans l'administration (c'est déjà le cas pour des serveurs, à déployer pour les clients réseaux)",
        "created_at": "2015-09-30T15:19:03+0200",
        "updated_at": "2015-09-30T15:19:03+0200",
        "is_enabled": true,
        "votes_count": 3,
        "type": 1,
        "is_trashed": false,
        "author": {
          "username": "F. Gonzalez",
          "displayName": "F. Gonzalez",
          "uniqueId": "fgonzalez",
          "isAdmin": false,
          "media": null,
          "vip": false,
          "_links": {
            "profile": "https://www.republique-numerique.fr/profile/fgonzalez",
            "settings": "https://www.republique-numerique.fr/profile/edit-profile"
          }
        },
        "_links": {
          "show": "https://www.republique-numerique.fr/consultations/projet-de-loi-numerique/consultation/consultation/opinions/section-1-ouverture-des-donnees-publiques-1/article-numero-a-incrementer-de-l-acces-au-code-source#arg-1556",
          "edit": "https://www.republique-numerique.fr/consultations/projet-de-loi-numerique/consultation/consultation/opinions/section-1-ouverture-des-donnees-publiques-1/article-numero-a-incrementer-de-l-acces-au-code-source/arguments/1556/edit",
          "report": "https://www.republique-numerique.fr/consultations/projet-de-loi-numerique/consultation/consultation/opinions/section-1-ouverture-des-donnees-publiques-1/article-numero-a-incrementer-de-l-acces-au-code-source/arguments/1556/report"
        },
        "has_user_voted": false,
        "has_user_reported": false
      },
      {
        "isContribuable": false,
        "id": 1510,
        "body": "Pas de rapport entre favoriser l'utilisation de logiciels open-source et l' « Ouverture des données publiques », qui est le titre de la section.\nCet article est hors-sujet.",
        "created_at": "2015-09-30T12:40:09+0200",
        "updated_at": "2015-09-30T12:40:09+0200",
        "is_enabled": true,
        "votes_count": 1,
        "type": 0,
        "is_trashed": false,
        "author": {
          "username": "Lertsenem",
          "displayName": "Lertsenem",
          "uniqueId": "lertsenem",
          "isAdmin": false,
          "media": {
            "url": "/media/cache/default_avatar/default/0001/01/324_default_avatar.jpg"
          },
          "vip": false,
          "_links": {
            "profile": "https://www.republique-numerique.fr/profile/lertsenem",
            "settings": "https://www.republique-numerique.fr/profile/edit-profile"
          }
        },
        "_links": {
          "show": "https://www.republique-numerique.fr/consultations/projet-de-loi-numerique/consultation/consultation/opinions/section-1-ouverture-des-donnees-publiques-1/article-numero-a-incrementer-de-l-acces-au-code-source#arg-1510",
          "edit": "https://www.republique-numerique.fr/consultations/projet-de-loi-numerique/consultation/consultation/opinions/section-1-ouverture-des-donnees-publiques-1/article-numero-a-incrementer-de-l-acces-au-code-source/arguments/1510/edit",
          "report": "https://www.republique-numerique.fr/consultations/projet-de-loi-numerique/consultation/consultation/opinions/section-1-ouverture-des-donnees-publiques-1/article-numero-a-incrementer-de-l-acces-au-code-source/arguments/1510/report"
        },
        "has_user_voted": false,
        "has_user_reported": false
      },
      {
        "isContribuable": false,
        "id": 1459,
        "body": "On parle de données et de traitements. Ce n'est pas parce que j'ai le code source d'un tableur que je connais les traitements qui sont effectués sur les données. Il me semble que l'on mélange tout.",
        "created_at": "2015-09-30T09:52:00+0200",
        "updated_at": "2015-09-30T09:52:00+0200",
        "is_enabled": true,
        "votes_count": 0,
        "type": 0,
        "is_trashed": false,
        "author": {
          "username": "Laurent Martin",
          "displayName": "Laurent Martin",
          "uniqueId": "laurentmartin",
          "isAdmin": false,
          "media": null,
          "vip": false,
          "_links": {
            "profile": "https://www.republique-numerique.fr/profile/laurentmartin",
            "settings": "https://www.republique-numerique.fr/profile/edit-profile"
          }
        },
        "_links": {
          "show": "https://www.republique-numerique.fr/consultations/projet-de-loi-numerique/consultation/consultation/opinions/section-1-ouverture-des-donnees-publiques-1/article-numero-a-incrementer-de-l-acces-au-code-source#arg-1459",
          "edit": "https://www.republique-numerique.fr/consultations/projet-de-loi-numerique/consultation/consultation/opinions/section-1-ouverture-des-donnees-publiques-1/article-numero-a-incrementer-de-l-acces-au-code-source/arguments/1459/edit",
          "report": "https://www.republique-numerique.fr/consultations/projet-de-loi-numerique/consultation/consultation/opinions/section-1-ouverture-des-donnees-publiques-1/article-numero-a-incrementer-de-l-acces-au-code-source/arguments/1459/report"
        },
        "has_user_voted": false,
        "has_user_reported": false
      },
      {
        "isContribuable": false,
        "id": 1285,
        "body": "Comment concilier cet article opposé aux boîtes noires et la loi sur le renseignement qui en instaure ?",
        "created_at": "2015-09-29T16:16:50+0200",
        "updated_at": "2015-09-29T16:16:50+0200",
        "is_enabled": true,
        "votes_count": 3,
        "type": 1,
        "is_trashed": false,
        "author": {
          "username": "François Briat",
          "displayName": "François Briat",
          "uniqueId": "francoisbriat",
          "isAdmin": false,
          "media": {
            "url": "/media/cache/default_avatar/default/0001/01/243_default_avatar.jpg"
          },
          "vip": false,
          "_links": {
            "profile": "https://www.republique-numerique.fr/profile/francoisbriat",
            "settings": "https://www.republique-numerique.fr/profile/edit-profile"
          }
        },
        "_links": {
          "show": "https://www.republique-numerique.fr/consultations/projet-de-loi-numerique/consultation/consultation/opinions/section-1-ouverture-des-donnees-publiques-1/article-numero-a-incrementer-de-l-acces-au-code-source#arg-1285",
          "edit": "https://www.republique-numerique.fr/consultations/projet-de-loi-numerique/consultation/consultation/opinions/section-1-ouverture-des-donnees-publiques-1/article-numero-a-incrementer-de-l-acces-au-code-source/arguments/1285/edit",
          "report": "https://www.republique-numerique.fr/consultations/projet-de-loi-numerique/consultation/consultation/opinions/section-1-ouverture-des-donnees-publiques-1/article-numero-a-incrementer-de-l-acces-au-code-source/arguments/1285/report"
        },
        "has_user_voted": false,
        "has_user_reported": false
      },
      {
        "isContribuable": false,
        "id": 544,
        "body": "L'accès au code source utilisé, oui. Les possibilités d'édition du code par n'importe qui, il faut quand même faire très attention...",
        "created_at": "2015-09-27T14:43:52+0200",
        "updated_at": "2015-09-27T14:43:52+0200",
        "is_enabled": true,
        "votes_count": 7,
        "type": 1,
        "is_trashed": false,
        "author": {
          "username": "SGL",
          "displayName": "SGL",
          "uniqueId": "sgl",
          "isAdmin": false,
          "media": null,
          "vip": false,
          "_links": {
            "profile": "https://www.republique-numerique.fr/profile/sgl",
            "settings": "https://www.republique-numerique.fr/profile/edit-profile"
          }
        },
        "_links": {
          "show": "https://www.republique-numerique.fr/consultations/projet-de-loi-numerique/consultation/consultation/opinions/section-1-ouverture-des-donnees-publiques-1/article-numero-a-incrementer-de-l-acces-au-code-source#arg-544",
          "edit": "https://www.republique-numerique.fr/consultations/projet-de-loi-numerique/consultation/consultation/opinions/section-1-ouverture-des-donnees-publiques-1/article-numero-a-incrementer-de-l-acces-au-code-source/arguments/544/edit",
          "report": "https://www.republique-numerique.fr/consultations/projet-de-loi-numerique/consultation/consultation/opinions/section-1-ouverture-des-donnees-publiques-1/article-numero-a-incrementer-de-l-acces-au-code-source/arguments/544/report"
        },
        "has_user_voted": false,
        "has_user_reported": false
      },
      {
        "isContribuable": false,
        "id": 516,
        "body": "Pour répondre à Olivier Sery : plus un algorithme est vu, plus il y a de failles corrigées. Cf. Linux.",
        "created_at": "2015-09-27T13:34:12+0200",
        "updated_at": "2015-09-27T13:34:12+0200",
        "is_enabled": true,
        "votes_count": 10,
        "type": 1,
        "is_trashed": false,
        "author": {
          "username": "Emmanuel Hadoux",
          "displayName": "Emmanuel Hadoux",
          "uniqueId": "emmanuelhadoux",
          "isAdmin": false,
          "media": null,
          "vip": false,
          "_links": {
            "profile": "https://www.republique-numerique.fr/profile/emmanuelhadoux",
            "settings": "https://www.republique-numerique.fr/profile/edit-profile"
          }
        },
        "_links": {
          "show": "https://www.republique-numerique.fr/consultations/projet-de-loi-numerique/consultation/consultation/opinions/section-1-ouverture-des-donnees-publiques-1/article-numero-a-incrementer-de-l-acces-au-code-source#arg-516",
          "edit": "https://www.republique-numerique.fr/consultations/projet-de-loi-numerique/consultation/consultation/opinions/section-1-ouverture-des-donnees-publiques-1/article-numero-a-incrementer-de-l-acces-au-code-source/arguments/516/edit",
          "report": "https://www.republique-numerique.fr/consultations/projet-de-loi-numerique/consultation/consultation/opinions/section-1-ouverture-des-donnees-publiques-1/article-numero-a-incrementer-de-l-acces-au-code-source/arguments/516/report"
        },
        "has_user_voted": false,
        "has_user_reported": false
      },
      {
        "isContribuable": false,
        "id": 473,
        "body": "C'est de la responsabilité de l’État de garantir aux citoyens la pertinence et la fiabilité des moyens qu'il utilise. Par contre, il serait envisageable de mettre une institution de contrôle et de validation, comme c'est le cas pour la défense nationale. ",
        "created_at": "2015-09-27T11:41:09+0200",
        "updated_at": "2015-09-27T11:41:09+0200",
        "is_enabled": true,
        "votes_count": 3,
        "type": 0,
        "is_trashed": false,
        "author": {
          "username": "Gwozdziak Gilles",
          "displayName": "Gwozdziak Gilles",
          "uniqueId": "gwozdziakgilles",
          "isAdmin": false,
          "media": null,
          "vip": false,
          "_links": {
            "profile": "https://www.republique-numerique.fr/profile/gwozdziakgilles",
            "settings": "https://www.republique-numerique.fr/profile/edit-profile"
          }
        },
        "_links": {
          "show": "https://www.republique-numerique.fr/consultations/projet-de-loi-numerique/consultation/consultation/opinions/section-1-ouverture-des-donnees-publiques-1/article-numero-a-incrementer-de-l-acces-au-code-source#arg-473",
          "edit": "https://www.republique-numerique.fr/consultations/projet-de-loi-numerique/consultation/consultation/opinions/section-1-ouverture-des-donnees-publiques-1/article-numero-a-incrementer-de-l-acces-au-code-source/arguments/473/edit",
          "report": "https://www.republique-numerique.fr/consultations/projet-de-loi-numerique/consultation/consultation/opinions/section-1-ouverture-des-donnees-publiques-1/article-numero-a-incrementer-de-l-acces-au-code-source/arguments/473/report"
        },
        "has_user_voted": false,
        "has_user_reported": false
      },
      {
        "isContribuable": false,
        "id": 411,
        "body": "Doivent-ils publier leur code source ou utiliser systématiquement des logiciels open source ? L'article n'est pas clair sur ce point.",
        "created_at": "2015-09-27T09:21:45+0200",
        "updated_at": "2015-09-27T09:21:45+0200",
        "is_enabled": true,
        "votes_count": 5,
        "type": 0,
        "is_trashed": false,
        "author": {
          "username": "Quentin Burny",
          "displayName": "Quentin Burny",
          "uniqueId": "quentinburny",
          "isAdmin": false,
          "media": null,
          "vip": false,
          "_links": {
            "profile": "https://www.republique-numerique.fr/profile/quentinburny",
            "settings": "https://www.republique-numerique.fr/profile/edit-profile"
          }
        },
        "_links": {
          "show": "https://www.republique-numerique.fr/consultations/projet-de-loi-numerique/consultation/consultation/opinions/section-1-ouverture-des-donnees-publiques-1/article-numero-a-incrementer-de-l-acces-au-code-source#arg-411",
          "edit": "https://www.republique-numerique.fr/consultations/projet-de-loi-numerique/consultation/consultation/opinions/section-1-ouverture-des-donnees-publiques-1/article-numero-a-incrementer-de-l-acces-au-code-source/arguments/411/edit",
          "report": "https://www.republique-numerique.fr/consultations/projet-de-loi-numerique/consultation/consultation/opinions/section-1-ouverture-des-donnees-publiques-1/article-numero-a-incrementer-de-l-acces-au-code-source/arguments/411/report"
        },
        "has_user_voted": false,
        "has_user_reported": false
      },
      {
        "isContribuable": false,
        "id": 253,
        "body": "Et c'est la porte ouverte aux backdoors et aux failles de sécurité. Plus une personne est renseignée sur l’algorithme, plus elle peut le contourner. Exemple de la chine avec un framework modifié la semaine dernière (iOS).",
        "created_at": "2015-09-26T21:34:29+0200",
        "updated_at": "2015-09-26T21:34:29+0200",
        "is_enabled": true,
        "votes_count": 1,
        "type": 0,
        "is_trashed": false,
        "author": {
          "username": "Olivier SERY",
          "displayName": "Olivier SERY",
          "uniqueId": "oliviersery",
          "isAdmin": false,
          "media": null,
          "vip": false,
          "_links": {
            "profile": "https://www.republique-numerique.fr/profile/oliviersery",
            "settings": "https://www.republique-numerique.fr/profile/edit-profile"
          }
        },
        "_links": {
          "show": "https://www.republique-numerique.fr/consultations/projet-de-loi-numerique/consultation/consultation/opinions/section-1-ouverture-des-donnees-publiques-1/article-numero-a-incrementer-de-l-acces-au-code-source#arg-253",
          "edit": "https://www.republique-numerique.fr/consultations/projet-de-loi-numerique/consultation/consultation/opinions/section-1-ouverture-des-donnees-publiques-1/article-numero-a-incrementer-de-l-acces-au-code-source/arguments/253/edit",
          "report": "https://www.republique-numerique.fr/consultations/projet-de-loi-numerique/consultation/consultation/opinions/section-1-ouverture-des-donnees-publiques-1/article-numero-a-incrementer-de-l-acces-au-code-source/arguments/253/report"
        },
        "has_user_voted": false,
        "has_user_reported": false
      },
      {
        "isContribuable": false,
        "id": 192,
        "body": "La publication des codes sources va de pair avec la transparance que nous doivent nos institutions. Chaque citoyen doit pouvoir vérifier la confiance qu'il a mis dans ses élus et vérifier l'utilisation faite de ses impôts.",
        "created_at": "2015-09-26T18:30:23+0200",
        "updated_at": "2015-09-26T18:30:23+0200",
        "is_enabled": true,
        "votes_count": 10,
        "type": 1,
        "is_trashed": false,
        "author": {
          "username": "Openpony",
          "displayName": "Openpony",
          "uniqueId": "openpony",
          "isAdmin": false,
          "media": {
            "url": "/media/cache/default_avatar/default/0001/01/131_default_avatar.jpg"
          },
          "vip": false,
          "_links": {
            "profile": "https://www.republique-numerique.fr/profile/openpony",
            "settings": "https://www.republique-numerique.fr/profile/edit-profile"
          }
        },
        "_links": {
          "show": "https://www.republique-numerique.fr/consultations/projet-de-loi-numerique/consultation/consultation/opinions/section-1-ouverture-des-donnees-publiques-1/article-numero-a-incrementer-de-l-acces-au-code-source#arg-192",
          "edit": "https://www.republique-numerique.fr/consultations/projet-de-loi-numerique/consultation/consultation/opinions/section-1-ouverture-des-donnees-publiques-1/article-numero-a-incrementer-de-l-acces-au-code-source/arguments/192/edit",
          "report": "https://www.republique-numerique.fr/consultations/projet-de-loi-numerique/consultation/consultation/opinions/section-1-ouverture-des-donnees-publiques-1/article-numero-a-incrementer-de-l-acces-au-code-source/arguments/192/report"
        },
        "has_user_voted": false,
        "has_user_reported": false
      },
      {
        "isContribuable": false,
        "id": 171,
        "body": "Totalement d'accord !",
        "created_at": "2015-09-26T17:47:10+0200",
        "updated_at": "2015-09-26T17:47:10+0200",
        "is_enabled": true,
        "votes_count": 3,
        "type": 1,
        "is_trashed": false,
        "author": {
          "username": "Jonathan Crequer",
          "displayName": "Jonathan Crequer",
          "uniqueId": "jonathancrequer",
          "isAdmin": false,
          "media": null,
          "vip": false,
          "_links": {
            "profile": "https://www.republique-numerique.fr/profile/jonathancrequer",
            "settings": "https://www.republique-numerique.fr/profile/edit-profile"
          }
        },
        "_links": {
          "show": "https://www.republique-numerique.fr/consultations/projet-de-loi-numerique/consultation/consultation/opinions/section-1-ouverture-des-donnees-publiques-1/article-numero-a-incrementer-de-l-acces-au-code-source#arg-171",
          "edit": "https://www.republique-numerique.fr/consultations/projet-de-loi-numerique/consultation/consultation/opinions/section-1-ouverture-des-donnees-publiques-1/article-numero-a-incrementer-de-l-acces-au-code-source/arguments/171/edit",
          "report": "https://www.republique-numerique.fr/consultations/projet-de-loi-numerique/consultation/consultation/opinions/section-1-ouverture-des-donnees-publiques-1/article-numero-a-incrementer-de-l-acces-au-code-source/arguments/171/report"
        },
        "has_user_voted": false,
        "has_user_reported": false
      }
    ],
    "modals": [],
    "votes": [
      {
        "user": {
          "username": "F. Gonzalez",
          "displayName": "F. Gonzalez",
          "uniqueId": "fgonzalez",
          "isAdmin": false,
          "media": null,
          "vip": false,
          "_links": {
            "profile": "https://www.republique-numerique.fr/profile/fgonzalez",
            "settings": "https://www.republique-numerique.fr/profile/edit-profile"
          }
        }
      },
      {
        "user": {
          "username": "Ghislain PHU",
          "displayName": "Ghislain PHU",
          "uniqueId": "ghislainphu",
          "isAdmin": false,
          "media": {
            "url": "/media/cache/default_avatar/default/0001/01/108_default_avatar.png"
          },
          "vip": false,
          "_links": {
            "profile": "https://www.republique-numerique.fr/profile/ghislainphu",
            "settings": "https://www.republique-numerique.fr/profile/edit-profile"
          }
        }
      },
      {
        "user": {
          "username": "Thomas Champigny",
          "displayName": "Thomas Champigny",
          "uniqueId": "thomaschampigny",
          "isAdmin": false,
          "media": {
            "url": "/media/cache/default_avatar/default/0001/01/107_default_avatar.jpg"
          },
          "vip": false,
          "_links": {
            "profile": "https://www.republique-numerique.fr/profile/thomaschampigny",
            "settings": "https://www.republique-numerique.fr/profile/edit-profile"
          }
        }
      },
      {
        "user": {
          "username": "Ohnito",
          "displayName": "Ohnito",
          "uniqueId": "ohnito",
          "isAdmin": false,
          "media": null,
          "vip": false,
          "_links": {
            "profile": "https://www.republique-numerique.fr/profile/ohnito",
            "settings": "https://www.republique-numerique.fr/profile/edit-profile"
          }
        }
      },
      {
        "user": {
          "username": "Quentin Flaceliere",
          "displayName": "Quentin Flaceliere",
          "uniqueId": "quentinflaceliere",
          "isAdmin": false,
          "media": null,
          "vip": false,
          "_links": {
            "profile": "https://www.republique-numerique.fr/profile/quentinflaceliere",
            "settings": "https://www.republique-numerique.fr/profile/edit-profile"
          }
        }
      }
    ],
    "appendices": [
      {
        "body": "<p>Le monde num&eacute;rique ne peut accepter des bo&icirc;tes noires qui sont pr&eacute;sent&eacute;es comme effectuant certaines fonctions et cachent d&#39;autres au services d&#39;autres &eacute;tats / soci&eacute;t&eacute;s.</p>\r\n\r\n<p>Pour &ecirc;tre s&ucirc;rs que les logiciels, et plus g&eacute;n&eacute;ralement les services num&eacute;riques font ce qu&#39;ils sont sens&eacute;s faire et pas plus, le code source doit &ecirc;tre accessible aux services de l&#39;&eacute;tat, mais aussi au citoyen qui peut ainsi prendre activement part &agrave; l&#39;am&eacute;lioration s&#39;il en a les comp&eacute;tences et ainsi am&eacute;liorer la s&eacute;curit&eacute;.</p>\r\n\r\n<p>Cacher le code source c&#39;est au XXIe si&egrave;cle vouloir courrir un 100m avec un boulet accroch&eacute; &agrave; chaque pied et un bandeau sur les yeux.</p>",
        "type": {
          "title": "Explication de l'article"
        }
      }
    ],
    "ranking": 39,
    "is_trashed": false,
    "title": "Article (numéro à incrémenter) - De l'accès au code source",
    "votes_nok": 15,
    "votes_ok": 246,
    "votes_mitige": 17,
    "_links": {
      "show": "https://www.republique-numerique.fr/consultations/projet-de-loi-numerique/consultation/consultation/opinions/section-1-ouverture-des-donnees-publiques-1/article-numero-a-incrementer-de-l-acces-au-code-source",
      "edit": "https://www.republique-numerique.fr/consultations/projet-de-loi-numerique/consultation/consultation/opinions/section-1-ouverture-des-donnees-publiques-1/article-numero-a-incrementer-de-l-acces-au-code-source/edit",
      "report": "https://www.republique-numerique.fr/consultations/projet-de-loi-numerique/consultation/consultation/opinions/section-1-ouverture-des-donnees-publiques-1/article-numero-a-incrementer-de-l-acces-au-code-source/report",
      "type": "https://www.republique-numerique.fr/consultations/projet-de-loi-numerique/consultation/consultation/opinions/section-1-ouverture-des-donnees-publiques-1"
    },
    "user_vote": null,
    "has_user_reported": false
  },
  "rankingThreshold": null,
  "opinionTerm": 1
}