{
  "version": {
    "isContribuable": false,
    "votes_total": 10,
    "arguments_yes_count": 2,
    "arguments_no_count": 0,
    "id": 716,
    "body": "<p>Dans l&#39;objectif de maitrise des co&ucirc;ts, de performance, de transparence et de s&eacute;curit&eacute; de la Nation et de la R&eacute;publique, tous les services publiques tendent &agrave; utiliser et promouvoir les logiciels libres et les pr&eacute;f&eacute;rer aux solutions dont l&#39;acc&egrave;s au code source par les citoyens et les services de l&#39;&eacute;tat est limit&eacute; ou interdit.</p>\n\n<p>Les outils num&eacute;riques d&eacute;velopp&eacute;s ou&nbsp;utilis&eacute;s par les services de l&#39;&Eacute;tat doivent avoir leur code source rendu publique sans condition pr&eacute;alable de demande d&#39;acc&egrave;s, sous licence libre, et avec possibilit&eacute; de redistribution et de modification dans les m&ecirc;mes conditions que la licence initiale. Le pr&eacute;sent article s&#39;applique aux outils d&eacute;velopp&eacute;s par le personnel de l&#39;&Eacute;tat ou par les entreprises priv&eacute;es pour le compte de l&#39;&Eacute;tat.</p>",
    "comment": "Il est, en effet, indispensable de faire r&eacute;f&eacute;rence &agrave; une licence, dans le but d&#39;en prot&eacute;ger l&#39;auteur mais &eacute;galement permettre de garantir les libert&eacute;s de l&#39;utilisateur ; tout en restant conforme aux avis recommand&eacute;s par la CADA",
    "author": {
      "username": "Teddy Thebest",
      "displayName": "Teddy Thebest",
      "uniqueId": "teddythebest",
      "isAdmin": false,
      "media": {
        "url": "/media/cache/default_avatar/default/0001/01/449_default_avatar.png"
      },
      "vip": false,
      "_links": {
        "profile": "https://www.republique-numerique.fr/profile/teddythebest",
        "settings": "https://www.republique-numerique.fr/profile/edit-profile"
      }
    },
    "arguments": [
      {
        "isContribuable": false,
        "id": 4097,
        "body": "Tant que la licence est GPL je ne dis pas non.",
        "created_at": "2015-10-15T08:08:28+0200",
        "updated_at": "2015-10-15T08:08:28+0200",
        "is_enabled": true,
        "votes_count": 1,
        "type": 1,
        "is_trashed": false,
        "author": {
          "username": "BERNARD Loïc",
          "displayName": "BERNARD Loïc",
          "uniqueId": "bernardloic",
          "isAdmin": false,
          "media": {
            "url": "/media/cache/default_avatar/default/0001/01/805_default_avatar.jpg"
          },
          "vip": false,
          "_links": {
            "profile": "https://www.republique-numerique.fr/profile/bernardloic",
            "settings": "https://www.republique-numerique.fr/profile/edit-profile"
          }
        },
        "_links": {
          "show": "https://www.republique-numerique.fr/consultations/projet-de-loi-numerique/consultation/consultation/opinions/section-1-ouverture-des-donnees-publiques-1/article-numero-a-incrementer-de-l-acces-au-code-source/versions/precision-sur-les-licences-utilisees#arg-4097",
          "edit": "https://www.republique-numerique.fr/consultations/projet-de-loi-numerique/consultation/consultation/opinions/section-1-ouverture-des-donnees-publiques-1/article-numero-a-incrementer-de-l-acces-au-code-source/arguments/4097/edit",
          "report": "https://www.republique-numerique.fr/consultations/projet-de-loi-numerique/consultation/consultation/opinions/section-1-ouverture-des-donnees-publiques-1/article-numero-a-incrementer-de-l-acces-au-code-source/arguments/4097/report"
        },
        "has_user_voted": false,
        "has_user_reported": false
      },
      {
        "isContribuable": false,
        "id": 4745,
        "body": "Tout a fait d'accord. Et en ce qui concerne les logiciels développés par les entreprises privées, il est logique que le code soit libéré puisque c'est une prestation de service financé avec l'argent publique.",
        "created_at": "2015-10-16T14:53:18+0200",
        "updated_at": "2015-10-16T14:53:18+0200",
        "is_enabled": true,
        "votes_count": 1,
        "type": 1,
        "is_trashed": false,
        "author": {
          "username": "Cyril Wallis-Davy",
          "displayName": "Cyril Wallis-Davy",
          "uniqueId": "cyrilwallisdavy",
          "isAdmin": false,
          "media": null,
          "vip": false,
          "_links": {
            "profile": "https://www.republique-numerique.fr/profile/cyrilwallisdavy",
            "settings": "https://www.republique-numerique.fr/profile/edit-profile"
          }
        },
        "_links": {
          "show": "https://www.republique-numerique.fr/consultations/projet-de-loi-numerique/consultation/consultation/opinions/section-1-ouverture-des-donnees-publiques-1/article-numero-a-incrementer-de-l-acces-au-code-source/versions/precision-sur-les-licences-utilisees#arg-4745",
          "edit": "https://www.republique-numerique.fr/consultations/projet-de-loi-numerique/consultation/consultation/opinions/section-1-ouverture-des-donnees-publiques-1/article-numero-a-incrementer-de-l-acces-au-code-source/arguments/4745/edit",
          "report": "https://www.republique-numerique.fr/consultations/projet-de-loi-numerique/consultation/consultation/opinions/section-1-ouverture-des-donnees-publiques-1/article-numero-a-incrementer-de-l-acces-au-code-source/arguments/4745/report"
        },
        "has_user_voted": false,
        "has_user_reported": false
      }
    ],
    "sources": [],
    "parent": {
      "isContribuable": false,
      "id": 108,
      "body": "<p>Dans l&#39;objectif de performance, de transparence et de s&eacute;curit&eacute; de la Nation et de la R&eacute;publique, tous les services publiques tendent &agrave; utiliser et promouvoir les logiciels libres et les pr&eacute;f&eacute;rer aux solutions dont l&#39;acc&egrave;s au code source par les citoyens et les services de l&#39;&eacute;tat est limit&eacute; ou interdit.</p>",
      "type": {
        "id": 86,
        "title": "Section 1",
        "subtitle": "Ouverture des données publiques",
        "voteWidgetType": 2,
        "votesHelpText": "Pensez-vous que cette proposition permet d'atteindre les objectifs présentés dans l’explication de l’article ?",
        "commentSystem": 2,
        "color": "blue",
        "versionable": true,
        "sourceable": true,
        "votesThreshold": null,
        "votesThresholdHelpText": null
      },
      "modals": [],
      "appendices": [
        {
          "body": "<p>Le monde num&eacute;rique ne peut accepter des bo&icirc;tes noires qui sont pr&eacute;sent&eacute;es comme effectuant certaines fonctions et cachent d&#39;autres au services d&#39;autres &eacute;tats / soci&eacute;t&eacute;s.</p>\r\n\r\n<p>Pour &ecirc;tre s&ucirc;rs que les logiciels, et plus g&eacute;n&eacute;ralement les services num&eacute;riques font ce qu&#39;ils sont sens&eacute;s faire et pas plus, le code source doit &ecirc;tre accessible aux services de l&#39;&eacute;tat, mais aussi au citoyen qui peut ainsi prendre activement part &agrave; l&#39;am&eacute;lioration s&#39;il en a les comp&eacute;tences et ainsi am&eacute;liorer la s&eacute;curit&eacute;.</p>\r\n\r\n<p>Cacher le code source c&#39;est au XXIe si&egrave;cle vouloir courrir un 100m avec un boulet accroch&eacute; &agrave; chaque pied et un bandeau sur les yeux.</p>",
          "type": {
            "title": "Explication de l'article"
          }
        }
      ],
      "title": "Article (numéro à incrémenter) - De l'accès au code source",
      "_links": {
        "show": "https://www.republique-numerique.fr/consultations/projet-de-loi-numerique/consultation/consultation/opinions/section-1-ouverture-des-donnees-publiques-1/article-numero-a-incrementer-de-l-acces-au-code-source",
        "edit": "https://www.republique-numerique.fr/consultations/projet-de-loi-numerique/consultation/consultation/opinions/section-1-ouverture-des-donnees-publiques-1/article-numero-a-incrementer-de-l-acces-au-code-source/edit",
        "report": "https://www.republique-numerique.fr/consultations/projet-de-loi-numerique/consultation/consultation/opinions/section-1-ouverture-des-donnees-publiques-1/article-numero-a-incrementer-de-l-acces-au-code-source/report",
        "type": "https://www.republique-numerique.fr/consultations/projet-de-loi-numerique/consultation/consultation/opinions/section-1-ouverture-des-donnees-publiques-1"
      },
      "user_vote": null,
      "has_user_reported": false
    },
    "sources_count": 0,
    "arguments_count": 2,
    "votes": [
      {
        "user": {
          "username": "Teddy Thebest",
          "displayName": "Teddy Thebest",
          "uniqueId": "teddythebest",
          "isAdmin": false,
          "media": {
            "url": "/media/cache/default_avatar/default/0001/01/449_default_avatar.png"
          },
          "vip": false,
          "_links": {
            "profile": "https://www.republique-numerique.fr/profile/teddythebest",
            "settings": "https://www.republique-numerique.fr/profile/edit-profile"
          }
        },
        "value": 1
      },
      {
        "user": {
          "username": "Gab ROQ",
          "displayName": "Gab ROQ",
          "uniqueId": "gabroq",
          "isAdmin": false,
          "media": null,
          "vip": false,
          "_links": {
            "profile": "https://www.republique-numerique.fr/profile/gabroq",
            "settings": "https://www.republique-numerique.fr/profile/edit-profile"
          }
        },
        "value": 1
      },
      {
        "user": {
          "username": "Jean Hugues Noël Robert",
          "displayName": "Jean Hugues Noël Robert",
          "uniqueId": "jeanhuguesnoelrobert",
          "isAdmin": false,
          "media": null,
          "vip": false,
          "_links": {
            "profile": "https://www.republique-numerique.fr/profile/jeanhuguesnoelrobert",
            "settings": "https://www.republique-numerique.fr/profile/edit-profile"
          }
        },
        "value": 1
      },
      {
        "user": {
          "username": "Pascal Robinet",
          "displayName": "Pascal Robinet",
          "uniqueId": "pascalrobinet",
          "isAdmin": false,
          "media": null,
          "vip": false,
          "_links": {
            "profile": "https://www.republique-numerique.fr/profile/pascalrobinet",
            "settings": "https://www.republique-numerique.fr/profile/edit-profile"
          }
        },
        "value": 1
      },
      {
        "user": {
          "username": "BERNARD Loïc",
          "displayName": "BERNARD Loïc",
          "uniqueId": "bernardloic",
          "isAdmin": false,
          "media": {
            "url": "/media/cache/default_avatar/default/0001/01/805_default_avatar.jpg"
          },
          "vip": false,
          "_links": {
            "profile": "https://www.republique-numerique.fr/profile/bernardloic",
            "settings": "https://www.republique-numerique.fr/profile/edit-profile"
          }
        },
        "value": 1
      }
    ],
    "updated_at": "2015-10-08T13:06:37+0200",
    "ranking": 439,
    "is_trashed": false,
    "title": "Précision sur les licences utilisées",
    "slug": "precision-sur-les-licences-utilisees",
    "created_at": "2015-10-08T13:06:37+0200",
    "votes_nok": 0,
    "votes_ok": 9,
    "votes_mitige": 1,
    "_links": {
      "show": "https://www.republique-numerique.fr/consultations/projet-de-loi-numerique/consultation/consultation/opinions/section-1-ouverture-des-donnees-publiques-1/article-numero-a-incrementer-de-l-acces-au-code-source/versions/precision-sur-les-licences-utilisees",
      "report": "https://www.republique-numerique.fr/consultations/projet-de-loi-numerique/consultation/consultation/opinions/section-1-ouverture-des-donnees-publiques-1/article-numero-a-incrementer-de-l-acces-au-code-source/versions/precision-sur-les-licences-utilisees/report"
    },
    "user_vote": null,
    "has_user_reported": false
  },
  "rankingThreshold": null,
  "opinionTerm": 1
}