{
  "version": {
    "isContribuable": false,
    "votes_total": 0,
    "arguments_yes_count": 0,
    "arguments_no_count": 0,
    "id": 1404,
    "body": "<p>Dans l&#39;objectif de performance, de transparence et de s&eacute;curit&eacute; de la Nation et de la R&eacute;publique, tous les services publiques doivent&nbsp;utiliser et promouvoir les logiciels libres et les pr&eacute;f&eacute;rer sans aucune exception aux solutions dont l&#39;acc&egrave;s au code source par les citoyens et les services de l&#39;&eacute;tat est limit&eacute; ou interdit.</p>",
    "comment": "les services publics doivent &ecirc;tre les vecteurs de d&eacute;velopement des logiciels libres pour d&eacute;velloper et un acc&eacute;s de plus en plus grand aux logiciels libres et cr&eacute;er tout un secteur &eacute;conomique transparent visant &agrave; am&eacute;liorer et mettre &agrave; la port&eacute;e de tous ces logiciels",
    "author": {
      "username": "tbruiz",
      "displayName": "tbruiz",
      "uniqueId": "tbruiz",
      "isAdmin": false,
      "media": null,
      "vip": false,
      "_links": {
        "profile": "https://www.republique-numerique.fr/profile/tbruiz",
        "settings": "https://www.republique-numerique.fr/profile/edit-profile"
      }
    },
    "arguments": [],
    "sources": [],
    "parent": {
      "isContribuable": false,
      "id": 108,
      "body": "<p>Dans l&#39;objectif de performance, de transparence et de s&eacute;curit&eacute; de la Nation et de la R&eacute;publique, tous les services publiques tendent &agrave; utiliser et promouvoir les logiciels libres et les pr&eacute;f&eacute;rer aux solutions dont l&#39;acc&egrave;s au code source par les citoyens et les services de l&#39;&eacute;tat est limit&eacute; ou interdit.</p>",
      "type": {
        "id": 86,
        "title": "Section 1",
        "subtitle": "Ouverture des données publiques",
        "voteWidgetType": 2,
        "votesHelpText": "Pensez-vous que cette proposition permet d'atteindre les objectifs présentés dans l’explication de l’article ?",
        "commentSystem": 2,
        "color": "blue",
        "versionable": true,
        "sourceable": true,
        "votesThreshold": null,
        "votesThresholdHelpText": null
      },
      "modals": [],
      "appendices": [
        {
          "body": "<p>Le monde num&eacute;rique ne peut accepter des bo&icirc;tes noires qui sont pr&eacute;sent&eacute;es comme effectuant certaines fonctions et cachent d&#39;autres au services d&#39;autres &eacute;tats / soci&eacute;t&eacute;s.</p>\r\n\r\n<p>Pour &ecirc;tre s&ucirc;rs que les logiciels, et plus g&eacute;n&eacute;ralement les services num&eacute;riques font ce qu&#39;ils sont sens&eacute;s faire et pas plus, le code source doit &ecirc;tre accessible aux services de l&#39;&eacute;tat, mais aussi au citoyen qui peut ainsi prendre activement part &agrave; l&#39;am&eacute;lioration s&#39;il en a les comp&eacute;tences et ainsi am&eacute;liorer la s&eacute;curit&eacute;.</p>\r\n\r\n<p>Cacher le code source c&#39;est au XXIe si&egrave;cle vouloir courrir un 100m avec un boulet accroch&eacute; &agrave; chaque pied et un bandeau sur les yeux.</p>",
          "type": {
            "title": "Explication de l'article"
          }
        }
      ],
      "title": "Article (numéro à incrémenter) - De l'accès au code source",
      "_links": {
        "show": "https://www.republique-numerique.fr/consultations/projet-de-loi-numerique/consultation/consultation/opinions/section-1-ouverture-des-donnees-publiques-1/article-numero-a-incrementer-de-l-acces-au-code-source",
        "edit": "https://www.republique-numerique.fr/consultations/projet-de-loi-numerique/consultation/consultation/opinions/section-1-ouverture-des-donnees-publiques-1/article-numero-a-incrementer-de-l-acces-au-code-source/edit",
        "report": "https://www.republique-numerique.fr/consultations/projet-de-loi-numerique/consultation/consultation/opinions/section-1-ouverture-des-donnees-publiques-1/article-numero-a-incrementer-de-l-acces-au-code-source/report",
        "type": "https://www.republique-numerique.fr/consultations/projet-de-loi-numerique/consultation/consultation/opinions/section-1-ouverture-des-donnees-publiques-1"
      },
      "user_vote": null,
      "has_user_reported": false
    },
    "sources_count": 0,
    "arguments_count": 0,
    "votes": [],
    "updated_at": "2015-10-18T21:33:33+0200",
    "ranking": 1201,
    "is_trashed": false,
    "title": "modification de la portée de la loi",
    "slug": "modification-de-la-portee-de-la-loi",
    "created_at": "2015-10-18T21:33:33+0200",
    "votes_nok": 0,
    "votes_ok": 0,
    "votes_mitige": 0,
    "_links": {
      "show": "https://www.republique-numerique.fr/consultations/projet-de-loi-numerique/consultation/consultation/opinions/section-1-ouverture-des-donnees-publiques-1/article-numero-a-incrementer-de-l-acces-au-code-source/versions/modification-de-la-portee-de-la-loi",
      "report": "https://www.republique-numerique.fr/consultations/projet-de-loi-numerique/consultation/consultation/opinions/section-1-ouverture-des-donnees-publiques-1/article-numero-a-incrementer-de-l-acces-au-code-source/versions/modification-de-la-portee-de-la-loi/report"
    },
    "user_vote": null,
    "has_user_reported": false
  },
  "rankingThreshold": null,
  "opinionTerm": 1
}