{
  "version": {
    "isContribuable": false,
    "votes_total": 3,
    "arguments_yes_count": 0,
    "arguments_no_count": 0,
    "id": 813,
    "body": "<p>1&deg; Tout individu a la libert&eacute; de dupliquer, modifier et partager des donn&eacute;es dans l&rsquo;environnement num&eacute;rique.</p>\n\n<p>2&deg; Aucun droit d&#39;auteur ou de propri&eacute;t&eacute; intellectuelle ne peut entraver ces libert&eacute;s. Ainsi la mention &quot;tous droits r&eacute;serv&eacute;s&quot; ne peut bloquer l&#39;utilisation de ces donn&eacute;es. Sera cr&eacute;&eacute;e la notion l&eacute;gale &quot;du bien ou de l&#39;int&eacute;r&ecirc;t public&quot;</p>\n\n<p>3&deg; Une &oelig;uvre peut &ecirc;tre publi&eacute;e sous une licence de &quot;paternit&eacute;&quot; ; son partage doit alors faire mention de son auteur.</p>\n\n<p>4&deg; Toute entrave mat&eacute;rielle &agrave; la circulation des savoirs num&eacute;riques est interdite.</p>\n\n<p>5&deg; La cr&eacute;ation d&#39;&oelig;uvres et l&#39;innovation sont encourag&eacute;s par les pouvoirs publics par des financements en d&eacute;but de processus intellectuel et des r&eacute;tributions apr&egrave;s publication.</p>\n\n<p>6&deg; Tout oeuvre qui sera expos&eacute;e publiquement peut &ecirc;tre photographi&eacute;e et r&eacute;utilis&eacute;e par chauqe citoyen en mentionnant les licences CeCill ou Creatives Commons.</p>",
    "comment": null,
    "author": {
      "username": "ced beg",
      "displayName": "ced beg",
      "uniqueId": "cedbeg",
      "isAdmin": false,
      "media": null,
      "vip": false,
      "_links": {
        "profile": "https://www.republique-numerique.fr/profile/cedbeg",
        "settings": "https://www.republique-numerique.fr/profile/edit-profile"
      }
    },
    "arguments": [],
    "sources": [],
    "parent": {
      "isContribuable": false,
      "id": 106,
      "body": "<p>1&deg; Tout individu a la libert&eacute; de dupliquer, modifier et partager des donn&eacute;es dans l&rsquo;environnement num&eacute;rique.</p>\r\n\r\n<p>2&deg; Aucun droit d&#39;auteur ou de propri&eacute;t&eacute; intellectuelle ne peut entraver ces libert&eacute;s.</p>\r\n\r\n<p>3&deg; Une &oelig;uvre peut &ecirc;tre publi&eacute;e sous une licence de &quot;paternit&eacute;&quot; ; son partage doit alors faire mention de son auteur.</p>\r\n\r\n<p>4&deg; Toute entrave mat&eacute;rielle &agrave; la circulation des savoirs num&eacute;riques est interdite.</p>\r\n\r\n<p>5&deg; La cr&eacute;ation d&#39;&oelig;uvres et l&#39;innovation sont encourag&eacute;s par les pouvoirs publics par des financements en d&eacute;but de processus intellectuel et des r&eacute;tributions apr&egrave;s publication.</p>",
      "type": {
        "id": 90,
        "title": "Section 1",
        "subtitle": "Les Communs",
        "voteWidgetType": 2,
        "votesHelpText": "Pensez-vous que cette proposition permet d'atteindre les objectifs présentés dans l’explication de l’article ?",
        "commentSystem": 2,
        "color": "blue",
        "versionable": true,
        "sourceable": true,
        "votesThreshold": null,
        "votesThresholdHelpText": null
      },
      "modals": [],
      "appendices": [
        {
          "body": "<p>La libre utilisation et la libre circulation des savoirs num&eacute;riques doivent &ecirc;tre garantis comme des droits universels dans la R&eacute;publique Num&eacute;rique. En effet, l&rsquo;information num&eacute;rique est un bien non-rival dont la reproduction &agrave; co&ucirc;t marginal ne nuit pas &agrave; autrui. L&#39;ensemble des connaissances publi&eacute;es sous format num&eacute;rique constitue un bien commun non appropriable.</p>\r\n\r\n<p>Un terrain &eacute;conomique audacieux doit &eacute;merger dans les domaines de la cr&eacute;ation et de l&#39;innovation, assurant une transition &eacute;quitable des r&eacute;mun&eacute;rations, et garantissant l&#39;&eacute;galit&eacute; des entrepreneurs et des cr&eacute;ateurs.</p>",
          "type": {
            "title": "Explication de l'article"
          }
        }
      ],
      "title": "Article 8.0 - Liberté de partage du savoir numérique",
      "_links": {
        "show": "https://www.republique-numerique.fr/consultations/projet-de-loi-numerique/consultation/consultation/opinions/section-1-les-communs/article-8-0-liberte-de-partage-du-savoir-numerique",
        "edit": "https://www.republique-numerique.fr/consultations/projet-de-loi-numerique/consultation/consultation/opinions/section-1-les-communs/article-8-0-liberte-de-partage-du-savoir-numerique/edit",
        "report": "https://www.republique-numerique.fr/consultations/projet-de-loi-numerique/consultation/consultation/opinions/section-1-les-communs/article-8-0-liberte-de-partage-du-savoir-numerique/report",
        "type": "https://www.republique-numerique.fr/consultations/projet-de-loi-numerique/consultation/consultation/opinions/section-1-les-communs"
      },
      "user_vote": null,
      "has_user_reported": false
    },
    "sources_count": 0,
    "arguments_count": 0,
    "votes": [
      {
        "user": {
          "username": "Marie-Hélène Jarno",
          "displayName": "Marie-Hélène Jarno",
          "uniqueId": "mariehelenejarno",
          "isAdmin": false,
          "media": null,
          "vip": false,
          "_links": {
            "profile": "https://www.republique-numerique.fr/profile/mariehelenejarno",
            "settings": "https://www.republique-numerique.fr/profile/edit-profile"
          }
        },
        "value": -1
      },
      {
        "user": {
          "username": "Rajjou",
          "displayName": "Rajjou",
          "uniqueId": "rajjou",
          "isAdmin": false,
          "media": null,
          "vip": false,
          "_links": {
            "profile": "https://www.republique-numerique.fr/profile/rajjou",
            "settings": "https://www.republique-numerique.fr/profile/edit-profile"
          }
        },
        "value": -1
      },
      {
        "user": {
          "username": "Vincent Reverdy",
          "displayName": "Vincent Reverdy",
          "uniqueId": "vincentreverdy",
          "isAdmin": false,
          "media": {
            "url": "/media/cache/default_avatar/default/0001/01/268_default_avatar.jpg"
          },
          "vip": false,
          "_links": {
            "profile": "https://www.republique-numerique.fr/profile/vincentreverdy",
            "settings": "https://www.republique-numerique.fr/profile/edit-profile"
          }
        },
        "value": 0
      }
    ],
    "updated_at": "2015-10-12T10:17:45+0200",
    "ranking": 1201,
    "is_trashed": false,
    "title": "Utilisation publique des données",
    "slug": "utilisation-publique-des-donnees",
    "created_at": "2015-10-12T10:17:45+0200",
    "votes_nok": 2,
    "votes_ok": 0,
    "votes_mitige": 1,
    "_links": {
      "show": "https://www.republique-numerique.fr/consultations/projet-de-loi-numerique/consultation/consultation/opinions/section-1-les-communs/article-8-0-liberte-de-partage-du-savoir-numerique/versions/utilisation-publique-des-donnees",
      "report": "https://www.republique-numerique.fr/consultations/projet-de-loi-numerique/consultation/consultation/opinions/section-1-les-communs/article-8-0-liberte-de-partage-du-savoir-numerique/versions/utilisation-publique-des-donnees/report"
    },
    "user_vote": null,
    "has_user_reported": false
  },
  "rankingThreshold": null,
  "opinionTerm": 1
}