{
  "version": {
    "isContribuable": false,
    "votes_total": 1,
    "arguments_yes_count": 0,
    "arguments_no_count": 0,
    "id": 539,
    "body": "<p>Bonjour,</p>\n\n<p>Mr les ministres sur-pay&eacute;s&nbsp;, je vous demande de lib&eacute;rer&nbsp;les licornes car sinon la population risque de se revolter ! Sans oublier les pingouins de jama&iuml;que ! Comment ils vont faire si on leur enl&egrave;ve leur retraite... Ils ne pourront plus vendre leur kebab sur la lune... Et les girafes vont mourir de manque de crevette d&#39;Himalaya.... Source de nourriture principal des tables de chez Castorama !</p>\n\n<p>ET INTERDIRE LE GRANTS POUR DYLAN MIKLOU !</p>",
    "comment": null,
    "author": {
      "username": "BigChicChicken",
      "displayName": "BigChicChicken",
      "uniqueId": "bigchicchicken",
      "isAdmin": false,
      "media": {
        "url": "/media/cache/default_avatar/default/0001/01/358_default_avatar.jpg"
      },
      "vip": false,
      "_links": {
        "profile": "https://www.republique-numerique.fr/profile/bigchicchicken",
        "settings": "https://www.republique-numerique.fr/profile/edit-profile"
      }
    },
    "arguments": [],
    "sources": [],
    "parent": {
      "isContribuable": false,
      "id": 374,
      "body": "<p>Bonjour,</p>\r\n\r\n<p>Mr les ministres sur-pay&eacute;s&nbsp;, je vous demande de lib&eacute;rer&nbsp;les licornes car sinon la population risque de se revolter ! Sans oublier les pingouins de jama&iuml;que ! Comment ils vont faire si on leur enl&egrave;ve leur retraite... Ils ne pourront plus vendre leur kebab sur la lune... Et les girafes vont mourir de manque de crevette d&#39;Himalaya.... Source de nourriture principal des tables de chez Castorama !</p>",
      "type": {
        "id": 86,
        "title": "Section 1",
        "subtitle": "Ouverture des données publiques",
        "voteWidgetType": 2,
        "votesHelpText": "Pensez-vous que cette proposition permet d'atteindre les objectifs présentés dans l’explication de l’article ?",
        "commentSystem": 2,
        "color": "blue",
        "versionable": true,
        "sourceable": true,
        "votesThreshold": null,
        "votesThresholdHelpText": null
      },
      "modals": [],
      "appendices": [
        {
          "body": null,
          "type": {
            "title": "Explication de l'article"
          }
        }
      ],
      "title": "Liberation des licornes et des pingouins de jamaïque!",
      "_links": {
        "show": "https://www.republique-numerique.fr/consultations/projet-de-loi-numerique/consultation/consultation/opinions/section-1-ouverture-des-donnees-publiques-1/liberation-des-licornes-et-des-pingouins-de-jamaique",
        "edit": "https://www.republique-numerique.fr/consultations/projet-de-loi-numerique/consultation/consultation/opinions/section-1-ouverture-des-donnees-publiques-1/liberation-des-licornes-et-des-pingouins-de-jamaique/edit",
        "report": "https://www.republique-numerique.fr/consultations/projet-de-loi-numerique/consultation/consultation/opinions/section-1-ouverture-des-donnees-publiques-1/liberation-des-licornes-et-des-pingouins-de-jamaique/report",
        "type": "https://www.republique-numerique.fr/consultations/projet-de-loi-numerique/consultation/consultation/opinions/section-1-ouverture-des-donnees-publiques-1"
      },
      "user_vote": null,
      "has_user_reported": false
    },
    "sources_count": 0,
    "arguments_count": 0,
    "votes": [
      {
        "user": {
          "username": "BigChicChicken",
          "displayName": "BigChicChicken",
          "uniqueId": "bigchicchicken",
          "isAdmin": false,
          "media": {
            "url": "/media/cache/default_avatar/default/0001/01/358_default_avatar.jpg"
          },
          "vip": false,
          "_links": {
            "profile": "https://www.republique-numerique.fr/profile/bigchicchicken",
            "settings": "https://www.republique-numerique.fr/profile/edit-profile"
          }
        },
        "value": 1
      }
    ],
    "updated_at": "2015-10-01T15:35:54+0200",
    "ranking": 1028,
    "is_trashed": false,
    "title": "lol",
    "slug": "lol",
    "created_at": "2015-10-01T15:35:54+0200",
    "votes_nok": 0,
    "votes_ok": 1,
    "votes_mitige": 0,
    "_links": {
      "show": "https://www.republique-numerique.fr/consultations/projet-de-loi-numerique/consultation/consultation/opinions/section-1-ouverture-des-donnees-publiques-1/liberation-des-licornes-et-des-pingouins-de-jamaique/versions/lol",
      "report": "https://www.republique-numerique.fr/consultations/projet-de-loi-numerique/consultation/consultation/opinions/section-1-ouverture-des-donnees-publiques-1/liberation-des-licornes-et-des-pingouins-de-jamaique/versions/lol/report"
    },
    "user_vote": null,
    "has_user_reported": false
  },
  "rankingThreshold": null,
  "opinionTerm": 1
}