{
  "version": {
    "isContribuable": false,
    "votes_total": 19,
    "arguments_yes_count": 0,
    "arguments_no_count": 0,
    "id": 214,
    "body": "<p>L&#39;obligation d&#39;accessibilit&eacute; des services de communication audiovisuelle vis&eacute;s par l&#39;article 74 de la loi du 11 f&eacute;vrier 2005, pour l&#39;&Eacute;galit&eacute; des droits et des chances, la citoyennet&eacute; et la participation des personnes handicap&eacute;es, s&#39;applique &agrave; la retransmission&nbsp;de leurs programmes en direct ou en diff&eacute;r&eacute; sur un site internet, dans un d&eacute;lai d&#39;un an &agrave; compter de la publication de la pr&eacute;sente loi.</p>\n\n<p>----------</p>\n\n<p>Les services de m&eacute;dias audiovisuels &agrave; la demande (VOD, SVOD...) ont obligation de pr&eacute;ciser les options d&#39;accessibilit&eacute; (langue, sous-titrage malentendant ou non, audiodescription...) disponibles pour toute &oelig;uvre cin&eacute;matographique ou audiovisuelle de leur catalogue. Ils sont &eacute;galement tenus de garantir l&#39;accessibilit&eacute; de leur service en fournissant ces options d&egrave;s lors qu&#39;elles sont disponibles sur support physique (DVD, Blu-Ray...) ou num&eacute;rique.</p>",
    "comment": "Beaucoup trop de services de VOD font preuve de mauvaise volont&eacute; &agrave; ce sujet et devraient suivre l&#39;exemple am&eacute;ricain incarn&eacute; par Netflix : grande clart&eacute; des options disponibles et surtout nombreux choix de sous-titres, y compris pour les films fran&ccedil;ais qui habituellement, ne disposent pas ou peu de sous-titres sur les plateformes fran&ccedil;aises de VOD (il est &agrave; mon go&ucirc;t scandaleux pour la culture fran&ccedil;aise qu&#39;une personne malentendante dispose d&#39;un meilleur acc&egrave;s &agrave; la culture anglo-saxonne &agrave; travers les films en version originale sous-titr&eacute;e).",
    "author": {
      "username": "Maxime Dadoua",
      "displayName": "Maxime Dadoua",
      "uniqueId": "maximedadoua",
      "isAdmin": false,
      "media": null,
      "vip": false,
      "_links": {
        "profile": "https://www.republique-numerique.fr/profile/maximedadoua",
        "settings": "https://www.republique-numerique.fr/profile/edit-profile"
      }
    },
    "arguments": [],
    "sources": [],
    "parent": {
      "isContribuable": false,
      "id": 136,
      "body": "<p>L&#39;obligation d&#39;accessibilit&eacute; des services de communication audiovisuelle vis&eacute;s par l&#39;article 74 de la loi du 11 f&eacute;vrier 2005, pour l&#39;&Eacute;galit&eacute; des droits et des chances, la citoyennet&eacute; et la participation des personnes handicap&eacute;es, s&#39;applique &agrave; la retransmission&nbsp;de leurs programmes en direct ou en diff&eacute;r&eacute; sur un site internet, dans un d&eacute;lai d&#39;un an &agrave; compter de la publication de la pr&eacute;sente loi.&nbsp;&nbsp;</p>",
      "type": {
        "id": 110,
        "title": "Section 2",
        "subtitle": "Accessibilité des personnes handicapées aux sites internet publics",
        "voteWidgetType": 2,
        "votesHelpText": "Pensez-vous que cette proposition permet d'atteindre les objectifs présentés dans l’explication de l’article ?",
        "commentSystem": 2,
        "color": "blue",
        "versionable": true,
        "sourceable": true,
        "votesThreshold": null,
        "votesThresholdHelpText": null
      },
      "modals": [],
      "appendices": [
        {
          "body": "<p>Alors que les services de communication audiovisuelle vis&eacute;s par la loi du 11 f&eacute;vrier 2005 remplissent quasi totalement leur obligation d&#39;accessibilit&eacute; (sous-titrage, interpr&eacute;tation en Langue des Signes Fran&ccedil;aise, audiodescription), ces modules d&#39;accessibilit&eacute; ne sont dans leur &eacute;crasante majorit&eacute; pas disponibles sur les sites internet de ces cha&icirc;nes de t&eacute;l&eacute;vision.&nbsp;</p>\r\n\r\n<p>Les modes d&#39;acc&egrave;s &agrave; ces programmes par les t&eacute;l&eacute;spectateurs ayant particuli&egrave;rement &eacute;volu&eacute; depuis la loi du 11 f&eacute;vrier 2005, cet article vise &agrave; garantir la continuit&eacute; de la cha&icirc;ne de l&#39;accessibilit&eacute; des programmes audiovisuels.&nbsp;</p>",
          "type": {
            "title": "Explication de l'article"
          }
        }
      ],
      "title": "Accessibilité des sites internet des services de communication audiovisuelle",
      "_links": {
        "show": "https://www.republique-numerique.fr/consultations/projet-de-loi-numerique/consultation/consultation/opinions/section-2-accessibilite-des-personnes-handicapees-aux-sites-internet-publics/accessibilite-des-sites-internet-des-services-de-communication-audiovisuelle",
        "edit": "https://www.republique-numerique.fr/consultations/projet-de-loi-numerique/consultation/consultation/opinions/section-2-accessibilite-des-personnes-handicapees-aux-sites-internet-publics/accessibilite-des-sites-internet-des-services-de-communication-audiovisuelle/edit",
        "report": "https://www.republique-numerique.fr/consultations/projet-de-loi-numerique/consultation/consultation/opinions/section-2-accessibilite-des-personnes-handicapees-aux-sites-internet-publics/accessibilite-des-sites-internet-des-services-de-communication-audiovisuelle/report",
        "type": "https://www.republique-numerique.fr/consultations/projet-de-loi-numerique/consultation/consultation/opinions/section-2-accessibilite-des-personnes-handicapees-aux-sites-internet-publics"
      },
      "user_vote": null,
      "has_user_reported": false
    },
    "sources_count": 0,
    "arguments_count": 0,
    "votes": [
      {
        "user": {
          "username": "Maxime Dadoua",
          "displayName": "Maxime Dadoua",
          "uniqueId": "maximedadoua",
          "isAdmin": false,
          "media": null,
          "vip": false,
          "_links": {
            "profile": "https://www.republique-numerique.fr/profile/maximedadoua",
            "settings": "https://www.republique-numerique.fr/profile/edit-profile"
          }
        },
        "value": 1
      },
      {
        "user": {
          "username": "geneviève",
          "displayName": "geneviève",
          "uniqueId": "genevieve",
          "isAdmin": false,
          "media": null,
          "vip": false,
          "_links": {
            "profile": "https://www.republique-numerique.fr/profile/genevieve",
            "settings": "https://www.republique-numerique.fr/profile/edit-profile"
          }
        },
        "value": 1
      },
      {
        "user": {
          "username": "Pierre",
          "displayName": "Pierre",
          "uniqueId": "pierre1",
          "isAdmin": false,
          "media": {
            "url": "/media/cache/default_avatar/default/0001/01/199_default_avatar.png"
          },
          "vip": false,
          "_links": {
            "profile": "https://www.republique-numerique.fr/profile/pierre1",
            "settings": "https://www.republique-numerique.fr/profile/edit-profile"
          }
        },
        "value": 1
      },
      {
        "user": {
          "username": "Bernard Desmyter",
          "displayName": "Bernard Desmyter",
          "uniqueId": "bernarddesmyter",
          "isAdmin": false,
          "media": null,
          "vip": false,
          "_links": {
            "profile": "https://www.republique-numerique.fr/profile/bernarddesmyter",
            "settings": "https://www.republique-numerique.fr/profile/edit-profile"
          }
        },
        "value": 1
      },
      {
        "user": {
          "username": "Mouvement des Sourds et Malentendants Socialistes",
          "displayName": "Mouvement des Sourds et Malentendants Socialistes",
          "uniqueId": "mouvementdessourdsetmalentendantssocialistes1",
          "isAdmin": false,
          "media": {
            "url": "/media/cache/default_avatar/default/0001/01/344_default_avatar.jpg"
          },
          "vip": false,
          "_links": {
            "profile": "https://www.republique-numerique.fr/profile/mouvementdessourdsetmalentendantssocialistes1",
            "settings": "https://www.republique-numerique.fr/profile/edit-profile"
          }
        },
        "value": 1
      }
    ],
    "updated_at": "2015-09-27T13:19:04+0200",
    "ranking": 242,
    "is_trashed": false,
    "title": "Étendre l'obligation d'accessibilité aux services de vidéo à la demande",
    "slug": "etendre-l-obligation-d-accessibilite-aux-services-de-video-a-la-demande",
    "created_at": "2015-09-27T13:19:04+0200",
    "votes_nok": 0,
    "votes_ok": 19,
    "votes_mitige": 0,
    "_links": {
      "show": "https://www.republique-numerique.fr/consultations/projet-de-loi-numerique/consultation/consultation/opinions/section-2-accessibilite-des-personnes-handicapees-aux-sites-internet-publics/accessibilite-des-sites-internet-des-services-de-communication-audiovisuelle/versions/etendre-l-obligation-d-accessibilite-aux-services-de-video-a-la-demande",
      "report": "https://www.republique-numerique.fr/consultations/projet-de-loi-numerique/consultation/consultation/opinions/section-2-accessibilite-des-personnes-handicapees-aux-sites-internet-publics/accessibilite-des-sites-internet-des-services-de-communication-audiovisuelle/versions/etendre-l-obligation-d-accessibilite-aux-services-de-video-a-la-demande/report"
    },
    "user_vote": null,
    "has_user_reported": false
  },
  "rankingThreshold": null,
  "opinionTerm": 1
}