{
  "opinion": {
    "isContribuable": false,
    "votes_total": 26,
    "arguments_yes_count": 0,
    "arguments_no_count": 1,
    "id": 563,
    "created_at": "2015-10-12T17:08:22+0200",
    "updated_at": "2015-10-12T17:08:22+0200",
    "body": "<div>Tout service public publiant une application &agrave; destination des usagers se doit de la rendre disponible et utilisable ind&eacute;pendamment des plateformes contr&ocirc;l&eacute;es par des acteurs priv&eacute;s et commerciaux, soit qu&#39;elles facturent leur service, soit qu&#39;elles exploitent les donn&eacute;es de leurs utilisateurs.&nbsp;</div>\r\n\r\n<div>&nbsp;</div>",
    "versions_count": 0,
    "sources_count": 0,
    "arguments_count": 1,
    "author": {
      "username": "Luk",
      "displayName": "Luk",
      "uniqueId": "luk",
      "isAdmin": false,
      "media": null,
      "vip": false,
      "_links": {
        "profile": "https://www.republique-numerique.fr/profile/luk",
        "settings": "https://www.republique-numerique.fr/profile/edit-profile"
      }
    },
    "type": {
      "id": 94,
      "title": "Section 1",
      "subtitle": "Neutralité de l’internet",
      "voteWidgetType": 2,
      "votesHelpText": "Pensez-vous que cette proposition permet d'atteindre les objectifs présentés dans l’explication de l’article ?",
      "commentSystem": 2,
      "color": "blue",
      "versionable": true,
      "sourceable": true,
      "votesThreshold": null,
      "votesThresholdHelpText": null
    },
    "sources": [],
    "arguments": [
      {
        "isContribuable": false,
        "id": 5363,
        "body": "Proposition qui ne tient pas compte de la réalité : on ne peut installer des applications que sur des appareils vendus par le secteur privé. De plus il n'y aucune obligation d'utiliser ces applications puisqu'il est toujours possible d'utiliser le site internet du service public concerné.",
        "created_at": "2015-10-17T16:38:52+0200",
        "updated_at": "2015-10-17T16:38:52+0200",
        "is_enabled": true,
        "votes_count": 0,
        "type": 0,
        "is_trashed": false,
        "author": {
          "username": "Tanéléo",
          "displayName": "Tanéléo",
          "uniqueId": "taneleo",
          "isAdmin": false,
          "media": null,
          "vip": false,
          "_links": {
            "profile": "https://www.republique-numerique.fr/profile/taneleo",
            "settings": "https://www.republique-numerique.fr/profile/edit-profile"
          }
        },
        "_links": {
          "show": "https://www.republique-numerique.fr/consultations/projet-de-loi-numerique/consultation/consultation/opinions/section-1-neutralite-de-l-internet/les-applications-des-services-publics-doivent-etre-egalement-accessibles-par-une-plateforme-commercialement-neutre#arg-5363",
          "edit": "https://www.republique-numerique.fr/consultations/projet-de-loi-numerique/consultation/consultation/opinions/section-1-neutralite-de-l-internet/les-applications-des-services-publics-doivent-etre-egalement-accessibles-par-une-plateforme-commercialement-neutre/arguments/5363/edit",
          "report": "https://www.republique-numerique.fr/consultations/projet-de-loi-numerique/consultation/consultation/opinions/section-1-neutralite-de-l-internet/les-applications-des-services-publics-doivent-etre-egalement-accessibles-par-une-plateforme-commercialement-neutre/arguments/5363/report"
        },
        "has_user_voted": false,
        "has_user_reported": false
      }
    ],
    "modals": [],
    "votes": [
      {
        "user": {
          "username": "momb",
          "displayName": "momb",
          "uniqueId": "momb",
          "isAdmin": false,
          "media": null,
          "vip": false,
          "_links": {
            "profile": "https://www.republique-numerique.fr/profile/momb",
            "settings": "https://www.republique-numerique.fr/profile/edit-profile"
          }
        }
      },
      {
        "user": {
          "username": "Pascal Rigaud",
          "displayName": "Pascal Rigaud",
          "uniqueId": "pascalrigaud",
          "isAdmin": false,
          "media": null,
          "vip": false,
          "_links": {
            "profile": "https://www.republique-numerique.fr/profile/pascalrigaud",
            "settings": "https://www.republique-numerique.fr/profile/edit-profile"
          }
        }
      },
      {
        "user": {
          "username": "Véronique Bonnet",
          "displayName": "Véronique Bonnet",
          "uniqueId": "veroniquebonnet",
          "isAdmin": false,
          "media": null,
          "vip": false,
          "_links": {
            "profile": "https://www.republique-numerique.fr/profile/veroniquebonnet",
            "settings": "https://www.republique-numerique.fr/profile/edit-profile"
          }
        }
      },
      {
        "user": {
          "username": "Maisonobe Luc",
          "displayName": "Maisonobe Luc",
          "uniqueId": "maisonobeluc",
          "isAdmin": false,
          "media": {
            "url": "/media/cache/default_avatar/default/0001/01/710_default_avatar.jpg"
          },
          "vip": false,
          "_links": {
            "profile": "https://www.republique-numerique.fr/profile/maisonobeluc",
            "settings": "https://www.republique-numerique.fr/profile/edit-profile"
          }
        }
      },
      {
        "user": {
          "username": "bruno MECHIN",
          "displayName": "bruno MECHIN",
          "uniqueId": "brunomechin",
          "isAdmin": false,
          "media": null,
          "vip": false,
          "_links": {
            "profile": "https://www.republique-numerique.fr/profile/brunomechin",
            "settings": "https://www.republique-numerique.fr/profile/edit-profile"
          }
        }
      }
    ],
    "appendices": [
      {
        "body": "<div>Un grand nombre de services publics ne rendent leurs applications pour mobile accessibles qu&#39;au travers du playstore de google et de l&#39;Appstore d&#39;Apple.</div>\r\n\r\n<div>&nbsp;</div>\r\n\r\n<div>Ces plateformes impliquent que leurs utilisateurs s&#39;inscrivent chez ces acteurs commerciaux, re&ccedil;oivent leurs sollicitations commerciales, leurs c&egrave;dent leurs donn&eacute;es personnelles pour une utilisation qui risque fort d&#39;&ecirc;tre ill&eacute;gale au regard du droit europ&eacute;en.</div>\r\n\r\n<div>&nbsp;</div>\r\n\r\n<div>Les services publics ne respectent pas leur devoir de neutralit&eacute; en faisant la promotion de ces services commerciaux et en liant le service public rendu avec l&#39;adh&eacute;sion avec un service commercial.</div>\r\n\r\n<div>&nbsp;</div>\r\n\r\n<div>Les usagers qui ne veulent pas devenir clients de Google et Apple ne peuvent d&egrave;s lors pas b&eacute;n&eacute;ficier des applications.&nbsp;</div>\r\n\r\n<div>&nbsp;</div>\r\n\r\n<div>----------------</div>\r\n\r\n<div>Sur la l&eacute;galit&eacute; de l&#39;utilisation des donn&eacute;es, l&#39;&eacute;quivalent de la CNIL en Belgique a d&eacute;j&agrave; &eacute;tabli que Facebook ne respectait pas le droit europ&eacute;en, on peut raisonnablement supposer que Google et Apple ne font pas mieux.\r\n<div>Facebook ne respecte pas le droit europ&eacute;en, on peut donc craindre la m&ecirc;me chose de Google et Apple : <a href=\"http://www.zdnet.fr/actualites/vie-privee-facebook-bafoue-les-legislations-europeennes-39819432.htm\">http://www.zdnet.fr/actualites/vie-privee-facebook-bafoue-les-legislations-europeennes-39819432.htm</a></div>\r\n\r\n<div>&nbsp;</div>\r\n\r\n<div>&nbsp;</div>\r\n\r\n<div>Par ailleurs, le Safe harbor vient d&#39;&ecirc;tre invalid&eacute; par la CJUE, lier un service public &agrave; un service commercial des GAFAM semble donc mal venu : <a href=\"http://www.lemonde.fr/pixels/article/2015/10/06/la-justice-europeenne-invalide-le-tres-controverse-accord-safe-harbor-sur-les-donnees-personnelles_4783262_4408996.html\">http://www.lemonde.fr/pixels/article/2015/10/06/la-justice-europeenne-invalide-le-tres-controverse-accord-safe-harbor-sur-les-donnees-personnelles_4783262_4408996.html</a></div>\r\n\r\n<div>&nbsp;</div>\r\n</div>\r\n\r\n<div>&nbsp;</div>",
        "type": {
          "title": "Explication de l'article"
        }
      }
    ],
    "ranking": 193,
    "is_trashed": false,
    "title": "Les applications des services publics doivent être également accessibles par une plateforme commercialement neutre",
    "votes_nok": 1,
    "votes_ok": 25,
    "votes_mitige": 0,
    "_links": {
      "show": "https://www.republique-numerique.fr/consultations/projet-de-loi-numerique/consultation/consultation/opinions/section-1-neutralite-de-l-internet/les-applications-des-services-publics-doivent-etre-egalement-accessibles-par-une-plateforme-commercialement-neutre",
      "edit": "https://www.republique-numerique.fr/consultations/projet-de-loi-numerique/consultation/consultation/opinions/section-1-neutralite-de-l-internet/les-applications-des-services-publics-doivent-etre-egalement-accessibles-par-une-plateforme-commercialement-neutre/edit",
      "report": "https://www.republique-numerique.fr/consultations/projet-de-loi-numerique/consultation/consultation/opinions/section-1-neutralite-de-l-internet/les-applications-des-services-publics-doivent-etre-egalement-accessibles-par-une-plateforme-commercialement-neutre/report",
      "type": "https://www.republique-numerique.fr/consultations/projet-de-loi-numerique/consultation/consultation/opinions/section-1-neutralite-de-l-internet"
    },
    "user_vote": null,
    "has_user_reported": false
  },
  "rankingThreshold": null,
  "opinionTerm": 1
}