{
  "opinion": {
    "isContribuable": false,
    "votes_total": 122,
    "arguments_yes_count": 6,
    "arguments_no_count": 5,
    "id": 121,
    "created_at": "2015-09-26T16:59:21+0200",
    "updated_at": "2015-09-26T16:59:21+0200",
    "body": "<p>1&deg; &Agrave; l&#39;aide d&#39;une platforme ouverte &agrave; tous, le gouvernement doit permettre au citoyen de proposer des modification sur les textes officiels.</p>\r\n\r\n<p>2&deg; Ces textes peuvent &ecirc;tre des lois, la constitution ou des codes.</p>\r\n\r\n<p>3&deg; Les acteurs de l&#39;&Eacute;tat s&#39;engagent moralement &agrave; lire et prendre en compte les propositions.</p>\r\n\r\n<p>4&deg; Les acteurs sus-cit&eacute;s doivent &ecirc;tre pr&eacute;sents sur la platforme pour participer au d&eacute;bat.</p>\r\n\r\n<p>5&deg; Cependant il ne doivent pas avoir un acc&egrave;s administrateur, leur voix doit &ecirc;tre &eacute;gale &agrave; celle d&#39;un citoyen.</p>\r\n\r\n<p>6&deg; Chaque mois un commission compos&eacute;e de citoyens tir&eacute;s au sort et de membres du gouvermement doit se r&eacute;unir afin de discuter des porpositions.</p>\r\n\r\n<p>7&deg; En cas de modification importante du texte, un r&eacute;f&eacute;rendum peut avoir lieu.</p>",
    "versions_count": 1,
    "sources_count": 0,
    "arguments_count": 11,
    "author": {
      "username": "Le Poisson Libre",
      "displayName": "Le Poisson Libre",
      "uniqueId": "lepoissonlibre",
      "isAdmin": false,
      "media": {
        "url": "/media/cache/default_avatar/default/0001/01/116_default_avatar.png"
      },
      "vip": false,
      "_links": {
        "profile": "https://www.republique-numerique.fr/profile/lepoissonlibre",
        "settings": "https://www.republique-numerique.fr/profile/edit-profile"
      }
    },
    "type": {
      "id": 88,
      "title": "Section 3",
      "subtitle": "Données d’intérêt général",
      "voteWidgetType": 2,
      "votesHelpText": "Pensez-vous que cette proposition permet d'atteindre les objectifs présentés dans l’explication de l’article ?",
      "commentSystem": 2,
      "color": "blue",
      "versionable": true,
      "sourceable": true,
      "votesThreshold": null,
      "votesThresholdHelpText": null
    },
    "sources": [],
    "arguments": [
      {
        "isContribuable": false,
        "id": 6149,
        "body": "7° En cas de modification importantes, un référendum DOIT avoir lieux .",
        "created_at": "2015-10-18T22:35:41+0200",
        "updated_at": "2015-10-18T22:35:41+0200",
        "is_enabled": true,
        "votes_count": 0,
        "type": 1,
        "is_trashed": false,
        "author": {
          "username": "Ludovic Marchal",
          "displayName": "Ludovic Marchal",
          "uniqueId": "ludovicmarchal",
          "isAdmin": false,
          "media": {
            "url": "/media/cache/default_avatar/default/0001/02/1053_default_avatar.png"
          },
          "vip": false,
          "_links": {
            "profile": "https://www.republique-numerique.fr/profile/ludovicmarchal",
            "settings": "https://www.republique-numerique.fr/profile/edit-profile"
          }
        },
        "_links": {
          "show": "https://www.republique-numerique.fr/consultations/projet-de-loi-numerique/consultation/consultation/opinions/section-3-donnees-d-interet-general/creation-d-une-platforme-de-modification-des-textes-officiels#arg-6149",
          "edit": "https://www.republique-numerique.fr/consultations/projet-de-loi-numerique/consultation/consultation/opinions/section-3-donnees-d-interet-general/creation-d-une-platforme-de-modification-des-textes-officiels/arguments/6149/edit",
          "report": "https://www.republique-numerique.fr/consultations/projet-de-loi-numerique/consultation/consultation/opinions/section-3-donnees-d-interet-general/creation-d-une-platforme-de-modification-des-textes-officiels/arguments/6149/report"
        },
        "has_user_voted": false,
        "has_user_reported": false
      },
      {
        "isContribuable": false,
        "id": 5612,
        "body": "Ceci est une consultation qui permet d'enrichir le débat parlementaire et non le concurrencer. Cela permet un débat citoyen et sans doute émergent des idées que ne pouvaient pas avoir les députés. De plus, avec les personnes parachutées, la disponibilité des élus est toute relative.",
        "created_at": "2015-10-17T23:04:51+0200",
        "updated_at": "2015-10-17T23:04:51+0200",
        "is_enabled": true,
        "votes_count": 2,
        "type": 1,
        "is_trashed": false,
        "author": {
          "username": "Jeanne Varasco",
          "displayName": "Jeanne Varasco",
          "uniqueId": "jeannevarasco",
          "isAdmin": false,
          "media": {
            "url": "/media/cache/default_avatar/default/0001/01/139_default_avatar.jpg"
          },
          "vip": false,
          "_links": {
            "profile": "https://www.republique-numerique.fr/profile/jeannevarasco",
            "settings": "https://www.republique-numerique.fr/profile/edit-profile"
          }
        },
        "_links": {
          "show": "https://www.republique-numerique.fr/consultations/projet-de-loi-numerique/consultation/consultation/opinions/section-3-donnees-d-interet-general/creation-d-une-platforme-de-modification-des-textes-officiels#arg-5612",
          "edit": "https://www.republique-numerique.fr/consultations/projet-de-loi-numerique/consultation/consultation/opinions/section-3-donnees-d-interet-general/creation-d-une-platforme-de-modification-des-textes-officiels/arguments/5612/edit",
          "report": "https://www.republique-numerique.fr/consultations/projet-de-loi-numerique/consultation/consultation/opinions/section-3-donnees-d-interet-general/creation-d-une-platforme-de-modification-des-textes-officiels/arguments/5612/report"
        },
        "has_user_voted": false,
        "has_user_reported": false
      },
      {
        "isContribuable": false,
        "id": 5317,
        "body": "Ce n'est pas au citoyen de faire cela, mais au législateur.",
        "created_at": "2015-10-17T15:52:56+0200",
        "updated_at": "2015-10-17T15:52:56+0200",
        "is_enabled": true,
        "votes_count": 1,
        "type": 0,
        "is_trashed": false,
        "author": {
          "username": "Tanéléo",
          "displayName": "Tanéléo",
          "uniqueId": "taneleo",
          "isAdmin": false,
          "media": null,
          "vip": false,
          "_links": {
            "profile": "https://www.republique-numerique.fr/profile/taneleo",
            "settings": "https://www.republique-numerique.fr/profile/edit-profile"
          }
        },
        "_links": {
          "show": "https://www.republique-numerique.fr/consultations/projet-de-loi-numerique/consultation/consultation/opinions/section-3-donnees-d-interet-general/creation-d-une-platforme-de-modification-des-textes-officiels#arg-5317",
          "edit": "https://www.republique-numerique.fr/consultations/projet-de-loi-numerique/consultation/consultation/opinions/section-3-donnees-d-interet-general/creation-d-une-platforme-de-modification-des-textes-officiels/arguments/5317/edit",
          "report": "https://www.republique-numerique.fr/consultations/projet-de-loi-numerique/consultation/consultation/opinions/section-3-donnees-d-interet-general/creation-d-une-platforme-de-modification-des-textes-officiels/arguments/5317/report"
        },
        "has_user_voted": false,
        "has_user_reported": false
      },
      {
        "isContribuable": false,
        "id": 4287,
        "body": "oui mais seulement si il y a identification correct d'un citoyen français (car aujourd’hui n’importe qui peut s’inscrire même les gens qui ne sont pas de ce pays)",
        "created_at": "2015-10-15T16:42:51+0200",
        "updated_at": "2015-10-15T16:42:51+0200",
        "is_enabled": true,
        "votes_count": 1,
        "type": 1,
        "is_trashed": false,
        "author": {
          "username": "BERNARD Loïc",
          "displayName": "BERNARD Loïc",
          "uniqueId": "bernardloic",
          "isAdmin": false,
          "media": {
            "url": "/media/cache/default_avatar/default/0001/01/805_default_avatar.jpg"
          },
          "vip": false,
          "_links": {
            "profile": "https://www.republique-numerique.fr/profile/bernardloic",
            "settings": "https://www.republique-numerique.fr/profile/edit-profile"
          }
        },
        "_links": {
          "show": "https://www.republique-numerique.fr/consultations/projet-de-loi-numerique/consultation/consultation/opinions/section-3-donnees-d-interet-general/creation-d-une-platforme-de-modification-des-textes-officiels#arg-4287",
          "edit": "https://www.republique-numerique.fr/consultations/projet-de-loi-numerique/consultation/consultation/opinions/section-3-donnees-d-interet-general/creation-d-une-platforme-de-modification-des-textes-officiels/arguments/4287/edit",
          "report": "https://www.republique-numerique.fr/consultations/projet-de-loi-numerique/consultation/consultation/opinions/section-3-donnees-d-interet-general/creation-d-une-platforme-de-modification-des-textes-officiels/arguments/4287/report"
        },
        "has_user_voted": false,
        "has_user_reported": false
      },
      {
        "isContribuable": false,
        "id": 4125,
        "body": "Aujourd'hui la technologie permet de repenser la démocratie, comme le propose cette consultation innovante et qui doit servir de modèle. Que l'ensemble des milliers de textes législatifs et réglementaires puissent être remis en cause à tout moment par des citoyens vigilants me semble pour l'instant compliqué. En revanche, systématiser la consultation publique sur les projets et propositions de lois en cours me parait un grand pas pour la démocratie participative de Rousseau, idéal vers lequel toute République honnête doit tendre.",
        "created_at": "2015-10-15T10:08:07+0200",
        "updated_at": "2015-10-15T10:08:07+0200",
        "is_enabled": true,
        "votes_count": 1,
        "type": 1,
        "is_trashed": false,
        "author": {
          "username": "Gresset Sarah",
          "displayName": "Gresset Sarah",
          "uniqueId": "gressetsarah",
          "isAdmin": false,
          "media": null,
          "vip": false,
          "_links": {
            "profile": "https://www.republique-numerique.fr/profile/gressetsarah",
            "settings": "https://www.republique-numerique.fr/profile/edit-profile"
          }
        },
        "_links": {
          "show": "https://www.republique-numerique.fr/consultations/projet-de-loi-numerique/consultation/consultation/opinions/section-3-donnees-d-interet-general/creation-d-une-platforme-de-modification-des-textes-officiels#arg-4125",
          "edit": "https://www.republique-numerique.fr/consultations/projet-de-loi-numerique/consultation/consultation/opinions/section-3-donnees-d-interet-general/creation-d-une-platforme-de-modification-des-textes-officiels/arguments/4125/edit",
          "report": "https://www.republique-numerique.fr/consultations/projet-de-loi-numerique/consultation/consultation/opinions/section-3-donnees-d-interet-general/creation-d-une-platforme-de-modification-des-textes-officiels/arguments/4125/report"
        },
        "has_user_voted": false,
        "has_user_reported": false
      },
      {
        "isContribuable": false,
        "id": 2655,
        "body": "Une plateforme de ce type, et c'est déjà le cas sur celle-ci, engendre des propositions sans rapports qui deviennent difficiles à étudier.",
        "created_at": "2015-10-08T13:20:04+0200",
        "updated_at": "2015-10-08T13:20:04+0200",
        "is_enabled": true,
        "votes_count": 2,
        "type": 0,
        "is_trashed": false,
        "author": {
          "username": "charly hue",
          "displayName": "charly hue",
          "uniqueId": "charlyhue",
          "isAdmin": false,
          "media": null,
          "vip": false,
          "_links": {
            "profile": "https://www.republique-numerique.fr/profile/charlyhue",
            "settings": "https://www.republique-numerique.fr/profile/edit-profile"
          }
        },
        "_links": {
          "show": "https://www.republique-numerique.fr/consultations/projet-de-loi-numerique/consultation/consultation/opinions/section-3-donnees-d-interet-general/creation-d-une-platforme-de-modification-des-textes-officiels#arg-2655",
          "edit": "https://www.republique-numerique.fr/consultations/projet-de-loi-numerique/consultation/consultation/opinions/section-3-donnees-d-interet-general/creation-d-une-platforme-de-modification-des-textes-officiels/arguments/2655/edit",
          "report": "https://www.republique-numerique.fr/consultations/projet-de-loi-numerique/consultation/consultation/opinions/section-3-donnees-d-interet-general/creation-d-une-platforme-de-modification-des-textes-officiels/arguments/2655/report"
        },
        "has_user_voted": false,
        "has_user_reported": false
      },
      {
        "isContribuable": false,
        "id": 968,
        "body": "\"citoyens tirés au sort et membres du gouvernement\" ?\nNon non : il y a le pouvoir législatif pour cela, élu par tous les citoyens, sur le principe : 1 citoyen = 1 voix. Et les électeurs ne sont pas tirés au sort",
        "created_at": "2015-09-28T17:12:34+0200",
        "updated_at": "2015-09-28T17:12:34+0200",
        "is_enabled": true,
        "votes_count": 1,
        "type": 0,
        "is_trashed": false,
        "author": {
          "username": "JB Guinot",
          "displayName": "JB Guinot",
          "uniqueId": "jbguinot",
          "isAdmin": false,
          "media": null,
          "vip": false,
          "_links": {
            "profile": "https://www.republique-numerique.fr/profile/jbguinot",
            "settings": "https://www.republique-numerique.fr/profile/edit-profile"
          }
        },
        "_links": {
          "show": "https://www.republique-numerique.fr/consultations/projet-de-loi-numerique/consultation/consultation/opinions/section-3-donnees-d-interet-general/creation-d-une-platforme-de-modification-des-textes-officiels#arg-968",
          "edit": "https://www.republique-numerique.fr/consultations/projet-de-loi-numerique/consultation/consultation/opinions/section-3-donnees-d-interet-general/creation-d-une-platforme-de-modification-des-textes-officiels/arguments/968/edit",
          "report": "https://www.republique-numerique.fr/consultations/projet-de-loi-numerique/consultation/consultation/opinions/section-3-donnees-d-interet-general/creation-d-une-platforme-de-modification-des-textes-officiels/arguments/968/report"
        },
        "has_user_voted": false,
        "has_user_reported": false
      },
      {
        "isContribuable": false,
        "id": 335,
        "body": "En principe nous avons des députés et des sénateurs pour ça. Vous êtes libre de contacter votre député.... Là c'est la remise en cause du bicamérisme et donc de la constitution sinon de la République",
        "created_at": "2015-09-27T00:47:26+0200",
        "updated_at": "2015-09-27T00:47:26+0200",
        "is_enabled": true,
        "votes_count": 3,
        "type": 0,
        "is_trashed": false,
        "author": {
          "username": "Frédéric Boutin",
          "displayName": "Frédéric Boutin",
          "uniqueId": "fredericboutin",
          "isAdmin": false,
          "media": null,
          "vip": false,
          "_links": {
            "profile": "https://www.republique-numerique.fr/profile/fredericboutin",
            "settings": "https://www.republique-numerique.fr/profile/edit-profile"
          }
        },
        "_links": {
          "show": "https://www.republique-numerique.fr/consultations/projet-de-loi-numerique/consultation/consultation/opinions/section-3-donnees-d-interet-general/creation-d-une-platforme-de-modification-des-textes-officiels#arg-335",
          "edit": "https://www.republique-numerique.fr/consultations/projet-de-loi-numerique/consultation/consultation/opinions/section-3-donnees-d-interet-general/creation-d-une-platforme-de-modification-des-textes-officiels/arguments/335/edit",
          "report": "https://www.republique-numerique.fr/consultations/projet-de-loi-numerique/consultation/consultation/opinions/section-3-donnees-d-interet-general/creation-d-une-platforme-de-modification-des-textes-officiels/arguments/335/report"
        },
        "has_user_voted": false,
        "has_user_reported": false
      },
      {
        "isContribuable": false,
        "id": 302,
        "body": "J'ai mis \"mitigé\" car je pense que cela mérite plus d’approfondissement et donc une section/un projet de loi à lui même !\nDe plus le faite que l'Etat ne puisse pas avoir un rôle d'admin (5ème point \"Cependant il ne doivent pas avoir un accès administrateur, leur voix doit être égale à celle d'un citoyen.\") me gène...",
        "created_at": "2015-09-26T23:37:25+0200",
        "updated_at": "2015-09-26T23:37:25+0200",
        "is_enabled": true,
        "votes_count": 3,
        "type": 0,
        "is_trashed": false,
        "author": {
          "username": "SPAHR Hugo",
          "displayName": "SPAHR Hugo",
          "uniqueId": "spahrhugo",
          "isAdmin": false,
          "media": {
            "url": "/media/cache/default_avatar/default/0001/01/89_default_avatar.jpg"
          },
          "vip": false,
          "_links": {
            "profile": "https://www.republique-numerique.fr/profile/spahrhugo",
            "settings": "https://www.republique-numerique.fr/profile/edit-profile"
          }
        },
        "_links": {
          "show": "https://www.republique-numerique.fr/consultations/projet-de-loi-numerique/consultation/consultation/opinions/section-3-donnees-d-interet-general/creation-d-une-platforme-de-modification-des-textes-officiels#arg-302",
          "edit": "https://www.republique-numerique.fr/consultations/projet-de-loi-numerique/consultation/consultation/opinions/section-3-donnees-d-interet-general/creation-d-une-platforme-de-modification-des-textes-officiels/arguments/302/edit",
          "report": "https://www.republique-numerique.fr/consultations/projet-de-loi-numerique/consultation/consultation/opinions/section-3-donnees-d-interet-general/creation-d-une-platforme-de-modification-des-textes-officiels/arguments/302/report"
        },
        "has_user_voted": false,
        "has_user_reported": false
      },
      {
        "isContribuable": false,
        "id": 201,
        "body": "En Suisse, il y a l’expérience de la démocratie participative version ancienne. Je pense que l'idée ne vaut que si une idée recueille un certain nombre de voix positives; par exemple 1000, ou plus. Il y aurait danger, autrement, que quelques citoyens décident pour tout le monde (lobbies), ce qui mettrait sérieusement la démocratie en danger et une ingérence encore plus forte de notre société.",
        "created_at": "2015-09-26T18:40:34+0200",
        "updated_at": "2015-09-26T18:40:34+0200",
        "is_enabled": true,
        "votes_count": 4,
        "type": 1,
        "is_trashed": false,
        "author": {
          "username": "Jeanne Varasco",
          "displayName": "Jeanne Varasco",
          "uniqueId": "jeannevarasco",
          "isAdmin": false,
          "media": {
            "url": "/media/cache/default_avatar/default/0001/01/139_default_avatar.jpg"
          },
          "vip": false,
          "_links": {
            "profile": "https://www.republique-numerique.fr/profile/jeannevarasco",
            "settings": "https://www.republique-numerique.fr/profile/edit-profile"
          }
        },
        "_links": {
          "show": "https://www.republique-numerique.fr/consultations/projet-de-loi-numerique/consultation/consultation/opinions/section-3-donnees-d-interet-general/creation-d-une-platforme-de-modification-des-textes-officiels#arg-201",
          "edit": "https://www.republique-numerique.fr/consultations/projet-de-loi-numerique/consultation/consultation/opinions/section-3-donnees-d-interet-general/creation-d-une-platforme-de-modification-des-textes-officiels/arguments/201/edit",
          "report": "https://www.republique-numerique.fr/consultations/projet-de-loi-numerique/consultation/consultation/opinions/section-3-donnees-d-interet-general/creation-d-une-platforme-de-modification-des-textes-officiels/arguments/201/report"
        },
        "has_user_voted": false,
        "has_user_reported": false
      },
      {
        "isContribuable": false,
        "id": 166,
        "body": "Projet qui serait super intéressant, mais qui nécessiterait aussi d'être étudier en profondeur (et donc ne pourrait pas être intégré tout de suite dans cette loi). Wikipédia pourrait être un modèle d'inspiration pour ce type de projet. ",
        "created_at": "2015-09-26T17:37:52+0200",
        "updated_at": "2015-09-26T17:37:52+0200",
        "is_enabled": true,
        "votes_count": 7,
        "type": 1,
        "is_trashed": false,
        "author": {
          "username": "Jonathan Crequer",
          "displayName": "Jonathan Crequer",
          "uniqueId": "jonathancrequer",
          "isAdmin": false,
          "media": null,
          "vip": false,
          "_links": {
            "profile": "https://www.republique-numerique.fr/profile/jonathancrequer",
            "settings": "https://www.republique-numerique.fr/profile/edit-profile"
          }
        },
        "_links": {
          "show": "https://www.republique-numerique.fr/consultations/projet-de-loi-numerique/consultation/consultation/opinions/section-3-donnees-d-interet-general/creation-d-une-platforme-de-modification-des-textes-officiels#arg-166",
          "edit": "https://www.republique-numerique.fr/consultations/projet-de-loi-numerique/consultation/consultation/opinions/section-3-donnees-d-interet-general/creation-d-une-platforme-de-modification-des-textes-officiels/arguments/166/edit",
          "report": "https://www.republique-numerique.fr/consultations/projet-de-loi-numerique/consultation/consultation/opinions/section-3-donnees-d-interet-general/creation-d-une-platforme-de-modification-des-textes-officiels/arguments/166/report"
        },
        "has_user_voted": false,
        "has_user_reported": false
      }
    ],
    "modals": [],
    "votes": [
      {
        "user": {
          "username": "Jonathan Crequer",
          "displayName": "Jonathan Crequer",
          "uniqueId": "jonathancrequer",
          "isAdmin": false,
          "media": null,
          "vip": false,
          "_links": {
            "profile": "https://www.republique-numerique.fr/profile/jonathancrequer",
            "settings": "https://www.republique-numerique.fr/profile/edit-profile"
          }
        }
      },
      {
        "user": {
          "username": "dattaz",
          "displayName": "dattaz",
          "uniqueId": "dattaz",
          "isAdmin": false,
          "media": {
            "url": "/media/cache/default_avatar/default/0001/01/94_default_avatar.jpg"
          },
          "vip": false,
          "_links": {
            "profile": "https://www.republique-numerique.fr/profile/dattaz",
            "settings": "https://www.republique-numerique.fr/profile/edit-profile"
          }
        }
      },
      {
        "user": {
          "username": "ROUX",
          "displayName": "ROUX",
          "uniqueId": "roux",
          "isAdmin": false,
          "media": null,
          "vip": false,
          "_links": {
            "profile": "https://www.republique-numerique.fr/profile/roux",
            "settings": "https://www.republique-numerique.fr/profile/edit-profile"
          }
        }
      },
      {
        "user": {
          "username": "Daniel Amaury",
          "displayName": "Daniel Amaury",
          "uniqueId": "danielamaury",
          "isAdmin": false,
          "media": null,
          "vip": false,
          "_links": {
            "profile": "https://www.republique-numerique.fr/profile/danielamaury",
            "settings": "https://www.republique-numerique.fr/profile/edit-profile"
          }
        }
      },
      {
        "user": {
          "username": "Jeanne Varasco",
          "displayName": "Jeanne Varasco",
          "uniqueId": "jeannevarasco",
          "isAdmin": false,
          "media": {
            "url": "/media/cache/default_avatar/default/0001/01/139_default_avatar.jpg"
          },
          "vip": false,
          "_links": {
            "profile": "https://www.republique-numerique.fr/profile/jeannevarasco",
            "settings": "https://www.republique-numerique.fr/profile/edit-profile"
          }
        }
      }
    ],
    "appendices": [
      {
        "body": "<p>Notre d&eacute;mocratie actuelle en est de moins en moins une. Le citoyen ne peut plus s&#39;exprimer que part son vote. Il est temps de lui permettre de donner son avis sur les textes qui r&eacute;gissent sa vie. Cela doit se faire sans interm&eacute;diaire, directement &agrave; travers une paltforme web.</p>",
        "type": {
          "title": "Explication de l'article"
        }
      }
    ],
    "ranking": 92,
    "is_trashed": false,
    "title": "Création d'une platforme de modification des textes officiels.",
    "votes_nok": 5,
    "votes_ok": 103,
    "votes_mitige": 14,
    "_links": {
      "show": "https://www.republique-numerique.fr/consultations/projet-de-loi-numerique/consultation/consultation/opinions/section-3-donnees-d-interet-general/creation-d-une-platforme-de-modification-des-textes-officiels",
      "edit": "https://www.republique-numerique.fr/consultations/projet-de-loi-numerique/consultation/consultation/opinions/section-3-donnees-d-interet-general/creation-d-une-platforme-de-modification-des-textes-officiels/edit",
      "report": "https://www.republique-numerique.fr/consultations/projet-de-loi-numerique/consultation/consultation/opinions/section-3-donnees-d-interet-general/creation-d-une-platforme-de-modification-des-textes-officiels/report",
      "type": "https://www.republique-numerique.fr/consultations/projet-de-loi-numerique/consultation/consultation/opinions/section-3-donnees-d-interet-general"
    },
    "user_vote": null,
    "has_user_reported": false
  },
  "rankingThreshold": null,
  "opinionTerm": 1
}