{
  "version": {
    "isContribuable": false,
    "votes_total": 13,
    "arguments_yes_count": 4,
    "arguments_no_count": 0,
    "id": 358,
    "body": "<p>La mise &agrave; disposition et la diffusion publique des donn&eacute;es de r&eacute;f&eacute;rence en vue de faciliter leur r&eacute;utilisation constituent une mission de service public relevant de l&rsquo;Etat. Toutes les autorit&eacute;s administratives concourent &agrave; cette mission.</p>\n\n<p>Sont des donn&eacute;es de r&eacute;f&eacute;rence les donn&eacute;es produites ou re&ccedil;ues par les administrations mentionn&eacute;es &agrave; l&#39;article 1er de la loi du 17 juillet 1978 qui font l&#39;objet ou sont susceptibles de faire l&rsquo;objet d&#39;une utilisation fr&eacute;quente par un grand nombre d&rsquo;acteurs tant publics que priv&eacute;s et dont la qualit&eacute;, en termes notamment de pr&eacute;cision, de fr&eacute;quence de mise &agrave; jour ou d&rsquo;accessibilit&eacute;, est essentielle pour ces utilisations. Un d&eacute;cret fixe la liste des donn&eacute;es de r&eacute;f&eacute;rence et d&eacute;signe les administrations responsables de leur production et de leur diffusion.</p>\n\n<p>Les modalit&eacute;s d&rsquo;application du pr&eacute;sent article sont d&eacute;finies par un d&eacute;cret en Conseil d&rsquo;Etat. Dans l&rsquo;hypoth&egrave;se o&ugrave; plusieurs administrations sont responsables, le d&eacute;cret d&eacute;termine les modalit&eacute;s de la coordination entre ces administrations. Il fixe la qualit&eacute; minimale que la diffusion publique des donn&eacute;es de r&eacute;f&eacute;rence doit respecter, notamment en termes de pr&eacute;cision, de degr&eacute; de d&eacute;tail, de fr&eacute;quence de mise &agrave; jour, d&rsquo;accessibilit&eacute; et de format. Il pr&eacute;cise les modalit&eacute;s de participation des collectivit&eacute;s territoriales &agrave; la mise &agrave; disposition et &agrave; la diffusion publique des donn&eacute;es de r&eacute;f&eacute;rence. Il pr&eacute;cise&nbsp;la mani&egrave;re dont les administrations responsables rendent compte de leur activit&eacute; aupr&egrave;s de la CNIL et du parlement.</p>",
    "comment": "Une instance doit &ecirc;tre pr&eacute;vue &nbsp;pour contr&ocirc;ler le service public d&#39;administration des donn&eacute;es en termes &eacute;thique, de protection des donn&eacute;es, d&#39;activit&eacute;, d&#39;efficience budg&eacute;taire,...",
    "author": {
      "username": "A. Badoche",
      "displayName": "A. Badoche",
      "uniqueId": "abadoche",
      "isAdmin": false,
      "media": null,
      "vip": false,
      "_links": {
        "profile": "https://www.republique-numerique.fr/profile/abadoche",
        "settings": "https://www.republique-numerique.fr/profile/edit-profile"
      }
    },
    "arguments": [
      {
        "isContribuable": false,
        "id": 1123,
        "body": "Oui c’est pourquoi j’ai proposé que la CNIL avec des tiers citoyens soit l’instance régulatrice (voir proposition)",
        "created_at": "2015-09-29T08:25:58+0200",
        "updated_at": "2015-09-29T08:25:58+0200",
        "is_enabled": true,
        "votes_count": 3,
        "type": 1,
        "is_trashed": false,
        "author": {
          "username": "LAUNAY",
          "displayName": "LAUNAY",
          "uniqueId": "launay",
          "isAdmin": false,
          "media": {
            "url": "/media/cache/default_avatar/default/0001/01/348_default_avatar.jpg"
          },
          "vip": false,
          "_links": {
            "profile": "https://www.republique-numerique.fr/profile/launay",
            "settings": "https://www.republique-numerique.fr/profile/edit-profile"
          }
        },
        "_links": {
          "show": "https://www.republique-numerique.fr/consultations/projet-de-loi-numerique/consultation/consultation/opinions/section-2-service-public-de-la-donnee-1/article-4-creation-d-un-service-public-de-la-donnee/versions/controle-du-service-public-de-gestion-des-donnees#arg-1123",
          "edit": "https://www.republique-numerique.fr/consultations/projet-de-loi-numerique/consultation/consultation/opinions/section-2-service-public-de-la-donnee-1/article-4-creation-d-un-service-public-de-la-donnee/arguments/1123/edit",
          "report": "https://www.republique-numerique.fr/consultations/projet-de-loi-numerique/consultation/consultation/opinions/section-2-service-public-de-la-donnee-1/article-4-creation-d-un-service-public-de-la-donnee/arguments/1123/report"
        },
        "has_user_voted": false,
        "has_user_reported": false
      },
      {
        "isContribuable": false,
        "id": 2527,
        "body": "Je ne suis pas pour créer une nouvelle instance (on en a déjà suffisamment) la CNIL serait très bien dans ce rôle",
        "created_at": "2015-10-07T18:43:01+0200",
        "updated_at": "2015-10-07T18:43:01+0200",
        "is_enabled": true,
        "votes_count": 0,
        "type": 1,
        "is_trashed": false,
        "author": {
          "username": "léo D",
          "displayName": "léo D",
          "uniqueId": "leod1",
          "isAdmin": false,
          "media": null,
          "vip": false,
          "_links": {
            "profile": "https://www.republique-numerique.fr/profile/leod1",
            "settings": "https://www.republique-numerique.fr/profile/edit-profile"
          }
        },
        "_links": {
          "show": "https://www.republique-numerique.fr/consultations/projet-de-loi-numerique/consultation/consultation/opinions/section-2-service-public-de-la-donnee-1/article-4-creation-d-un-service-public-de-la-donnee/versions/controle-du-service-public-de-gestion-des-donnees#arg-2527",
          "edit": "https://www.republique-numerique.fr/consultations/projet-de-loi-numerique/consultation/consultation/opinions/section-2-service-public-de-la-donnee-1/article-4-creation-d-un-service-public-de-la-donnee/arguments/2527/edit",
          "report": "https://www.republique-numerique.fr/consultations/projet-de-loi-numerique/consultation/consultation/opinions/section-2-service-public-de-la-donnee-1/article-4-creation-d-un-service-public-de-la-donnee/arguments/2527/report"
        },
        "has_user_voted": false,
        "has_user_reported": false
      },
      {
        "isContribuable": false,
        "id": 3688,
        "body": "Plutôt que la CNIL, c'est dans les cordes de l'Administrateur Général des Données, fonction créé il y a un peu plus d'un an.",
        "created_at": "2015-10-13T18:54:59+0200",
        "updated_at": "2015-10-13T18:54:59+0200",
        "is_enabled": true,
        "votes_count": 0,
        "type": 1,
        "is_trashed": false,
        "author": {
          "username": "Christian Quest",
          "displayName": "Christian Quest",
          "uniqueId": "christianquest",
          "isAdmin": false,
          "media": null,
          "vip": false,
          "_links": {
            "profile": "https://www.republique-numerique.fr/profile/christianquest",
            "settings": "https://www.republique-numerique.fr/profile/edit-profile"
          }
        },
        "_links": {
          "show": "https://www.republique-numerique.fr/consultations/projet-de-loi-numerique/consultation/consultation/opinions/section-2-service-public-de-la-donnee-1/article-4-creation-d-un-service-public-de-la-donnee/versions/controle-du-service-public-de-gestion-des-donnees#arg-3688",
          "edit": "https://www.republique-numerique.fr/consultations/projet-de-loi-numerique/consultation/consultation/opinions/section-2-service-public-de-la-donnee-1/article-4-creation-d-un-service-public-de-la-donnee/arguments/3688/edit",
          "report": "https://www.republique-numerique.fr/consultations/projet-de-loi-numerique/consultation/consultation/opinions/section-2-service-public-de-la-donnee-1/article-4-creation-d-un-service-public-de-la-donnee/arguments/3688/report"
        },
        "has_user_voted": false,
        "has_user_reported": false
      },
      {
        "isContribuable": false,
        "id": 5278,
        "body": "Il semble utile voire indispensable d'y associer les composantes de la société.",
        "created_at": "2015-10-17T15:12:24+0200",
        "updated_at": "2015-10-17T15:12:24+0200",
        "is_enabled": true,
        "votes_count": 0,
        "type": 1,
        "is_trashed": false,
        "author": {
          "username": "Dominique Di Nolfo",
          "displayName": "Dominique Di Nolfo",
          "uniqueId": "dominiquedinolfo",
          "isAdmin": false,
          "media": null,
          "vip": false,
          "_links": {
            "profile": "https://www.republique-numerique.fr/profile/dominiquedinolfo",
            "settings": "https://www.republique-numerique.fr/profile/edit-profile"
          }
        },
        "_links": {
          "show": "https://www.republique-numerique.fr/consultations/projet-de-loi-numerique/consultation/consultation/opinions/section-2-service-public-de-la-donnee-1/article-4-creation-d-un-service-public-de-la-donnee/versions/controle-du-service-public-de-gestion-des-donnees#arg-5278",
          "edit": "https://www.republique-numerique.fr/consultations/projet-de-loi-numerique/consultation/consultation/opinions/section-2-service-public-de-la-donnee-1/article-4-creation-d-un-service-public-de-la-donnee/arguments/5278/edit",
          "report": "https://www.republique-numerique.fr/consultations/projet-de-loi-numerique/consultation/consultation/opinions/section-2-service-public-de-la-donnee-1/article-4-creation-d-un-service-public-de-la-donnee/arguments/5278/report"
        },
        "has_user_voted": false,
        "has_user_reported": false
      }
    ],
    "sources": [],
    "parent": {
      "isContribuable": false,
      "id": 64,
      "body": "<p>La mise &agrave; disposition et la diffusion publique des donn&eacute;es de r&eacute;f&eacute;rence en vue de faciliter leur r&eacute;utilisation constituent une mission de service public relevant de l&rsquo;Etat. Toutes les autorit&eacute;s administratives concourent &agrave; cette mission.</p>\r\n\r\n<p>Sont des donn&eacute;es de r&eacute;f&eacute;rence les donn&eacute;es produites ou re&ccedil;ues par les administrations mentionn&eacute;es &agrave; l&#39;article 1er de la loi du 17 juillet 1978 qui font l&#39;objet ou sont susceptibles de faire l&rsquo;objet d&#39;une utilisation fr&eacute;quente par un grand nombre d&rsquo;acteurs tant publics que priv&eacute;s et dont la qualit&eacute;, en termes notamment de pr&eacute;cision, de fr&eacute;quence de mise &agrave; jour ou d&rsquo;accessibilit&eacute;, est essentielle pour ces utilisations. Un d&eacute;cret fixe la liste des donn&eacute;es de r&eacute;f&eacute;rence et d&eacute;signe les administrations responsables de leur production et de leur diffusion.</p>\r\n\r\n<p>Les modalit&eacute;s d&rsquo;application du pr&eacute;sent article sont d&eacute;finies par un d&eacute;cret en Conseil d&rsquo;Etat. Dans l&rsquo;hypoth&egrave;se o&ugrave; plusieurs administrations sont responsables, le d&eacute;cret d&eacute;termine les modalit&eacute;s de la coordination entre ces administrations. Il fixe la qualit&eacute; minimale que la diffusion publique des donn&eacute;es de r&eacute;f&eacute;rence doit respecter, notamment en termes de pr&eacute;cision, de degr&eacute; de d&eacute;tail, de fr&eacute;quence de mise &agrave; jour, d&rsquo;accessibilit&eacute; et de format. Il pr&eacute;cise les modalit&eacute;s de participation des collectivit&eacute;s territoriales &agrave; la mise &agrave; disposition et &agrave; la diffusion publique des donn&eacute;es de r&eacute;f&eacute;rence.</p>",
      "type": {
        "id": 87,
        "title": "Section 2",
        "subtitle": "Service public de la donnée",
        "voteWidgetType": 2,
        "votesHelpText": "Pensez-vous que cette proposition permet d'atteindre les objectifs présentés dans l’explication de l’article ?",
        "commentSystem": 2,
        "color": "blue",
        "versionable": true,
        "sourceable": true,
        "votesThreshold": null,
        "votesThresholdHelpText": null
      },
      "modals": [],
      "appendices": [
        {
          "body": "<p><strong>Objectif :</strong> Confier &agrave; l&rsquo;Etat une nouvelle mission de &laquo; service public de la donn&eacute;e &raquo; pour garantir la qualit&eacute; des principales bases de donn&eacute;es publiques.</p>\r\n\r\n<p><strong>Explication :</strong> certaines bases de donn&eacute;es publiques fondamentales ont &eacute;t&eacute; d&eacute;velopp&eacute;es &agrave; l&rsquo;origine pour une mission de service public pr&eacute;cise. Mais elles ont aujourd&rsquo;hui de multiples autres usages, dans tous les secteurs de la soci&eacute;t&eacute;. Plusieurs initiatives ont d&eacute;j&agrave; &eacute;t&eacute; d&eacute;velopp&eacute;es pour rendre facilement accessible au public ces donn&eacute;es qu&rsquo;on peut qualifier de &laquo; donn&eacute;es de r&eacute;f&eacute;rence &raquo; (cr&eacute;ation du g&eacute;oportail de l&rsquo;IGN par exemple). Pour reconna&icirc;tre ce ph&eacute;nom&egrave;ne majeur, l&rsquo;article cr&eacute;e une nouvelle mission de service public confi&eacute;e &agrave; l&rsquo;Etat, consistant &agrave; garantir la bonne diffusion de ces donn&eacute;es en vue de faciliter leurs r&eacute;utilisations. Seront ensuite fix&eacute;es par d&eacute;cret la liste des bases de donn&eacute;es couvertes par cette nouvelle mission de service public (qui pourraient &ecirc;tre notamment la Base adresse nationale, le cadastre, le r&eacute;f&eacute;rentiel cartographique &agrave; grande &eacute;chelle de l&rsquo;IGN, la base SIRENE des entreprises de l&rsquo;INSEE), ainsi que la coordination entre les organismes qui produisent ou diffusent ces donn&eacute;es, et le niveau minimal de qualit&eacute; &agrave; respecter (notamment sur la pr&eacute;cision, la fr&eacute;quence de mise &agrave; jour ou de disponibilit&eacute;). D&rsquo;autres pays comme le Danemark ont &eacute;galement d&eacute;fini ces bases de donn&eacute;es de r&eacute;f&eacute;rence dans le cadre de leur politique d&rsquo;open data.</p>\r\n\r\n<p><strong>Exemple :</strong> la Base nationale des adresses (qui associe &agrave; chaque adresse postale ses coordonn&eacute;es GPS)a &eacute;t&eacute; d&eacute;velopp&eacute;e &agrave; l&rsquo;origine par la Poste pour la distribution du courrier. Elle est cependant devenue cruciale aujourd&rsquo;hui pour l&rsquo;activit&eacute; du SAMU, des pompiers, des services priv&eacute;s de livraison en ligne, etc.</p>",
          "type": {
            "title": "Explication de l'article"
          }
        }
      ],
      "title": "Article 4 - Création d’un service public de la donnée (garantie de qualité des données publiques de référence)",
      "_links": {
        "show": "https://www.republique-numerique.fr/consultations/projet-de-loi-numerique/consultation/consultation/opinions/section-2-service-public-de-la-donnee-1/article-4-creation-d-un-service-public-de-la-donnee",
        "edit": "https://www.republique-numerique.fr/consultations/projet-de-loi-numerique/consultation/consultation/opinions/section-2-service-public-de-la-donnee-1/article-4-creation-d-un-service-public-de-la-donnee/edit",
        "report": "https://www.republique-numerique.fr/consultations/projet-de-loi-numerique/consultation/consultation/opinions/section-2-service-public-de-la-donnee-1/article-4-creation-d-un-service-public-de-la-donnee/report",
        "type": "https://www.republique-numerique.fr/consultations/projet-de-loi-numerique/consultation/consultation/opinions/section-2-service-public-de-la-donnee-1"
      },
      "user_vote": null,
      "has_user_reported": false
    },
    "sources_count": 0,
    "arguments_count": 4,
    "votes": [
      {
        "user": {
          "username": "LAUNAY",
          "displayName": "LAUNAY",
          "uniqueId": "launay",
          "isAdmin": false,
          "media": {
            "url": "/media/cache/default_avatar/default/0001/01/348_default_avatar.jpg"
          },
          "vip": false,
          "_links": {
            "profile": "https://www.republique-numerique.fr/profile/launay",
            "settings": "https://www.republique-numerique.fr/profile/edit-profile"
          }
        },
        "value": 1
      },
      {
        "user": {
          "username": "Laurent Nunenthal",
          "displayName": "Laurent Nunenthal",
          "uniqueId": "laurentnunenthal",
          "isAdmin": false,
          "media": null,
          "vip": false,
          "_links": {
            "profile": "https://www.republique-numerique.fr/profile/laurentnunenthal",
            "settings": "https://www.republique-numerique.fr/profile/edit-profile"
          }
        },
        "value": 1
      },
      {
        "user": {
          "username": "Pascal subra",
          "displayName": "Pascal subra",
          "uniqueId": "pascalsubra",
          "isAdmin": false,
          "media": null,
          "vip": false,
          "_links": {
            "profile": "https://www.republique-numerique.fr/profile/pascalsubra",
            "settings": "https://www.republique-numerique.fr/profile/edit-profile"
          }
        },
        "value": 1
      },
      {
        "user": {
          "username": "SCHAEF",
          "displayName": "SCHAEF",
          "uniqueId": "schaef",
          "isAdmin": false,
          "media": null,
          "vip": false,
          "_links": {
            "profile": "https://www.republique-numerique.fr/profile/schaef",
            "settings": "https://www.republique-numerique.fr/profile/edit-profile"
          }
        },
        "value": 1
      },
      {
        "user": {
          "username": "Vincent Reverdy",
          "displayName": "Vincent Reverdy",
          "uniqueId": "vincentreverdy",
          "isAdmin": false,
          "media": {
            "url": "/media/cache/default_avatar/default/0001/01/268_default_avatar.jpg"
          },
          "vip": false,
          "_links": {
            "profile": "https://www.republique-numerique.fr/profile/vincentreverdy",
            "settings": "https://www.republique-numerique.fr/profile/edit-profile"
          }
        },
        "value": 1
      }
    ],
    "updated_at": "2015-09-28T23:12:11+0200",
    "ranking": 405,
    "is_trashed": false,
    "title": "Contrôle du service public de gestion des données",
    "slug": "controle-du-service-public-de-gestion-des-donnees",
    "created_at": "2015-09-28T23:12:11+0200",
    "votes_nok": 0,
    "votes_ok": 10,
    "votes_mitige": 3,
    "_links": {
      "show": "https://www.republique-numerique.fr/consultations/projet-de-loi-numerique/consultation/consultation/opinions/section-2-service-public-de-la-donnee-1/article-4-creation-d-un-service-public-de-la-donnee/versions/controle-du-service-public-de-gestion-des-donnees",
      "report": "https://www.republique-numerique.fr/consultations/projet-de-loi-numerique/consultation/consultation/opinions/section-2-service-public-de-la-donnee-1/article-4-creation-d-un-service-public-de-la-donnee/versions/controle-du-service-public-de-gestion-des-donnees/report"
    },
    "user_vote": null,
    "has_user_reported": false
  },
  "rankingThreshold": null,
  "opinionTerm": 1
}