{
  "opinion": {
    "isContribuable": false,
    "votes_total": 324,
    "arguments_yes_count": 7,
    "arguments_no_count": 15,
    "id": 78,
    "created_at": "2015-09-26T02:28:01+0200",
    "updated_at": "2015-09-26T07:23:06+0200",
    "body": "<p>Il est ins&eacute;r&eacute; dans la m&ecirc;me loi un article 37-1ainsi r&eacute;dig&eacute;&nbsp;:</p>\r\n\r\n<p>&laquo;&nbsp;Art. 37-1. &ndash; Tout responsable de traitement ou sous-traitant peut demander &agrave; la Commission nationale de l&rsquo;informatique et des libert&eacute;s, au titre de sa mission pr&eacute;vue au d) du 2&deg; de l&rsquo;article 11 de la pr&eacute;sente loi, &agrave; b&eacute;n&eacute;ficier d&rsquo;un accompagnement &agrave; la mise en conformit&eacute; des traitements de donn&eacute;es &agrave; caract&egrave;re personnel &agrave; la pr&eacute;sente loi.</p>\r\n\r\n<p>&laquo;&nbsp;La Commission nationale de l&rsquo;informatique et des libert&eacute;s peut notamment certifier la conformit&eacute; &agrave; la pr&eacute;sente loi de processus d&rsquo;anonymisation totale ou partielle de jeux de donn&eacute;es &agrave; caract&egrave;re personnel, notamment en vue de la r&eacute;utilisation d&rsquo;informations publiques mises en ligne dans les conditions pr&eacute;vues par le chapitre II de la loi du 17 juillet 1978.</p>\r\n\r\n<p>&laquo;&nbsp;Il est tenu compte pour la mise en &oelig;uvre du chapitre VII de la pr&eacute;sente loi des mesures prises par la Commission en application du pr&eacute;sent article.&nbsp;&raquo;</p>",
    "versions_count": 13,
    "sources_count": 1,
    "arguments_count": 22,
    "author": {
      "username": "Gouvernement",
      "displayName": "Gouvernement",
      "uniqueId": "gouvernement",
      "isAdmin": false,
      "media": {
        "url": "/media/cache/default_avatar/default/0001/01/72_default_avatar.jpg"
      },
      "vip": true,
      "_links": {
        "profile": "https://www.republique-numerique.fr/profile/gouvernement",
        "settings": "https://www.republique-numerique.fr/profile/edit-profile"
      }
    },
    "type": {
      "id": 99,
      "title": "Section 1",
      "subtitle": "Protection des données à caractère personnel",
      "voteWidgetType": 2,
      "votesHelpText": "Pensez-vous que cette proposition permet d'atteindre les objectifs présentés dans l’explication de l’article ?",
      "commentSystem": 2,
      "color": "blue",
      "versionable": true,
      "sourceable": true,
      "votesThreshold": null,
      "votesThresholdHelpText": null
    },
    "sources": [
      {
        "isContribuable": false,
        "id": 35,
        "title": "Exemple d'appel à la certification pour une exigence règlementaire",
        "link": "http://www.legifrance.gouv.fr/affichTexte.do?cidTexte=JORFTEXT000000641866",
        "body": "Un référentiel de certification a été écrit par la Haute Autorité de Santé à destination des organismes certificateurs pour encadrer les activités de promotion des médicaments.\n\nCe modèle de fonctionnement pourrait être copié avantageusement pour le certificat de conformité CNIL sur le traitement des informations personlles, sans engorger la CNIL avec des missions relevant d'un tiers de confiance.",
        "created_at": "2015-09-28T11:17:04+0200",
        "updated_at": "2015-09-28T11:17:04+0200",
        "author": {
          "username": "Benoit Phuez",
          "displayName": "Benoit Phuez",
          "uniqueId": "benoitphuez",
          "isAdmin": false,
          "media": {
            "url": "/media/cache/default_avatar/default/0001/01/191_default_avatar.jpg"
          },
          "vip": false,
          "_links": {
            "profile": "https://www.republique-numerique.fr/profile/benoitphuez",
            "settings": "https://www.republique-numerique.fr/profile/edit-profile"
          }
        },
        "category": "Lois et règlements",
        "votes_count": 1,
        "_links": {
          "edit": "https://www.republique-numerique.fr/consultations/projet-de-loi-numerique/consultation/consultation/opinions/section-1-protection-des-donnees-a-caractere-personnel/article-18-certificat-de-conformite/sources/exemple-d-appel-a-la-certification-pour-une-exigence-reglementaire/edit",
          "report": "https://www.republique-numerique.fr/consultations/projet-de-loi-numerique/consultation/consultation/opinions/section-1-protection-des-donnees-a-caractere-personnel/article-18-certificat-de-conformite/sources/exemple-d-appel-a-la-certification-pour-une-exigence-reglementaire/report"
        },
        "has_user_voted": false,
        "has_user_reported": false
      }
    ],
    "arguments": [
      {
        "isContribuable": false,
        "id": 4914,
        "body": "Concernant l'alinéa 2, ces dispositions peuvent constituer un élément de sécurité juridique pour les entreprises. Toutefois, des précisions pourraient être apportées quant aux dispositifs pouvant faire l’objet d’une certification par la CNIL afin de déterminer s’il est opportun de les soumettre à un tel processus. En outre, la faisabilité quantitative et qualitative du dispositif pose question. ",
        "created_at": "2015-10-16T18:05:41+0200",
        "updated_at": "2015-10-16T18:05:41+0200",
        "is_enabled": true,
        "votes_count": 0,
        "type": 0,
        "is_trashed": false,
        "author": {
          "username": "Instances numériques du MEDEF",
          "displayName": "Instances numériques du MEDEF",
          "uniqueId": "instancesnumeriquesdumedef",
          "isAdmin": false,
          "media": null,
          "vip": false,
          "_links": {
            "profile": "https://www.republique-numerique.fr/profile/instancesnumeriquesdumedef",
            "settings": "https://www.republique-numerique.fr/profile/edit-profile"
          }
        },
        "_links": {
          "show": "https://www.republique-numerique.fr/consultations/projet-de-loi-numerique/consultation/consultation/opinions/section-1-protection-des-donnees-a-caractere-personnel/article-18-certificat-de-conformite#arg-4914",
          "edit": "https://www.republique-numerique.fr/consultations/projet-de-loi-numerique/consultation/consultation/opinions/section-1-protection-des-donnees-a-caractere-personnel/article-18-certificat-de-conformite/arguments/4914/edit",
          "report": "https://www.republique-numerique.fr/consultations/projet-de-loi-numerique/consultation/consultation/opinions/section-1-protection-des-donnees-a-caractere-personnel/article-18-certificat-de-conformite/arguments/4914/report"
        },
        "has_user_voted": false,
        "has_user_reported": false
      },
      {
        "isContribuable": false,
        "id": 4912,
        "body": "Concernant l'alinéa 1er de cet article, il est évidemment louable de conforter le rôle de la CNIL dans son accompagnement des entreprises à la mise en conformité des traitements de données à caractère personnel à la loi n° 78-17 du 6 janvier 1978 relative à l'informatique, aux fichiers et aux libertés modifiée.",
        "created_at": "2015-10-16T18:03:46+0200",
        "updated_at": "2015-10-16T18:04:13+0200",
        "is_enabled": true,
        "votes_count": 0,
        "type": 1,
        "is_trashed": false,
        "author": {
          "username": "Instances numériques du MEDEF",
          "displayName": "Instances numériques du MEDEF",
          "uniqueId": "instancesnumeriquesdumedef",
          "isAdmin": false,
          "media": null,
          "vip": false,
          "_links": {
            "profile": "https://www.republique-numerique.fr/profile/instancesnumeriquesdumedef",
            "settings": "https://www.republique-numerique.fr/profile/edit-profile"
          }
        },
        "_links": {
          "show": "https://www.republique-numerique.fr/consultations/projet-de-loi-numerique/consultation/consultation/opinions/section-1-protection-des-donnees-a-caractere-personnel/article-18-certificat-de-conformite#arg-4912",
          "edit": "https://www.republique-numerique.fr/consultations/projet-de-loi-numerique/consultation/consultation/opinions/section-1-protection-des-donnees-a-caractere-personnel/article-18-certificat-de-conformite/arguments/4912/edit",
          "report": "https://www.republique-numerique.fr/consultations/projet-de-loi-numerique/consultation/consultation/opinions/section-1-protection-des-donnees-a-caractere-personnel/article-18-certificat-de-conformite/arguments/4912/report"
        },
        "has_user_voted": false,
        "has_user_reported": false
      },
      {
        "isContribuable": false,
        "id": 4911,
        "body": "Le projet de texte devrait préciser comment les dispositions anticipant la proposition de règlement européen relatif à la protection des personnes physiques à l'égard du traitement des données à caractère personnel et à la libre circulation de ces données (règlement général sur la protection des données) s’articulent avec ce dernier et si la date d’application de ce projet de loi est prévue après le règlement européen.",
        "created_at": "2015-10-16T18:03:37+0200",
        "updated_at": "2015-10-16T18:03:37+0200",
        "is_enabled": true,
        "votes_count": 0,
        "type": 0,
        "is_trashed": false,
        "author": {
          "username": "Instances numériques du MEDEF",
          "displayName": "Instances numériques du MEDEF",
          "uniqueId": "instancesnumeriquesdumedef",
          "isAdmin": false,
          "media": null,
          "vip": false,
          "_links": {
            "profile": "https://www.republique-numerique.fr/profile/instancesnumeriquesdumedef",
            "settings": "https://www.republique-numerique.fr/profile/edit-profile"
          }
        },
        "_links": {
          "show": "https://www.republique-numerique.fr/consultations/projet-de-loi-numerique/consultation/consultation/opinions/section-1-protection-des-donnees-a-caractere-personnel/article-18-certificat-de-conformite#arg-4911",
          "edit": "https://www.republique-numerique.fr/consultations/projet-de-loi-numerique/consultation/consultation/opinions/section-1-protection-des-donnees-a-caractere-personnel/article-18-certificat-de-conformite/arguments/4911/edit",
          "report": "https://www.republique-numerique.fr/consultations/projet-de-loi-numerique/consultation/consultation/opinions/section-1-protection-des-donnees-a-caractere-personnel/article-18-certificat-de-conformite/arguments/4911/report"
        },
        "has_user_voted": false,
        "has_user_reported": false
      },
      {
        "isContribuable": false,
        "id": 4373,
        "body": "Mitigé. Si cela est fait, l'entreprise devrait payer qqchose à la CNIL. Ce n'est pas au contribuable de payer la mise en conformité des entreprises avec la loi, qu'elles soient petites ou plutôt du genre DASSAULT.",
        "created_at": "2015-10-15T18:32:08+0200",
        "updated_at": "2015-10-15T18:32:08+0200",
        "is_enabled": true,
        "votes_count": 1,
        "type": 0,
        "is_trashed": false,
        "author": {
          "username": "samson_d",
          "displayName": "samson_d",
          "uniqueId": "samsond",
          "isAdmin": false,
          "media": null,
          "vip": false,
          "_links": {
            "profile": "https://www.republique-numerique.fr/profile/samsond",
            "settings": "https://www.republique-numerique.fr/profile/edit-profile"
          }
        },
        "_links": {
          "show": "https://www.republique-numerique.fr/consultations/projet-de-loi-numerique/consultation/consultation/opinions/section-1-protection-des-donnees-a-caractere-personnel/article-18-certificat-de-conformite#arg-4373",
          "edit": "https://www.republique-numerique.fr/consultations/projet-de-loi-numerique/consultation/consultation/opinions/section-1-protection-des-donnees-a-caractere-personnel/article-18-certificat-de-conformite/arguments/4373/edit",
          "report": "https://www.republique-numerique.fr/consultations/projet-de-loi-numerique/consultation/consultation/opinions/section-1-protection-des-donnees-a-caractere-personnel/article-18-certificat-de-conformite/arguments/4373/report"
        },
        "has_user_voted": false,
        "has_user_reported": false
      },
      {
        "isContribuable": false,
        "id": 4352,
        "body": "Nous partageons l'objectif de cette proposition.\n\nToutefois, certains points mériteraient d'être précisés, notamment la faisabilité économique du dispositif (dimensionnement de la CNIL pour répondre aux demandes des entreprises, ressources à mobiliser par les entreprises, notamment les PME..).\n\nLe dispositif doit être suffisamment simple pour que les PME puissent avoir accès à ce dispositif.\n\nEnfin, il serait nécessaire de mieux cerner les conséquences pour les entreprises qui décideraient de ne pas à bénéficier de certificats de conformité.",
        "created_at": "2015-10-15T18:08:54+0200",
        "updated_at": "2015-10-15T18:08:54+0200",
        "is_enabled": true,
        "votes_count": 0,
        "type": 1,
        "is_trashed": false,
        "author": {
          "username": "AFNUM",
          "displayName": "AFNUM",
          "uniqueId": "afnum",
          "isAdmin": false,
          "media": {
            "url": "/media/cache/default_avatar/default/0001/01/754_default_avatar.jpg"
          },
          "vip": false,
          "_links": {
            "profile": "https://www.republique-numerique.fr/profile/afnum",
            "settings": "https://www.republique-numerique.fr/profile/edit-profile"
          }
        },
        "_links": {
          "show": "https://www.republique-numerique.fr/consultations/projet-de-loi-numerique/consultation/consultation/opinions/section-1-protection-des-donnees-a-caractere-personnel/article-18-certificat-de-conformite#arg-4352",
          "edit": "https://www.republique-numerique.fr/consultations/projet-de-loi-numerique/consultation/consultation/opinions/section-1-protection-des-donnees-a-caractere-personnel/article-18-certificat-de-conformite/arguments/4352/edit",
          "report": "https://www.republique-numerique.fr/consultations/projet-de-loi-numerique/consultation/consultation/opinions/section-1-protection-des-donnees-a-caractere-personnel/article-18-certificat-de-conformite/arguments/4352/report"
        },
        "has_user_voted": false,
        "has_user_reported": false
      },
      {
        "isContribuable": false,
        "id": 4098,
        "body": "incapacité d un organe de l etat a suivre les nouvelles technologies. ce n est pas la bonne approche il vaut mieu passer par un organe prive pour avoir de la réactivité",
        "created_at": "2015-10-15T08:12:53+0200",
        "updated_at": "2015-10-15T08:12:53+0200",
        "is_enabled": true,
        "votes_count": 0,
        "type": 0,
        "is_trashed": false,
        "author": {
          "username": "frederic dupont",
          "displayName": "frederic dupont",
          "uniqueId": "fredericdupont",
          "isAdmin": false,
          "media": null,
          "vip": false,
          "_links": {
            "profile": "https://www.republique-numerique.fr/profile/fredericdupont",
            "settings": "https://www.republique-numerique.fr/profile/edit-profile"
          }
        },
        "_links": {
          "show": "https://www.republique-numerique.fr/consultations/projet-de-loi-numerique/consultation/consultation/opinions/section-1-protection-des-donnees-a-caractere-personnel/article-18-certificat-de-conformite#arg-4098",
          "edit": "https://www.republique-numerique.fr/consultations/projet-de-loi-numerique/consultation/consultation/opinions/section-1-protection-des-donnees-a-caractere-personnel/article-18-certificat-de-conformite/arguments/4098/edit",
          "report": "https://www.republique-numerique.fr/consultations/projet-de-loi-numerique/consultation/consultation/opinions/section-1-protection-des-donnees-a-caractere-personnel/article-18-certificat-de-conformite/arguments/4098/report"
        },
        "has_user_voted": false,
        "has_user_reported": false
      },
      {
        "isContribuable": false,
        "id": 3996,
        "body": "La FIEEC partage cette proposition visant à aider les entreprises dans la mise en conformité du traitement des données avec le cadre juridique existant en matière de protection des données personnelles. Le partenariat exemplaire entre la FIEEC et la CNIL dans le domaine de la gestion des données personnelles dans les secteurs de l’autonomie et des smart grids (pack de conformité) s’inscrit pleinement dans cette logique. Toutefois, certains points mériteraient d'être précisés, notamment la faisabilité économique du dispositif (pour la CNIL et les entreprises) et les conséquences pour les entreprises qui décideraient de ne pas bénéficier de certificats de conformité.",
        "created_at": "2015-10-14T17:57:49+0200",
        "updated_at": "2015-10-14T17:57:49+0200",
        "is_enabled": true,
        "votes_count": 0,
        "type": 1,
        "is_trashed": false,
        "author": {
          "username": "FIEEC",
          "displayName": "FIEEC",
          "uniqueId": "fieec",
          "isAdmin": false,
          "media": {
            "url": "/media/cache/default_avatar/default/0001/01/628_default_avatar.jpg"
          },
          "vip": false,
          "_links": {
            "profile": "https://www.republique-numerique.fr/profile/fieec",
            "settings": "https://www.republique-numerique.fr/profile/edit-profile"
          }
        },
        "_links": {
          "show": "https://www.republique-numerique.fr/consultations/projet-de-loi-numerique/consultation/consultation/opinions/section-1-protection-des-donnees-a-caractere-personnel/article-18-certificat-de-conformite#arg-3996",
          "edit": "https://www.republique-numerique.fr/consultations/projet-de-loi-numerique/consultation/consultation/opinions/section-1-protection-des-donnees-a-caractere-personnel/article-18-certificat-de-conformite/arguments/3996/edit",
          "report": "https://www.republique-numerique.fr/consultations/projet-de-loi-numerique/consultation/consultation/opinions/section-1-protection-des-donnees-a-caractere-personnel/article-18-certificat-de-conformite/arguments/3996/report"
        },
        "has_user_voted": false,
        "has_user_reported": false
      },
      {
        "isContribuable": false,
        "id": 3334,
        "body": "Le CIGREF, en tant que représentant des grandes entreprises de France, souligne le fait que le Projet de Règlement Européen représente pour les entreprises des contraintes très lourdes tant en termes opérationnels, techniques que financiers. Les investissements dédiés à la transformation des infrastructures et au développement de technologies de protection et de sécurité seront conséquents et cela exige la mobilisation de nombreuses fonctions et métiers dans l’entreprise et un temps d’adaptation non négligeable. De nombreuses entreprises commencent déjà à se préparer en allouant un budget de ressources pour la formation du personnel, mais afin de faciliter leur démarche, il semble primordial qu’un accompagnement juridique soit fait le plus en amont possible. La CNIL a déjà une mission de conseil auprès des entreprises, et c’est une démarche à encourager.\n\nMais, il est faux de dire, dans l’explication de l’article que « les entreprises ne savent pas comment gérer les données personnelles qu’elles collectent.» La gestion des données personnelles est bien un sujet prioritaire dans les entreprises et sa prise en charge est effective : les CIL (Correspond Informatiques et Libertés) ont pour mission d’assurer la conformité et travaillent souvent avec les responsables de traitement ; les RSSI et les directeurs informatiques savent construire des architectures sécurisées et mettre en place une gouvernance des données personnelles adaptée au contexte Big Data. \n\nCependant, afin d’optimiser l’efficacité de leurs démarches, les entreprises demandent un cadre stable et clair relatif à la gestion des données personnelles (anonymisation,  protection…). Elles rappellent par ailleurs que tout citoyen doit pouvoir être en mesure d’assurer la protection, au bon niveau, de ses propres données personnelles (sensibilisation, information, outils…).",
        "created_at": "2015-10-12T16:40:28+0200",
        "updated_at": "2015-10-12T16:40:28+0200",
        "is_enabled": true,
        "votes_count": 0,
        "type": 1,
        "is_trashed": false,
        "author": {
          "username": "CIGREF",
          "displayName": "CIGREF",
          "uniqueId": "cigref",
          "isAdmin": false,
          "media": null,
          "vip": false,
          "_links": {
            "profile": "https://www.republique-numerique.fr/profile/cigref",
            "settings": "https://www.republique-numerique.fr/profile/edit-profile"
          }
        },
        "_links": {
          "show": "https://www.republique-numerique.fr/consultations/projet-de-loi-numerique/consultation/consultation/opinions/section-1-protection-des-donnees-a-caractere-personnel/article-18-certificat-de-conformite#arg-3334",
          "edit": "https://www.republique-numerique.fr/consultations/projet-de-loi-numerique/consultation/consultation/opinions/section-1-protection-des-donnees-a-caractere-personnel/article-18-certificat-de-conformite/arguments/3334/edit",
          "report": "https://www.republique-numerique.fr/consultations/projet-de-loi-numerique/consultation/consultation/opinions/section-1-protection-des-donnees-a-caractere-personnel/article-18-certificat-de-conformite/arguments/3334/report"
        },
        "has_user_voted": false,
        "has_user_reported": false
      },
      {
        "isContribuable": false,
        "id": 3189,
        "body": "Le mot-clef est \"La CNIL *peut* certifier...\", autrement dit elle n'y est pas tenue. Si elle y était tenue, cela poserait d'autres problèmes évidents (elle serait submergée). J'imagine que le but de cet article est d'inscrire le conseil en amont dans les missions de la CNIL sans créer toutefois une procédure opposable, mais la formulation est pour le moins maladroite.",
        "created_at": "2015-10-11T18:43:12+0200",
        "updated_at": "2015-10-11T18:43:12+0200",
        "is_enabled": true,
        "votes_count": 0,
        "type": 0,
        "is_trashed": false,
        "author": {
          "username": "JM",
          "displayName": "JM",
          "uniqueId": "jm",
          "isAdmin": false,
          "media": null,
          "vip": false,
          "_links": {
            "profile": "https://www.republique-numerique.fr/profile/jm",
            "settings": "https://www.republique-numerique.fr/profile/edit-profile"
          }
        },
        "_links": {
          "show": "https://www.republique-numerique.fr/consultations/projet-de-loi-numerique/consultation/consultation/opinions/section-1-protection-des-donnees-a-caractere-personnel/article-18-certificat-de-conformite#arg-3189",
          "edit": "https://www.republique-numerique.fr/consultations/projet-de-loi-numerique/consultation/consultation/opinions/section-1-protection-des-donnees-a-caractere-personnel/article-18-certificat-de-conformite/arguments/3189/edit",
          "report": "https://www.republique-numerique.fr/consultations/projet-de-loi-numerique/consultation/consultation/opinions/section-1-protection-des-donnees-a-caractere-personnel/article-18-certificat-de-conformite/arguments/3189/report"
        },
        "has_user_voted": false,
        "has_user_reported": false
      },
      {
        "isContribuable": false,
        "id": 3026,
        "body": "La CNIL peut-elle remplir cette mission? Sera-t-elle accessible à des entreprises privées (type Bureau Veritas ou TÜV) ? Cette possibilité créera-t-elle une obligation de fait et donc une rente de situation pour ces entreprises?",
        "created_at": "2015-10-10T19:11:50+0200",
        "updated_at": "2015-10-10T19:11:50+0200",
        "is_enabled": true,
        "votes_count": 0,
        "type": 1,
        "is_trashed": false,
        "author": {
          "username": "Philippe Platon",
          "displayName": "Philippe Platon",
          "uniqueId": "philippeplaton",
          "isAdmin": false,
          "media": null,
          "vip": false,
          "_links": {
            "profile": "https://www.republique-numerique.fr/profile/philippeplaton",
            "settings": "https://www.republique-numerique.fr/profile/edit-profile"
          }
        },
        "_links": {
          "show": "https://www.republique-numerique.fr/consultations/projet-de-loi-numerique/consultation/consultation/opinions/section-1-protection-des-donnees-a-caractere-personnel/article-18-certificat-de-conformite#arg-3026",
          "edit": "https://www.republique-numerique.fr/consultations/projet-de-loi-numerique/consultation/consultation/opinions/section-1-protection-des-donnees-a-caractere-personnel/article-18-certificat-de-conformite/arguments/3026/edit",
          "report": "https://www.republique-numerique.fr/consultations/projet-de-loi-numerique/consultation/consultation/opinions/section-1-protection-des-donnees-a-caractere-personnel/article-18-certificat-de-conformite/arguments/3026/report"
        },
        "has_user_voted": false,
        "has_user_reported": false
      },
      {
        "isContribuable": false,
        "id": 2765,
        "body": "D'accord.  Cela va créer toute une filière de consultants et d'emploi, comme la période de mise en route des standard 'Qualité' dans les années '80.  Ça va générer plein d'emplois pour des spécialistes qui devront être formés, accrédités, contrôlés et dispatchés dans toutes les entreprises... Une nouveau job pour le 21ième siècle",
        "created_at": "2015-10-09T10:22:22+0200",
        "updated_at": "2015-10-09T10:22:22+0200",
        "is_enabled": true,
        "votes_count": 0,
        "type": 1,
        "is_trashed": false,
        "author": {
          "username": "Marcel Poualion",
          "displayName": "Marcel Poualion",
          "uniqueId": "marcelpoualion",
          "isAdmin": false,
          "media": null,
          "vip": false,
          "_links": {
            "profile": "https://www.republique-numerique.fr/profile/marcelpoualion",
            "settings": "https://www.republique-numerique.fr/profile/edit-profile"
          }
        },
        "_links": {
          "show": "https://www.republique-numerique.fr/consultations/projet-de-loi-numerique/consultation/consultation/opinions/section-1-protection-des-donnees-a-caractere-personnel/article-18-certificat-de-conformite#arg-2765",
          "edit": "https://www.republique-numerique.fr/consultations/projet-de-loi-numerique/consultation/consultation/opinions/section-1-protection-des-donnees-a-caractere-personnel/article-18-certificat-de-conformite/arguments/2765/edit",
          "report": "https://www.republique-numerique.fr/consultations/projet-de-loi-numerique/consultation/consultation/opinions/section-1-protection-des-donnees-a-caractere-personnel/article-18-certificat-de-conformite/arguments/2765/report"
        },
        "has_user_voted": false,
        "has_user_reported": false
      },
      {
        "isContribuable": false,
        "id": 2733,
        "body": "Pourquoi légiférer sur une démarche d'accompagnement ? Est-ce nécessaire de créer une loi pour mettre un service public en place ? On a vraiment cette passion de l'alourdissement administratif inutile dans ce pays, c'est fou !",
        "created_at": "2015-10-08T23:22:49+0200",
        "updated_at": "2015-10-08T23:22:49+0200",
        "is_enabled": true,
        "votes_count": 1,
        "type": 0,
        "is_trashed": false,
        "author": {
          "username": "Nicolas Joly",
          "displayName": "Nicolas Joly",
          "uniqueId": "nicolasjoly",
          "isAdmin": false,
          "media": null,
          "vip": false,
          "_links": {
            "profile": "https://www.republique-numerique.fr/profile/nicolasjoly",
            "settings": "https://www.republique-numerique.fr/profile/edit-profile"
          }
        },
        "_links": {
          "show": "https://www.republique-numerique.fr/consultations/projet-de-loi-numerique/consultation/consultation/opinions/section-1-protection-des-donnees-a-caractere-personnel/article-18-certificat-de-conformite#arg-2733",
          "edit": "https://www.republique-numerique.fr/consultations/projet-de-loi-numerique/consultation/consultation/opinions/section-1-protection-des-donnees-a-caractere-personnel/article-18-certificat-de-conformite/arguments/2733/edit",
          "report": "https://www.republique-numerique.fr/consultations/projet-de-loi-numerique/consultation/consultation/opinions/section-1-protection-des-donnees-a-caractere-personnel/article-18-certificat-de-conformite/arguments/2733/report"
        },
        "has_user_voted": false,
        "has_user_reported": false
      },
      {
        "isContribuable": false,
        "id": 2439,
        "body": "Il faut donner les moyens et la légitimité à la CNIL d'assurer cette mission, en l'incluant aussi bcp plus sur le terrain pour une vu plus concrète des soucis rencontrés : Bureau régionaux de la CNIL pour pouvoir répondre aux demandes locales de manière plus efficace ?",
        "created_at": "2015-10-06T22:09:58+0200",
        "updated_at": "2015-10-06T22:09:58+0200",
        "is_enabled": true,
        "votes_count": 1,
        "type": 1,
        "is_trashed": false,
        "author": {
          "username": "Damien Frésier",
          "displayName": "Damien Frésier",
          "uniqueId": "damienfresier",
          "isAdmin": false,
          "media": null,
          "vip": false,
          "_links": {
            "profile": "https://www.republique-numerique.fr/profile/damienfresier",
            "settings": "https://www.republique-numerique.fr/profile/edit-profile"
          }
        },
        "_links": {
          "show": "https://www.republique-numerique.fr/consultations/projet-de-loi-numerique/consultation/consultation/opinions/section-1-protection-des-donnees-a-caractere-personnel/article-18-certificat-de-conformite#arg-2439",
          "edit": "https://www.republique-numerique.fr/consultations/projet-de-loi-numerique/consultation/consultation/opinions/section-1-protection-des-donnees-a-caractere-personnel/article-18-certificat-de-conformite/arguments/2439/edit",
          "report": "https://www.republique-numerique.fr/consultations/projet-de-loi-numerique/consultation/consultation/opinions/section-1-protection-des-donnees-a-caractere-personnel/article-18-certificat-de-conformite/arguments/2439/report"
        },
        "has_user_voted": false,
        "has_user_reported": false
      },
      {
        "isContribuable": false,
        "id": 2264,
        "body": "comment la CNIL pourrait elle vérifier que les traitements annoncés seront bien réalisés ? On risque de délivrer des certificats sans réelle valeur, si ce n'est d'entraver les recours en cas d'utilisation abusive.",
        "created_at": "2015-10-05T12:05:48+0200",
        "updated_at": "2015-10-05T12:05:48+0200",
        "is_enabled": true,
        "votes_count": 1,
        "type": 0,
        "is_trashed": false,
        "author": {
          "username": "Martine Legris Revel",
          "displayName": "Martine Legris Revel",
          "uniqueId": "martinelegrisrevel",
          "isAdmin": false,
          "media": null,
          "vip": false,
          "_links": {
            "profile": "https://www.republique-numerique.fr/profile/martinelegrisrevel",
            "settings": "https://www.republique-numerique.fr/profile/edit-profile"
          }
        },
        "_links": {
          "show": "https://www.republique-numerique.fr/consultations/projet-de-loi-numerique/consultation/consultation/opinions/section-1-protection-des-donnees-a-caractere-personnel/article-18-certificat-de-conformite#arg-2264",
          "edit": "https://www.republique-numerique.fr/consultations/projet-de-loi-numerique/consultation/consultation/opinions/section-1-protection-des-donnees-a-caractere-personnel/article-18-certificat-de-conformite/arguments/2264/edit",
          "report": "https://www.republique-numerique.fr/consultations/projet-de-loi-numerique/consultation/consultation/opinions/section-1-protection-des-donnees-a-caractere-personnel/article-18-certificat-de-conformite/arguments/2264/report"
        },
        "has_user_voted": false,
        "has_user_reported": false
      },
      {
        "isContribuable": false,
        "id": 2249,
        "body": "Prendre même dispositions que certifications et services de l’ANSSI pour la sécurité.",
        "created_at": "2015-10-05T10:39:44+0200",
        "updated_at": "2015-10-05T10:39:44+0200",
        "is_enabled": true,
        "votes_count": 0,
        "type": 0,
        "is_trashed": false,
        "author": {
          "username": "LAUNAY",
          "displayName": "LAUNAY",
          "uniqueId": "launay",
          "isAdmin": false,
          "media": {
            "url": "/media/cache/default_avatar/default/0001/01/348_default_avatar.jpg"
          },
          "vip": false,
          "_links": {
            "profile": "https://www.republique-numerique.fr/profile/launay",
            "settings": "https://www.republique-numerique.fr/profile/edit-profile"
          }
        },
        "_links": {
          "show": "https://www.republique-numerique.fr/consultations/projet-de-loi-numerique/consultation/consultation/opinions/section-1-protection-des-donnees-a-caractere-personnel/article-18-certificat-de-conformite#arg-2249",
          "edit": "https://www.republique-numerique.fr/consultations/projet-de-loi-numerique/consultation/consultation/opinions/section-1-protection-des-donnees-a-caractere-personnel/article-18-certificat-de-conformite/arguments/2249/edit",
          "report": "https://www.republique-numerique.fr/consultations/projet-de-loi-numerique/consultation/consultation/opinions/section-1-protection-des-donnees-a-caractere-personnel/article-18-certificat-de-conformite/arguments/2249/report"
        },
        "has_user_voted": false,
        "has_user_reported": false
      },
      {
        "isContribuable": false,
        "id": 2226,
        "body": "tout ceci existe déjà dans la pratique. je rêve",
        "created_at": "2015-10-04T22:51:01+0200",
        "updated_at": "2015-10-04T22:51:01+0200",
        "is_enabled": true,
        "votes_count": 0,
        "type": 0,
        "is_trashed": false,
        "author": {
          "username": "pas folle la guepe",
          "displayName": "pas folle la guepe",
          "uniqueId": "pasfollelaguepe",
          "isAdmin": false,
          "media": null,
          "vip": false,
          "_links": {
            "profile": "https://www.republique-numerique.fr/profile/pasfollelaguepe",
            "settings": "https://www.republique-numerique.fr/profile/edit-profile"
          }
        },
        "_links": {
          "show": "https://www.republique-numerique.fr/consultations/projet-de-loi-numerique/consultation/consultation/opinions/section-1-protection-des-donnees-a-caractere-personnel/article-18-certificat-de-conformite#arg-2226",
          "edit": "https://www.republique-numerique.fr/consultations/projet-de-loi-numerique/consultation/consultation/opinions/section-1-protection-des-donnees-a-caractere-personnel/article-18-certificat-de-conformite/arguments/2226/edit",
          "report": "https://www.republique-numerique.fr/consultations/projet-de-loi-numerique/consultation/consultation/opinions/section-1-protection-des-donnees-a-caractere-personnel/article-18-certificat-de-conformite/arguments/2226/report"
        },
        "has_user_voted": false,
        "has_user_reported": false
      },
      {
        "isContribuable": false,
        "id": 773,
        "body": "Le label CNIL existe déjà !",
        "created_at": "2015-09-28T10:03:00+0200",
        "updated_at": "2015-09-28T10:03:00+0200",
        "is_enabled": true,
        "votes_count": 1,
        "type": 0,
        "is_trashed": false,
        "author": {
          "username": "Benoit Phuez",
          "displayName": "Benoit Phuez",
          "uniqueId": "benoitphuez",
          "isAdmin": false,
          "media": {
            "url": "/media/cache/default_avatar/default/0001/01/191_default_avatar.jpg"
          },
          "vip": false,
          "_links": {
            "profile": "https://www.republique-numerique.fr/profile/benoitphuez",
            "settings": "https://www.republique-numerique.fr/profile/edit-profile"
          }
        },
        "_links": {
          "show": "https://www.republique-numerique.fr/consultations/projet-de-loi-numerique/consultation/consultation/opinions/section-1-protection-des-donnees-a-caractere-personnel/article-18-certificat-de-conformite#arg-773",
          "edit": "https://www.republique-numerique.fr/consultations/projet-de-loi-numerique/consultation/consultation/opinions/section-1-protection-des-donnees-a-caractere-personnel/article-18-certificat-de-conformite/arguments/773/edit",
          "report": "https://www.republique-numerique.fr/consultations/projet-de-loi-numerique/consultation/consultation/opinions/section-1-protection-des-donnees-a-caractere-personnel/article-18-certificat-de-conformite/arguments/773/report"
        },
        "has_user_voted": false,
        "has_user_reported": false
      },
      {
        "isContribuable": false,
        "id": 735,
        "body": "La CNIL manque déjà cruellement de moyens pour s’acquitter de ses obligations principales et encore plus pour faire des contrôles réguliers.  Surcharger la barque avec des tâches supplémentaires et complexes n'aura pour effet que de réduire encore sa marge de maneouvre.  ",
        "created_at": "2015-09-28T00:54:27+0200",
        "updated_at": "2015-09-28T00:54:27+0200",
        "is_enabled": true,
        "votes_count": 5,
        "type": 0,
        "is_trashed": false,
        "author": {
          "username": "Christophe Thierry",
          "displayName": "Christophe Thierry",
          "uniqueId": "christophethierry",
          "isAdmin": false,
          "media": null,
          "vip": false,
          "_links": {
            "profile": "https://www.republique-numerique.fr/profile/christophethierry",
            "settings": "https://www.republique-numerique.fr/profile/edit-profile"
          }
        },
        "_links": {
          "show": "https://www.republique-numerique.fr/consultations/projet-de-loi-numerique/consultation/consultation/opinions/section-1-protection-des-donnees-a-caractere-personnel/article-18-certificat-de-conformite#arg-735",
          "edit": "https://www.republique-numerique.fr/consultations/projet-de-loi-numerique/consultation/consultation/opinions/section-1-protection-des-donnees-a-caractere-personnel/article-18-certificat-de-conformite/arguments/735/edit",
          "report": "https://www.republique-numerique.fr/consultations/projet-de-loi-numerique/consultation/consultation/opinions/section-1-protection-des-donnees-a-caractere-personnel/article-18-certificat-de-conformite/arguments/735/report"
        },
        "has_user_voted": false,
        "has_user_reported": false
      },
      {
        "isContribuable": false,
        "id": 569,
        "body": "Il s'agit d'un service de conseil aux entreprises dans leur mise en conformité avec la législation européenne. A moins que les entreprises paient pour le service, j'ai du mal à voir pourquoi le contribuable devrait financer ce service. Par ailleurs, quel est le statut juridique du certificat ? apporte-t-il une protection ? Par exemple, que se passe-t-il si après avoir obtenu le certificat, les instances européennes ne parviennent pas aux mêmes conclusions que la CNIL ? L'entreprise, si sanctionnée par une amende, peut-elle se retourner contre la CNIL ?",
        "created_at": "2015-09-27T16:19:47+0200",
        "updated_at": "2015-09-27T16:19:47+0200",
        "is_enabled": true,
        "votes_count": 5,
        "type": 0,
        "is_trashed": false,
        "author": {
          "username": "SGL",
          "displayName": "SGL",
          "uniqueId": "sgl",
          "isAdmin": false,
          "media": null,
          "vip": false,
          "_links": {
            "profile": "https://www.republique-numerique.fr/profile/sgl",
            "settings": "https://www.republique-numerique.fr/profile/edit-profile"
          }
        },
        "_links": {
          "show": "https://www.republique-numerique.fr/consultations/projet-de-loi-numerique/consultation/consultation/opinions/section-1-protection-des-donnees-a-caractere-personnel/article-18-certificat-de-conformite#arg-569",
          "edit": "https://www.republique-numerique.fr/consultations/projet-de-loi-numerique/consultation/consultation/opinions/section-1-protection-des-donnees-a-caractere-personnel/article-18-certificat-de-conformite/arguments/569/edit",
          "report": "https://www.republique-numerique.fr/consultations/projet-de-loi-numerique/consultation/consultation/opinions/section-1-protection-des-donnees-a-caractere-personnel/article-18-certificat-de-conformite/arguments/569/report"
        },
        "has_user_voted": false,
        "has_user_reported": false
      },
      {
        "isContribuable": false,
        "id": 435,
        "body": "C'est très bien mais la CNIL risque d'être rapidement submergée par la tâche. Il faudrait plutôt établir des relais : la CNIL certifierait des formations auxquelles s'inscriraient des CIL issus des entreprises, avec éventuellement un système de contrôle et de sanction.",
        "created_at": "2015-09-27T10:33:37+0200",
        "updated_at": "2015-09-27T10:33:37+0200",
        "is_enabled": true,
        "votes_count": 4,
        "type": 0,
        "is_trashed": false,
        "author": {
          "username": "TRUFFET Jean-Marc",
          "displayName": "TRUFFET Jean-Marc",
          "uniqueId": "truffetjeanmarc",
          "isAdmin": false,
          "media": null,
          "vip": false,
          "_links": {
            "profile": "https://www.republique-numerique.fr/profile/truffetjeanmarc",
            "settings": "https://www.republique-numerique.fr/profile/edit-profile"
          }
        },
        "_links": {
          "show": "https://www.republique-numerique.fr/consultations/projet-de-loi-numerique/consultation/consultation/opinions/section-1-protection-des-donnees-a-caractere-personnel/article-18-certificat-de-conformite#arg-435",
          "edit": "https://www.republique-numerique.fr/consultations/projet-de-loi-numerique/consultation/consultation/opinions/section-1-protection-des-donnees-a-caractere-personnel/article-18-certificat-de-conformite/arguments/435/edit",
          "report": "https://www.republique-numerique.fr/consultations/projet-de-loi-numerique/consultation/consultation/opinions/section-1-protection-des-donnees-a-caractere-personnel/article-18-certificat-de-conformite/arguments/435/report"
        },
        "has_user_voted": false,
        "has_user_reported": false
      },
      {
        "isContribuable": false,
        "id": 142,
        "body": "quelle charge et quel coût pour la CNIL? Ne serait-il pas plus efficace d'anticiper sur le règlement et d'étendre pour les entreprises le recours à un délégué à la protection des données interne ou externe?",
        "created_at": "2015-09-26T16:59:29+0200",
        "updated_at": "2015-09-26T16:59:29+0200",
        "is_enabled": true,
        "votes_count": 8,
        "type": 0,
        "is_trashed": false,
        "author": {
          "username": "Christine Hennion",
          "displayName": "Christine Hennion",
          "uniqueId": "christinehennion",
          "isAdmin": false,
          "media": null,
          "vip": false,
          "_links": {
            "profile": "https://www.republique-numerique.fr/profile/christinehennion",
            "settings": "https://www.republique-numerique.fr/profile/edit-profile"
          }
        },
        "_links": {
          "show": "https://www.republique-numerique.fr/consultations/projet-de-loi-numerique/consultation/consultation/opinions/section-1-protection-des-donnees-a-caractere-personnel/article-18-certificat-de-conformite#arg-142",
          "edit": "https://www.republique-numerique.fr/consultations/projet-de-loi-numerique/consultation/consultation/opinions/section-1-protection-des-donnees-a-caractere-personnel/article-18-certificat-de-conformite/arguments/142/edit",
          "report": "https://www.republique-numerique.fr/consultations/projet-de-loi-numerique/consultation/consultation/opinions/section-1-protection-des-donnees-a-caractere-personnel/article-18-certificat-de-conformite/arguments/142/report"
        },
        "has_user_voted": false,
        "has_user_reported": false
      },
      {
        "isContribuable": false,
        "id": 68,
        "body": "La délivrance d'un tel certificat de conformité ne doit pas protéger l'entreprise de contrôles réguliers quand à la nature et aux moyens de stockages des données.\n\nCe certificat devrait même être renouvelé tous les x années, après contrôle de la CNIL.",
        "created_at": "2015-09-26T14:05:43+0200",
        "updated_at": "2015-09-26T14:05:43+0200",
        "is_enabled": true,
        "votes_count": 15,
        "type": 0,
        "is_trashed": false,
        "author": {
          "username": "Solarus",
          "displayName": "Solarus",
          "uniqueId": "solarus",
          "isAdmin": false,
          "media": {
            "url": "/media/cache/default_avatar/default/0001/01/91_default_avatar.jpg"
          },
          "vip": false,
          "_links": {
            "profile": "https://www.republique-numerique.fr/profile/solarus",
            "settings": "https://www.republique-numerique.fr/profile/edit-profile"
          }
        },
        "_links": {
          "show": "https://www.republique-numerique.fr/consultations/projet-de-loi-numerique/consultation/consultation/opinions/section-1-protection-des-donnees-a-caractere-personnel/article-18-certificat-de-conformite#arg-68",
          "edit": "https://www.republique-numerique.fr/consultations/projet-de-loi-numerique/consultation/consultation/opinions/section-1-protection-des-donnees-a-caractere-personnel/article-18-certificat-de-conformite/arguments/68/edit",
          "report": "https://www.republique-numerique.fr/consultations/projet-de-loi-numerique/consultation/consultation/opinions/section-1-protection-des-donnees-a-caractere-personnel/article-18-certificat-de-conformite/arguments/68/report"
        },
        "has_user_voted": false,
        "has_user_reported": false
      }
    ],
    "modals": [
      {
        "key": "article 37-1",
        "before": "",
        "after": "<p>« Tout responsable de traitement ou sous-traitant peut demander à la Commission nationale de l’informatique et des libertés, au titre de sa mission prévue au d) du 2° de l’article 11 de la présente loi, à bénéficier d’un accompagnement à la mise en conformité des traitements de données à caractère personnel à la présente loi.</p><p>La Commission nationale de l’informatique et des libertés peut notamment certifier la conformité à la présente loi de processus d’anonymisation totale ou partielle de jeux de données à caractère personnel, notamment en vue de la réutilisation d’informations publiques mises en ligne dans les conditions prévues par le chapitre II de la loi du 17 juillet 1978.</p><p>Il est tenu compte pour la mise en œuvre du chapitre VII de la présente loi des mesures prises par la Commission en application du présent article. »</p>",
        "title": "Création du nouvel article 37-1 de la loi informatique et liberté (n° 78-17) du 17 janvier 1978"
      }
    ],
    "votes": [
      {
        "user": {
          "username": "Gautier Fauquembergue",
          "displayName": "Gautier Fauquembergue",
          "uniqueId": "gautierfauquembergue",
          "isAdmin": false,
          "media": null,
          "vip": false,
          "_links": {
            "profile": "https://www.republique-numerique.fr/profile/gautierfauquembergue",
            "settings": "https://www.republique-numerique.fr/profile/edit-profile"
          }
        }
      },
      {
        "user": {
          "username": "Cellular1988",
          "displayName": "Cellular1988",
          "uniqueId": "cellular1988",
          "isAdmin": false,
          "media": null,
          "vip": false,
          "_links": {
            "profile": "https://www.republique-numerique.fr/profile/cellular1988",
            "settings": "https://www.republique-numerique.fr/profile/edit-profile"
          }
        }
      },
      {
        "user": {
          "username": "Matthieu CHASSAIN",
          "displayName": "Matthieu CHASSAIN",
          "uniqueId": "matthieuchassain",
          "isAdmin": false,
          "media": null,
          "vip": false,
          "_links": {
            "profile": "https://www.republique-numerique.fr/profile/matthieuchassain",
            "settings": "https://www.republique-numerique.fr/profile/edit-profile"
          }
        }
      },
      {
        "user": {
          "username": "Sébastien Monchamps",
          "displayName": "Sébastien Monchamps",
          "uniqueId": "sebastienmonchamps",
          "isAdmin": false,
          "media": null,
          "vip": false,
          "_links": {
            "profile": "https://www.republique-numerique.fr/profile/sebastienmonchamps",
            "settings": "https://www.republique-numerique.fr/profile/edit-profile"
          }
        }
      },
      {
        "user": {
          "username": "Solarus",
          "displayName": "Solarus",
          "uniqueId": "solarus",
          "isAdmin": false,
          "media": {
            "url": "/media/cache/default_avatar/default/0001/01/91_default_avatar.jpg"
          },
          "vip": false,
          "_links": {
            "profile": "https://www.republique-numerique.fr/profile/solarus",
            "settings": "https://www.republique-numerique.fr/profile/edit-profile"
          }
        }
      }
    ],
    "appendices": [
      {
        "body": "<p><strong>Objectif :</strong> Accompagner les entreprises en amont par la CNIL, dans les d&eacute;marches relatives &agrave; leurs traitements de donn&eacute;es</p>\r\n\r\n<p><strong>Explication :</strong> Aujourd&rsquo;hui de nombreuses entreprises ne savent pas comment g&eacute;rer les donn&eacute;es personnelles qu&rsquo;elles collectent. Avec le futur r&egrave;glement europ&eacute;en, les entreprises devront appr&eacute;cier par elles-m&ecirc;mes les risques engendr&eacute;s par leurs traitements de donn&eacute;es et faire seules les d&eacute;marches n&eacute;cessaires. Par ailleurs, les sanctions p&eacute;cuniaires seront alourdies. Pour faire face &agrave; cette nouvelle situation, le projet de loi pr&eacute;voit pour tout responsable de traitement la possibilit&eacute; de b&eacute;n&eacute;ficier d&rsquo;un accompagnement &agrave; la mise en conformit&eacute; des traitements de donn&eacute;es. Cette option permettra d&#39;apporter une meilleure s&eacute;curit&eacute; juridique aux porteurs de projets.</p>\r\n\r\n<p><strong>Exemple :</strong> une entreprise traitant de donn&eacute;es sensibles pourra obtenir un avis d&eacute;taill&eacute; de la CNIL sur la conformit&eacute; d&rsquo;une m&eacute;thode d&rsquo;anonymisation</p>",
        "type": {
          "title": "Explication de l'article"
        }
      }
    ],
    "ranking": null,
    "is_trashed": false,
    "title": "Article 18 - Certificat de conformité",
    "votes_nok": 20,
    "votes_ok": 230,
    "votes_mitige": 74,
    "_links": {
      "show": "https://www.republique-numerique.fr/consultations/projet-de-loi-numerique/consultation/consultation/opinions/section-1-protection-des-donnees-a-caractere-personnel/article-18-certificat-de-conformite",
      "edit": "https://www.republique-numerique.fr/consultations/projet-de-loi-numerique/consultation/consultation/opinions/section-1-protection-des-donnees-a-caractere-personnel/article-18-certificat-de-conformite/edit",
      "report": "https://www.republique-numerique.fr/consultations/projet-de-loi-numerique/consultation/consultation/opinions/section-1-protection-des-donnees-a-caractere-personnel/article-18-certificat-de-conformite/report",
      "type": "https://www.republique-numerique.fr/consultations/projet-de-loi-numerique/consultation/consultation/opinions/section-1-protection-des-donnees-a-caractere-personnel"
    },
    "user_vote": null,
    "has_user_reported": false
  },
  "rankingThreshold": null,
  "opinionTerm": 1
}