{
  "version": {
    "isContribuable": false,
    "votes_total": 12,
    "arguments_yes_count": 1,
    "arguments_no_count": 2,
    "id": 147,
    "body": "<p>Il est ins&eacute;r&eacute; dans la m&ecirc;me loi un article 37-1ainsi r&eacute;dig&eacute;&nbsp;:</p>\n\n<div>&laquo;&nbsp;Art. 37-1. &ndash; Tout responsable de traitement ou sous-traitant devra nommer un d&eacute;l&eacute;gu&eacute; &agrave; la protection des donn&eacute;es interne ou externe dans les cas suivants:</div>\n\n<div>&nbsp;</div>\n\n<div><p>1. le traitement est effectué par une autorité ou un organisme public</p>\n\n<p>2. le traitement est effectué par une personne morale et porte sur plus de 5 000 personnes concern&eacute;es sur une période de 12 mois consécutifs</p>\n\n<p>3. leurs activit&eacute;s consistent en des traitements qui, du fait de leur nature, de leur portée et/ou de leurs finalités, exigent un suivi régulier et systématique des personnes concern&eacute;es</p>\n\n<p>4. leurs activités consistent à traiter des données sensibles, des données de localisation ou des données relatives à des enfants&nbsp;</p>\n\n<p>5. S&#39;ils traitent des fichiers informatisés de grande ampleur.</p>\n</div>\n\n<p>&laquo;&nbsp;La Commission nationale de l&rsquo;informatique et des libert&eacute;s peut notamment certifier la conformit&eacute; &agrave; la pr&eacute;sente loi de processus d&rsquo;anonymisation&nbsp; de jeux de donn&eacute;es &agrave; caract&egrave;re personnel, notamment en vue de la r&eacute;utilisation d&rsquo;informations publiques mises en ligne dans les conditions pr&eacute;vues par le chapitre II de la loi du 17 juillet 1978.</p>\n\n<p>&laquo;&nbsp;Il est tenu compte pour la mise en &oelig;uvre du chapitre VII de la pr&eacute;sente loi des mesures prises par la Commission en application du pr&eacute;sent article.&nbsp;&raquo;</p>",
    "comment": "<p>La CNIL accompagne d&eacute;j&agrave; les entreprises au travers du support qu&#39;elle apporte aux correspondants informatiques et libert&eacute;s. Il parait peu r&eacute;aliste de demander &agrave; la CNIL d&#39;assurer en direct la mise en conformit&eacute; des organismes ceci n&eacute;cessitant probablement un accroissement consid&eacute;rable de ses moyens. L&#39;obligation pour certains organismes de nommer un CIL/DPO interne ou externe serait plus efficace.</p>\n\n<p>&nbsp;</p>",
    "author": {
      "username": "Christine Hennion",
      "displayName": "Christine Hennion",
      "uniqueId": "christinehennion",
      "isAdmin": false,
      "media": null,
      "vip": false,
      "_links": {
        "profile": "https://www.republique-numerique.fr/profile/christinehennion",
        "settings": "https://www.republique-numerique.fr/profile/edit-profile"
      }
    },
    "arguments": [
      {
        "isContribuable": false,
        "id": 219,
        "body": "Délégué CIL qui existe Conseiller informatique et liberté",
        "created_at": "2015-09-26T19:17:40+0200",
        "updated_at": "2015-09-26T19:17:40+0200",
        "is_enabled": true,
        "votes_count": 1,
        "type": 1,
        "is_trashed": false,
        "author": {
          "username": "Jeanne Varasco",
          "displayName": "Jeanne Varasco",
          "uniqueId": "jeannevarasco",
          "isAdmin": false,
          "media": {
            "url": "/media/cache/default_avatar/default/0001/01/139_default_avatar.jpg"
          },
          "vip": false,
          "_links": {
            "profile": "https://www.republique-numerique.fr/profile/jeannevarasco",
            "settings": "https://www.republique-numerique.fr/profile/edit-profile"
          }
        },
        "_links": {
          "show": "https://www.republique-numerique.fr/consultations/projet-de-loi-numerique/consultation/consultation/opinions/section-1-protection-des-donnees-a-caractere-personnel/article-18-certificat-de-conformite/versions/nomination-d-un-delegue-a-la-protection-des-donnees#arg-219",
          "edit": "https://www.republique-numerique.fr/consultations/projet-de-loi-numerique/consultation/consultation/opinions/section-1-protection-des-donnees-a-caractere-personnel/article-18-certificat-de-conformite/arguments/219/edit",
          "report": "https://www.republique-numerique.fr/consultations/projet-de-loi-numerique/consultation/consultation/opinions/section-1-protection-des-donnees-a-caractere-personnel/article-18-certificat-de-conformite/arguments/219/report"
        },
        "has_user_voted": false,
        "has_user_reported": false
      },
      {
        "isContribuable": false,
        "id": 1326,
        "body": "Obliger par le passage de la CNIL, va générer un goullé d’étranglement et un surcout ....\nSi vous êtes un petit société, ca devient hors bugder ...\nsi vous êtes innovant sa vous freine, au détriment de la concurrence étrangère.",
        "created_at": "2015-09-29T18:14:52+0200",
        "updated_at": "2015-09-29T18:14:52+0200",
        "is_enabled": true,
        "votes_count": 1,
        "type": 0,
        "is_trashed": false,
        "author": {
          "username": "lacombe",
          "displayName": "lacombe",
          "uniqueId": "lacombe",
          "isAdmin": false,
          "media": {
            "url": "/media/cache/default_avatar/default/0001/01/310_default_avatar.png"
          },
          "vip": false,
          "_links": {
            "profile": "https://www.republique-numerique.fr/profile/lacombe",
            "settings": "https://www.republique-numerique.fr/profile/edit-profile"
          }
        },
        "_links": {
          "show": "https://www.republique-numerique.fr/consultations/projet-de-loi-numerique/consultation/consultation/opinions/section-1-protection-des-donnees-a-caractere-personnel/article-18-certificat-de-conformite/versions/nomination-d-un-delegue-a-la-protection-des-donnees#arg-1326",
          "edit": "https://www.republique-numerique.fr/consultations/projet-de-loi-numerique/consultation/consultation/opinions/section-1-protection-des-donnees-a-caractere-personnel/article-18-certificat-de-conformite/arguments/1326/edit",
          "report": "https://www.republique-numerique.fr/consultations/projet-de-loi-numerique/consultation/consultation/opinions/section-1-protection-des-donnees-a-caractere-personnel/article-18-certificat-de-conformite/arguments/1326/report"
        },
        "has_user_voted": false,
        "has_user_reported": false
      },
      {
        "isContribuable": false,
        "id": 1625,
        "body": "Exact. C'est pour ça que, si c'est appliqué, il faudra, à la CNIL, prévoir le personnel nécessaire avant même de débuter l'activité.",
        "created_at": "2015-09-30T17:12:29+0200",
        "updated_at": "2015-09-30T17:12:29+0200",
        "is_enabled": true,
        "votes_count": 0,
        "type": 0,
        "is_trashed": false,
        "author": {
          "username": "Lionel Frédéric Lebeau",
          "displayName": "Lionel Frédéric Lebeau",
          "uniqueId": "lionelfredericlebeau",
          "isAdmin": false,
          "media": null,
          "vip": false,
          "_links": {
            "profile": "https://www.republique-numerique.fr/profile/lionelfredericlebeau",
            "settings": "https://www.republique-numerique.fr/profile/edit-profile"
          }
        },
        "_links": {
          "show": "https://www.republique-numerique.fr/consultations/projet-de-loi-numerique/consultation/consultation/opinions/section-1-protection-des-donnees-a-caractere-personnel/article-18-certificat-de-conformite/versions/nomination-d-un-delegue-a-la-protection-des-donnees#arg-1625",
          "edit": "https://www.republique-numerique.fr/consultations/projet-de-loi-numerique/consultation/consultation/opinions/section-1-protection-des-donnees-a-caractere-personnel/article-18-certificat-de-conformite/arguments/1625/edit",
          "report": "https://www.republique-numerique.fr/consultations/projet-de-loi-numerique/consultation/consultation/opinions/section-1-protection-des-donnees-a-caractere-personnel/article-18-certificat-de-conformite/arguments/1625/report"
        },
        "has_user_voted": false,
        "has_user_reported": false
      }
    ],
    "sources": [],
    "parent": {
      "isContribuable": false,
      "id": 78,
      "body": "<p>Il est ins&eacute;r&eacute; dans la m&ecirc;me loi un article 37-1ainsi r&eacute;dig&eacute;&nbsp;:</p>\r\n\r\n<p>&laquo;&nbsp;Art. 37-1. &ndash; Tout responsable de traitement ou sous-traitant peut demander &agrave; la Commission nationale de l&rsquo;informatique et des libert&eacute;s, au titre de sa mission pr&eacute;vue au d) du 2&deg; de l&rsquo;article 11 de la pr&eacute;sente loi, &agrave; b&eacute;n&eacute;ficier d&rsquo;un accompagnement &agrave; la mise en conformit&eacute; des traitements de donn&eacute;es &agrave; caract&egrave;re personnel &agrave; la pr&eacute;sente loi.</p>\r\n\r\n<p>&laquo;&nbsp;La Commission nationale de l&rsquo;informatique et des libert&eacute;s peut notamment certifier la conformit&eacute; &agrave; la pr&eacute;sente loi de processus d&rsquo;anonymisation totale ou partielle de jeux de donn&eacute;es &agrave; caract&egrave;re personnel, notamment en vue de la r&eacute;utilisation d&rsquo;informations publiques mises en ligne dans les conditions pr&eacute;vues par le chapitre II de la loi du 17 juillet 1978.</p>\r\n\r\n<p>&laquo;&nbsp;Il est tenu compte pour la mise en &oelig;uvre du chapitre VII de la pr&eacute;sente loi des mesures prises par la Commission en application du pr&eacute;sent article.&nbsp;&raquo;</p>",
      "type": {
        "id": 99,
        "title": "Section 1",
        "subtitle": "Protection des données à caractère personnel",
        "voteWidgetType": 2,
        "votesHelpText": "Pensez-vous que cette proposition permet d'atteindre les objectifs présentés dans l’explication de l’article ?",
        "commentSystem": 2,
        "color": "blue",
        "versionable": true,
        "sourceable": true,
        "votesThreshold": null,
        "votesThresholdHelpText": null
      },
      "modals": [
        {
          "key": "article 37-1",
          "before": "",
          "after": "<p>« Tout responsable de traitement ou sous-traitant peut demander à la Commission nationale de l’informatique et des libertés, au titre de sa mission prévue au d) du 2° de l’article 11 de la présente loi, à bénéficier d’un accompagnement à la mise en conformité des traitements de données à caractère personnel à la présente loi.</p><p>La Commission nationale de l’informatique et des libertés peut notamment certifier la conformité à la présente loi de processus d’anonymisation totale ou partielle de jeux de données à caractère personnel, notamment en vue de la réutilisation d’informations publiques mises en ligne dans les conditions prévues par le chapitre II de la loi du 17 juillet 1978.</p><p>Il est tenu compte pour la mise en œuvre du chapitre VII de la présente loi des mesures prises par la Commission en application du présent article. »</p>",
          "title": "Création du nouvel article 37-1 de la loi informatique et liberté (n° 78-17) du 17 janvier 1978"
        }
      ],
      "appendices": [
        {
          "body": "<p><strong>Objectif :</strong> Accompagner les entreprises en amont par la CNIL, dans les d&eacute;marches relatives &agrave; leurs traitements de donn&eacute;es</p>\r\n\r\n<p><strong>Explication :</strong> Aujourd&rsquo;hui de nombreuses entreprises ne savent pas comment g&eacute;rer les donn&eacute;es personnelles qu&rsquo;elles collectent. Avec le futur r&egrave;glement europ&eacute;en, les entreprises devront appr&eacute;cier par elles-m&ecirc;mes les risques engendr&eacute;s par leurs traitements de donn&eacute;es et faire seules les d&eacute;marches n&eacute;cessaires. Par ailleurs, les sanctions p&eacute;cuniaires seront alourdies. Pour faire face &agrave; cette nouvelle situation, le projet de loi pr&eacute;voit pour tout responsable de traitement la possibilit&eacute; de b&eacute;n&eacute;ficier d&rsquo;un accompagnement &agrave; la mise en conformit&eacute; des traitements de donn&eacute;es. Cette option permettra d&#39;apporter une meilleure s&eacute;curit&eacute; juridique aux porteurs de projets.</p>\r\n\r\n<p><strong>Exemple :</strong> une entreprise traitant de donn&eacute;es sensibles pourra obtenir un avis d&eacute;taill&eacute; de la CNIL sur la conformit&eacute; d&rsquo;une m&eacute;thode d&rsquo;anonymisation</p>",
          "type": {
            "title": "Explication de l'article"
          }
        }
      ],
      "title": "Article 18 - Certificat de conformité",
      "_links": {
        "show": "https://www.republique-numerique.fr/consultations/projet-de-loi-numerique/consultation/consultation/opinions/section-1-protection-des-donnees-a-caractere-personnel/article-18-certificat-de-conformite",
        "edit": "https://www.republique-numerique.fr/consultations/projet-de-loi-numerique/consultation/consultation/opinions/section-1-protection-des-donnees-a-caractere-personnel/article-18-certificat-de-conformite/edit",
        "report": "https://www.republique-numerique.fr/consultations/projet-de-loi-numerique/consultation/consultation/opinions/section-1-protection-des-donnees-a-caractere-personnel/article-18-certificat-de-conformite/report",
        "type": "https://www.republique-numerique.fr/consultations/projet-de-loi-numerique/consultation/consultation/opinions/section-1-protection-des-donnees-a-caractere-personnel"
      },
      "user_vote": null,
      "has_user_reported": false
    },
    "sources_count": 0,
    "arguments_count": 3,
    "votes": [
      {
        "user": {
          "username": "Jeanne Varasco",
          "displayName": "Jeanne Varasco",
          "uniqueId": "jeannevarasco",
          "isAdmin": false,
          "media": {
            "url": "/media/cache/default_avatar/default/0001/01/139_default_avatar.jpg"
          },
          "vip": false,
          "_links": {
            "profile": "https://www.republique-numerique.fr/profile/jeannevarasco",
            "settings": "https://www.republique-numerique.fr/profile/edit-profile"
          }
        },
        "value": 1
      },
      {
        "user": {
          "username": "Olivier SERY",
          "displayName": "Olivier SERY",
          "uniqueId": "oliviersery",
          "isAdmin": false,
          "media": null,
          "vip": false,
          "_links": {
            "profile": "https://www.republique-numerique.fr/profile/oliviersery",
            "settings": "https://www.republique-numerique.fr/profile/edit-profile"
          }
        },
        "value": 1
      },
      {
        "user": {
          "username": "thierry flesch",
          "displayName": "thierry flesch",
          "uniqueId": "thierryflesch",
          "isAdmin": false,
          "media": null,
          "vip": false,
          "_links": {
            "profile": "https://www.republique-numerique.fr/profile/thierryflesch",
            "settings": "https://www.republique-numerique.fr/profile/edit-profile"
          }
        },
        "value": 1
      },
      {
        "user": {
          "username": "Pierre-Yves Lastic",
          "displayName": "Pierre-Yves Lastic",
          "uniqueId": "pierreyveslastic",
          "isAdmin": false,
          "media": null,
          "vip": false,
          "_links": {
            "profile": "https://www.republique-numerique.fr/profile/pierreyveslastic",
            "settings": "https://www.republique-numerique.fr/profile/edit-profile"
          }
        },
        "value": 1
      },
      {
        "user": {
          "username": "lacombe",
          "displayName": "lacombe",
          "uniqueId": "lacombe",
          "isAdmin": false,
          "media": {
            "url": "/media/cache/default_avatar/default/0001/01/310_default_avatar.png"
          },
          "vip": false,
          "_links": {
            "profile": "https://www.republique-numerique.fr/profile/lacombe",
            "settings": "https://www.republique-numerique.fr/profile/edit-profile"
          }
        },
        "value": -1
      }
    ],
    "updated_at": "2015-09-29T12:06:02+0200",
    "ranking": 405,
    "is_trashed": false,
    "title": "obligation de nomination d'un délégué à la protection des données",
    "slug": "nomination-d-un-delegue-a-la-protection-des-donnees",
    "created_at": "2015-09-26T17:40:38+0200",
    "votes_nok": 2,
    "votes_ok": 10,
    "votes_mitige": 0,
    "_links": {
      "show": "https://www.republique-numerique.fr/consultations/projet-de-loi-numerique/consultation/consultation/opinions/section-1-protection-des-donnees-a-caractere-personnel/article-18-certificat-de-conformite/versions/nomination-d-un-delegue-a-la-protection-des-donnees",
      "report": "https://www.republique-numerique.fr/consultations/projet-de-loi-numerique/consultation/consultation/opinions/section-1-protection-des-donnees-a-caractere-personnel/article-18-certificat-de-conformite/versions/nomination-d-un-delegue-a-la-protection-des-donnees/report"
    },
    "user_vote": null,
    "has_user_reported": false
  },
  "rankingThreshold": null,
  "opinionTerm": 1
}