{
  "version": {
    "isContribuable": false,
    "votes_total": 11,
    "arguments_yes_count": 2,
    "arguments_no_count": 0,
    "id": 476,
    "body": "<p>Il est ins&eacute;r&eacute; dans la m&ecirc;me loi un article 37-1ainsi r&eacute;dig&eacute;&nbsp;:</p>\n\n<p>&laquo;&nbsp;Art. 37-1. &ndash; Tout responsable de traitement ou sous-traitant peut demander &agrave; la Commission nationale de l&rsquo;informatique et des libert&eacute;s, au titre de sa mission pr&eacute;vue au d) du 2&deg; de l&rsquo;article 11 de la pr&eacute;sente loi, &agrave; b&eacute;n&eacute;ficier d&rsquo;un <s>accompagnement </s>&agrave; la mise en conformit&eacute; des traitements de donn&eacute;es &agrave; caract&egrave;re personnel &agrave; la pr&eacute;sente loi.</p>\n\n<p>&laquo;&nbsp;La Commission nationale de l&rsquo;informatique et des libert&eacute;s peut notamment certifier la conformit&eacute; &agrave; la pr&eacute;sente loi de processus d&rsquo;anonymisation totale ou partielle de jeux de donn&eacute;es &agrave; caract&egrave;re personnel, notamment en vue de la r&eacute;utilisation d&rsquo;informations publiques mises en ligne dans les conditions pr&eacute;vues par le chapitre II de la loi du 17 juillet 1978.</p>\n\n<p>&laquo;&nbsp;Il est tenu compte pour la mise en &oelig;uvre du chapitre VII de la pr&eacute;sente loi des mesures prises par la Commission en application du pr&eacute;sent article.&nbsp;&raquo;</p>",
    "comment": "<p>Dans le cadre d&#39;un projet, la r&eacute;ponse est souvent attendue pour hier. Quel sera le d&eacute;lai de r&eacute;ponse de la CNIL ? Sera t&#39;il compatible avec les besoins des entreprises soumises &agrave; la dictaure du &quot;Time to Market&quot; ?</p>\n\n<p>Il faut d&eacute;finir ce qu&#39;est un accompagnement ? Un avis, une validation, une certification, ... ?</p>",
    "author": {
      "username": "Laurent Martin",
      "displayName": "Laurent Martin",
      "uniqueId": "laurentmartin",
      "isAdmin": false,
      "media": null,
      "vip": false,
      "_links": {
        "profile": "https://www.republique-numerique.fr/profile/laurentmartin",
        "settings": "https://www.republique-numerique.fr/profile/edit-profile"
      }
    },
    "arguments": [
      {
        "isContribuable": false,
        "id": 1621,
        "body": "Effectivement, il faudra que la CNIL puisse faire face à la demande.",
        "created_at": "2015-09-30T17:08:21+0200",
        "updated_at": "2015-09-30T17:08:21+0200",
        "is_enabled": true,
        "votes_count": 1,
        "type": 1,
        "is_trashed": false,
        "author": {
          "username": "Lionel Frédéric Lebeau",
          "displayName": "Lionel Frédéric Lebeau",
          "uniqueId": "lionelfredericlebeau",
          "isAdmin": false,
          "media": null,
          "vip": false,
          "_links": {
            "profile": "https://www.republique-numerique.fr/profile/lionelfredericlebeau",
            "settings": "https://www.republique-numerique.fr/profile/edit-profile"
          }
        },
        "_links": {
          "show": "https://www.republique-numerique.fr/consultations/projet-de-loi-numerique/consultation/consultation/opinions/section-1-protection-des-donnees-a-caractere-personnel/article-18-certificat-de-conformite/versions/qui-de-de-la-capacite-de-la-cnil-a-repondre-a-la-demande#arg-1621",
          "edit": "https://www.republique-numerique.fr/consultations/projet-de-loi-numerique/consultation/consultation/opinions/section-1-protection-des-donnees-a-caractere-personnel/article-18-certificat-de-conformite/arguments/1621/edit",
          "report": "https://www.republique-numerique.fr/consultations/projet-de-loi-numerique/consultation/consultation/opinions/section-1-protection-des-donnees-a-caractere-personnel/article-18-certificat-de-conformite/arguments/1621/report"
        },
        "has_user_voted": false,
        "has_user_reported": false
      },
      {
        "isContribuable": false,
        "id": 3267,
        "body": "il faut donner les moyen a la CNIL   qui a peut \ndéfectif  actuellement  est des responsable pour le traitement des donné personnelle dans les entreprise est pour la sécurité des donné personnelle la CNIL a elle seule ne le Pourrat vraisemblablement pas est les control",
        "created_at": "2015-10-12T11:25:59+0200",
        "updated_at": "2015-10-12T11:25:59+0200",
        "is_enabled": true,
        "votes_count": 1,
        "type": 1,
        "is_trashed": false,
        "author": {
          "username": "Yves Jean Gillot",
          "displayName": "Yves Jean Gillot",
          "uniqueId": "yvesjeangillot",
          "isAdmin": false,
          "media": null,
          "vip": false,
          "_links": {
            "profile": "https://www.republique-numerique.fr/profile/yvesjeangillot",
            "settings": "https://www.republique-numerique.fr/profile/edit-profile"
          }
        },
        "_links": {
          "show": "https://www.republique-numerique.fr/consultations/projet-de-loi-numerique/consultation/consultation/opinions/section-1-protection-des-donnees-a-caractere-personnel/article-18-certificat-de-conformite/versions/qui-de-de-la-capacite-de-la-cnil-a-repondre-a-la-demande#arg-3267",
          "edit": "https://www.republique-numerique.fr/consultations/projet-de-loi-numerique/consultation/consultation/opinions/section-1-protection-des-donnees-a-caractere-personnel/article-18-certificat-de-conformite/arguments/3267/edit",
          "report": "https://www.republique-numerique.fr/consultations/projet-de-loi-numerique/consultation/consultation/opinions/section-1-protection-des-donnees-a-caractere-personnel/article-18-certificat-de-conformite/arguments/3267/report"
        },
        "has_user_voted": false,
        "has_user_reported": false
      }
    ],
    "sources": [],
    "parent": {
      "isContribuable": false,
      "id": 78,
      "body": "<p>Il est ins&eacute;r&eacute; dans la m&ecirc;me loi un article 37-1ainsi r&eacute;dig&eacute;&nbsp;:</p>\r\n\r\n<p>&laquo;&nbsp;Art. 37-1. &ndash; Tout responsable de traitement ou sous-traitant peut demander &agrave; la Commission nationale de l&rsquo;informatique et des libert&eacute;s, au titre de sa mission pr&eacute;vue au d) du 2&deg; de l&rsquo;article 11 de la pr&eacute;sente loi, &agrave; b&eacute;n&eacute;ficier d&rsquo;un accompagnement &agrave; la mise en conformit&eacute; des traitements de donn&eacute;es &agrave; caract&egrave;re personnel &agrave; la pr&eacute;sente loi.</p>\r\n\r\n<p>&laquo;&nbsp;La Commission nationale de l&rsquo;informatique et des libert&eacute;s peut notamment certifier la conformit&eacute; &agrave; la pr&eacute;sente loi de processus d&rsquo;anonymisation totale ou partielle de jeux de donn&eacute;es &agrave; caract&egrave;re personnel, notamment en vue de la r&eacute;utilisation d&rsquo;informations publiques mises en ligne dans les conditions pr&eacute;vues par le chapitre II de la loi du 17 juillet 1978.</p>\r\n\r\n<p>&laquo;&nbsp;Il est tenu compte pour la mise en &oelig;uvre du chapitre VII de la pr&eacute;sente loi des mesures prises par la Commission en application du pr&eacute;sent article.&nbsp;&raquo;</p>",
      "type": {
        "id": 99,
        "title": "Section 1",
        "subtitle": "Protection des données à caractère personnel",
        "voteWidgetType": 2,
        "votesHelpText": "Pensez-vous que cette proposition permet d'atteindre les objectifs présentés dans l’explication de l’article ?",
        "commentSystem": 2,
        "color": "blue",
        "versionable": true,
        "sourceable": true,
        "votesThreshold": null,
        "votesThresholdHelpText": null
      },
      "modals": [
        {
          "key": "article 37-1",
          "before": "",
          "after": "<p>« Tout responsable de traitement ou sous-traitant peut demander à la Commission nationale de l’informatique et des libertés, au titre de sa mission prévue au d) du 2° de l’article 11 de la présente loi, à bénéficier d’un accompagnement à la mise en conformité des traitements de données à caractère personnel à la présente loi.</p><p>La Commission nationale de l’informatique et des libertés peut notamment certifier la conformité à la présente loi de processus d’anonymisation totale ou partielle de jeux de données à caractère personnel, notamment en vue de la réutilisation d’informations publiques mises en ligne dans les conditions prévues par le chapitre II de la loi du 17 juillet 1978.</p><p>Il est tenu compte pour la mise en œuvre du chapitre VII de la présente loi des mesures prises par la Commission en application du présent article. »</p>",
          "title": "Création du nouvel article 37-1 de la loi informatique et liberté (n° 78-17) du 17 janvier 1978"
        }
      ],
      "appendices": [
        {
          "body": "<p><strong>Objectif :</strong> Accompagner les entreprises en amont par la CNIL, dans les d&eacute;marches relatives &agrave; leurs traitements de donn&eacute;es</p>\r\n\r\n<p><strong>Explication :</strong> Aujourd&rsquo;hui de nombreuses entreprises ne savent pas comment g&eacute;rer les donn&eacute;es personnelles qu&rsquo;elles collectent. Avec le futur r&egrave;glement europ&eacute;en, les entreprises devront appr&eacute;cier par elles-m&ecirc;mes les risques engendr&eacute;s par leurs traitements de donn&eacute;es et faire seules les d&eacute;marches n&eacute;cessaires. Par ailleurs, les sanctions p&eacute;cuniaires seront alourdies. Pour faire face &agrave; cette nouvelle situation, le projet de loi pr&eacute;voit pour tout responsable de traitement la possibilit&eacute; de b&eacute;n&eacute;ficier d&rsquo;un accompagnement &agrave; la mise en conformit&eacute; des traitements de donn&eacute;es. Cette option permettra d&#39;apporter une meilleure s&eacute;curit&eacute; juridique aux porteurs de projets.</p>\r\n\r\n<p><strong>Exemple :</strong> une entreprise traitant de donn&eacute;es sensibles pourra obtenir un avis d&eacute;taill&eacute; de la CNIL sur la conformit&eacute; d&rsquo;une m&eacute;thode d&rsquo;anonymisation</p>",
          "type": {
            "title": "Explication de l'article"
          }
        }
      ],
      "title": "Article 18 - Certificat de conformité",
      "_links": {
        "show": "https://www.republique-numerique.fr/consultations/projet-de-loi-numerique/consultation/consultation/opinions/section-1-protection-des-donnees-a-caractere-personnel/article-18-certificat-de-conformite",
        "edit": "https://www.republique-numerique.fr/consultations/projet-de-loi-numerique/consultation/consultation/opinions/section-1-protection-des-donnees-a-caractere-personnel/article-18-certificat-de-conformite/edit",
        "report": "https://www.republique-numerique.fr/consultations/projet-de-loi-numerique/consultation/consultation/opinions/section-1-protection-des-donnees-a-caractere-personnel/article-18-certificat-de-conformite/report",
        "type": "https://www.republique-numerique.fr/consultations/projet-de-loi-numerique/consultation/consultation/opinions/section-1-protection-des-donnees-a-caractere-personnel"
      },
      "user_vote": null,
      "has_user_reported": false
    },
    "sources_count": 0,
    "arguments_count": 2,
    "votes": [
      {
        "user": {
          "username": "Lionel Frédéric Lebeau",
          "displayName": "Lionel Frédéric Lebeau",
          "uniqueId": "lionelfredericlebeau",
          "isAdmin": false,
          "media": null,
          "vip": false,
          "_links": {
            "profile": "https://www.republique-numerique.fr/profile/lionelfredericlebeau",
            "settings": "https://www.republique-numerique.fr/profile/edit-profile"
          }
        },
        "value": 1
      },
      {
        "user": {
          "username": "VIGIER Frederic",
          "displayName": "VIGIER Frederic",
          "uniqueId": "vigierfrederic",
          "isAdmin": false,
          "media": null,
          "vip": false,
          "_links": {
            "profile": "https://www.republique-numerique.fr/profile/vigierfrederic",
            "settings": "https://www.republique-numerique.fr/profile/edit-profile"
          }
        },
        "value": 1
      },
      {
        "user": {
          "username": "Guillaume",
          "displayName": "Guillaume",
          "uniqueId": "guillaume1",
          "isAdmin": false,
          "media": null,
          "vip": false,
          "_links": {
            "profile": "https://www.republique-numerique.fr/profile/guillaume1",
            "settings": "https://www.republique-numerique.fr/profile/edit-profile"
          }
        },
        "value": 1
      },
      {
        "user": {
          "username": "Martine Legris Revel",
          "displayName": "Martine Legris Revel",
          "uniqueId": "martinelegrisrevel",
          "isAdmin": false,
          "media": null,
          "vip": false,
          "_links": {
            "profile": "https://www.republique-numerique.fr/profile/martinelegrisrevel",
            "settings": "https://www.republique-numerique.fr/profile/edit-profile"
          }
        },
        "value": 1
      },
      {
        "user": {
          "username": "Arnoux Cyrille",
          "displayName": "Arnoux Cyrille",
          "uniqueId": "arnouxcyrille",
          "isAdmin": false,
          "media": null,
          "vip": false,
          "_links": {
            "profile": "https://www.republique-numerique.fr/profile/arnouxcyrille",
            "settings": "https://www.republique-numerique.fr/profile/edit-profile"
          }
        },
        "value": 1
      }
    ],
    "updated_at": "2015-09-30T14:59:12+0200",
    "ranking": 379,
    "is_trashed": false,
    "title": "Qui de la capacité de la CNIL à répondre à la demande ?",
    "slug": "qui-de-de-la-capacite-de-la-cnil-a-repondre-a-la-demande",
    "created_at": "2015-09-30T14:58:33+0200",
    "votes_nok": 0,
    "votes_ok": 11,
    "votes_mitige": 0,
    "_links": {
      "show": "https://www.republique-numerique.fr/consultations/projet-de-loi-numerique/consultation/consultation/opinions/section-1-protection-des-donnees-a-caractere-personnel/article-18-certificat-de-conformite/versions/qui-de-de-la-capacite-de-la-cnil-a-repondre-a-la-demande",
      "report": "https://www.republique-numerique.fr/consultations/projet-de-loi-numerique/consultation/consultation/opinions/section-1-protection-des-donnees-a-caractere-personnel/article-18-certificat-de-conformite/versions/qui-de-de-la-capacite-de-la-cnil-a-repondre-a-la-demande/report"
    },
    "user_vote": null,
    "has_user_reported": false
  },
  "rankingThreshold": null,
  "opinionTerm": 1
}