{
  "opinion": {
    "isContribuable": false,
    "votes_total": 42,
    "arguments_yes_count": 0,
    "arguments_no_count": 6,
    "id": 366,
    "created_at": "2015-10-01T09:06:46+0200",
    "updated_at": "2015-10-01T18:48:47+0200",
    "body": "Une entité privée ou publique qui chercherait à décrypter un contenu numérique crypté sans:\r\n1- l'aval d'un juge\r\n2- avoir préalablement informé la victime de cette violation de confidentialité\r\nest punissable par la loi",
    "versions_count": 1,
    "sources_count": 0,
    "arguments_count": 6,
    "author": {
      "username": "Cestuila",
      "displayName": "Cestuila",
      "uniqueId": "cestuila",
      "isAdmin": false,
      "media": null,
      "vip": false,
      "_links": {
        "profile": "https://www.republique-numerique.fr/profile/cestuila",
        "settings": "https://www.republique-numerique.fr/profile/edit-profile"
      }
    },
    "type": {
      "id": 100,
      "title": "Section 2",
      "subtitle": "Confidentialité des correspondances privées",
      "voteWidgetType": 2,
      "votesHelpText": "Pensez-vous que cette proposition permet d'atteindre les objectifs présentés dans l’explication de l’article ?",
      "commentSystem": 2,
      "color": "blue",
      "versionable": true,
      "sourceable": true,
      "votesThreshold": null,
      "votesThresholdHelpText": null
    },
    "sources": [],
    "arguments": [
      {
        "isContribuable": false,
        "id": 2988,
        "body": "Il ne faut pas interdire la recherche en sécurité en informatique. Cette loi pourrait permettre aux éditeurs de solution de sécurité d'empêcher toute plainte et toute recherche quant à la fiabilité du produit. (affaires du type Guillermito...)",
        "created_at": "2015-10-10T17:29:00+0200",
        "updated_at": "2015-10-10T17:29:00+0200",
        "is_enabled": true,
        "votes_count": 2,
        "type": 0,
        "is_trashed": false,
        "author": {
          "username": "Bernard Martinez",
          "displayName": "Bernard Martinez",
          "uniqueId": "bernardmartinez",
          "isAdmin": false,
          "media": null,
          "vip": false,
          "_links": {
            "profile": "https://www.republique-numerique.fr/profile/bernardmartinez",
            "settings": "https://www.republique-numerique.fr/profile/edit-profile"
          }
        },
        "_links": {
          "show": "https://www.republique-numerique.fr/consultations/projet-de-loi-numerique/consultation/consultation/opinions/section-2-confidentialite-des-correspondances-privees/chercher-a-decrypter-un-contenu-crypge-est-un-delit#arg-2988",
          "edit": "https://www.republique-numerique.fr/consultations/projet-de-loi-numerique/consultation/consultation/opinions/section-2-confidentialite-des-correspondances-privees/chercher-a-decrypter-un-contenu-crypge-est-un-delit/arguments/2988/edit",
          "report": "https://www.republique-numerique.fr/consultations/projet-de-loi-numerique/consultation/consultation/opinions/section-2-confidentialite-des-correspondances-privees/chercher-a-decrypter-un-contenu-crypge-est-un-delit/arguments/2988/report"
        },
        "has_user_voted": false,
        "has_user_reported": false
      },
      {
        "isContribuable": false,
        "id": 1984,
        "body": "Contre, ceci serait nuisible au domaine de la sécurité, un contenu numérique chiffré l'est correctement, quand on ne peut pas sérieusement le déchiffré dans un laps de temps humainement tenable, ceci n'a pas à être spécifiquement interdit selon moi.\r\n\r\nSi jamais on peut décrypter un contenu chiffré, sans en être le vrai destinataire, alors c'est qu'il est mal chiffré, ou backdooré. Quoi qu'il en soit, je ne pense pas qu'il soit d'intérêt de mettre une loi sur ce sujet. Quand bien même ça serait pour limiter l'espionnage de masse, je pense qu'il vaut mieux apprendre à la masse comment mieux chiffrer.",
        "created_at": "2015-10-02T12:30:07+0200",
        "updated_at": "2015-10-06T18:19:54+0200",
        "is_enabled": true,
        "votes_count": 4,
        "type": 0,
        "is_trashed": false,
        "author": {
          "username": "Olivier Seror-Droin",
          "displayName": "Olivier Seror-Droin",
          "uniqueId": "olivierserordroin",
          "isAdmin": false,
          "media": null,
          "vip": false,
          "_links": {
            "profile": "https://www.republique-numerique.fr/profile/olivierserordroin",
            "settings": "https://www.republique-numerique.fr/profile/edit-profile"
          }
        },
        "_links": {
          "show": "https://www.republique-numerique.fr/consultations/projet-de-loi-numerique/consultation/consultation/opinions/section-2-confidentialite-des-correspondances-privees/chercher-a-decrypter-un-contenu-crypge-est-un-delit#arg-1984",
          "edit": "https://www.republique-numerique.fr/consultations/projet-de-loi-numerique/consultation/consultation/opinions/section-2-confidentialite-des-correspondances-privees/chercher-a-decrypter-un-contenu-crypge-est-un-delit/arguments/1984/edit",
          "report": "https://www.republique-numerique.fr/consultations/projet-de-loi-numerique/consultation/consultation/opinions/section-2-confidentialite-des-correspondances-privees/chercher-a-decrypter-un-contenu-crypge-est-un-delit/arguments/1984/report"
        },
        "has_user_voted": false,
        "has_user_reported": false
      },
      {
        "isContribuable": false,
        "id": 2234,
        "body": "le terme \"décrypter\" n'existe pas en Français",
        "created_at": "2015-10-05T00:51:51+0200",
        "updated_at": "2015-10-05T00:51:51+0200",
        "is_enabled": true,
        "votes_count": 2,
        "type": 0,
        "is_trashed": false,
        "author": {
          "username": "Micka Letatek Tuxun",
          "displayName": "Micka Letatek Tuxun",
          "uniqueId": "mickaletatektuxun",
          "isAdmin": false,
          "media": null,
          "vip": false,
          "_links": {
            "profile": "https://www.republique-numerique.fr/profile/mickaletatektuxun",
            "settings": "https://www.republique-numerique.fr/profile/edit-profile"
          }
        },
        "_links": {
          "show": "https://www.republique-numerique.fr/consultations/projet-de-loi-numerique/consultation/consultation/opinions/section-2-confidentialite-des-correspondances-privees/chercher-a-decrypter-un-contenu-crypge-est-un-delit#arg-2234",
          "edit": "https://www.republique-numerique.fr/consultations/projet-de-loi-numerique/consultation/consultation/opinions/section-2-confidentialite-des-correspondances-privees/chercher-a-decrypter-un-contenu-crypge-est-un-delit/arguments/2234/edit",
          "report": "https://www.republique-numerique.fr/consultations/projet-de-loi-numerique/consultation/consultation/opinions/section-2-confidentialite-des-correspondances-privees/chercher-a-decrypter-un-contenu-crypge-est-un-delit/arguments/2234/report"
        },
        "has_user_voted": false,
        "has_user_reported": false
      },
      {
        "isContribuable": false,
        "id": 2233,
        "body": "légalise les communications terroriste chiffrés...",
        "created_at": "2015-10-05T00:51:07+0200",
        "updated_at": "2015-10-05T00:51:07+0200",
        "is_enabled": true,
        "votes_count": 0,
        "type": 0,
        "is_trashed": false,
        "author": {
          "username": "Micka Letatek Tuxun",
          "displayName": "Micka Letatek Tuxun",
          "uniqueId": "mickaletatektuxun",
          "isAdmin": false,
          "media": null,
          "vip": false,
          "_links": {
            "profile": "https://www.republique-numerique.fr/profile/mickaletatektuxun",
            "settings": "https://www.republique-numerique.fr/profile/edit-profile"
          }
        },
        "_links": {
          "show": "https://www.republique-numerique.fr/consultations/projet-de-loi-numerique/consultation/consultation/opinions/section-2-confidentialite-des-correspondances-privees/chercher-a-decrypter-un-contenu-crypge-est-un-delit#arg-2233",
          "edit": "https://www.republique-numerique.fr/consultations/projet-de-loi-numerique/consultation/consultation/opinions/section-2-confidentialite-des-correspondances-privees/chercher-a-decrypter-un-contenu-crypge-est-un-delit/arguments/2233/edit",
          "report": "https://www.republique-numerique.fr/consultations/projet-de-loi-numerique/consultation/consultation/opinions/section-2-confidentialite-des-correspondances-privees/chercher-a-decrypter-un-contenu-crypge-est-un-delit/arguments/2233/report"
        },
        "has_user_voted": false,
        "has_user_reported": false
      },
      {
        "isContribuable": false,
        "id": 2232,
        "body": "affaiblit les sonneurs d'alertes",
        "created_at": "2015-10-05T00:50:54+0200",
        "updated_at": "2015-10-05T00:50:54+0200",
        "is_enabled": true,
        "votes_count": 1,
        "type": 0,
        "is_trashed": false,
        "author": {
          "username": "Micka Letatek Tuxun",
          "displayName": "Micka Letatek Tuxun",
          "uniqueId": "mickaletatektuxun",
          "isAdmin": false,
          "media": null,
          "vip": false,
          "_links": {
            "profile": "https://www.republique-numerique.fr/profile/mickaletatektuxun",
            "settings": "https://www.republique-numerique.fr/profile/edit-profile"
          }
        },
        "_links": {
          "show": "https://www.republique-numerique.fr/consultations/projet-de-loi-numerique/consultation/consultation/opinions/section-2-confidentialite-des-correspondances-privees/chercher-a-decrypter-un-contenu-crypge-est-un-delit#arg-2232",
          "edit": "https://www.republique-numerique.fr/consultations/projet-de-loi-numerique/consultation/consultation/opinions/section-2-confidentialite-des-correspondances-privees/chercher-a-decrypter-un-contenu-crypge-est-un-delit/arguments/2232/edit",
          "report": "https://www.republique-numerique.fr/consultations/projet-de-loi-numerique/consultation/consultation/opinions/section-2-confidentialite-des-correspondances-privees/chercher-a-decrypter-un-contenu-crypge-est-un-delit/arguments/2232/report"
        },
        "has_user_voted": false,
        "has_user_reported": false
      },
      {
        "isContribuable": false,
        "id": 2231,
        "body": "interdit le reverse engenering",
        "created_at": "2015-10-05T00:49:46+0200",
        "updated_at": "2015-10-05T00:50:32+0200",
        "is_enabled": true,
        "votes_count": 1,
        "type": 0,
        "is_trashed": false,
        "author": {
          "username": "Micka Letatek Tuxun",
          "displayName": "Micka Letatek Tuxun",
          "uniqueId": "mickaletatektuxun",
          "isAdmin": false,
          "media": null,
          "vip": false,
          "_links": {
            "profile": "https://www.republique-numerique.fr/profile/mickaletatektuxun",
            "settings": "https://www.republique-numerique.fr/profile/edit-profile"
          }
        },
        "_links": {
          "show": "https://www.republique-numerique.fr/consultations/projet-de-loi-numerique/consultation/consultation/opinions/section-2-confidentialite-des-correspondances-privees/chercher-a-decrypter-un-contenu-crypge-est-un-delit#arg-2231",
          "edit": "https://www.republique-numerique.fr/consultations/projet-de-loi-numerique/consultation/consultation/opinions/section-2-confidentialite-des-correspondances-privees/chercher-a-decrypter-un-contenu-crypge-est-un-delit/arguments/2231/edit",
          "report": "https://www.republique-numerique.fr/consultations/projet-de-loi-numerique/consultation/consultation/opinions/section-2-confidentialite-des-correspondances-privees/chercher-a-decrypter-un-contenu-crypge-est-un-delit/arguments/2231/report"
        },
        "has_user_voted": false,
        "has_user_reported": false
      }
    ],
    "modals": [],
    "votes": [
      {
        "user": {
          "username": "berger",
          "displayName": "berger",
          "uniqueId": "berger",
          "isAdmin": false,
          "media": {
            "url": "/media/cache/default_avatar/default/0001/01/364_default_avatar.jpg"
          },
          "vip": false,
          "_links": {
            "profile": "https://www.republique-numerique.fr/profile/berger",
            "settings": "https://www.republique-numerique.fr/profile/edit-profile"
          }
        }
      },
      {
        "user": {
          "username": "Olivier Seror-Droin",
          "displayName": "Olivier Seror-Droin",
          "uniqueId": "olivierserordroin",
          "isAdmin": false,
          "media": null,
          "vip": false,
          "_links": {
            "profile": "https://www.republique-numerique.fr/profile/olivierserordroin",
            "settings": "https://www.republique-numerique.fr/profile/edit-profile"
          }
        }
      },
      {
        "user": {
          "username": "François Briat",
          "displayName": "François Briat",
          "uniqueId": "francoisbriat",
          "isAdmin": false,
          "media": {
            "url": "/media/cache/default_avatar/default/0001/01/243_default_avatar.jpg"
          },
          "vip": false,
          "_links": {
            "profile": "https://www.republique-numerique.fr/profile/francoisbriat",
            "settings": "https://www.republique-numerique.fr/profile/edit-profile"
          }
        }
      },
      {
        "user": {
          "username": "Jeanne Varasco",
          "displayName": "Jeanne Varasco",
          "uniqueId": "jeannevarasco",
          "isAdmin": false,
          "media": {
            "url": "/media/cache/default_avatar/default/0001/01/139_default_avatar.jpg"
          },
          "vip": false,
          "_links": {
            "profile": "https://www.republique-numerique.fr/profile/jeannevarasco",
            "settings": "https://www.republique-numerique.fr/profile/edit-profile"
          }
        }
      },
      {
        "user": {
          "username": "Fernandez",
          "displayName": "Fernandez",
          "uniqueId": "fernandez",
          "isAdmin": false,
          "media": null,
          "vip": false,
          "_links": {
            "profile": "https://www.republique-numerique.fr/profile/fernandez",
            "settings": "https://www.republique-numerique.fr/profile/edit-profile"
          }
        }
      }
    ],
    "appendices": [
      {
        "body": "parce que les HTTPS c'est pas que pour faire beau!",
        "type": {
          "title": "Explication de l'article"
        }
      }
    ],
    "ranking": 254,
    "is_trashed": false,
    "title": "Chercher à décrypter un contenu crypté est un délit",
    "votes_nok": 19,
    "votes_ok": 16,
    "votes_mitige": 7,
    "_links": {
      "show": "https://www.republique-numerique.fr/consultations/projet-de-loi-numerique/consultation/consultation/opinions/section-2-confidentialite-des-correspondances-privees/chercher-a-decrypter-un-contenu-crypge-est-un-delit",
      "edit": "https://www.republique-numerique.fr/consultations/projet-de-loi-numerique/consultation/consultation/opinions/section-2-confidentialite-des-correspondances-privees/chercher-a-decrypter-un-contenu-crypge-est-un-delit/edit",
      "report": "https://www.republique-numerique.fr/consultations/projet-de-loi-numerique/consultation/consultation/opinions/section-2-confidentialite-des-correspondances-privees/chercher-a-decrypter-un-contenu-crypge-est-un-delit/report",
      "type": "https://www.republique-numerique.fr/consultations/projet-de-loi-numerique/consultation/consultation/opinions/section-2-confidentialite-des-correspondances-privees"
    },
    "user_vote": null,
    "has_user_reported": false
  },
  "rankingThreshold": null,
  "opinionTerm": 1
}