{
  "version": {
    "isContribuable": false,
    "votes_total": 1,
    "arguments_yes_count": 0,
    "arguments_no_count": 0,
    "id": 780,
    "body": "<p>Article unique</p>\r\n\r\n<p>&nbsp;</p>\r\n\r\n<p>Nul n&#39;est sens&eacute; ignorer l&#39;information.</p>",
    "comment": null,
    "author": {
      "username": "Paul Armagnat",
      "displayName": "Paul Armagnat",
      "uniqueId": "paularmagnat",
      "isAdmin": false,
      "media": null,
      "vip": false,
      "_links": {
        "profile": "https://www.republique-numerique.fr/profile/paularmagnat",
        "settings": "https://www.republique-numerique.fr/profile/edit-profile"
      }
    },
    "arguments": [],
    "sources": [],
    "parent": {
      "isContribuable": false,
      "id": 227,
      "body": "<p>Article unique</p>\r\n\r\n<p>&nbsp;</p>\r\n\r\n<p>Nul n&#39;est sens&eacute; ignorer l&#39;information.</p>",
      "type": {
        "id": 86,
        "title": "Section 1",
        "subtitle": "Ouverture des données publiques",
        "voteWidgetType": 2,
        "votesHelpText": "Pensez-vous que cette proposition permet d'atteindre les objectifs présentés dans l’explication de l’article ?",
        "commentSystem": 2,
        "color": "blue",
        "versionable": true,
        "sourceable": true,
        "votesThreshold": null,
        "votesThresholdHelpText": null
      },
      "modals": [],
      "appendices": [
        {
          "body": "<p>Cel&agrave; nous donnera &agrave; tous &agrave; y r&eacute;fl&eacute;chir de plus pr&egrave;s, en concurrence notamment, avec le fameux : nul n&#39;est sens&eacute; ignorer la loi.</p>\r\n\r\n<p>Ce serait de plus un comble si la question de la saisie et de la d&eacute;finition par l&#39;esprit de cette capitale notion n&#39;apparaissaient pas comme centrales dans la vis&eacute;e du d&eacute;veloppement plan&eacute;taire allant de la culture de la connaissance &agrave; la culture tout court et inversement si l&#39;on en croit certains auteurs.</p>",
          "type": {
            "title": "Explication de l'article"
          }
        }
      ],
      "title": "De l'informaion",
      "_links": {
        "show": "https://www.republique-numerique.fr/consultations/projet-de-loi-numerique/consultation/consultation/opinions/section-1-ouverture-des-donnees-publiques-1/de-l-informaion",
        "edit": "https://www.republique-numerique.fr/consultations/projet-de-loi-numerique/consultation/consultation/opinions/section-1-ouverture-des-donnees-publiques-1/de-l-informaion/edit",
        "report": "https://www.republique-numerique.fr/consultations/projet-de-loi-numerique/consultation/consultation/opinions/section-1-ouverture-des-donnees-publiques-1/de-l-informaion/report",
        "type": "https://www.republique-numerique.fr/consultations/projet-de-loi-numerique/consultation/consultation/opinions/section-1-ouverture-des-donnees-publiques-1"
      },
      "user_vote": null,
      "has_user_reported": false
    },
    "sources_count": 0,
    "arguments_count": 0,
    "votes": [
      {
        "user": {
          "username": "Vincent Reverdy",
          "displayName": "Vincent Reverdy",
          "uniqueId": "vincentreverdy",
          "isAdmin": false,
          "media": {
            "url": "/media/cache/default_avatar/default/0001/01/268_default_avatar.jpg"
          },
          "vip": false,
          "_links": {
            "profile": "https://www.republique-numerique.fr/profile/vincentreverdy",
            "settings": "https://www.republique-numerique.fr/profile/edit-profile"
          }
        },
        "value": 1
      }
    ],
    "updated_at": "2015-10-10T18:14:55+0200",
    "ranking": 1028,
    "is_trashed": false,
    "title": "Que veut dire cet article et à quoi se rapportet-'il ?",
    "slug": "que-veut-dire-cet-article-et-a-quoi-se-rapportet-il",
    "created_at": "2015-10-10T18:14:55+0200",
    "votes_nok": 0,
    "votes_ok": 1,
    "votes_mitige": 0,
    "_links": {
      "show": "https://www.republique-numerique.fr/consultations/projet-de-loi-numerique/consultation/consultation/opinions/section-1-ouverture-des-donnees-publiques-1/de-l-informaion/versions/que-veut-dire-cet-article-et-a-quoi-se-rapportet-il",
      "report": "https://www.republique-numerique.fr/consultations/projet-de-loi-numerique/consultation/consultation/opinions/section-1-ouverture-des-donnees-publiques-1/de-l-informaion/versions/que-veut-dire-cet-article-et-a-quoi-se-rapportet-il/report"
    },
    "user_vote": null,
    "has_user_reported": false
  },
  "rankingThreshold": null,
  "opinionTerm": 1
}