{
  "version": {
    "isContribuable": false,
    "votes_total": 4,
    "arguments_yes_count": 0,
    "arguments_no_count": 0,
    "id": 739,
    "body": "<p>&nbsp;</p>\n\n<p>&nbsp;</p>",
    "comment": null,
    "author": {
      "username": "zohra",
      "displayName": "zohra",
      "uniqueId": "zohra",
      "isAdmin": false,
      "media": null,
      "vip": false,
      "_links": {
        "profile": "https://www.republique-numerique.fr/profile/zohra",
        "settings": "https://www.republique-numerique.fr/profile/edit-profile"
      }
    },
    "arguments": [],
    "sources": [],
    "parent": {
      "isContribuable": false,
      "id": 393,
      "body": "<p>R&eacute;daction de l&#39;article&nbsp;:</p>\r\n\r\n<p>&nbsp;</p>\r\n\r\n<p>&laquo;&nbsp;Supprimer le dernier alin&eacute;a de l&#39;article L.423-1 du code de la consommation.&nbsp;&raquo;</p>\r\n\r\n<p>&nbsp;</p>",
      "type": {
        "id": 100,
        "title": "Section 2",
        "subtitle": "Confidentialité des correspondances privées",
        "voteWidgetType": 2,
        "votesHelpText": "Pensez-vous que cette proposition permet d'atteindre les objectifs présentés dans l’explication de l’article ?",
        "commentSystem": 2,
        "color": "blue",
        "versionable": true,
        "sourceable": true,
        "votesThreshold": null,
        "votesThresholdHelpText": null
      },
      "modals": [],
      "appendices": [
        {
          "body": "<p>L&#39;article L.423-1 du code de la consommation restreint la r&eacute;paration en cas d&#39;action de groupe aux pr&eacute;judices mat&eacute;riels&nbsp;: &laquo;&nbsp;Seule la r&eacute;paration des pr&eacute;judices mat&eacute;riels r&eacute;sultant d&#39;une atteinte au&nbsp; patrimoine des consommateurs et r&eacute;sultant d&#39;une des causes mentionn&eacute;es&nbsp; ci-dessus peut &ecirc;tre poursuivie par cette action.&nbsp;&raquo;</p>\r\n\r\n<p>&nbsp;</p>\r\n\r\n<p>Afin de permettre des actions de groupe notamment concernant l&#39;atteinte au droit sur les donn&eacute;es personnelles et la neutralit&eacute; du Net, il convient de faire porter la r&eacute;paration &agrave; l&#39;ensemble des pr&eacute;judices et non seulement aux pr&eacute;judices mat&eacute;riels.</p>",
          "type": {
            "title": "Explication de l'article"
          }
        }
      ],
      "title": "23 : Autoriser les actions de groupe notamment en matière d'atteinte au droit sur les données personnelles et la neutralité du Net",
      "_links": {
        "show": "https://www.republique-numerique.fr/consultations/projet-de-loi-numerique/consultation/consultation/opinions/section-2-confidentialite-des-correspondances-privees/23-autoriser-les-actions-de-groupe-notamment-en-matiere-d-atteinte-au-droit-sur-les-donnees-personnelles-et-la-neutralite-du-net",
        "edit": "https://www.republique-numerique.fr/consultations/projet-de-loi-numerique/consultation/consultation/opinions/section-2-confidentialite-des-correspondances-privees/23-autoriser-les-actions-de-groupe-notamment-en-matiere-d-atteinte-au-droit-sur-les-donnees-personnelles-et-la-neutralite-du-net/edit",
        "report": "https://www.republique-numerique.fr/consultations/projet-de-loi-numerique/consultation/consultation/opinions/section-2-confidentialite-des-correspondances-privees/23-autoriser-les-actions-de-groupe-notamment-en-matiere-d-atteinte-au-droit-sur-les-donnees-personnelles-et-la-neutralite-du-net/report",
        "type": "https://www.republique-numerique.fr/consultations/projet-de-loi-numerique/consultation/consultation/opinions/section-2-confidentialite-des-correspondances-privees"
      },
      "user_vote": null,
      "has_user_reported": false
    },
    "sources_count": 0,
    "arguments_count": 0,
    "votes": [
      {
        "user": {
          "username": "Vincent Reverdy",
          "displayName": "Vincent Reverdy",
          "uniqueId": "vincentreverdy",
          "isAdmin": false,
          "media": {
            "url": "/media/cache/default_avatar/default/0001/01/268_default_avatar.jpg"
          },
          "vip": false,
          "_links": {
            "profile": "https://www.republique-numerique.fr/profile/vincentreverdy",
            "settings": "https://www.republique-numerique.fr/profile/edit-profile"
          }
        },
        "value": 0
      },
      {
        "user": {
          "username": "Daniel Tournay",
          "displayName": "Daniel Tournay",
          "uniqueId": "danieltournay",
          "isAdmin": false,
          "media": null,
          "vip": false,
          "_links": {
            "profile": "https://www.republique-numerique.fr/profile/danieltournay",
            "settings": "https://www.republique-numerique.fr/profile/edit-profile"
          }
        },
        "value": 1
      },
      {
        "user": {
          "username": "ESS_Clem",
          "displayName": "ESS_Clem",
          "uniqueId": "essclem",
          "isAdmin": false,
          "media": null,
          "vip": false,
          "_links": {
            "profile": "https://www.republique-numerique.fr/profile/essclem",
            "settings": "https://www.republique-numerique.fr/profile/edit-profile"
          }
        },
        "value": -1
      },
      {
        "user": {
          "username": "Bruno IZAUTE",
          "displayName": "Bruno IZAUTE",
          "uniqueId": "brunoizaute",
          "isAdmin": false,
          "media": null,
          "vip": false,
          "_links": {
            "profile": "https://www.republique-numerique.fr/profile/brunoizaute",
            "settings": "https://www.republique-numerique.fr/profile/edit-profile"
          }
        },
        "value": 1
      }
    ],
    "updated_at": "2015-10-09T11:17:29+0200",
    "ranking": 880,
    "is_trashed": false,
    "title": "modification de l'article L423-1",
    "slug": "modification-de-l-article-l423-1",
    "created_at": "2015-10-09T11:14:57+0200",
    "votes_nok": 1,
    "votes_ok": 2,
    "votes_mitige": 1,
    "_links": {
      "show": "https://www.republique-numerique.fr/consultations/projet-de-loi-numerique/consultation/consultation/opinions/section-2-confidentialite-des-correspondances-privees/23-autoriser-les-actions-de-groupe-notamment-en-matiere-d-atteinte-au-droit-sur-les-donnees-personnelles-et-la-neutralite-du-net/versions/modification-de-l-article-l423-1",
      "report": "https://www.republique-numerique.fr/consultations/projet-de-loi-numerique/consultation/consultation/opinions/section-2-confidentialite-des-correspondances-privees/23-autoriser-les-actions-de-groupe-notamment-en-matiere-d-atteinte-au-droit-sur-les-donnees-personnelles-et-la-neutralite-du-net/versions/modification-de-l-article-l423-1/report"
    },
    "user_vote": null,
    "has_user_reported": false
  },
  "rankingThreshold": null,
  "opinionTerm": 1
}