{
  "version": {
    "isContribuable": false,
    "votes_total": 1,
    "arguments_yes_count": 0,
    "arguments_no_count": 1,
    "id": 859,
    "body": "<p>A l&#39;instar de votre consultation, les&nbsp;sondages, consultation,&nbsp;enqu&ecirc;tes et p&eacute;titions,devraient toujours proposer, au minimum les propositions Pour / Contre.</p>\r\n\r\n<p>Il est en effet toujours facile de reunir X&nbsp;avis positifs pour une petition, mais elle n&#39;a pas de sens si on ne connait pas le nombre d&#39;avis contraires. Or actuellement, la majorit&eacute; des petition sont &agrave; r&eacute;ponse unique ces petitions ne devraient avoir aucun poids dans une decision politique.</p>",
    "comment": "Il faudrait interdire les sondages, dans un premier temps sur internet.",
    "author": {
      "username": "Prémié",
      "displayName": "Prémié",
      "uniqueId": "premie",
      "isAdmin": false,
      "media": null,
      "vip": false,
      "_links": {
        "profile": "https://www.republique-numerique.fr/profile/premie",
        "settings": "https://www.republique-numerique.fr/profile/edit-profile"
      }
    },
    "arguments": [
      {
        "isContribuable": false,
        "id": 3382,
        "body": "Interdire les sondages, sur internet dans un premier temps.",
        "created_at": "2015-10-12T20:54:05+0200",
        "updated_at": "2015-10-12T20:54:05+0200",
        "is_enabled": true,
        "votes_count": 1,
        "type": 0,
        "is_trashed": false,
        "author": {
          "username": "Prémié",
          "displayName": "Prémié",
          "uniqueId": "premie",
          "isAdmin": false,
          "media": null,
          "vip": false,
          "_links": {
            "profile": "https://www.republique-numerique.fr/profile/premie",
            "settings": "https://www.republique-numerique.fr/profile/edit-profile"
          }
        },
        "_links": {
          "show": "https://www.republique-numerique.fr/consultations/projet-de-loi-numerique/consultation/consultation/opinions/section-1-ouverture-des-donnees-publiques-1/choix-de-reponses-dans-les-sondages-enquetes-et-petitions/versions/sondages#arg-3382",
          "edit": "https://www.republique-numerique.fr/consultations/projet-de-loi-numerique/consultation/consultation/opinions/section-1-ouverture-des-donnees-publiques-1/choix-de-reponses-dans-les-sondages-enquetes-et-petitions/arguments/3382/edit",
          "report": "https://www.republique-numerique.fr/consultations/projet-de-loi-numerique/consultation/consultation/opinions/section-1-ouverture-des-donnees-publiques-1/choix-de-reponses-dans-les-sondages-enquetes-et-petitions/arguments/3382/report"
        },
        "has_user_voted": false,
        "has_user_reported": false
      }
    ],
    "sources": [],
    "parent": {
      "isContribuable": false,
      "id": 540,
      "body": "<p>A l&#39;instar de votre consultation, les&nbsp;sondages, consultation,&nbsp;enqu&ecirc;tes et p&eacute;titions,devraient toujours proposer, au minimum les propositions Pour / Contre.</p>\r\n\r\n<p>Il est en effet toujours facile de reunir X&nbsp;avis positifs pour une petition, mais elle n&#39;a pas de sens si on ne connait pas le nombre d&#39;avis contraires. Or actuellement, la majorit&eacute; des petition sont &agrave; r&eacute;ponse unique ces petitions ne devraient avoir aucun poids dans une decision politique.</p>",
      "type": {
        "id": 86,
        "title": "Section 1",
        "subtitle": "Ouverture des données publiques",
        "voteWidgetType": 2,
        "votesHelpText": "Pensez-vous que cette proposition permet d'atteindre les objectifs présentés dans l’explication de l’article ?",
        "commentSystem": 2,
        "color": "blue",
        "versionable": true,
        "sourceable": true,
        "votesThreshold": null,
        "votesThresholdHelpText": null
      },
      "modals": [],
      "appendices": [
        {
          "body": null,
          "type": {
            "title": "Explication de l'article"
          }
        }
      ],
      "title": "Choix de réponses dans les sondages, enquêtes et pétitions.",
      "_links": {
        "show": "https://www.republique-numerique.fr/consultations/projet-de-loi-numerique/consultation/consultation/opinions/section-1-ouverture-des-donnees-publiques-1/choix-de-reponses-dans-les-sondages-enquetes-et-petitions",
        "edit": "https://www.republique-numerique.fr/consultations/projet-de-loi-numerique/consultation/consultation/opinions/section-1-ouverture-des-donnees-publiques-1/choix-de-reponses-dans-les-sondages-enquetes-et-petitions/edit",
        "report": "https://www.republique-numerique.fr/consultations/projet-de-loi-numerique/consultation/consultation/opinions/section-1-ouverture-des-donnees-publiques-1/choix-de-reponses-dans-les-sondages-enquetes-et-petitions/report",
        "type": "https://www.republique-numerique.fr/consultations/projet-de-loi-numerique/consultation/consultation/opinions/section-1-ouverture-des-donnees-publiques-1"
      },
      "user_vote": null,
      "has_user_reported": false
    },
    "sources_count": 0,
    "arguments_count": 1,
    "votes": [
      {
        "user": {
          "username": "Vincent Reverdy",
          "displayName": "Vincent Reverdy",
          "uniqueId": "vincentreverdy",
          "isAdmin": false,
          "media": {
            "url": "/media/cache/default_avatar/default/0001/01/268_default_avatar.jpg"
          },
          "vip": false,
          "_links": {
            "profile": "https://www.republique-numerique.fr/profile/vincentreverdy",
            "settings": "https://www.republique-numerique.fr/profile/edit-profile"
          }
        },
        "value": -1
      }
    ],
    "updated_at": "2015-10-12T20:52:31+0200",
    "ranking": 1201,
    "is_trashed": false,
    "title": "Sondages",
    "slug": "sondages",
    "created_at": "2015-10-12T20:52:31+0200",
    "votes_nok": 1,
    "votes_ok": 0,
    "votes_mitige": 0,
    "_links": {
      "show": "https://www.republique-numerique.fr/consultations/projet-de-loi-numerique/consultation/consultation/opinions/section-1-ouverture-des-donnees-publiques-1/choix-de-reponses-dans-les-sondages-enquetes-et-petitions/versions/sondages",
      "report": "https://www.republique-numerique.fr/consultations/projet-de-loi-numerique/consultation/consultation/opinions/section-1-ouverture-des-donnees-publiques-1/choix-de-reponses-dans-les-sondages-enquetes-et-petitions/versions/sondages/report"
    },
    "user_vote": null,
    "has_user_reported": false
  },
  "rankingThreshold": null,
  "opinionTerm": 1
}