{
  "opinion": {
    "isContribuable": false,
    "votes_total": 225,
    "arguments_yes_count": 0,
    "arguments_no_count": 0,
    "id": 430,
    "created_at": "2015-10-05T17:15:49+0200",
    "updated_at": "2015-10-05T17:15:49+0200",
    "body": "<div style=\"margin-left:100px !important; margin-right:100px\">Un registre national recense les &oelig;uvres de l&rsquo;esprit appartenant au domaine public, dont la dur&eacute;e de protection l&eacute;gale a expir&eacute;. Ce registre est tenu &agrave; jour par la Biblioth&egrave;que nationale de France, &agrave; partir des donn&eacute;es dont elle dispose, et mis &agrave; la disposition du public par le biais d&rsquo;un acc&egrave;s en ligne libre et gratuit. L&rsquo;ensemble des donn&eacute;es servant &agrave; la constitution de ce registre sont mises &agrave; la disposition du public et rendues librement r&eacute;utilisables &agrave; toutes fins.</div>\r\n\r\n<div style=\"margin-left:100px !important; margin-right:100px\">&nbsp;</div>\r\n\r\n<div style=\"margin-left:100px !important; margin-right:100px\">&nbsp;Le premier janvier de chaque ann&eacute;e, la Biblioth&egrave;que nationale de France ajoute dans le registre national les nouvelles &oelig;uvres des entrant dans le domaine public. Elle proc&egrave;de &agrave; une publicit&eacute; visant &agrave; faire conna&icirc;tre au public ces nouveaux ajouts au registre.</div>",
    "versions_count": 1,
    "sources_count": 0,
    "arguments_count": 0,
    "author": {
      "username": "SavoirCom1",
      "displayName": "SavoirCom1",
      "uniqueId": "savoircom1",
      "isAdmin": false,
      "media": {
        "url": "/media/cache/default_avatar/default/0001/01/244_default_avatar.jpg"
      },
      "vip": false,
      "_links": {
        "profile": "https://www.republique-numerique.fr/profile/savoircom1",
        "settings": "https://www.republique-numerique.fr/profile/edit-profile"
      }
    },
    "type": {
      "id": 90,
      "title": "Section 1",
      "subtitle": "Les Communs",
      "voteWidgetType": 2,
      "votesHelpText": "Pensez-vous que cette proposition permet d'atteindre les objectifs présentés dans l’explication de l’article ?",
      "commentSystem": 2,
      "color": "blue",
      "versionable": true,
      "sourceable": true,
      "votesThreshold": null,
      "votesThresholdHelpText": null
    },
    "sources": [],
    "arguments": [],
    "modals": [],
    "votes": [
      {
        "user": {
          "username": "Louise Merzeau",
          "displayName": "Louise Merzeau",
          "uniqueId": "louisemerzeau",
          "isAdmin": false,
          "media": null,
          "vip": false,
          "_links": {
            "profile": "https://www.republique-numerique.fr/profile/louisemerzeau",
            "settings": "https://www.republique-numerique.fr/profile/edit-profile"
          }
        }
      },
      {
        "user": {
          "username": "Xavier G.",
          "displayName": "Xavier G.",
          "uniqueId": "xavierg",
          "isAdmin": false,
          "media": null,
          "vip": false,
          "_links": {
            "profile": "https://www.republique-numerique.fr/profile/xavierg",
            "settings": "https://www.republique-numerique.fr/profile/edit-profile"
          }
        }
      },
      {
        "user": {
          "username": "AC",
          "displayName": "AC",
          "uniqueId": "ac",
          "isAdmin": false,
          "media": null,
          "vip": false,
          "_links": {
            "profile": "https://www.republique-numerique.fr/profile/ac",
            "settings": "https://www.republique-numerique.fr/profile/edit-profile"
          }
        }
      },
      {
        "user": {
          "username": "Julien Prost",
          "displayName": "Julien Prost",
          "uniqueId": "julienprost",
          "isAdmin": false,
          "media": null,
          "vip": false,
          "_links": {
            "profile": "https://www.republique-numerique.fr/profile/julienprost",
            "settings": "https://www.republique-numerique.fr/profile/edit-profile"
          }
        }
      },
      {
        "user": {
          "username": "Pierre Naegelen",
          "displayName": "Pierre Naegelen",
          "uniqueId": "pierrenaegelen",
          "isAdmin": false,
          "media": {
            "url": "/media/cache/default_avatar/default/0001/01/292_default_avatar.jpg"
          },
          "vip": false,
          "_links": {
            "profile": "https://www.republique-numerique.fr/profile/pierrenaegelen",
            "settings": "https://www.republique-numerique.fr/profile/edit-profile"
          }
        }
      }
    ],
    "appendices": [
      {
        "body": "<p>Il est parfois complexe et incertain de savoir si une oeuvre appartient au domaine public et peut &ecirc;tre l&eacute;galement r&eacute;utilis&eacute;e. Pour lever cette incertitude juridique, il serait utile qu&#39;un registre national recense les oeuvres appartenant au domaine public. La Biblioth&egrave;que nationale de France dispose par le biais de ses catalogues de nombreuses m&eacute;tadonn&eacute;es permettant le calcul de la dur&eacute;e des droits. Cet &eacute;tablissement pourrait donc se voir confier la gestion de ce registre, en offrant un acc&egrave;s livre et gratuit &agrave; ce service en ligne. Chaque ann&eacute;e, la Biblioth&egrave;que nationale serait tenue d&#39;ajouter les nouvelles oeuvres entrant dans le domaine public au registre et de proc&eacute;der &agrave; une communication pour informer largement au public ces ajouts au registre.&nbsp;</p>",
        "type": {
          "title": "Explication de l'article"
        }
      }
    ],
    "ranking": 48,
    "is_trashed": false,
    "title": "Article 8 bis - Créer un Registre National du Domaine public",
    "votes_nok": 0,
    "votes_ok": 220,
    "votes_mitige": 5,
    "_links": {
      "show": "https://www.republique-numerique.fr/consultations/projet-de-loi-numerique/consultation/consultation/opinions/section-1-les-communs/article-8-bis-creer-un-registre-national-du-domaine-public",
      "edit": "https://www.republique-numerique.fr/consultations/projet-de-loi-numerique/consultation/consultation/opinions/section-1-les-communs/article-8-bis-creer-un-registre-national-du-domaine-public/edit",
      "report": "https://www.republique-numerique.fr/consultations/projet-de-loi-numerique/consultation/consultation/opinions/section-1-les-communs/article-8-bis-creer-un-registre-national-du-domaine-public/report",
      "type": "https://www.republique-numerique.fr/consultations/projet-de-loi-numerique/consultation/consultation/opinions/section-1-les-communs"
    },
    "user_vote": null,
    "has_user_reported": false
  },
  "rankingThreshold": null,
  "opinionTerm": 1
}