{
  "version": {
    "isContribuable": false,
    "votes_total": 4,
    "arguments_yes_count": 0,
    "arguments_no_count": 1,
    "id": 998,
    "body": "<p>R&eacute;tablir l&#39;article initialement pr&eacute;vu au sein du projet de loi proposant un droit d&#39;acc&egrave;s des personnes d&eacute;tenues aux r&eacute;seaux de communications &eacute;lectroniques, et &agrave; une messagerie en ligne, bien &eacute;videmment dans les limites qu&#39;impose le cadre de la d&eacute;tention.&nbsp;</p>\r\n\r\n<p>&nbsp;</p>\r\n\r\n<p><br />\r\n&nbsp;</p>",
    "comment": "Que les d&eacute;tenus aient acc&egrave;s de fa&ccedil;on contr&ocirc;l&eacute;e &agrave; des contenus en ligne peut &ecirc;tre une bonne chose, mais qu&#39;ils puissent &eacute;mettre des informations pourrait pr&eacute;senter un risque. Alors oui pour un acc&egrave;s limit&eacute; en flux entrant mais non pour pour du flux sortant, pas plus que la d&eacute;tention d&#39;un t&eacute;l&eacute;phone portable.",
    "author": {
      "username": "Stéphane",
      "displayName": "Stéphane",
      "uniqueId": "stephane2",
      "isAdmin": false,
      "media": null,
      "vip": false,
      "_links": {
        "profile": "https://www.republique-numerique.fr/profile/stephane2",
        "settings": "https://www.republique-numerique.fr/profile/edit-profile"
      }
    },
    "arguments": [
      {
        "isContribuable": false,
        "id": 6198,
        "body": "Internet ne fonctionne pas ainsi. La neutralité qui l'accompagne ne saurait être entachée de telles exception.\n\nSi risque de sécurité il y a, ce n'est pas dans un \"accès limité\" à Internet qu'il faut chercher une solution, mais dans le fonctionnement carcéral lui-même.",
        "created_at": "2015-10-18T23:27:29+0200",
        "updated_at": "2015-10-18T23:27:29+0200",
        "is_enabled": true,
        "votes_count": 0,
        "type": 0,
        "is_trashed": false,
        "author": {
          "username": "Florian Briand",
          "displayName": "Florian Briand",
          "uniqueId": "florianbriand",
          "isAdmin": false,
          "media": null,
          "vip": false,
          "_links": {
            "profile": "https://www.republique-numerique.fr/profile/florianbriand",
            "settings": "https://www.republique-numerique.fr/profile/edit-profile"
          }
        },
        "_links": {
          "show": "https://www.republique-numerique.fr/consultations/projet-de-loi-numerique/consultation/consultation/opinions/section-3-maintien-de-la-connexion-internet/acces-des-personnes-detenues-au-numerique/versions/droit-d-acces-limite-des-detenus-aux-communications-electroniques#arg-6198",
          "edit": "https://www.republique-numerique.fr/consultations/projet-de-loi-numerique/consultation/consultation/opinions/section-3-maintien-de-la-connexion-internet/acces-des-personnes-detenues-au-numerique/arguments/6198/edit",
          "report": "https://www.republique-numerique.fr/consultations/projet-de-loi-numerique/consultation/consultation/opinions/section-3-maintien-de-la-connexion-internet/acces-des-personnes-detenues-au-numerique/arguments/6198/report"
        },
        "has_user_voted": false,
        "has_user_reported": false
      }
    ],
    "sources": [],
    "parent": {
      "isContribuable": false,
      "id": 110,
      "body": "<p>R&eacute;tablir l&#39;article initialement pr&eacute;vu au sein du projet de loi proposant un droit d&#39;acc&egrave;s des personnes d&eacute;tenues aux r&eacute;seaux de communications &eacute;lectroniques, et &agrave; une messagerie en ligne, bien &eacute;videmment dans les limites qu&#39;impose le cadre de la d&eacute;tention.&nbsp;</p>\r\n\r\n<p>&nbsp;</p>\r\n\r\n<p><br />\r\n&nbsp;</p>",
      "type": {
        "id": 111,
        "title": "Section 3",
        "subtitle": "Maintien de la connexion internet",
        "voteWidgetType": 2,
        "votesHelpText": "Pensez-vous que cette proposition permet d'atteindre les objectifs présentés dans l’explication de l’article ?",
        "commentSystem": 2,
        "color": "blue",
        "versionable": true,
        "sourceable": true,
        "votesThreshold": null,
        "votesThresholdHelpText": null
      },
      "modals": [],
      "appendices": [
        {
          "body": "<p>Si la r&eacute;publique est num&eacute;rique, elle doit l&#39;&ecirc;tre &eacute;galement pour les personnes qui, plac&eacute;es sous main de justice, doivent &agrave; leurs sorties de d&eacute;tention&nbsp;retrouver un travail, un logement&nbsp;et disposer d&#39;un cadre social n&eacute;cessaire &agrave; leur r&eacute;insertion.&nbsp;</p>\r\n\r\n<p>Cet article est ainsi indispensable &agrave; la r&eacute;insertion&nbsp;des personnes incarc&eacute;r&eacute;es &agrave; leurs sorties, objectif incontournable d&#39;une politique p&eacute;nale effective.&nbsp;</p>",
          "type": {
            "title": "Explication de l'article"
          }
        }
      ],
      "title": "Accès des personnes détenues au numérique",
      "_links": {
        "show": "https://www.republique-numerique.fr/consultations/projet-de-loi-numerique/consultation/consultation/opinions/section-3-maintien-de-la-connexion-internet/acces-des-personnes-detenues-au-numerique",
        "edit": "https://www.republique-numerique.fr/consultations/projet-de-loi-numerique/consultation/consultation/opinions/section-3-maintien-de-la-connexion-internet/acces-des-personnes-detenues-au-numerique/edit",
        "report": "https://www.republique-numerique.fr/consultations/projet-de-loi-numerique/consultation/consultation/opinions/section-3-maintien-de-la-connexion-internet/acces-des-personnes-detenues-au-numerique/report",
        "type": "https://www.republique-numerique.fr/consultations/projet-de-loi-numerique/consultation/consultation/opinions/section-3-maintien-de-la-connexion-internet"
      },
      "user_vote": null,
      "has_user_reported": false
    },
    "sources_count": 0,
    "arguments_count": 1,
    "votes": [
      {
        "user": {
          "username": "Vincent Reverdy",
          "displayName": "Vincent Reverdy",
          "uniqueId": "vincentreverdy",
          "isAdmin": false,
          "media": {
            "url": "/media/cache/default_avatar/default/0001/01/268_default_avatar.jpg"
          },
          "vip": false,
          "_links": {
            "profile": "https://www.republique-numerique.fr/profile/vincentreverdy",
            "settings": "https://www.republique-numerique.fr/profile/edit-profile"
          }
        },
        "value": 0
      },
      {
        "user": {
          "username": "porte",
          "displayName": "porte",
          "uniqueId": "porte3",
          "isAdmin": false,
          "media": null,
          "vip": false,
          "_links": {
            "profile": "https://www.republique-numerique.fr/profile/porte3",
            "settings": "https://www.republique-numerique.fr/profile/edit-profile"
          }
        },
        "value": 1
      },
      {
        "user": {
          "username": "Alex Wannenmacher",
          "displayName": "Alex Wannenmacher",
          "uniqueId": "alexwannenmacher",
          "isAdmin": false,
          "media": null,
          "vip": false,
          "_links": {
            "profile": "https://www.republique-numerique.fr/profile/alexwannenmacher",
            "settings": "https://www.republique-numerique.fr/profile/edit-profile"
          }
        },
        "value": 1
      },
      {
        "user": {
          "username": "Florian Briand",
          "displayName": "Florian Briand",
          "uniqueId": "florianbriand",
          "isAdmin": false,
          "media": null,
          "vip": false,
          "_links": {
            "profile": "https://www.republique-numerique.fr/profile/florianbriand",
            "settings": "https://www.republique-numerique.fr/profile/edit-profile"
          }
        },
        "value": -1
      }
    ],
    "updated_at": "2015-10-14T20:54:38+0200",
    "ranking": 880,
    "is_trashed": false,
    "title": "Droit d'accès limité des détenus aux communications électroniques",
    "slug": "droit-d-acces-limite-des-detenus-aux-communications-electroniques",
    "created_at": "2015-10-14T20:54:38+0200",
    "votes_nok": 1,
    "votes_ok": 2,
    "votes_mitige": 1,
    "_links": {
      "show": "https://www.republique-numerique.fr/consultations/projet-de-loi-numerique/consultation/consultation/opinions/section-3-maintien-de-la-connexion-internet/acces-des-personnes-detenues-au-numerique/versions/droit-d-acces-limite-des-detenus-aux-communications-electroniques",
      "report": "https://www.republique-numerique.fr/consultations/projet-de-loi-numerique/consultation/consultation/opinions/section-3-maintien-de-la-connexion-internet/acces-des-personnes-detenues-au-numerique/versions/droit-d-acces-limite-des-detenus-aux-communications-electroniques/report"
    },
    "user_vote": null,
    "has_user_reported": false
  },
  "rankingThreshold": null,
  "opinionTerm": 1
}