{
  "version": {
    "isContribuable": false,
    "votes_total": 0,
    "arguments_yes_count": 0,
    "arguments_no_count": 0,
    "id": 1396,
    "body": "<p>L&rsquo;article 10 de la m&ecirc;me loi est remplac&eacute; par les dispositions suivantes&nbsp;:</p>\n\n<p>&laquo;&nbsp;Art. 10 - Les informations publiques figurant dans des documents administratifs communiqu&eacute;s ou diffus&eacute;s peuvent &ecirc;tre utilis&eacute;es librement par toute personne qui le souhaite &agrave; d&#39;autres fins que celles de la mission de service public pour les besoins de laquelle les documents ont &eacute;t&eacute; produits ou re&ccedil;us.&nbsp;</p>\n\n<p>&nbsp;</p>",
    "comment": null,
    "author": {
      "username": "tbruiz",
      "displayName": "tbruiz",
      "uniqueId": "tbruiz",
      "isAdmin": false,
      "media": null,
      "vip": false,
      "_links": {
        "profile": "https://www.republique-numerique.fr/profile/tbruiz",
        "settings": "https://www.republique-numerique.fr/profile/edit-profile"
      }
    },
    "arguments": [],
    "sources": [],
    "parent": {
      "isContribuable": false,
      "id": 62,
      "body": "<p>L&rsquo;article 10 de la m&ecirc;me loi est remplac&eacute; par les dispositions suivantes&nbsp;:</p>\r\n\r\n<p>&laquo;&nbsp;Art. 10 - Les informations publiques figurant dans des documents administratifs communiqu&eacute;s ou diffus&eacute;s peuvent &ecirc;tre utilis&eacute;es librement par toute personne qui le souhaite &agrave; d&#39;autres fins que celles de la mission de service public pour les besoins de laquelle les documents ont &eacute;t&eacute; produits ou re&ccedil;us. Les limites et conditions de cette r&eacute;utilisation sont r&eacute;gies par le pr&eacute;sent chapitre.</p>\r\n\r\n<p>Ne sont pas consid&eacute;r&eacute;es comme des informations publiques, pour l&#39;application du pr&eacute;sent chapitre, les informations contenues dans des documents :<br />\r\na) Dont la communication ne constitue pas un droit en application du chapitre Ier ou d&#39;autres dispositions l&eacute;gislatives, sauf si ces informations font l&#39;objet d&#39;une diffusion publique ;<br />\r\nb) Ou sur lesquels des tiers d&eacute;tiennent des droits de propri&eacute;t&eacute; intellectuelle.&nbsp;&raquo;</p>",
      "type": {
        "id": 86,
        "title": "Section 1",
        "subtitle": "Ouverture des données publiques",
        "voteWidgetType": 2,
        "votesHelpText": "Pensez-vous que cette proposition permet d'atteindre les objectifs présentés dans l’explication de l’article ?",
        "commentSystem": 2,
        "color": "blue",
        "versionable": true,
        "sourceable": true,
        "votesThreshold": null,
        "votesThresholdHelpText": null
      },
      "modals": [
        {
          "key": "article 10",
          "before": "<p>Les informations figurant dans des documents produits ou reçus par les administrations mentionnées à l'article 1er, quel que soit le support, peuvent être utilisées par toute personne qui le souhaite à d'autres fins que celles de la mission de service public pour les besoins de laquelle les documents ont été produits ou reçus. Les limites et conditions de cette réutilisation sont régies par le présent chapitre, même si ces informations ont été obtenues dans le cadre de l'exercice du droit d'accès aux documents administratifs régi par le chapitre Ier.</p><p>Ne sont pas considérées comme des informations publiques, pour l'application du présent chapitre, les informations contenues dans des documents :</p><p>a) Dont la communication ne constitue pas un droit en application du chapitre Ier ou d'autres dispositions législatives, sauf si ces informations font l'objet d'une diffusion publique;</p><p>b) Ou produits ou reçus par les administrations mentionnées à l'article 1er dans l'exercice d'une mission de service public à caractère industriel ou commercial ;</p><p>c) Ou sur lesquels des tiers détiennent des droits de propriété intellectuelle.</p><p>L'échange d'informations publiques entre les autorités mentionnées à l'article 1er, aux fins de l'exercice de leur mission de service public, ne constitue pas une réutilisation au sens du présent chapitre.</p>",
          "after": "<p>Les informations publiques figurant dans des documents administratifs communiqués ou diffusés peuvent être utilisées librement par toute personne qui le souhaite à d'autres fins que celles de la mission de service public pour les besoins de laquelle les documents ont été produits ou reçus. Les limites et conditions de cette réutilisation sont régies par le présent chapitre.</p><p>Ne sont pas considérées comme des informations publiques, pour l'application du présent chapitre, les informations contenues dans des documents :</p><p>a) Dont la communication ne constitue pas un droit en application du chapitre Ier ou d'autres dispositions législatives, sauf si ces informations font l'objet d'une diffusion publique ;</p><p>b) Ou sur lesquels des tiers détiennent des droits de propriété intellectuelle.</p>",
          "title": "Article 10 de la loi n°78-753 du 17 juillet 1978"
        }
      ],
      "appendices": [
        {
          "body": "<p><strong>Objectif :</strong> cr&eacute;er un droit &agrave; r&eacute;utiliser librement les informations publiques publi&eacute;es par les services publics industriels et commerciaux.</p>\r\n\r\n<p><strong>Explication :</strong> aujourd&rsquo;hui, les organismes assurant une mission de service public industriel et commercial (SPIC) sont d&eacute;j&agrave; soumis aux obligations de communication des donn&eacute;es publiques pr&eacute;vues par la loi du 17 juillet 1978 (&laquo; loi CADA &raquo;). Mais leurs donn&eacute;es ne sont pas automatiquement r&eacute;utilisables : un SPIC a le droit d&rsquo;interdire toute r&eacute;utilisation. Ce d&eacute;couplage entre droit d&rsquo;acc&egrave;s et droit de r&eacute;utilisation emp&ecirc;che le d&eacute;veloppement de nouveaux services &agrave; partir de ces donn&eacute;es. L&rsquo;article propose donc de supprimer cette exception g&eacute;n&eacute;rale au principe de libre r&eacute;utilisation, mais les SPIC resteront libres de pr&eacute;voir des licences encadrant la r&eacute;utilisation ou de demander une redevance.</p>\r\n\r\n<p><strong>Exemple :</strong> les bases de donn&eacute;es tr&egrave;s riches publi&eacute;es par l&rsquo;ADEME sur la performance &eacute;nerg&eacute;tique (liste des entreprises labellis&eacute;es &laquo; Diagnostic de performance &eacute;nerg&eacute;tique &raquo;, base des diagnostics effectu&eacute;s), dont la r&eacute;utilisation est interdite aujourd&rsquo;hui et deviendra possible.</p>",
          "type": {
            "title": "Explication de l'article"
          }
        }
      ],
      "title": "Article 2 - Libre réutilisation des données des services publics industriels et commerciaux",
      "_links": {
        "show": "https://www.republique-numerique.fr/consultations/projet-de-loi-numerique/consultation/consultation/opinions/section-1-ouverture-des-donnees-publiques-1/article-2-principe-de-libre-reutilisation-des-donnees-pour-les-spic",
        "edit": "https://www.republique-numerique.fr/consultations/projet-de-loi-numerique/consultation/consultation/opinions/section-1-ouverture-des-donnees-publiques-1/article-2-principe-de-libre-reutilisation-des-donnees-pour-les-spic/edit",
        "report": "https://www.republique-numerique.fr/consultations/projet-de-loi-numerique/consultation/consultation/opinions/section-1-ouverture-des-donnees-publiques-1/article-2-principe-de-libre-reutilisation-des-donnees-pour-les-spic/report",
        "type": "https://www.republique-numerique.fr/consultations/projet-de-loi-numerique/consultation/consultation/opinions/section-1-ouverture-des-donnees-publiques-1"
      },
      "user_vote": null,
      "has_user_reported": false
    },
    "sources_count": 0,
    "arguments_count": 0,
    "votes": [],
    "updated_at": "2015-10-18T21:08:54+0200",
    "ranking": 1201,
    "is_trashed": false,
    "title": "ouvrir la loi ne pas mettre des limites dans un champ d'activité qui en met déjà trop",
    "slug": "ouvrir-la-loi-ne-pas-mettre-des-limites-dans-un-champ-d-activite-qui-en-met-deja-trop",
    "created_at": "2015-10-18T21:08:54+0200",
    "votes_nok": 0,
    "votes_ok": 0,
    "votes_mitige": 0,
    "_links": {
      "show": "https://www.republique-numerique.fr/consultations/projet-de-loi-numerique/consultation/consultation/opinions/section-1-ouverture-des-donnees-publiques-1/article-2-principe-de-libre-reutilisation-des-donnees-pour-les-spic/versions/ouvrir-la-loi-ne-pas-mettre-des-limites-dans-un-champ-d-activite-qui-en-met-deja-trop",
      "report": "https://www.republique-numerique.fr/consultations/projet-de-loi-numerique/consultation/consultation/opinions/section-1-ouverture-des-donnees-publiques-1/article-2-principe-de-libre-reutilisation-des-donnees-pour-les-spic/versions/ouvrir-la-loi-ne-pas-mettre-des-limites-dans-un-champ-d-activite-qui-en-met-deja-trop/report"
    },
    "user_vote": null,
    "has_user_reported": false
  },
  "rankingThreshold": null,
  "opinionTerm": 1
}