{
  "version": {
    "isContribuable": false,
    "votes_total": 46,
    "arguments_yes_count": 1,
    "arguments_no_count": 3,
    "id": 640,
    "body": "<p>L&rsquo;article 10 de la m&ecirc;me loi est remplac&eacute; par les dispositions suivantes&nbsp;:</p>\n\n<p>&laquo;&nbsp;Art. 10 - Les informations publiques figurant dans des documents administratifs communiqu&eacute;s ou diffus&eacute;s peuvent &ecirc;tre utilis&eacute;es librement par toute personne qui le souhaite &agrave; d&#39;autres fins que celles de la mission de service public pour les besoins de laquelle les documents ont &eacute;t&eacute; produits ou re&ccedil;us. Les limites et conditions de cette r&eacute;utilisation sont r&eacute;gies par le pr&eacute;sent chapitre.</p>\n\n<p>Ne sont pas consid&eacute;r&eacute;es comme des informations publiques, pour l&#39;application du pr&eacute;sent chapitre, les informations contenues dans des documents :<br />\na) Dont la communication ne constitue pas un droit en application du chapitre Ier ou d&#39;autres dispositions l&eacute;gislatives, sauf si ces informations font l&#39;objet d&#39;une diffusion publique ;<br />\nb) dont la confidentialit&eacute; pr&eacute;serve les int&eacute;r&ecirc;ts nationaux</p>\n\n<p>c) sur lesquels il existe des droits de propri&eacute;t&eacute; industrielle ou intellectuelle ou qui rel&egrave;vent d&#39;un savoir-faire soumis au devoir de secret</p>\n\n<p>Ou sur lesquels des tiers d&eacute;tiennent des droits de propri&eacute;t&eacute; intellectuelle.&nbsp;&raquo;</p>",
    "comment": "<p>Les droits de propri&eacute;t&eacute; industrielle et intellectuelle doivent continuer de s&#39;appliquer quelle que soit la nature et l&#39;identit&eacute; de leur titualire. certaines donn&eacute;es &agrave; caract&egrave;re &eacute;conomique, technologiques, scientifiques donnent un avantage concurrentiel &agrave; la France (travaux d&#39;EPA ou EPST comme le CNRS et autres Instituts de doit public). D&#39;autres exploitent d&eacute;j&agrave; commercialement (Meteo France) leurs donn&eacute;es : r&eacute;pond au besoin de financement des institutions publiques. Attention &agrave; ne pas faire perdre leur comp&eacute;titivit&eacute; &agrave; nos institutions.</p>",
    "author": {
      "username": "A Gaillard",
      "displayName": "A Gaillard",
      "uniqueId": "agaillard",
      "isAdmin": false,
      "media": null,
      "vip": false,
      "_links": {
        "profile": "https://www.republique-numerique.fr/profile/agaillard",
        "settings": "https://www.republique-numerique.fr/profile/edit-profile"
      }
    },
    "arguments": [
      {
        "isContribuable": false,
        "id": 2422,
        "body": "Il est en effet indispensable de ne pas brader les connaissances à des entreprises qui n'ont rien payé pour cela et qui concurrenceront les entreprises situées en France. ",
        "created_at": "2015-10-06T20:38:08+0200",
        "updated_at": "2015-10-06T20:38:08+0200",
        "is_enabled": true,
        "votes_count": 2,
        "type": 1,
        "is_trashed": false,
        "author": {
          "username": "Jeanne Varasco",
          "displayName": "Jeanne Varasco",
          "uniqueId": "jeannevarasco",
          "isAdmin": false,
          "media": {
            "url": "/media/cache/default_avatar/default/0001/01/139_default_avatar.jpg"
          },
          "vip": false,
          "_links": {
            "profile": "https://www.republique-numerique.fr/profile/jeannevarasco",
            "settings": "https://www.republique-numerique.fr/profile/edit-profile"
          }
        },
        "_links": {
          "show": "https://www.republique-numerique.fr/consultations/projet-de-loi-numerique/consultation/consultation/opinions/section-1-ouverture-des-donnees-publiques-1/article-2-principe-de-libre-reutilisation-des-donnees-pour-les-spic/versions/attention-a-ne-pas-diffuser-des-informations-qui-nuiraient-a-la-competitivite-de-la-france-recherches-scientifiques-technologiques-economiques#arg-2422",
          "edit": "https://www.republique-numerique.fr/consultations/projet-de-loi-numerique/consultation/consultation/opinions/section-1-ouverture-des-donnees-publiques-1/article-2-principe-de-libre-reutilisation-des-donnees-pour-les-spic/arguments/2422/edit",
          "report": "https://www.republique-numerique.fr/consultations/projet-de-loi-numerique/consultation/consultation/opinions/section-1-ouverture-des-donnees-publiques-1/article-2-principe-de-libre-reutilisation-des-donnees-pour-les-spic/arguments/2422/report"
        },
        "has_user_voted": false,
        "has_user_reported": false
      },
      {
        "isContribuable": false,
        "id": 3177,
        "body": "Le \"savoir-faire soumis au devoir de secret\" n'a aucune signification juridique précise ; ce passage se réfère peut-être au devoir de discrétion professionnelle et au secret professionnel s'appliquant aux fonctionnaires ? \"dont la confidentialité préserve les intérêts nationaux\" est très vague. Bref, je ne vois pas ce que change la modification proposée dans l'application de la loi.",
        "created_at": "2015-10-11T17:47:32+0200",
        "updated_at": "2015-10-11T17:47:32+0200",
        "is_enabled": true,
        "votes_count": 0,
        "type": 0,
        "is_trashed": false,
        "author": {
          "username": "JM",
          "displayName": "JM",
          "uniqueId": "jm",
          "isAdmin": false,
          "media": null,
          "vip": false,
          "_links": {
            "profile": "https://www.republique-numerique.fr/profile/jm",
            "settings": "https://www.republique-numerique.fr/profile/edit-profile"
          }
        },
        "_links": {
          "show": "https://www.republique-numerique.fr/consultations/projet-de-loi-numerique/consultation/consultation/opinions/section-1-ouverture-des-donnees-publiques-1/article-2-principe-de-libre-reutilisation-des-donnees-pour-les-spic/versions/attention-a-ne-pas-diffuser-des-informations-qui-nuiraient-a-la-competitivite-de-la-france-recherches-scientifiques-technologiques-economiques#arg-3177",
          "edit": "https://www.republique-numerique.fr/consultations/projet-de-loi-numerique/consultation/consultation/opinions/section-1-ouverture-des-donnees-publiques-1/article-2-principe-de-libre-reutilisation-des-donnees-pour-les-spic/arguments/3177/edit",
          "report": "https://www.republique-numerique.fr/consultations/projet-de-loi-numerique/consultation/consultation/opinions/section-1-ouverture-des-donnees-publiques-1/article-2-principe-de-libre-reutilisation-des-donnees-pour-les-spic/arguments/3177/report"
        },
        "has_user_voted": false,
        "has_user_reported": false
      },
      {
        "isContribuable": false,
        "id": 3573,
        "body": "\"il existe des droits de propriété industrielle ou intellectuelle ou qui relèvent d'un savoir-faire soumis au devoir de secret\": Vous vous êtes démasqué: vous défendez la \"propriété industrielle\" sous couvert de défendre les \"travaux d'EPA ou EPST\"",
        "created_at": "2015-10-13T13:56:07+0200",
        "updated_at": "2015-10-13T13:56:07+0200",
        "is_enabled": true,
        "votes_count": 0,
        "type": 0,
        "is_trashed": false,
        "author": {
          "username": "Daniel GOUJOT",
          "displayName": "Daniel GOUJOT",
          "uniqueId": "danielgoujot",
          "isAdmin": false,
          "media": null,
          "vip": false,
          "_links": {
            "profile": "https://www.republique-numerique.fr/profile/danielgoujot",
            "settings": "https://www.republique-numerique.fr/profile/edit-profile"
          }
        },
        "_links": {
          "show": "https://www.republique-numerique.fr/consultations/projet-de-loi-numerique/consultation/consultation/opinions/section-1-ouverture-des-donnees-publiques-1/article-2-principe-de-libre-reutilisation-des-donnees-pour-les-spic/versions/attention-a-ne-pas-diffuser-des-informations-qui-nuiraient-a-la-competitivite-de-la-france-recherches-scientifiques-technologiques-economiques#arg-3573",
          "edit": "https://www.republique-numerique.fr/consultations/projet-de-loi-numerique/consultation/consultation/opinions/section-1-ouverture-des-donnees-publiques-1/article-2-principe-de-libre-reutilisation-des-donnees-pour-les-spic/arguments/3573/edit",
          "report": "https://www.republique-numerique.fr/consultations/projet-de-loi-numerique/consultation/consultation/opinions/section-1-ouverture-des-donnees-publiques-1/article-2-principe-de-libre-reutilisation-des-donnees-pour-les-spic/arguments/3573/report"
        },
        "has_user_voted": false,
        "has_user_reported": false
      },
      {
        "isContribuable": false,
        "id": 5819,
        "body": "Votre souci est légitime et doit en effet être pris en compte. En revanche, la formulation du d) est trop large.",
        "created_at": "2015-10-18T14:14:48+0200",
        "updated_at": "2015-10-18T14:14:48+0200",
        "is_enabled": true,
        "votes_count": 0,
        "type": 0,
        "is_trashed": false,
        "author": {
          "username": "samson_d",
          "displayName": "samson_d",
          "uniqueId": "samsond",
          "isAdmin": false,
          "media": null,
          "vip": false,
          "_links": {
            "profile": "https://www.republique-numerique.fr/profile/samsond",
            "settings": "https://www.republique-numerique.fr/profile/edit-profile"
          }
        },
        "_links": {
          "show": "https://www.republique-numerique.fr/consultations/projet-de-loi-numerique/consultation/consultation/opinions/section-1-ouverture-des-donnees-publiques-1/article-2-principe-de-libre-reutilisation-des-donnees-pour-les-spic/versions/attention-a-ne-pas-diffuser-des-informations-qui-nuiraient-a-la-competitivite-de-la-france-recherches-scientifiques-technologiques-economiques#arg-5819",
          "edit": "https://www.republique-numerique.fr/consultations/projet-de-loi-numerique/consultation/consultation/opinions/section-1-ouverture-des-donnees-publiques-1/article-2-principe-de-libre-reutilisation-des-donnees-pour-les-spic/arguments/5819/edit",
          "report": "https://www.republique-numerique.fr/consultations/projet-de-loi-numerique/consultation/consultation/opinions/section-1-ouverture-des-donnees-publiques-1/article-2-principe-de-libre-reutilisation-des-donnees-pour-les-spic/arguments/5819/report"
        },
        "has_user_voted": false,
        "has_user_reported": false
      }
    ],
    "sources": [],
    "parent": {
      "isContribuable": false,
      "id": 62,
      "body": "<p>L&rsquo;article 10 de la m&ecirc;me loi est remplac&eacute; par les dispositions suivantes&nbsp;:</p>\r\n\r\n<p>&laquo;&nbsp;Art. 10 - Les informations publiques figurant dans des documents administratifs communiqu&eacute;s ou diffus&eacute;s peuvent &ecirc;tre utilis&eacute;es librement par toute personne qui le souhaite &agrave; d&#39;autres fins que celles de la mission de service public pour les besoins de laquelle les documents ont &eacute;t&eacute; produits ou re&ccedil;us. Les limites et conditions de cette r&eacute;utilisation sont r&eacute;gies par le pr&eacute;sent chapitre.</p>\r\n\r\n<p>Ne sont pas consid&eacute;r&eacute;es comme des informations publiques, pour l&#39;application du pr&eacute;sent chapitre, les informations contenues dans des documents :<br />\r\na) Dont la communication ne constitue pas un droit en application du chapitre Ier ou d&#39;autres dispositions l&eacute;gislatives, sauf si ces informations font l&#39;objet d&#39;une diffusion publique ;<br />\r\nb) Ou sur lesquels des tiers d&eacute;tiennent des droits de propri&eacute;t&eacute; intellectuelle.&nbsp;&raquo;</p>",
      "type": {
        "id": 86,
        "title": "Section 1",
        "subtitle": "Ouverture des données publiques",
        "voteWidgetType": 2,
        "votesHelpText": "Pensez-vous que cette proposition permet d'atteindre les objectifs présentés dans l’explication de l’article ?",
        "commentSystem": 2,
        "color": "blue",
        "versionable": true,
        "sourceable": true,
        "votesThreshold": null,
        "votesThresholdHelpText": null
      },
      "modals": [
        {
          "key": "article 10",
          "before": "<p>Les informations figurant dans des documents produits ou reçus par les administrations mentionnées à l'article 1er, quel que soit le support, peuvent être utilisées par toute personne qui le souhaite à d'autres fins que celles de la mission de service public pour les besoins de laquelle les documents ont été produits ou reçus. Les limites et conditions de cette réutilisation sont régies par le présent chapitre, même si ces informations ont été obtenues dans le cadre de l'exercice du droit d'accès aux documents administratifs régi par le chapitre Ier.</p><p>Ne sont pas considérées comme des informations publiques, pour l'application du présent chapitre, les informations contenues dans des documents :</p><p>a) Dont la communication ne constitue pas un droit en application du chapitre Ier ou d'autres dispositions législatives, sauf si ces informations font l'objet d'une diffusion publique;</p><p>b) Ou produits ou reçus par les administrations mentionnées à l'article 1er dans l'exercice d'une mission de service public à caractère industriel ou commercial ;</p><p>c) Ou sur lesquels des tiers détiennent des droits de propriété intellectuelle.</p><p>L'échange d'informations publiques entre les autorités mentionnées à l'article 1er, aux fins de l'exercice de leur mission de service public, ne constitue pas une réutilisation au sens du présent chapitre.</p>",
          "after": "<p>Les informations publiques figurant dans des documents administratifs communiqués ou diffusés peuvent être utilisées librement par toute personne qui le souhaite à d'autres fins que celles de la mission de service public pour les besoins de laquelle les documents ont été produits ou reçus. Les limites et conditions de cette réutilisation sont régies par le présent chapitre.</p><p>Ne sont pas considérées comme des informations publiques, pour l'application du présent chapitre, les informations contenues dans des documents :</p><p>a) Dont la communication ne constitue pas un droit en application du chapitre Ier ou d'autres dispositions législatives, sauf si ces informations font l'objet d'une diffusion publique ;</p><p>b) Ou sur lesquels des tiers détiennent des droits de propriété intellectuelle.</p>",
          "title": "Article 10 de la loi n°78-753 du 17 juillet 1978"
        }
      ],
      "appendices": [
        {
          "body": "<p><strong>Objectif :</strong> cr&eacute;er un droit &agrave; r&eacute;utiliser librement les informations publiques publi&eacute;es par les services publics industriels et commerciaux.</p>\r\n\r\n<p><strong>Explication :</strong> aujourd&rsquo;hui, les organismes assurant une mission de service public industriel et commercial (SPIC) sont d&eacute;j&agrave; soumis aux obligations de communication des donn&eacute;es publiques pr&eacute;vues par la loi du 17 juillet 1978 (&laquo; loi CADA &raquo;). Mais leurs donn&eacute;es ne sont pas automatiquement r&eacute;utilisables : un SPIC a le droit d&rsquo;interdire toute r&eacute;utilisation. Ce d&eacute;couplage entre droit d&rsquo;acc&egrave;s et droit de r&eacute;utilisation emp&ecirc;che le d&eacute;veloppement de nouveaux services &agrave; partir de ces donn&eacute;es. L&rsquo;article propose donc de supprimer cette exception g&eacute;n&eacute;rale au principe de libre r&eacute;utilisation, mais les SPIC resteront libres de pr&eacute;voir des licences encadrant la r&eacute;utilisation ou de demander une redevance.</p>\r\n\r\n<p><strong>Exemple :</strong> les bases de donn&eacute;es tr&egrave;s riches publi&eacute;es par l&rsquo;ADEME sur la performance &eacute;nerg&eacute;tique (liste des entreprises labellis&eacute;es &laquo; Diagnostic de performance &eacute;nerg&eacute;tique &raquo;, base des diagnostics effectu&eacute;s), dont la r&eacute;utilisation est interdite aujourd&rsquo;hui et deviendra possible.</p>",
          "type": {
            "title": "Explication de l'article"
          }
        }
      ],
      "title": "Article 2 - Libre réutilisation des données des services publics industriels et commerciaux",
      "_links": {
        "show": "https://www.republique-numerique.fr/consultations/projet-de-loi-numerique/consultation/consultation/opinions/section-1-ouverture-des-donnees-publiques-1/article-2-principe-de-libre-reutilisation-des-donnees-pour-les-spic",
        "edit": "https://www.republique-numerique.fr/consultations/projet-de-loi-numerique/consultation/consultation/opinions/section-1-ouverture-des-donnees-publiques-1/article-2-principe-de-libre-reutilisation-des-donnees-pour-les-spic/edit",
        "report": "https://www.republique-numerique.fr/consultations/projet-de-loi-numerique/consultation/consultation/opinions/section-1-ouverture-des-donnees-publiques-1/article-2-principe-de-libre-reutilisation-des-donnees-pour-les-spic/report",
        "type": "https://www.republique-numerique.fr/consultations/projet-de-loi-numerique/consultation/consultation/opinions/section-1-ouverture-des-donnees-publiques-1"
      },
      "user_vote": null,
      "has_user_reported": false
    },
    "sources_count": 0,
    "arguments_count": 4,
    "votes": [
      {
        "user": {
          "username": "Jeanne Varasco",
          "displayName": "Jeanne Varasco",
          "uniqueId": "jeannevarasco",
          "isAdmin": false,
          "media": {
            "url": "/media/cache/default_avatar/default/0001/01/139_default_avatar.jpg"
          },
          "vip": false,
          "_links": {
            "profile": "https://www.republique-numerique.fr/profile/jeannevarasco",
            "settings": "https://www.republique-numerique.fr/profile/edit-profile"
          }
        },
        "value": 1
      },
      {
        "user": {
          "username": "Xavier G",
          "displayName": "Xavier G",
          "uniqueId": "xavierg1",
          "isAdmin": false,
          "media": null,
          "vip": false,
          "_links": {
            "profile": "https://www.republique-numerique.fr/profile/xavierg1",
            "settings": "https://www.republique-numerique.fr/profile/edit-profile"
          }
        },
        "value": 1
      },
      {
        "user": {
          "username": "gilles fritz",
          "displayName": "gilles fritz",
          "uniqueId": "gillesfritz",
          "isAdmin": false,
          "media": null,
          "vip": false,
          "_links": {
            "profile": "https://www.republique-numerique.fr/profile/gillesfritz",
            "settings": "https://www.republique-numerique.fr/profile/edit-profile"
          }
        },
        "value": 1
      },
      {
        "user": {
          "username": "Nathan Patry",
          "displayName": "Nathan Patry",
          "uniqueId": "nathanpatry",
          "isAdmin": false,
          "media": null,
          "vip": false,
          "_links": {
            "profile": "https://www.republique-numerique.fr/profile/nathanpatry",
            "settings": "https://www.republique-numerique.fr/profile/edit-profile"
          }
        },
        "value": 1
      },
      {
        "user": {
          "username": "JM",
          "displayName": "JM",
          "uniqueId": "jm",
          "isAdmin": false,
          "media": null,
          "vip": false,
          "_links": {
            "profile": "https://www.republique-numerique.fr/profile/jm",
            "settings": "https://www.republique-numerique.fr/profile/edit-profile"
          }
        },
        "value": -1
      }
    ],
    "updated_at": "2015-10-05T17:00:16+0200",
    "ranking": 379,
    "is_trashed": false,
    "title": "attention à ne pas diffuser des informations qui nuiraient à la compétitivité de la France (recherches scientifiques, technologiques, économiques...)",
    "slug": "attention-a-ne-pas-diffuser-des-informations-qui-nuiraient-a-la-competitivite-de-la-france-recherches-scientifiques-technologiques-economiques",
    "created_at": "2015-10-05T17:00:16+0200",
    "votes_nok": 30,
    "votes_ok": 11,
    "votes_mitige": 5,
    "_links": {
      "show": "https://www.republique-numerique.fr/consultations/projet-de-loi-numerique/consultation/consultation/opinions/section-1-ouverture-des-donnees-publiques-1/article-2-principe-de-libre-reutilisation-des-donnees-pour-les-spic/versions/attention-a-ne-pas-diffuser-des-informations-qui-nuiraient-a-la-competitivite-de-la-france-recherches-scientifiques-technologiques-economiques",
      "report": "https://www.republique-numerique.fr/consultations/projet-de-loi-numerique/consultation/consultation/opinions/section-1-ouverture-des-donnees-publiques-1/article-2-principe-de-libre-reutilisation-des-donnees-pour-les-spic/versions/attention-a-ne-pas-diffuser-des-informations-qui-nuiraient-a-la-competitivite-de-la-france-recherches-scientifiques-technologiques-economiques/report"
    },
    "user_vote": null,
    "has_user_reported": false
  },
  "rankingThreshold": null,
  "opinionTerm": 1
}