{
  "version": {
    "isContribuable": false,
    "votes_total": 128,
    "arguments_yes_count": 2,
    "arguments_no_count": 0,
    "id": 1096,
    "body": "<p>1/ Rendre le &laquo;&nbsp;NIR&nbsp;&raquo; non signifiant&nbsp;: que sa composition soit al&eacute;atoire, qu&#39;elle ne soit pas li&eacute;e &agrave; des caract&eacute;ristiques de l&#39;individu et que le num&eacute;ro ne permette pas de d&eacute;duire des informations compl&eacute;mentaires sur celui-ci (sexe, date, lieu de naissance&hellip;).</p>\n\n<p>2/ &laquo;&nbsp;Un d&eacute;cret en Conseil d&rsquo;&Eacute;tat, pris apr&egrave;s avis motiv&eacute; et publi&eacute; de la Commission Nationale Informatique et Libert&eacute;s&nbsp;&raquo; devient &laquo;&nbsp;Un d&eacute;cret en Conseil d&rsquo;&Eacute;tat, pris apr&egrave;s avis <strong>favorable, contraignant,</strong> motiv&eacute; et publi&eacute; de la Commission Nationale Informatique et Libert&eacute;s&nbsp;&raquo;.</p>\n\n<p>&nbsp;</p>\n\n<p><s>L&rsquo;article 27 de la loi n&deg; 78-17 du 6 janvier 1978 relative &agrave; l&rsquo;informatique, aux fichiers et aux libert&eacute;s est compl&eacute;t&eacute; par un IV ainsi r&eacute;dig&eacute;&nbsp;:</s></p>\n\n<p><s>&laquo;&nbsp;IV.&nbsp;-&nbsp;Le&nbsp;1&deg; des&nbsp;I et &nbsp;II du pr&eacute;sent article ne sont pas applicables&nbsp;:</s></p>\n\n<p><s>&laquo;&nbsp;1&deg; Aux traitements ayant exclusivement des finalit&eacute;s de statistique publique ne comportant aucune des donn&eacute;es mentionn&eacute;es au I de l&#39;article 8 ou &agrave; l&#39;article 9, lorsque le num&eacute;ro d&#39;inscription des personnes au r&eacute;pertoire national d&#39;identification des personnes physiques a pr&eacute;alablement fait l&rsquo;objet d&rsquo;une op&eacute;ration cryptographique irr&eacute;versible &nbsp;; ces traitements sont soumis au I de l&rsquo;article 22.</s></p>\n\n<p><s>&laquo;&nbsp;Un d&eacute;cret en Conseil d&rsquo;Etat, pris apr&egrave;s avis motiv&eacute; et publi&eacute; de la Commission Nationale Informatique et Libert&eacute;s, d&eacute;finit les modalit&eacute;s d&rsquo;application du pr&eacute;c&eacute;dent alin&eacute;a, notamment&nbsp;les exigences auxquelles doit r&eacute;pondre l&rsquo;op&eacute;ration cryptographique irr&eacute;versible et les conditions dans lesquelles le service statistique public peut utiliser le num&eacute;ro d&#39;inscription des personnes au r&eacute;pertoire national d&#39;identification des personnes physiques, apr&egrave;s op&eacute;ration cryptographique irr&eacute;versible, comme identifiant unique pour l&rsquo;ensemble des statistiques publiques mentionn&eacute;es au deuxi&egrave;me alin&eacute;a de l&rsquo;article 1er de la loi n&deg; 51-711 du 17 juin 1951 sur l&rsquo;obligation, la coordination et le secret en mati&egrave;re de statistiques.&nbsp;&raquo;</s></p>\n\n<p><s>&laquo;&nbsp;2&deg; Aux traitements ayant exclusivement des finalit&eacute;s de recherche scientifique ou historique et ne comportant aucune des donn&eacute;es mentionn&eacute;es au I de l&#39;article 8 ou &agrave; l&#39;article 9, lorsque le num&eacute;ro d&#39;inscription des personnes au r&eacute;pertoire national d&#39;identification des personnes physiques a pr&eacute;alablement fait l&rsquo;objet d&rsquo;un op&eacute;ration cryptographique irr&eacute;versible propre &agrave; chaque projet de recherche&nbsp;; ces traitements ainsi que ceux ayant comme finalit&eacute; exclusive de r&eacute;aliser cette op&eacute;ration cryptographique irr&eacute;versible sont soumis &agrave; l&rsquo;article 25.</s></p>\n\n<p><s>&laquo;&nbsp;Un d&eacute;cret en Conseil d&rsquo;Etat, pris apr&egrave;s avis motiv&eacute; et publi&eacute; de la Commission Nationale Informatique et Libert&eacute;s, d&eacute;finit les modalit&eacute;s d&rsquo;application du pr&eacute;c&eacute;dent alin&eacute;a, notamment les exigences auxquelles doit r&eacute;pondre l&rsquo;op&eacute;ration cryptographique irr&eacute;versible ainsi que les conditions dans lesquelles celui-ci et, le cas &eacute;ch&eacute;ant, l&rsquo;interconnexion de deux fichiers par l&rsquo;utilisation de l&rsquo;identifiant qui en est issu, sont assur&eacute;es par un organisme ou un service distinct des responsables de traitements.&nbsp;&raquo;</s></p>",
    "comment": "<p>Les identifiants de port&eacute;e g&eacute;n&eacute;rale ont acquis dans la directive europ&eacute;enne de 95 (95/46/CE sur les protection des donn&eacute;es &agrave; caract&egrave;re personnel) le statut de donn&eacute;e sensible. Vu le caract&egrave;re extr&ecirc;mement particulier du num&eacute;ro de s&eacute;curit&eacute; sociale qui est, de l&#39;avis m&ecirc;me de la CNIL, unique et p&eacute;renne, <em>a priori</em> fiable et signifiant. Compte tenu des risques que cela emporte, il convient de suspendre cette signification du NIR pour qu&#39;il ne permette plus de r&eacute;v&eacute;ler de nombreuses caract&eacute;ristiques d&#39;un individu par sa seule connaissance.</p>\n\n<p>Dans le m&ecirc;me sens que cette autre proposition (<a _src=\"https://www.republique-numerique.fr/consultations/projet-de-loi-numerique/consultation/consultation/opinions/section-1-protection-des-donnees-a-caractere-personnel/retablir-certains-dispositifs-supprimes-au-sein-de-la-loi-informatique-et-libertes)\" class=\"external-link\" href=\"https://www.republique-numerique.fr/consultations/projet-de-loi-numerique/consultation/consultation/opinions/section-1-protection-des-donnees-a-caractere-personnel/retablir-certains-dispositifs-supprimes-au-sein-de-la-loi-informatique-et-libertes)\">https://www.republique-numerique.fr/consultations/projet-de-loi-numerique/consultation/consultation/opinions/section-1-protection-des-donnees-a-caractere-personnel/retablir-certains-dispositifs-supprimes-au-sein-de-la-loi-informatique-et-libertes)</a>&nbsp;, il est important que l&#39;avis de la CNIL soit non seulement motiv&eacute; et publi&eacute;, mais &eacute;galement favorable pour l&#39;exploitation du NIR qui m&ecirc;me devenu non signifiant resterait une donn&eacute;e extr&ecirc;mement sensible.</p>",
    "author": {
      "username": "Observatoire des Libertés et du Numérique",
      "displayName": "Observatoire des Libertés et du Numérique",
      "uniqueId": "observatoiredeslibertesetdunumerique1",
      "isAdmin": false,
      "media": null,
      "vip": false,
      "_links": {
        "profile": "https://www.republique-numerique.fr/profile/observatoiredeslibertesetdunumerique1",
        "settings": "https://www.republique-numerique.fr/profile/edit-profile"
      }
    },
    "arguments": [
      {
        "isContribuable": false,
        "id": 4815,
        "body": "Proposer et justifier un NIR haché pour des raisons de recherche ne tient pas compte du danger grave pour les libertés que représente toute interconnexion. Toute exception doit être fortement encadré, entre autres, par un  avis favorable, contraignant, motivé et publié de la Commission Nationale Informatique et Libertés.",
        "created_at": "2015-10-16T16:01:57+0200",
        "updated_at": "2015-10-16T16:01:57+0200",
        "is_enabled": true,
        "votes_count": 3,
        "type": 1,
        "is_trashed": false,
        "author": {
          "username": "Maurice Liscouët",
          "displayName": "Maurice Liscouët",
          "uniqueId": "mauriceliscouet",
          "isAdmin": false,
          "media": null,
          "vip": false,
          "_links": {
            "profile": "https://www.republique-numerique.fr/profile/mauriceliscouet",
            "settings": "https://www.republique-numerique.fr/profile/edit-profile"
          }
        },
        "_links": {
          "show": "https://www.republique-numerique.fr/consultations/projet-de-loi-numerique/consultation/consultation/opinions/section-2-travaux-de-recherche-et-de-statistique/article-10-nir-statistique/versions/renforcer-les-mecanismes-de-protection-des-donnees-a-caractere-personnel#arg-4815",
          "edit": "https://www.republique-numerique.fr/consultations/projet-de-loi-numerique/consultation/consultation/opinions/section-2-travaux-de-recherche-et-de-statistique/article-10-nir-statistique/arguments/4815/edit",
          "report": "https://www.republique-numerique.fr/consultations/projet-de-loi-numerique/consultation/consultation/opinions/section-2-travaux-de-recherche-et-de-statistique/article-10-nir-statistique/arguments/4815/report"
        },
        "has_user_voted": false,
        "has_user_reported": false
      },
      {
        "isContribuable": false,
        "id": 6116,
        "body": "Il faut également penser à \"salter\" le NIR haché, pour éviter toute identification à partir de Rainbow Table, à défaut de rendre cette disposition complètement inutile.",
        "created_at": "2015-10-18T22:06:23+0200",
        "updated_at": "2015-10-18T22:06:23+0200",
        "is_enabled": true,
        "votes_count": 1,
        "type": 1,
        "is_trashed": false,
        "author": {
          "username": "Florian Briand",
          "displayName": "Florian Briand",
          "uniqueId": "florianbriand",
          "isAdmin": false,
          "media": null,
          "vip": false,
          "_links": {
            "profile": "https://www.republique-numerique.fr/profile/florianbriand",
            "settings": "https://www.republique-numerique.fr/profile/edit-profile"
          }
        },
        "_links": {
          "show": "https://www.republique-numerique.fr/consultations/projet-de-loi-numerique/consultation/consultation/opinions/section-2-travaux-de-recherche-et-de-statistique/article-10-nir-statistique/versions/renforcer-les-mecanismes-de-protection-des-donnees-a-caractere-personnel#arg-6116",
          "edit": "https://www.republique-numerique.fr/consultations/projet-de-loi-numerique/consultation/consultation/opinions/section-2-travaux-de-recherche-et-de-statistique/article-10-nir-statistique/arguments/6116/edit",
          "report": "https://www.republique-numerique.fr/consultations/projet-de-loi-numerique/consultation/consultation/opinions/section-2-travaux-de-recherche-et-de-statistique/article-10-nir-statistique/arguments/6116/report"
        },
        "has_user_voted": false,
        "has_user_reported": false
      }
    ],
    "sources": [],
    "parent": {
      "isContribuable": false,
      "id": 70,
      "body": "<p>L&rsquo;article 27 de la loi n&deg; 78-17 du 6 janvier 1978 relative &agrave; l&rsquo;informatique, aux fichiers et aux libert&eacute;s est compl&eacute;t&eacute; par un IV ainsi r&eacute;dig&eacute;&nbsp;:</p>\r\n\r\n<p>&laquo;&nbsp;IV.&nbsp;-&nbsp;Le&nbsp;1&deg; des&nbsp;I et &nbsp;II du pr&eacute;sent article ne sont pas applicables&nbsp;:</p>\r\n\r\n<p>&laquo;&nbsp;1&deg; Aux traitements ayant exclusivement des finalit&eacute;s de statistique publique ne comportant aucune des donn&eacute;es mentionn&eacute;es au I de l&#39;article 8 ou &agrave; l&#39;article 9, lorsque le num&eacute;ro d&#39;inscription des personnes au r&eacute;pertoire national d&#39;identification des personnes physiques a pr&eacute;alablement fait l&rsquo;objet d&rsquo;une op&eacute;ration cryptographique irr&eacute;versible &nbsp;; ces traitements sont soumis au I de l&rsquo;article 22.</p>\r\n\r\n<p>&laquo;&nbsp;Un d&eacute;cret en Conseil d&rsquo;Etat, pris apr&egrave;s avis motiv&eacute; et publi&eacute; de la Commission Nationale Informatique et Libert&eacute;s, d&eacute;finit les modalit&eacute;s d&rsquo;application du pr&eacute;c&eacute;dent alin&eacute;a, notamment&nbsp;les exigences auxquelles doit r&eacute;pondre l&rsquo;op&eacute;ration cryptographique irr&eacute;versible et les conditions dans lesquelles le service statistique public peut utiliser le num&eacute;ro d&#39;inscription des personnes au r&eacute;pertoire national d&#39;identification des personnes physiques, apr&egrave;s op&eacute;ration cryptographique irr&eacute;versible, comme identifiant unique pour l&rsquo;ensemble des statistiques publiques mentionn&eacute;es au deuxi&egrave;me alin&eacute;a de l&rsquo;article 1er de la loi n&deg; 51-711 du 17 juin 1951 sur l&rsquo;obligation, la coordination et le secret en mati&egrave;re de statistiques.&nbsp;&raquo;</p>\r\n\r\n<p>&laquo;&nbsp;2&deg; Aux traitements ayant exclusivement des finalit&eacute;s de recherche scientifique ou historique et ne comportant aucune des donn&eacute;es mentionn&eacute;es au I de l&#39;article 8 ou &agrave; l&#39;article 9, lorsque le num&eacute;ro d&#39;inscription des personnes au r&eacute;pertoire national d&#39;identification des personnes physiques a pr&eacute;alablement fait l&rsquo;objet d&rsquo;un op&eacute;ration cryptographique irr&eacute;versible propre &agrave; chaque projet de recherche&nbsp;; ces traitements ainsi que ceux ayant comme finalit&eacute; exclusive de r&eacute;aliser cette op&eacute;ration cryptographique irr&eacute;versible sont soumis &agrave; l&rsquo;article 25.</p>\r\n\r\n<p>&laquo;&nbsp;Un d&eacute;cret en Conseil d&rsquo;Etat, pris apr&egrave;s avis motiv&eacute; et publi&eacute; de la Commission Nationale Informatique et Libert&eacute;s, d&eacute;finit les modalit&eacute;s d&rsquo;application du pr&eacute;c&eacute;dent alin&eacute;a, notamment les exigences auxquelles doit r&eacute;pondre l&rsquo;op&eacute;ration cryptographique irr&eacute;versible ainsi que les conditions dans lesquelles celui-ci et, le cas &eacute;ch&eacute;ant, l&rsquo;interconnexion de deux fichiers par l&rsquo;utilisation de l&rsquo;identifiant qui en est issu, sont assur&eacute;es par un organisme ou un service distinct des responsables de traitements.&nbsp;&raquo;</p>",
      "type": {
        "id": 91,
        "title": "Section 2",
        "subtitle": "Travaux de recherche et de statistique",
        "voteWidgetType": 2,
        "votesHelpText": "Pensez-vous que cette proposition permet d'atteindre les objectifs présentés dans l’explication de l’article ?",
        "commentSystem": 2,
        "color": "blue",
        "versionable": true,
        "sourceable": true,
        "votesThreshold": null,
        "votesThresholdHelpText": null
      },
      "modals": [
        {
          "key": "article 27",
          "before": "<p>...</p>",
          "after": "<p>...</p><p>IV. - Le 1° des I et II du présent article ne sont pas applicables :</p><p>1° Aux traitements ayant exclusivement des finalités de statistiques publiques et ne comportant aucune des données mentionnées au I de l'article 8 ou à l'article 9, lorsque le numéro d'inscription des personnes au répertoire national d'identification des personnes physiques a préalablement fait l’objet d’une opération cryptographique irréversible; ces traitements sont soumis au I de l’article 22.</p><p>Un décret en Conseil d’Etat, prit après avis motivé et publié de la Commission Nationale Informatique et Libertés définit les modalités d’application du précédent alinéa, notamment les exigences auxquelles doit répondre l’opération cryptographique irréversible et les conditions dans lesquelles le service statistique public peut utiliser le numéro d'inscription des personnes au répertoire national d'identification des personnes physiques, après opération cryptographique irréversible, comme identifiant unique pour l’ensemble des statistiques publiques mentionnées au deuxième alinéa de l’article 1er de la loi n° 51-711 du 17 juin 1951 sur l’obligation, la coordination et le secret en matière de statistiques.</p><p>2° Aux traitements ayant exclusivement des finalités de recherche scientifique ou historique et ne comportant aucune des données mentionnées au I de l'article 8 ou à l'article 9, lorsque le numéro d'inscription des personnes au répertoire national d'identification des personnes physiques a préalablement fait l’objet d’un opération cryptographique irréversible propre à chaque projet de recherche ; ces traitements ainsi que ceux ayant comme finalité exclusive de réaliser ce cryptage irréversible sont soumis à l’article 25.</p><p>Un décret en Conseil d’Etat, pris après avis motivé et publié de la Commission Nationale Informatique et Libertés, définit les modalités d’application du précédent alinéa, notamment les exigences auxquelles doit répondre l'opération cryptographique irréversible ainsi que les conditions dans lesquelles celui-ci et, le cas échéant, l’interconnexion de deux fichiers par l’utilisation de l’identifiant qui en est issu, sont assurées par un organisme ou un service distinct des responsables de traitements » ;</p>",
          "title": "Article 27 de la loi informatique et libertés  n°78-17 du 6 janvier 1978"
        }
      ],
      "appendices": [
        {
          "body": "<p><strong>Objectif :</strong> cr&eacute;er une proc&eacute;dure plus souple pour permettre aux travaux de la statistique publique ou de la recherche publique d&rsquo;utiliser des fichiers comportant le num&eacute;ro de s&eacute;curit&eacute; sociale.</p>\r\n\r\n<p><strong>Explication :</strong> Les administrations fran&ccedil;aises disposent de nombreux fichiers individuels qu&rsquo;elles g&egrave;rent pour leurs propres besoins (fichiers de l&rsquo;assurance maladie ou de l&rsquo;&eacute;ducation nationale par exemple) et qui sont soumis &agrave; la stricte protection pr&eacute;vue par la loi &laquo; Informatique et libert&eacute;s &raquo; du 6 janvier 1978. Ces fichiers sont une source d&rsquo;information tr&egrave;s riche pour la statistique publique et pour la recherche, surtout lorsqu&rsquo;on peut mettre en relation les donn&eacute;es que comportent deux fichiers (&laquo; appariement &raquo; des fichiers). Le seul moyen certain de garantir un appariement exact entre deux fichiers est de recourir au num&eacute;ro de s&eacute;curit&eacute; sociale (ou NIR &ndash; num&eacute;ro d&rsquo;identification au r&eacute;pertoire national d&rsquo;identification des personnes physiques). Or aujourd&rsquo;hui, le recours au NIR doit &ecirc;tre approuv&eacute; par un d&eacute;cret en Conseil d&rsquo;Etat, proc&eacute;dure extr&ecirc;mement lourde pour les chercheurs, qui en pratique sont dissuad&eacute;s de poursuivre des travaux utilisant cette m&eacute;thode.<br />\r\nPour faciliter un tel usage du NIR dans les travaux de la statistique ou de la recherche publique, l&rsquo;article cr&eacute;e une nouvelle proc&eacute;dure sp&eacute;cifique permettant de cr&eacute;er un num&eacute;ro d&eacute;riv&eacute; du NIR (&laquo; NIR hach&eacute; &raquo; ou &laquo; NIR statistique &raquo;) : elle n&eacute;cessitera l&rsquo;adoption d&rsquo;un d&eacute;cret-cadre pour d&eacute;finir ses modalit&eacute;s, puis un r&eacute;gime d&rsquo;autorisation ou de d&eacute;claration &agrave; la CNIL (Commission nationale de l&rsquo;informatique et des libert&eacute;s), plus r&eacute;aliste et rapide que celui d&rsquo;un d&eacute;cret en Conseil d&rsquo;Etat. Pour la recherche, ce num&eacute;ro sera sp&eacute;cifique &agrave; l&rsquo;&eacute;tude, afin d&rsquo;&eacute;viter tout croisement ult&eacute;rieur de donn&eacute;es. Cet assouplissement facilitera consid&eacute;rablement les travaux de recherche fran&ccedil;ais en sciences sociales, tout en maintenant un haut niveau de protection des donn&eacute;es personnelles.</p>\r\n\r\n<p><strong>Exemple :</strong> les donn&eacute;es de l&rsquo;enqu&ecirc;te de l&rsquo;Insee &laquo; Budget de famille &raquo; pourraient &ecirc;tre appari&eacute;es avec les donn&eacute;es de d&eacute;penses de soins et de remboursements de l&rsquo;assurance maladie, afin de conna&icirc;tre de fa&ccedil;on plus pr&eacute;cise les d&eacute;penses de sant&eacute; par cat&eacute;gorie de m&eacute;nages et ainsi pouvoir mieux orienter les aides vers ceux qui en ont le plus besoin.</p>",
          "type": {
            "title": "Explication de l'article"
          }
        }
      ],
      "title": "Article 10 - Procédure assouplie pour les travaux statistiques ou de recherche utilisant le numéro de sécurité sociale (recours à un « NIR statistique »)",
      "_links": {
        "show": "https://www.republique-numerique.fr/consultations/projet-de-loi-numerique/consultation/consultation/opinions/section-2-travaux-de-recherche-et-de-statistique/article-10-nir-statistique",
        "edit": "https://www.republique-numerique.fr/consultations/projet-de-loi-numerique/consultation/consultation/opinions/section-2-travaux-de-recherche-et-de-statistique/article-10-nir-statistique/edit",
        "report": "https://www.republique-numerique.fr/consultations/projet-de-loi-numerique/consultation/consultation/opinions/section-2-travaux-de-recherche-et-de-statistique/article-10-nir-statistique/report",
        "type": "https://www.republique-numerique.fr/consultations/projet-de-loi-numerique/consultation/consultation/opinions/section-2-travaux-de-recherche-et-de-statistique"
      },
      "user_vote": null,
      "has_user_reported": false
    },
    "sources_count": 0,
    "arguments_count": 2,
    "votes": [
      {
        "user": {
          "username": "MARYSE ARTIGUELONG",
          "displayName": "MARYSE ARTIGUELONG",
          "uniqueId": "maryseartiguelong",
          "isAdmin": false,
          "media": null,
          "vip": false,
          "_links": {
            "profile": "https://www.republique-numerique.fr/profile/maryseartiguelong",
            "settings": "https://www.republique-numerique.fr/profile/edit-profile"
          }
        },
        "value": 1
      },
      {
        "user": {
          "username": "Péron",
          "displayName": "Péron",
          "uniqueId": "peron1",
          "isAdmin": false,
          "media": null,
          "vip": false,
          "_links": {
            "profile": "https://www.republique-numerique.fr/profile/peron1",
            "settings": "https://www.republique-numerique.fr/profile/edit-profile"
          }
        },
        "value": 1
      },
      {
        "user": {
          "username": "Maurice Liscouët",
          "displayName": "Maurice Liscouët",
          "uniqueId": "mauriceliscouet",
          "isAdmin": false,
          "media": null,
          "vip": false,
          "_links": {
            "profile": "https://www.republique-numerique.fr/profile/mauriceliscouet",
            "settings": "https://www.republique-numerique.fr/profile/edit-profile"
          }
        },
        "value": 1
      },
      {
        "user": {
          "username": "vetois",
          "displayName": "vetois",
          "uniqueId": "vetois",
          "isAdmin": false,
          "media": null,
          "vip": false,
          "_links": {
            "profile": "https://www.republique-numerique.fr/profile/vetois",
            "settings": "https://www.republique-numerique.fr/profile/edit-profile"
          }
        },
        "value": 1
      },
      {
        "user": {
          "username": "Baptiste Pichot",
          "displayName": "Baptiste Pichot",
          "uniqueId": "baptistepichot",
          "isAdmin": false,
          "media": null,
          "vip": false,
          "_links": {
            "profile": "https://www.republique-numerique.fr/profile/baptistepichot",
            "settings": "https://www.republique-numerique.fr/profile/edit-profile"
          }
        },
        "value": 1
      }
    ],
    "updated_at": "2015-10-15T20:15:08+0200",
    "ranking": 34,
    "is_trashed": false,
    "title": "Renforcer les mécanismes de protection des données à caractère personnel (relatifs au NIR)",
    "slug": "renforcer-les-mecanismes-de-protection-des-donnees-a-caractere-personnel",
    "created_at": "2015-10-15T20:00:29+0200",
    "votes_nok": 2,
    "votes_ok": 126,
    "votes_mitige": 0,
    "_links": {
      "show": "https://www.republique-numerique.fr/consultations/projet-de-loi-numerique/consultation/consultation/opinions/section-2-travaux-de-recherche-et-de-statistique/article-10-nir-statistique/versions/renforcer-les-mecanismes-de-protection-des-donnees-a-caractere-personnel",
      "report": "https://www.republique-numerique.fr/consultations/projet-de-loi-numerique/consultation/consultation/opinions/section-2-travaux-de-recherche-et-de-statistique/article-10-nir-statistique/versions/renforcer-les-mecanismes-de-protection-des-donnees-a-caractere-personnel/report"
    },
    "user_vote": null,
    "has_user_reported": false
  },
  "rankingThreshold": null,
  "opinionTerm": 1
}