{
  "opinion": {
    "isContribuable": false,
    "votes_total": 4,
    "arguments_yes_count": 0,
    "arguments_no_count": 0,
    "id": 756,
    "created_at": "2015-10-18T17:50:29+0200",
    "updated_at": "2015-10-18T17:50:29+0200",
    "body": "<p>Mettre en place un protocole de garantie num&eacute;rique associ&eacute; &agrave; une facture num&eacute;rique, indiquant l&#39;acheteur, la nature du produit et sa cat&eacute;gorie, qui assume la garantie d&#39;un produit, quelle est la dur&eacute;e minimum l&eacute;gale de celle-ci et la dur&eacute;e effective propos&eacute;e par le vendeur, aupr&egrave;s de qui exercer cette garantie, pendant combien de temps et aupr&egrave;s de qui les pi&egrave;ces d&eacute;tach&eacute;es n&eacute;cessaires &agrave; la r&eacute;paration du produit sont disponibles, ainsi que la dur&eacute;e minimum pendant laquelle la loi pr&eacute;voit de mettre &agrave; disposition ces pi&egrave;ces d&eacute;tach&eacute;es.</p>\r\n\r\n<p>Ces informations sont m&eacute;moris&eacute;es soit par l&#39;&eacute;tat, soit par un tiers de confiance agr&eacute;&eacute;, et permettent au consommateur de faire valoir la garantie tant dans le cas de perte de la garantie papier, qu&#39;en cas de mauvaise foi du vendeur, et permettent en fin de garantie de retrouver la source des pi&egrave;ces d&eacute;tach&eacute;es permettant de r&eacute;parer le produit m&ecirc;me en cas de mise en liquidation du vendeur.</p>",
    "versions_count": 0,
    "sources_count": 0,
    "arguments_count": 0,
    "author": {
      "username": "Daunas",
      "displayName": "Daunas",
      "uniqueId": "daunas",
      "isAdmin": false,
      "media": null,
      "vip": false,
      "_links": {
        "profile": "https://www.republique-numerique.fr/profile/daunas",
        "settings": "https://www.republique-numerique.fr/profile/edit-profile"
      }
    },
    "type": {
      "id": 87,
      "title": "Section 2",
      "subtitle": "Service public de la donnée",
      "voteWidgetType": 2,
      "votesHelpText": "Pensez-vous que cette proposition permet d'atteindre les objectifs présentés dans l’explication de l’article ?",
      "commentSystem": 2,
      "color": "blue",
      "versionable": true,
      "sourceable": true,
      "votesThreshold": null,
      "votesThresholdHelpText": null
    },
    "sources": [],
    "arguments": [],
    "modals": [],
    "votes": [
      {
        "user": {
          "username": "patrick raffin",
          "displayName": "patrick raffin",
          "uniqueId": "patrickraffin",
          "isAdmin": false,
          "media": null,
          "vip": false,
          "_links": {
            "profile": "https://www.republique-numerique.fr/profile/patrickraffin",
            "settings": "https://www.republique-numerique.fr/profile/edit-profile"
          }
        }
      },
      {
        "user": {
          "username": "Jeanne Varasco",
          "displayName": "Jeanne Varasco",
          "uniqueId": "jeannevarasco",
          "isAdmin": false,
          "media": {
            "url": "/media/cache/default_avatar/default/0001/01/139_default_avatar.jpg"
          },
          "vip": false,
          "_links": {
            "profile": "https://www.republique-numerique.fr/profile/jeannevarasco",
            "settings": "https://www.republique-numerique.fr/profile/edit-profile"
          }
        }
      },
      {
        "user": {
          "username": "PELLEGRINI François",
          "displayName": "PELLEGRINI François",
          "uniqueId": "pellegrinifrancois",
          "isAdmin": false,
          "media": null,
          "vip": false,
          "_links": {
            "profile": "https://www.republique-numerique.fr/profile/pellegrinifrancois",
            "settings": "https://www.republique-numerique.fr/profile/edit-profile"
          }
        }
      },
      {
        "user": {
          "username": "Maltese Nadine",
          "displayName": "Maltese Nadine",
          "uniqueId": "maltesenadine",
          "isAdmin": false,
          "media": {
            "url": "/media/cache/default_avatar/default/0001/01/113_default_avatar.png"
          },
          "vip": false,
          "_links": {
            "profile": "https://www.republique-numerique.fr/profile/maltesenadine",
            "settings": "https://www.republique-numerique.fr/profile/edit-profile"
          }
        }
      }
    ],
    "appendices": [
      {
        "body": "<p>1) De nombreux vendeurs mentionnent une dur&eacute;e de garantie inf&eacute;rieure &agrave; celle garantie par la loi. La r&eacute;pression des fraudes pourra les d&eacute;tecter automatiquement.</p>\r\n\r\n<p>2) Le consommateur sera clairement inform&eacute; qui du vendeur ou du fabriquant assure la garantie, et comment la faire jouer, m&ecirc;me en cas de perte de la facture papier.</p>\r\n\r\n<p>3) La loi impose la disposition des pi&egrave;ces d&eacute;tach&eacute;es pendant une p&eacute;riode qui d&eacute;pend de la nature du produit, mais dans la pratique il est souvent impossible d&#39;acc&eacute;der &agrave; l&#39;information.</p>\r\n\r\n<p>4) En associant dans le m&ecirc;me protocole Facture num&eacute;rique et Garantie num&eacute;rique, le consommateur exercera une pression sur les vendeurs afin de g&eacute;n&eacute;raliser la facture num&eacute;rique, ce qui permettra de lutter contre l&#39;&eacute;conomie souterraine.</p>",
        "type": {
          "title": "Explication de l'article"
        }
      }
    ],
    "ranking": 473,
    "is_trashed": false,
    "title": "Garantie / Facture numérique",
    "votes_nok": 0,
    "votes_ok": 4,
    "votes_mitige": 0,
    "_links": {
      "show": "https://www.republique-numerique.fr/consultations/projet-de-loi-numerique/consultation/consultation/opinions/section-2-service-public-de-la-donnee-1/garantie-facture-numerique",
      "edit": "https://www.republique-numerique.fr/consultations/projet-de-loi-numerique/consultation/consultation/opinions/section-2-service-public-de-la-donnee-1/garantie-facture-numerique/edit",
      "report": "https://www.republique-numerique.fr/consultations/projet-de-loi-numerique/consultation/consultation/opinions/section-2-service-public-de-la-donnee-1/garantie-facture-numerique/report",
      "type": "https://www.republique-numerique.fr/consultations/projet-de-loi-numerique/consultation/consultation/opinions/section-2-service-public-de-la-donnee-1"
    },
    "user_vote": null,
    "has_user_reported": false
  },
  "rankingThreshold": null,
  "opinionTerm": 1
}