{
  "version": {
    "isContribuable": false,
    "votes_total": 8,
    "arguments_yes_count": 0,
    "arguments_no_count": 0,
    "id": 289,
    "body": "<p>Le premier alin&eacute;a de l&rsquo;article 10 de la loi n&deg; 2000-321 du 12 avril 2000 relative aux droits des citoyens dans leurs relations avec les administrations est ainsi modifi&eacute; :</p>\n\n<p>Les budgets et les comptes des autorit&eacute;s administratives mentionn&eacute;es &agrave; l&#39;article 1er et dot&eacute;es de la personnalit&eacute; morale <u>sont publi&eacute;s de fa&ccedil;on d&eacute;taill&eacute;es dans les conditions pr&eacute;vues par la loi [sur la r&eacute;publique num&eacute;rique, article 1].</u></p>\n\n<p>&nbsp;</p>\n\n<p>&nbsp;</p>",
    "comment": "Il s&#39;agit ici de num&eacute;rique. Ne pas oublier les d&eacute;penses en logiciels, de chacune des entit&eacute;s (minist&egrave;res, administrations, etc.... enfin toutes).",
    "author": {
      "username": "momb",
      "displayName": "momb",
      "uniqueId": "momb",
      "isAdmin": false,
      "media": null,
      "vip": false,
      "_links": {
        "profile": "https://www.republique-numerique.fr/profile/momb",
        "settings": "https://www.republique-numerique.fr/profile/edit-profile"
      }
    },
    "arguments": [],
    "sources": [],
    "parent": {
      "isContribuable": false,
      "id": 226,
      "body": "<p>Le premier alin&eacute;a de l&rsquo;article 10 de la loi n&deg; 2000-321 du 12 avril 2000 relative aux droits des citoyens dans leurs relations avec les administrations est ainsi modifi&eacute; :</p>\r\n\r\n<p>Les budgets et les comptes des autorit&eacute;s administratives mentionn&eacute;es &agrave; l&#39;article 1er et dot&eacute;es de la personnalit&eacute; morale <u>sont publi&eacute;s de fa&ccedil;on d&eacute;taill&eacute;es dans les conditions pr&eacute;vues par la loi [sur la r&eacute;publique num&eacute;rique, article 1].</u></p>",
      "type": {
        "id": 88,
        "title": "Section 3",
        "subtitle": "Données d’intérêt général",
        "voteWidgetType": 2,
        "votesHelpText": "Pensez-vous que cette proposition permet d'atteindre les objectifs présentés dans l’explication de l’article ?",
        "commentSystem": 2,
        "color": "blue",
        "versionable": true,
        "sourceable": true,
        "votesThreshold": null,
        "votesThresholdHelpText": null
      },
      "modals": [],
      "appendices": [
        {
          "body": "<p>Les citoyens doivent pouvoir connaitre, de fa&ccedil;on d&eacute;taill&eacute;es les d&eacute;penses et recettes de l&#39;&Eacute;tat.</p>\r\n\r\n<p>Informations doivent &ecirc;tre pr&eacute;cises, mais peuvent &ecirc;tre donn&eacute;es &agrave; l&#39;&eacute;chelle d&#39;un minist&egrave;re :</p>\r\n\r\n<p>Ex : Les d&eacute;penses en papeterie , les d&eacute;penses en&nbsp;mat&eacute;riel de bureau et pas seulement case globale &quot;les d&eacute;penses de fourniture de bureau&quot;</p>\r\n\r\n<p>Ex 2 :&nbsp; Les d&eacute;penses de d&eacute;placement en train, les d&eacute;penses de d&eacute;placement en avions, d&eacute;penses de d&eacute;placement en taxi et pas une case globale &quot;d&eacute;penses de d&eacute;placements&quot;</p>\r\n\r\n<p>Ces informations existent d&eacute;j&agrave;, la pr&eacute;sente proposition propose de les publier par d&eacute;faut.</p>",
          "type": {
            "title": "Explication de l'article"
          }
        }
      ],
      "title": "Ouverture des dépenses et recettes détaillées",
      "_links": {
        "show": "https://www.republique-numerique.fr/consultations/projet-de-loi-numerique/consultation/consultation/opinions/section-3-donnees-d-interet-general/ouverture-des-depenses-et-recettes-detaillees-de-l-etat",
        "edit": "https://www.republique-numerique.fr/consultations/projet-de-loi-numerique/consultation/consultation/opinions/section-3-donnees-d-interet-general/ouverture-des-depenses-et-recettes-detaillees-de-l-etat/edit",
        "report": "https://www.republique-numerique.fr/consultations/projet-de-loi-numerique/consultation/consultation/opinions/section-3-donnees-d-interet-general/ouverture-des-depenses-et-recettes-detaillees-de-l-etat/report",
        "type": "https://www.republique-numerique.fr/consultations/projet-de-loi-numerique/consultation/consultation/opinions/section-3-donnees-d-interet-general"
      },
      "user_vote": null,
      "has_user_reported": false
    },
    "sources_count": 0,
    "arguments_count": 0,
    "votes": [
      {
        "user": {
          "username": "Jeanne Varasco",
          "displayName": "Jeanne Varasco",
          "uniqueId": "jeannevarasco",
          "isAdmin": false,
          "media": {
            "url": "/media/cache/default_avatar/default/0001/01/139_default_avatar.jpg"
          },
          "vip": false,
          "_links": {
            "profile": "https://www.republique-numerique.fr/profile/jeannevarasco",
            "settings": "https://www.republique-numerique.fr/profile/edit-profile"
          }
        },
        "value": 1
      },
      {
        "user": {
          "username": "Glenn",
          "displayName": "Glenn",
          "uniqueId": "glenn",
          "isAdmin": false,
          "media": null,
          "vip": false,
          "_links": {
            "profile": "https://www.republique-numerique.fr/profile/glenn",
            "settings": "https://www.republique-numerique.fr/profile/edit-profile"
          }
        },
        "value": 1
      },
      {
        "user": {
          "username": "Vincent Reverdy",
          "displayName": "Vincent Reverdy",
          "uniqueId": "vincentreverdy",
          "isAdmin": false,
          "media": {
            "url": "/media/cache/default_avatar/default/0001/01/268_default_avatar.jpg"
          },
          "vip": false,
          "_links": {
            "profile": "https://www.republique-numerique.fr/profile/vincentreverdy",
            "settings": "https://www.republique-numerique.fr/profile/edit-profile"
          }
        },
        "value": 1
      },
      {
        "user": {
          "username": "Jeanne Tadeusz",
          "displayName": "Jeanne Tadeusz",
          "uniqueId": "jeannetadeusz",
          "isAdmin": false,
          "media": null,
          "vip": false,
          "_links": {
            "profile": "https://www.republique-numerique.fr/profile/jeannetadeusz",
            "settings": "https://www.republique-numerique.fr/profile/edit-profile"
          }
        },
        "value": 1
      },
      {
        "user": {
          "username": "Pierre Lavayssière",
          "displayName": "Pierre Lavayssière",
          "uniqueId": "pierrelavayssiere",
          "isAdmin": false,
          "media": null,
          "vip": false,
          "_links": {
            "profile": "https://www.republique-numerique.fr/profile/pierrelavayssiere",
            "settings": "https://www.republique-numerique.fr/profile/edit-profile"
          }
        },
        "value": 1
      }
    ],
    "updated_at": "2015-09-28T10:49:35+0200",
    "ranking": 471,
    "is_trashed": false,
    "title": "Dépenses en logiciels",
    "slug": "depenses-en-logiciels",
    "created_at": "2015-09-28T10:49:35+0200",
    "votes_nok": 0,
    "votes_ok": 8,
    "votes_mitige": 0,
    "_links": {
      "show": "https://www.republique-numerique.fr/consultations/projet-de-loi-numerique/consultation/consultation/opinions/section-3-donnees-d-interet-general/ouverture-des-depenses-et-recettes-detaillees-de-l-etat/versions/depenses-en-logiciels",
      "report": "https://www.republique-numerique.fr/consultations/projet-de-loi-numerique/consultation/consultation/opinions/section-3-donnees-d-interet-general/ouverture-des-depenses-et-recettes-detaillees-de-l-etat/versions/depenses-en-logiciels/report"
    },
    "user_vote": null,
    "has_user_reported": false
  },
  "rankingThreshold": null,
  "opinionTerm": 1
}