{
  "opinion": {
    "isContribuable": false,
    "votes_total": 50,
    "arguments_yes_count": 2,
    "arguments_no_count": 2,
    "id": 368,
    "created_at": "2015-10-01T09:46:06+0200",
    "updated_at": "2015-10-01T09:46:06+0200",
    "body": "<p>L&rsquo;article 6 de la D&eacute;claration des Droits de l&rsquo;Homme de 1948 indique que <em>&laquo;&nbsp;chaque citoyen a le droit en tout lieu &agrave; la reconnaissance de sa personnalit&eacute; juridique&nbsp;&raquo;</em>.</p>\r\n\r\n<p>Cet article est fondateur en ce qu&rsquo;il reconna&icirc;t pour la 1&egrave;re fois la personnalit&eacute; juridique.</p>\r\n\r\n<p>Je consid&egrave;re que la personnalit&eacute; num&eacute;rique est la personnalit&eacute; qui remonte &agrave; la surface et, qu&#39;&agrave; l&#39;heure d&#39;internet, elle doit &ecirc;tre, de la m&ecirc;me fa&ccedil;on, reconnue et d&eacute;finie&nbsp;:</p>\r\n\r\n<p>La R&eacute;publique num&eacute;rique doit reconna&icirc;tre le PRINCIPE de <strong>Personnalit&eacute; num&eacute;rique qui </strong><strong>se traduit par le fait que &laquo;&nbsp; </strong><strong>tout </strong><strong>citoyen </strong><strong>a le droit de vivre et mourir sur internet par la cr&eacute;ation et le retrait des donn&eacute;es num&eacute;riques qui le concernent&nbsp;&raquo;</strong> :</p>\r\n\r\n<p>Source : P&eacute;tition citoyenne pour la personnalit&eacute; num&eacute;rique du 14 septembre 2010 <a href=\"http://www.innovativity.org/petition-personnalite-numerique.php\">http://www.innovativity.org/petition-personnalite-numerique.p</a><a href=\"http://www.innovativity.org/petition-personnalite-numerique.php\">hp</a></p>\r\n\r\n<p>C&#39;est naturellement gratuit et sans publicit&eacute; et cela n&eacute;cessite pour chacun de r&eacute;fl&eacute;chir &agrave; ce qu&#39;il est et &agrave; ce qu&#39;il veut publier de ce qu&#39;il est.</p>\r\n\r\n<p>&nbsp;</p>\r\n\r\n<p>Laisser en effet ce droit exorbitant &agrave; des plateformes am&eacute;ricaines qui ont une part d&#39;audience de plus de 99&nbsp;% en France est une erreur r&eacute;publicaine et une faute morale&nbsp;:</p>\r\n\r\n<p>nos parents et nos grands-parents connaissaient deux cercles distincts de la vie priv&eacute;e et de la vie professionnelle. La cr&eacute;ation d&rsquo;internet a cependant conduit &agrave; ce que ces cercles soient intimement li&eacute;s&nbsp;: ce ph&eacute;nom&egrave;ne a d&#39;incontestables effets pervers dont il faut &ecirc;tre conscient et qu&#39;il faut rectifier en essayant notamment de diff&eacute;rencier les trois cercles de la vie priv&eacute;e, de la vie professionnelle et de la vie sur internet pour nous mais aussi pour les plus jeunes&nbsp;: c&#39;est l&#39;objectif majeur du principe de Personnalit&eacute; num&eacute;rique.</p>\r\n\r\n<p>&nbsp;</p>\r\n\r\n<p>Je propose donc de distinguer et de d&eacute;finir identit&eacute; num&eacute;rique, personnalit&eacute; juridique, et personnalit&eacute; num&eacute;rique (l&#39;e-r&eacute;putation &eacute;tant un sous-ensemble de cette derni&egrave;re) ainsi :</p>\r\n\r\n<p>L&#39;identit&eacute; num&eacute;rique a essentiellement quatre composantes et d&eacute;finit &agrave; mon sens la personnalit&eacute; juridique d&#39;un citoyen&nbsp;: la carte nationale d&rsquo;identit&eacute; m&rsquo;identifie administrativement, le num&eacute;ro de s&eacute;curit&eacute; sociale m&rsquo;identifie socialement, les certificats (de naissance...) attestent de mon identit&eacute; et mes coordonn&eacute;es (adresse postale, t&eacute;l&eacute;phone des pages blanches, annuaires, mails, r&eacute;seaux sociaux) m&#39;identifient physiquement et permettent de me joindre.</p>\r\n\r\n<p>L&rsquo;identit&eacute; num&eacute;rique correspond &agrave; ce qui est donn&eacute; ou fourni par une institution alors que la personnalit&eacute; num&eacute;rique est produite, accept&eacute;e ou refus&eacute;e par le citoyen lui-m&ecirc;me.</p>\r\n\r\n<p>La personnalit&eacute; num&eacute;rique me semble avoir trois composantes principales&nbsp;: savoir num&eacute;rique, r&eacute;putation num&eacute;rique et avatars&nbsp;:</p>\r\n\r\n<p>1.Le <strong>savoir num&eacute;rique</strong> est ce que je crois savoir dans ma vie sur internet&nbsp;: c&#39;est dans bien des cas plus une forme de croyance que de r&eacute;el savoir.</p>\r\n\r\n<p>On ne contr&ocirc;le en effet jamais la pertinence de l&rsquo;information obtenue sur les moteurs de recherche, les r&eacute;seaux sociaux, les encyclop&eacute;dies en ligne ou plus g&eacute;n&eacute;ralement les plateformes en raison de la r&eacute;activit&eacute; de ces outils et d&#39;une expertise de l&#39;&eacute;metteur de l&#39;information rarement prouv&eacute;e.</p>\r\n\r\n<p>Nos activit&eacute;s internet nous inscrivent donc dans la croyance et non dans le savoir&nbsp;: sur internet comme dans la vie, seule l&#39;exp&eacute;rience de l&#39;action peut transformer la croyance en savoir.</p>\r\n\r\n<p>L&#39;objectif de la Personnalit&eacute; num&eacute;rique est donc bien de mettre &agrave; disposition de la collectivit&eacute; une v&eacute;ritable connaissance filtr&eacute;e et valid&eacute;e par chaque citoyen volontaire.</p>\r\n\r\n<p>C&#39;est un principe qui fera grandir notre d&eacute;mocratie comme a pu le faire la personnalit&eacute; juridique apr&egrave;s la seconde guerre mondiale.</p>\r\n\r\n<p>&nbsp;</p>\r\n\r\n<p>2.La <strong>r&eacute;putation num&eacute;rique</strong> a sept composantes&nbsp;:</p>\r\n\r\n<ul>\r\n\t<li>\r\n\t<p>mes Publications (ce que j&rsquo;&eacute;cris dans ma vie internet)</p>\r\n\t</li>\r\n\t<li>\r\n\t<p>mes Expressions (ce que je dis dans ma vie internet)</p>\r\n\t</li>\r\n\t<li>\r\n\t<p>mes Avis (ce que j&rsquo;appr&eacute;cie dans ma vie internet)</p>\r\n\t</li>\r\n\t<li>\r\n\t<p>mes Centres d&#39;int&eacute;r&ecirc;t (ce qui m&#39;int&eacute;resse dans ma vie internet)</p>\r\n\t</li>\r\n\t<li>\r\n\t<p>mes Connaissances (avec qui je suis en relation sur internet)</p>\r\n\t</li>\r\n\t<li>\r\n\t<p>ma Consommation (ce que j&rsquo;ach&egrave;te et ce que je vends sur internet)</p>\r\n\t</li>\r\n\t<li>\r\n\t<p>ma Profession (ma vie professionnelle sur internet)</p>\r\n\t</li>\r\n</ul>\r\n\r\n<p>Il est aujourd&#39;hui possible d&#39;exercer une activit&eacute; gr&acirc;ce &agrave; internet en vendant par exemple des biens sur des sites marchands ou en &eacute;tant trader en ligne.</p>\r\n\r\n<p>Le statut d&rsquo;autoentrepreneur cr&eacute;&eacute; en 2008 permet &agrave; un &eacute;tudiant, &agrave; un salari&eacute; ou &agrave; un retrait&eacute; d&rsquo;avoir un revenu d&rsquo;appoint en marge de son activit&eacute; principale&nbsp;: la r&eacute;putation num&eacute;rique est bien la cl&eacute; pour exercer ce nouveau type d&#39;activit&eacute; et la personnalit&eacute; num&eacute;rique permettra ainsi tr&egrave;s clairement de soutenir et de cr&eacute;er de tr&egrave;s nombreux emplois dans toutes les classes de population.</p>\r\n\r\n<p>&nbsp;</p>\r\n\r\n<p>3.Les <strong>avatars </strong>(ce qui me repr&eacute;sente sur internet) constituent un sujet passionnant. Ils sont un vrai sujet d&#39;avenir.</p>\r\n\r\n<p>&nbsp;</p>\r\n\r\n<p>En conclusion, la reconnaissance et la d&eacute;finition de la Personnalit&eacute; num&eacute;rique du citoyen dans la loi pour une R&eacute;publique num&eacute;rique de la France, pays des Droits de l&#39;homme, favorisera tout comme l&#39;a fait la reconnaissance de la personnalit&eacute; juridique en 1948&nbsp;:</p>\r\n\r\n<p>- la <strong>Libert&eacute;</strong> pour la circulation des informations publiques de chaque citoyen en compl&eacute;ment de la libert&eacute; accrue pour la circulation des donn&eacute;es des pouvoirs publics pr&eacute;vue dans le projet de loi actuel</p>\r\n\r\n<p>&nbsp;</p>\r\n\r\n<p>- l&#39;<strong>Egalit&eacute;</strong> des citoyens devant Internet r&eacute;duisant ainsi ce que j&#39;appelle &laquo;&nbsp;la fracture num&eacute;rique logicielle&nbsp;&raquo; et qui compl&egrave;te la mise en &oelig;uvre du tr&egrave;s haut d&eacute;bit, des infrastructures associ&eacute;es, de la loyaut&eacute; des plateformes et de la neutralit&eacute; du net tels que pr&eacute;vus dans le projet de loi actuel</p>\r\n\r\n<p>- la <strong>Fraternit&eacute;</strong> pour une soci&eacute;t&eacute; num&eacute;rique ouverte &agrave; tous&nbsp;car&nbsp;:</p>\r\n\r\n<p>Soci&eacute;t&eacute; num&eacute;rique sans conscience n&#39;est que ruine de l&#39;&acirc;me</p>\r\n\r\n<p><strong>Peut-on imaginer vivre aujourd&#39;hui dans un monde sans personnalit&eacute; juridique&nbsp;? </strong></p>\r\n\r\n<p><strong>Peut-on imaginer vivre demain dans un monde sans personnalit&eacute; num&eacute;rique &nbsp;? </strong></p>\r\n\r\n<p>Luc Rubiello 29 septembre 2015</p>\r\n\r\n<p>Fondateur <a href=\"http://www.innooo.fr/\">www.innooo.fr</a></p>\r\n\r\n<p><u>Source</u>&nbsp;: <a href=\"http://www.innovativity.org/livre-innooo-internet-dangers-actions.php\">http://www.innovativity.org/livre-innooo-internet-dangers-actions.php</a></p>\r\n\r\n<p>Internet Dangers Actions - Quelle soci&eacute;t&eacute; num&eacute;rique voulons-nous&nbsp;?</p>\r\n\r\n<p>Pr&eacute;face de Louis Pouzin, un des P&egrave;res d&#39;internet</p>\r\n\r\n<p>Luc Rubiello - Editions Innovativity - Avril 2015</p>",
    "versions_count": 0,
    "sources_count": 1,
    "arguments_count": 4,
    "author": {
      "username": "RUBIELLO Luc",
      "displayName": "RUBIELLO Luc",
      "uniqueId": "rubielloluc",
      "isAdmin": false,
      "media": {
        "url": "/media/cache/default_avatar/default/0001/01/350_default_avatar.jpg"
      },
      "vip": false,
      "_links": {
        "profile": "https://www.republique-numerique.fr/profile/rubielloluc",
        "settings": "https://www.republique-numerique.fr/profile/edit-profile"
      }
    },
    "type": {
      "id": 86,
      "title": "Section 1",
      "subtitle": "Ouverture des données publiques",
      "voteWidgetType": 2,
      "votesHelpText": "Pensez-vous que cette proposition permet d'atteindre les objectifs présentés dans l’explication de l’article ?",
      "commentSystem": 2,
      "color": "blue",
      "versionable": true,
      "sourceable": true,
      "votesThreshold": null,
      "votesThresholdHelpText": null
    },
    "sources": [
      {
        "isContribuable": false,
        "id": 155,
        "title": "Pétition pour une personnalité numérique",
        "link": "http://www.innovativity.org/petition-personnalite-numerique.php",
        "body": "\" (...) Dans le prolongement de l’article 6 (« Chacun a le droit à lareconnaissance en tous lieux de sa personnalité juridique. ») de la Déclaration universelle des Droits de l’Homme de 1948 , [il faut] reconnaître et de définir la Personnalité numérique, droit fondamental et universel de tout citoyen de vivre et mourir sur internet (...) \"",
        "created_at": "2015-10-01T10:44:52+0200",
        "updated_at": "2015-10-01T10:44:52+0200",
        "author": {
          "username": "Pierre",
          "displayName": "Pierre",
          "uniqueId": "pierre1",
          "isAdmin": false,
          "media": {
            "url": "/media/cache/default_avatar/default/0001/01/199_default_avatar.png"
          },
          "vip": false,
          "_links": {
            "profile": "https://www.republique-numerique.fr/profile/pierre1",
            "settings": "https://www.republique-numerique.fr/profile/edit-profile"
          }
        },
        "category": "Site internet",
        "votes_count": 0,
        "_links": {
          "edit": "https://www.republique-numerique.fr/consultations/projet-de-loi-numerique/consultation/consultation/opinions/section-1-ouverture-des-donnees-publiques-1/construire-sa-personnalite-numerique-un-droit-fondamental-du-citoyen/sources/petition-pour-une-personnalite-numerique/edit",
          "report": "https://www.republique-numerique.fr/consultations/projet-de-loi-numerique/consultation/consultation/opinions/section-1-ouverture-des-donnees-publiques-1/construire-sa-personnalite-numerique-un-droit-fondamental-du-citoyen/sources/petition-pour-une-personnalite-numerique/report"
        },
        "has_user_voted": false,
        "has_user_reported": false
      }
    ],
    "arguments": [
      {
        "isContribuable": false,
        "id": 5830,
        "body": "Nous vivons aujourd'hui dans un monde fermé de systèmes propriétaires ou ayant comme objectif la revente des données personnelles, pétrole du 21eme siècle : la reconnaissance de la personnalité numérique permettrait de sortir de ce cercle vicieux pour entrer dans le cercle vertueux de la réelle ouverture des données publiques!",
        "created_at": "2015-10-18T14:29:33+0200",
        "updated_at": "2015-10-18T14:29:33+0200",
        "is_enabled": true,
        "votes_count": 0,
        "type": 1,
        "is_trashed": false,
        "author": {
          "username": "RUBIELLO Luc",
          "displayName": "RUBIELLO Luc",
          "uniqueId": "rubielloluc",
          "isAdmin": false,
          "media": {
            "url": "/media/cache/default_avatar/default/0001/01/350_default_avatar.jpg"
          },
          "vip": false,
          "_links": {
            "profile": "https://www.republique-numerique.fr/profile/rubielloluc",
            "settings": "https://www.republique-numerique.fr/profile/edit-profile"
          }
        },
        "_links": {
          "show": "https://www.republique-numerique.fr/consultations/projet-de-loi-numerique/consultation/consultation/opinions/section-1-ouverture-des-donnees-publiques-1/construire-sa-personnalite-numerique-un-droit-fondamental-du-citoyen#arg-5830",
          "edit": "https://www.republique-numerique.fr/consultations/projet-de-loi-numerique/consultation/consultation/opinions/section-1-ouverture-des-donnees-publiques-1/construire-sa-personnalite-numerique-un-droit-fondamental-du-citoyen/arguments/5830/edit",
          "report": "https://www.republique-numerique.fr/consultations/projet-de-loi-numerique/consultation/consultation/opinions/section-1-ouverture-des-donnees-publiques-1/construire-sa-personnalite-numerique-un-droit-fondamental-du-citoyen/arguments/5830/report"
        },
        "has_user_voted": false,
        "has_user_reported": false
      },
      {
        "isContribuable": false,
        "id": 5249,
        "body": "Rien n'entrave aujourd'hui la construction de cette personnalité, au contraire, elle est des plus facilités et encouragées via les différents réseaux sociaux.",
        "created_at": "2015-10-17T14:43:47+0200",
        "updated_at": "2015-10-17T14:43:47+0200",
        "is_enabled": true,
        "votes_count": 0,
        "type": 0,
        "is_trashed": false,
        "author": {
          "username": "Tanéléo",
          "displayName": "Tanéléo",
          "uniqueId": "taneleo",
          "isAdmin": false,
          "media": null,
          "vip": false,
          "_links": {
            "profile": "https://www.republique-numerique.fr/profile/taneleo",
            "settings": "https://www.republique-numerique.fr/profile/edit-profile"
          }
        },
        "_links": {
          "show": "https://www.republique-numerique.fr/consultations/projet-de-loi-numerique/consultation/consultation/opinions/section-1-ouverture-des-donnees-publiques-1/construire-sa-personnalite-numerique-un-droit-fondamental-du-citoyen#arg-5249",
          "edit": "https://www.republique-numerique.fr/consultations/projet-de-loi-numerique/consultation/consultation/opinions/section-1-ouverture-des-donnees-publiques-1/construire-sa-personnalite-numerique-un-droit-fondamental-du-citoyen/arguments/5249/edit",
          "report": "https://www.republique-numerique.fr/consultations/projet-de-loi-numerique/consultation/consultation/opinions/section-1-ouverture-des-donnees-publiques-1/construire-sa-personnalite-numerique-un-droit-fondamental-du-citoyen/arguments/5249/report"
        },
        "has_user_voted": false,
        "has_user_reported": false
      },
      {
        "isContribuable": false,
        "id": 2197,
        "body": "Je ne peux effectivement pas imaginer vivre sans personnalité juridique dont la personnalité numérique est le prolongement naturel à l'heure d'internet.",
        "created_at": "2015-10-04T20:17:12+0200",
        "updated_at": "2015-10-04T20:17:12+0200",
        "is_enabled": true,
        "votes_count": 0,
        "type": 1,
        "is_trashed": false,
        "author": {
          "username": "maelys",
          "displayName": "maelys",
          "uniqueId": "maelys",
          "isAdmin": false,
          "media": null,
          "vip": false,
          "_links": {
            "profile": "https://www.republique-numerique.fr/profile/maelys",
            "settings": "https://www.republique-numerique.fr/profile/edit-profile"
          }
        },
        "_links": {
          "show": "https://www.republique-numerique.fr/consultations/projet-de-loi-numerique/consultation/consultation/opinions/section-1-ouverture-des-donnees-publiques-1/construire-sa-personnalite-numerique-un-droit-fondamental-du-citoyen#arg-2197",
          "edit": "https://www.republique-numerique.fr/consultations/projet-de-loi-numerique/consultation/consultation/opinions/section-1-ouverture-des-donnees-publiques-1/construire-sa-personnalite-numerique-un-droit-fondamental-du-citoyen/arguments/2197/edit",
          "report": "https://www.republique-numerique.fr/consultations/projet-de-loi-numerique/consultation/consultation/opinions/section-1-ouverture-des-donnees-publiques-1/construire-sa-personnalite-numerique-un-droit-fondamental-du-citoyen/arguments/2197/report"
        },
        "has_user_voted": false,
        "has_user_reported": false
      },
      {
        "isContribuable": false,
        "id": 1834,
        "body": "Sans doute intéressant mais ici on traite de l'ouverture des données publiques.",
        "created_at": "2015-10-01T13:40:33+0200",
        "updated_at": "2015-10-01T13:40:33+0200",
        "is_enabled": true,
        "votes_count": 0,
        "type": 0,
        "is_trashed": false,
        "author": {
          "username": "Laurent Martin",
          "displayName": "Laurent Martin",
          "uniqueId": "laurentmartin",
          "isAdmin": false,
          "media": null,
          "vip": false,
          "_links": {
            "profile": "https://www.republique-numerique.fr/profile/laurentmartin",
            "settings": "https://www.republique-numerique.fr/profile/edit-profile"
          }
        },
        "_links": {
          "show": "https://www.republique-numerique.fr/consultations/projet-de-loi-numerique/consultation/consultation/opinions/section-1-ouverture-des-donnees-publiques-1/construire-sa-personnalite-numerique-un-droit-fondamental-du-citoyen#arg-1834",
          "edit": "https://www.republique-numerique.fr/consultations/projet-de-loi-numerique/consultation/consultation/opinions/section-1-ouverture-des-donnees-publiques-1/construire-sa-personnalite-numerique-un-droit-fondamental-du-citoyen/arguments/1834/edit",
          "report": "https://www.republique-numerique.fr/consultations/projet-de-loi-numerique/consultation/consultation/opinions/section-1-ouverture-des-donnees-publiques-1/construire-sa-personnalite-numerique-un-droit-fondamental-du-citoyen/arguments/1834/report"
        },
        "has_user_voted": false,
        "has_user_reported": false
      }
    ],
    "modals": [],
    "votes": [
      {
        "user": {
          "username": "Pierre",
          "displayName": "Pierre",
          "uniqueId": "pierre1",
          "isAdmin": false,
          "media": {
            "url": "/media/cache/default_avatar/default/0001/01/199_default_avatar.png"
          },
          "vip": false,
          "_links": {
            "profile": "https://www.republique-numerique.fr/profile/pierre1",
            "settings": "https://www.republique-numerique.fr/profile/edit-profile"
          }
        }
      },
      {
        "user": {
          "username": "Laurent Martin",
          "displayName": "Laurent Martin",
          "uniqueId": "laurentmartin",
          "isAdmin": false,
          "media": null,
          "vip": false,
          "_links": {
            "profile": "https://www.republique-numerique.fr/profile/laurentmartin",
            "settings": "https://www.republique-numerique.fr/profile/edit-profile"
          }
        }
      },
      {
        "user": {
          "username": "RUBIELLO Luc",
          "displayName": "RUBIELLO Luc",
          "uniqueId": "rubielloluc",
          "isAdmin": false,
          "media": {
            "url": "/media/cache/default_avatar/default/0001/01/350_default_avatar.jpg"
          },
          "vip": false,
          "_links": {
            "profile": "https://www.republique-numerique.fr/profile/rubielloluc",
            "settings": "https://www.republique-numerique.fr/profile/edit-profile"
          }
        }
      },
      {
        "user": {
          "username": "DUBREUCQ",
          "displayName": "DUBREUCQ",
          "uniqueId": "dubreucq",
          "isAdmin": false,
          "media": null,
          "vip": false,
          "_links": {
            "profile": "https://www.republique-numerique.fr/profile/dubreucq",
            "settings": "https://www.republique-numerique.fr/profile/edit-profile"
          }
        }
      },
      {
        "user": {
          "username": "François Briat",
          "displayName": "François Briat",
          "uniqueId": "francoisbriat",
          "isAdmin": false,
          "media": {
            "url": "/media/cache/default_avatar/default/0001/01/243_default_avatar.jpg"
          },
          "vip": false,
          "_links": {
            "profile": "https://www.republique-numerique.fr/profile/francoisbriat",
            "settings": "https://www.republique-numerique.fr/profile/edit-profile"
          }
        }
      }
    ],
    "appendices": [
      {
        "body": "<p>L&rsquo;article 6 de la D&eacute;claration des Droits de l&rsquo;Homme de 1948 indique que <em>&laquo;&nbsp;chaque citoyen a le droit en tout lieu &agrave; la reconnaissance de sa personnalit&eacute; juridique&nbsp;&raquo;</em>.</p>\r\n\r\n<p>Cet article est fondateur en ce qu&rsquo;il reconna&icirc;t pour la premi&egrave;re&nbsp;fois la personnalit&eacute; juridique.</p>\r\n\r\n<p>A l&#39;heure d&#39;internet, la France, pays des Droits de l&#39;homme,&nbsp;doit reconna&icirc;tre et d&eacute;finir le PRINCIPE de Personnalit&eacute; num&eacute;rique qui se traduit par le fait que &laquo;&nbsp; tout citoyen a le droit de vivre et mourir sur internet par la cr&eacute;ation et le retrait des donn&eacute;es num&eacute;riques qui le concernent&nbsp;&raquo;</p>",
        "type": {
          "title": "Explication de l'article"
        }
      }
    ],
    "ranking": 163,
    "is_trashed": false,
    "title": "Construire sa personnalité numérique : un droit fondamental du citoyen",
    "votes_nok": 4,
    "votes_ok": 38,
    "votes_mitige": 8,
    "_links": {
      "show": "https://www.republique-numerique.fr/consultations/projet-de-loi-numerique/consultation/consultation/opinions/section-1-ouverture-des-donnees-publiques-1/construire-sa-personnalite-numerique-un-droit-fondamental-du-citoyen",
      "edit": "https://www.republique-numerique.fr/consultations/projet-de-loi-numerique/consultation/consultation/opinions/section-1-ouverture-des-donnees-publiques-1/construire-sa-personnalite-numerique-un-droit-fondamental-du-citoyen/edit",
      "report": "https://www.republique-numerique.fr/consultations/projet-de-loi-numerique/consultation/consultation/opinions/section-1-ouverture-des-donnees-publiques-1/construire-sa-personnalite-numerique-un-droit-fondamental-du-citoyen/report",
      "type": "https://www.republique-numerique.fr/consultations/projet-de-loi-numerique/consultation/consultation/opinions/section-1-ouverture-des-donnees-publiques-1"
    },
    "user_vote": null,
    "has_user_reported": false
  },
  "rankingThreshold": null,
  "opinionTerm": 1
}