{
  "version": {
    "isContribuable": false,
    "votes_total": 8,
    "arguments_yes_count": 0,
    "arguments_no_count": 0,
    "id": 268,
    "body": "<p>L&rsquo;article 40 de la loi n&deg; 78-17 du 6 janvier 1978 relative &agrave; l&rsquo;informatique, aux fichiers et aux libert&eacute;s est ainsi modifi&eacute;&nbsp;:</p>\n\n<p>1&deg; Au d&eacute;but du premier alin&eacute;a, est ajout&eacute;e la mention&nbsp;: &laquo;&nbsp;I. - &raquo;&nbsp;;</p>\n\n<p>2&deg; Il est ins&eacute;r&eacute; apr&egrave;s le quatri&egrave;me alin&eacute;a sept alin&eacute;as ainsi r&eacute;dig&eacute;s&nbsp;:</p>\n\n<p>&laquo;&nbsp;II. &ndash; Toute personne peut d&eacute;finir des directives relatives &agrave; la conservation et &agrave; la communication de ses donn&eacute;es &agrave; caract&egrave;re personnel apr&egrave;s son d&eacute;c&egrave;s. Ces directives sont g&eacute;n&eacute;rales ou particuli&egrave;res.</p>\n\n<p>&laquo;&nbsp;Les directives particuli&egrave;res concernent les traitements de donn&eacute;es &agrave; caract&egrave;re personnel qu&rsquo;elles d&eacute;signent. Elles sont enregistr&eacute;es aupr&egrave;s des responsables de traitement concern&eacute;s.</p>\n\n<p>&laquo;&nbsp;Les directives d&eacute;finissent la mani&egrave;re dont la personne entend que soient exerc&eacute;s apr&egrave;s son d&eacute;c&egrave;s les droits qu&rsquo;elle d&eacute;tient en application de la pr&eacute;sente loi. Ces directives sont sans pr&eacute;judice des dispositions applicables aux donn&eacute;es &agrave; caract&egrave;re personnel relevant du r&eacute;gime sur les archives publiques.</p>\n\n<p>&laquo;&nbsp;Lorsque les directives pr&eacute;voient la communication de donn&eacute;es qui comportent &eacute;galement des donn&eacute;es &agrave; caract&egrave;re personnel relatives &agrave; des tiers, cette communication doit &ecirc;tre effectu&eacute;e dans le respect de la pr&eacute;sente loi.</p>\n\n<p>&laquo;&nbsp;La personne peut modifier ou r&eacute;voquer ses directives &agrave; tout moment. Elles sont r&eacute;dig&eacute;es selon un mod&egrave;le dont le contenu est fix&eacute; par d&eacute;cret en Conseil d&rsquo;Etat.</p>\n\n<p>&laquo;&nbsp;III. - Les directives peuvent d&eacute;signer une personne charg&eacute;e de leur ex&eacute;cution. Celle-ci a alors qualit&eacute;, lorsque la personne est d&eacute;c&eacute;d&eacute;e, pour prendre connaissance des directives et demander leur mise en &oelig;uvre aux responsables de traitement concern&eacute;s. A d&eacute;faut de d&eacute;signation, les h&eacute;ritiers de la personne d&eacute;c&eacute;d&eacute;e ont cette qualit&eacute;.</p>\n\n<p>&laquo;&nbsp;IV. - Sauf lorsque la personne concern&eacute;e a exprim&eacute; une volont&eacute; contraire dans les directives mentionn&eacute;es au II, ses h&eacute;ritiers peuvent exercer apr&egrave;s son d&eacute;c&egrave;s les droits mentionn&eacute;s &agrave; la pr&eacute;sente section. Toutefois, l&rsquo;effacement des donn&eacute;es dans les conditions pr&eacute;vues par l&rsquo;article 40 ne peut intervenir lorsqu&rsquo;un des h&eacute;ritiers s&rsquo;y oppose.&nbsp;&raquo;</p>\n\n<p>&laquo;&nbsp;V. - Le prestataire de stockage de signaux &eacute;crits, images, sons ou messages de toute nature sur Internet informe l&rsquo;utilisateur de ses droits &agrave; la protection de sa vie priv&eacute;e, du secret de ses correspondances et de ses donn&eacute;es &agrave; caract&egrave;re personnel.</p>\n\n<p>&laquo;&nbsp;Il informe l&rsquo;utilisateur du sort de ces donn&eacute;es &agrave; son d&eacute;c&egrave;s et lui permet de choisir de transmettre ou non ses donn&eacute;es &agrave; un tiers qu&rsquo;il d&eacute;signe pr&eacute;alablement &agrave; la conclusion du contrat de prestation&nbsp;&raquo;.</p>\n\n<p>II.&nbsp;-&nbsp;A la fin de l&rsquo;article 36 de la m&ecirc;me loi, il est ins&eacute;r&eacute; un alin&eacute;a ainsi r&eacute;dig&eacute;&nbsp;:</p>\n\n<p>&laquo;&nbsp;- soit en vertu de directives de la personne concern&eacute;e, dans les conditions d&eacute;finies au II de l&rsquo;article 40&nbsp;;&nbsp;&raquo;</p>",
    "comment": "La num&eacute;risation de l&#39;&eacute;conomie conduit &agrave; la d&eacute;mat&eacute;rialisation des achats de biens tels que livres, musique, jeux vid&eacute;o&nbsp; et autres contenus en ligne.&nbsp; Ce type de patrimoine d&eacute;mat&eacute;rialis&eacute; est souvent li&eacute;e &agrave; un compte utilistateur personnel, et sa transmission n&#39;est malheureusement pas garantie, contrairement aux biens tangibles.&nbsp; Le code civil et/ou le code de la consommation devraient &eacute;galement &ecirc;tre modifi&eacute;s de sorte &agrave; garantir que des clauses restrictives ne s&#39;opposent pas &agrave; la transmission par succession.",
    "author": {
      "username": "Christophe Thierry",
      "displayName": "Christophe Thierry",
      "uniqueId": "christophethierry",
      "isAdmin": false,
      "media": null,
      "vip": false,
      "_links": {
        "profile": "https://www.republique-numerique.fr/profile/christophethierry",
        "settings": "https://www.republique-numerique.fr/profile/edit-profile"
      }
    },
    "arguments": [],
    "sources": [],
    "parent": {
      "isContribuable": false,
      "id": 80,
      "body": "<p>L&rsquo;article 40 de la loi n&deg; 78-17 du 6 janvier 1978 relative &agrave; l&rsquo;informatique, aux fichiers et aux libert&eacute;s est ainsi modifi&eacute;&nbsp;:</p>\r\n\r\n<p>1&deg; Au d&eacute;but du premier alin&eacute;a, est ajout&eacute;e la mention&nbsp;: &laquo;&nbsp;I. - &raquo;&nbsp;;</p>\r\n\r\n<p>2&deg; Il est ins&eacute;r&eacute; apr&egrave;s le quatri&egrave;me alin&eacute;a sept alin&eacute;as ainsi r&eacute;dig&eacute;s&nbsp;:</p>\r\n\r\n<p>&laquo;&nbsp;II. &ndash; Toute personne peut d&eacute;finir des directives relatives &agrave; la conservation et &agrave; la communication de ses donn&eacute;es &agrave; caract&egrave;re personnel apr&egrave;s son d&eacute;c&egrave;s. Ces directives sont g&eacute;n&eacute;rales ou particuli&egrave;res.</p>\r\n\r\n<p>&laquo;&nbsp;Les directives particuli&egrave;res concernent les traitements de donn&eacute;es &agrave; caract&egrave;re personnel qu&rsquo;elles d&eacute;signent. Elles sont enregistr&eacute;es aupr&egrave;s des responsables de traitement concern&eacute;s.</p>\r\n\r\n<p>&laquo;&nbsp;Les directives d&eacute;finissent la mani&egrave;re dont la personne entend que soient exerc&eacute;s apr&egrave;s son d&eacute;c&egrave;s les droits qu&rsquo;elle d&eacute;tient en application de la pr&eacute;sente loi. Ces directives sont sans pr&eacute;judice des dispositions applicables aux donn&eacute;es &agrave; caract&egrave;re personnel relevant du r&eacute;gime sur les archives publiques.</p>\r\n\r\n<p>&laquo;&nbsp;Lorsque les directives pr&eacute;voient la communication de donn&eacute;es qui comportent &eacute;galement des donn&eacute;es &agrave; caract&egrave;re personnel relatives &agrave; des tiers, cette communication doit &ecirc;tre effectu&eacute;e dans le respect de la pr&eacute;sente loi.</p>\r\n\r\n<p>&laquo;&nbsp;La personne peut modifier ou r&eacute;voquer ses directives &agrave; tout moment. Elles sont r&eacute;dig&eacute;es selon un mod&egrave;le dont le contenu est fix&eacute; par d&eacute;cret en Conseil d&rsquo;Etat.</p>\r\n\r\n<p>&laquo;&nbsp;III. - Les directives peuvent d&eacute;signer une personne charg&eacute;e de leur ex&eacute;cution. Celle-ci a alors qualit&eacute;, lorsque la personne est d&eacute;c&eacute;d&eacute;e, pour prendre connaissance des directives et demander leur mise en &oelig;uvre aux responsables de traitement concern&eacute;s. A d&eacute;faut de d&eacute;signation, les h&eacute;ritiers de la personne d&eacute;c&eacute;d&eacute;e ont cette qualit&eacute;.</p>\r\n\r\n<p>&laquo;&nbsp;IV. - Sauf lorsque la personne concern&eacute;e a exprim&eacute; une volont&eacute; contraire dans les directives mentionn&eacute;es au II, ses h&eacute;ritiers peuvent exercer apr&egrave;s son d&eacute;c&egrave;s les droits mentionn&eacute;s &agrave; la pr&eacute;sente section. Toutefois, l&rsquo;effacement des donn&eacute;es dans les conditions pr&eacute;vues par l&rsquo;article 40 ne peut intervenir lorsqu&rsquo;un des h&eacute;ritiers s&rsquo;y oppose.&nbsp;&raquo;</p>\r\n\r\n<p>&laquo;&nbsp;V. - Le prestataire de stockage de signaux &eacute;crits, images, sons ou messages de toute nature sur Internet informe l&rsquo;utilisateur de ses droits &agrave; la protection de sa vie priv&eacute;e, du secret de ses correspondances et de ses donn&eacute;es &agrave; caract&egrave;re personnel.</p>\r\n\r\n<p>&laquo;&nbsp;Il informe l&rsquo;utilisateur du sort de ces donn&eacute;es &agrave; son d&eacute;c&egrave;s et lui permet de choisir de transmettre ou non ses donn&eacute;es &agrave; un tiers qu&rsquo;il d&eacute;signe pr&eacute;alablement &agrave; la conclusion du contrat de prestation&nbsp;&raquo;.</p>\r\n\r\n<p>II.&nbsp;-&nbsp;A la fin de l&rsquo;article 36 de la m&ecirc;me loi, il est ins&eacute;r&eacute; un alin&eacute;a ainsi r&eacute;dig&eacute;&nbsp;:</p>\r\n\r\n<p>&laquo;&nbsp;- soit en vertu de directives de la personne concern&eacute;e, dans les conditions d&eacute;finies au II de l&rsquo;article 40&nbsp;;&nbsp;&raquo;</p>",
      "type": {
        "id": 99,
        "title": "Section 1",
        "subtitle": "Protection des données à caractère personnel",
        "voteWidgetType": 2,
        "votesHelpText": "Pensez-vous que cette proposition permet d'atteindre les objectifs présentés dans l’explication de l’article ?",
        "commentSystem": 2,
        "color": "blue",
        "versionable": true,
        "sourceable": true,
        "votesThreshold": null,
        "votesThresholdHelpText": null
      },
      "modals": [
        {
          "key": "article 40",
          "before": "<p>Toute personne physique justifiant de son identité peut exiger du responsable d'un traitement que soient, selon les cas, rectifiées, complétées, mises à jour, verrouillées ou effacées les données à caractère personnel la concernant, qui sont inexactes, incomplètes, équivoques, périmées, ou dont la collecte, l'utilisation, la communication ou la conservation est interdite.</p><p>Lorsque l'intéressé en fait la demande, le responsable du traitement doit justifier, sans frais pour le demandeur, qu'il a procédé aux opérations exigées en vertu de l'alinéa précédent.</p><p>En cas de contestation, la charge de la preuve incombe au responsable auprès duquel est exercé le droit d'accès sauf lorsqu'il est établi que les données contestées ont été communiquées par l'intéressé ou avec son accord.</p><p>Lorsqu'il obtient une modification de l'enregistrement, l'intéressé est en droit d'obtenir le remboursement des frais correspondant au coût de la copie mentionnée au I de l'article 39.</p><p>Si une donnée a été transmise à un tiers, le responsable du traitement doit accomplir les diligences utiles afin de lui notifier les opérations qu'il a effectuées conformément au premier alinéa.</p><p>Les héritiers d'une personne décédée justifiant de leur identité peuvent, si des éléments portés à leur connaissance leur laissent présumer que les données à caractère personnel la concernant faisant l'objet d'un traitement n'ont pas été actualisées, exiger du responsable de ce traitement qu'il prenne en considération le décès et procède aux mises à jour qui doivent en être la conséquence.</p><p>Lorsque les héritiers en font la demande, le responsable du traitement doit justifier, sans frais pour le demandeur, qu'il a procédé aux opérations exigées en vertu de l'alinéa précédent.</p>",
          "after": "<p>I. Toute personne physique justifiant de son identité peut exiger du responsable d'un traitement que soient, selon les cas, rectifiées, complétées, mises à jour, verrouillées ou effacées les données à caractère personnel la concernant, qui sont inexactes, incomplètes, équivoques, périmées, ou dont la collecte, l'utilisation, la communication ou la conservation est interdite.</p><p>Lorsque l'intéressé en fait la demande, le responsable du traitement doit justifier, sans frais pour le demandeur, qu'il a procédé aux opérations exigées en vertu de l'alinéa précédent.</p><p>En cas de contestation, la charge de la preuve incombe au responsable auprès duquel est exercé le droit d'accès sauf lorsqu'il est établi que les données contestées ont été communiquées par l'intéressé ou avec son accord.</p><p>Lorsqu'il obtient une modification de l'enregistrement, l'intéressé est en droit d'obtenir le remboursement des frais correspondant au coût de la copie mentionnée au I de l'article 39.</p><p>II. – Toute personne peut définir des directives relatives à la conservation et à la communication de ses données à caractère personnel après son décès. Ces directives sont générales ou particulières.</p><p>Les directives générales concernent l’ensemble des données à caractère personnel de leur auteur et peuvent être confiées à un tiers de confiance numérique certifié par la CNIL.</p><p>Les directives particulières concernent les traitements de données à caractère personnel qu’elles désignent. Elles sont enregistrées auprès des responsables de traitement concernés.</p><p>Les directives définissent la manière dont la personne entend  que soient exercés après son décès les droits qu’elle détient en application de la présente loi. Ces directives sont sans préjudice des dispositions applicables aux données à caractère personnel relevant du régime sur les archives publiques.</p><p>Lorsque les directives prévoient la communication de données qui comportent également des données à caractère personnel relatives à des tiers, cette communication doit être effectuée dans le respect de la présente loi.</p><p>La personne peut modifier ou révoquer ses directives à tout moment. Elles sont rédigées selon un modèle dont le contenu est fixé par décret en Conseil d’Etat.</p><p>III. - Les directives peuvent désigner une personne chargée de leur exécution. Celle-ci a alors qualité, lorsque la personne est décédée, pour prendre connaissance des directives et demander leur mise en œuvre aux responsables de traitement concernés. A défaut de désignation, les héritiers de la personne décédée ont cette qualité.</p><p>IV. - Sauf lorsque la personne concernée a exprimé une volonté contraire dans les directives mentionnées au II, ses héritiers peuvent exercer après son décès les droits mentionnés à la présente section. Toutefois, l’effacement des données dans les conditions prévues par l’article 40 ne peut intervenir lorsqu’un des héritiers s’y oppose. »</p><p>« V. - Le prestataire de stockage de signaux écrits, images, sons ou messages de toute nature sur Internet informe l’utilisateur de ses droits à la protection de sa vie privée, du secret de ses correspondances et de ses données à caractère personnel.</p><p>« Il informe l’utilisateur du sort de ces données à son décès et lui permet de choisir de transmettre ou non ses données à un tiers qu’il désigne préalablement à la conclusion du contrat de prestation ».</p><p>Si une donnée a été transmise à un tiers, le responsable du traitement doit accomplir les diligences utiles afin de lui notifier les opérations qu'il a effectuées conformément au premier alinéa.</p><p>Les héritiers d'une personne décédée justifiant de leur identité peuvent, si des éléments portés à leur connaissance leur laissent présumer que les données à caractère personnel la concernant faisant l'objet d'un traitement n'ont pas été actualisées, exiger du responsable de ce traitement qu'il prenne en considération le décès et procède aux mises à jour qui doivent en être la conséquence.</p><p>Lorsque les héritiers en font la demande, le responsable du traitement doit justifier, sans frais pour le demandeur, qu'il a procédé aux opérations exigées en vertu de l'alinéa précédent.</p>",
          "title": "Article 40 de la loi informatique et libertés (n° 78-17) du 17 janvier 1978"
        },
        {
          "key": "article 36",
          "before": "<p>Les données à caractère personnel ne peuvent être conservées au-delà de la durée prévue au 5° de l'article 6 qu'en vue d'être traitées à des fins historiques, statistiques ou scientifiques ; le choix des données ainsi conservées est opéré dans les conditions prévues à l'article L. 212-3 du code du patrimoine.</p><p>Les traitements dont la finalité se limite à assurer la conservation à long terme de documents d'archives dans le cadre du livre II du même code sont dispensés des formalités préalables à la mise en œuvre des traitements prévues au chapitre IV de la présente loi.</p><p>Il peut être procédé à un traitement ayant des finalités autres que celles mentionnées au premier alinéa :</p><p>-soit avec l'accord exprès de la personne concernée ;</p><p>-soit avec l'autorisation de la Commission nationale de l'informatique et des libertés ;</p><p>-soit dans les conditions prévues au 8° du II et au IV de l'article 8 s'agissant de données mentionnées au I de ce même article.</p>",
          "after": "<p>Les données à caractère personnel ne peuvent être conservées au-delà de la durée prévue au 5° de l'article 6 qu'en vue d'être traitées à des fins historiques, statistiques ou scientifiques ; le choix des données ainsi conservées est opéré dans les conditions prévues à l'article L. 212-3 du code du patrimoine.</p><p>Les traitements dont la finalité se limite à assurer la conservation à long terme de documents d'archives dans le cadre du livre II du même code sont dispensés des formalités préalables à la mise en œuvre des traitements prévues au chapitre IV de la présente loi.</p><p>Il peut être procédé à un traitement ayant des finalités autres que celles mentionnées au premier alinéa :</p><p>-soit avec l'accord exprès de la personne concernée ;</p><p>-soit avec l'autorisation de la Commission nationale de l'informatique et des libertés ;</p><p>-soit dans les conditions prévues au 8° du II et au IV de l'article 8 s'agissant de données mentionnées au I de ce même article.</p><p>- soit en vertu de directives de la personne concernée, dans les conditions définies au II de l’article 40 ;</p>",
          "title": "Article 36 de la loi informatique et liberté (n° 78-17) du 17 janvier 1978"
        }
      ],
      "appendices": [
        {
          "body": "<p><strong>Objectif :</strong> Permettre de d&eacute;cider par avance du sort de ses donn&eacute;es en cas de d&eacute;c&egrave;s</p>\r\n\r\n<p><strong>Explication :</strong> Avec le d&eacute;veloppement de l&rsquo;Internet et des r&eacute;seaux sociaux, les donn&eacute;es mises en ligne par les internautes connaissent un fort d&eacute;veloppement. La gestion de ces donn&eacute;es apr&egrave;s la mort, soul&egrave;ve des difficult&eacute;s, les h&eacute;ritiers n&rsquo;en ayant pas n&eacute;cessairement connaissance et ne pouvant y avoir acc&egrave;s. S&rsquo;agissant de donn&eacute;es &agrave; caract&egrave;re personnel, celles-ci sont attach&eacute;es &agrave; la personne du d&eacute;funt et ne peuvent &ecirc;tre transmises par voie de succession aux h&eacute;ritiers.<br />\r\nLe projet de loi permettra &agrave; toute personne, de son vivant, d&rsquo;organiser les conditions de conservation et de communication de ses donn&eacute;es &agrave; caract&egrave;re personnel apr&egrave;s son d&eacute;c&egrave;s. La personne pourra transmettre des directives sur le sort de ses donn&eacute;es &agrave; caract&egrave;re personnel &agrave; la CNIL ou &agrave; un responsable de traitement et pourra d&eacute;signer une personne charg&eacute;e de leur ex&eacute;cution.<br />\r\nPar ailleurs, les fournisseurs de services sur Internet devront informer l&rsquo;utilisateur du sort de ces donn&eacute;es &agrave; son d&eacute;c&egrave;s et lui permettre de choisir de les transmettre ou non &agrave; un tiers qu&rsquo;il d&eacute;signe.<br />\r\n<em>L&rsquo;adoption finale de cet article sera faite en coordination avec le projet de r&egrave;glement europ&eacute;en sur la protection des donn&eacute;es personnelles en cours de n&eacute;gociation.</em></p>\r\n\r\n<p><strong>Exemple :</strong> Un utilisateur d&rsquo;un service de photos en ligne aura acc&egrave;s &agrave; des r&eacute;glages dans le service lui permettant d&rsquo;indiquer ce qu&rsquo;il devient de ses donn&eacute;es apr&egrave;s son d&eacute;c&egrave;s.</p>",
          "type": {
            "title": "Explication de l'article"
          }
        }
      ],
      "title": "Article 20 - Mort numérique",
      "_links": {
        "show": "https://www.republique-numerique.fr/consultations/projet-de-loi-numerique/consultation/consultation/opinions/section-1-protection-des-donnees-a-caractere-personnel/article-20-personnes-decedees",
        "edit": "https://www.republique-numerique.fr/consultations/projet-de-loi-numerique/consultation/consultation/opinions/section-1-protection-des-donnees-a-caractere-personnel/article-20-personnes-decedees/edit",
        "report": "https://www.republique-numerique.fr/consultations/projet-de-loi-numerique/consultation/consultation/opinions/section-1-protection-des-donnees-a-caractere-personnel/article-20-personnes-decedees/report",
        "type": "https://www.republique-numerique.fr/consultations/projet-de-loi-numerique/consultation/consultation/opinions/section-1-protection-des-donnees-a-caractere-personnel"
      },
      "user_vote": null,
      "has_user_reported": false
    },
    "sources_count": 0,
    "arguments_count": 0,
    "votes": [
      {
        "user": {
          "username": "Lionel Frédéric Lebeau",
          "displayName": "Lionel Frédéric Lebeau",
          "uniqueId": "lionelfredericlebeau",
          "isAdmin": false,
          "media": null,
          "vip": false,
          "_links": {
            "profile": "https://www.republique-numerique.fr/profile/lionelfredericlebeau",
            "settings": "https://www.republique-numerique.fr/profile/edit-profile"
          }
        },
        "value": 1
      },
      {
        "user": {
          "username": "VIGIER Frederic",
          "displayName": "VIGIER Frederic",
          "uniqueId": "vigierfrederic",
          "isAdmin": false,
          "media": null,
          "vip": false,
          "_links": {
            "profile": "https://www.republique-numerique.fr/profile/vigierfrederic",
            "settings": "https://www.republique-numerique.fr/profile/edit-profile"
          }
        },
        "value": 1
      },
      {
        "user": {
          "username": "Christophe Thierry",
          "displayName": "Christophe Thierry",
          "uniqueId": "christophethierry",
          "isAdmin": false,
          "media": null,
          "vip": false,
          "_links": {
            "profile": "https://www.republique-numerique.fr/profile/christophethierry",
            "settings": "https://www.republique-numerique.fr/profile/edit-profile"
          }
        },
        "value": 1
      },
      {
        "user": {
          "username": "Vincent Reverdy",
          "displayName": "Vincent Reverdy",
          "uniqueId": "vincentreverdy",
          "isAdmin": false,
          "media": {
            "url": "/media/cache/default_avatar/default/0001/01/268_default_avatar.jpg"
          },
          "vip": false,
          "_links": {
            "profile": "https://www.republique-numerique.fr/profile/vincentreverdy",
            "settings": "https://www.republique-numerique.fr/profile/edit-profile"
          }
        },
        "value": 1
      },
      {
        "user": {
          "username": "Pierre Lavayssière",
          "displayName": "Pierre Lavayssière",
          "uniqueId": "pierrelavayssiere",
          "isAdmin": false,
          "media": null,
          "vip": false,
          "_links": {
            "profile": "https://www.republique-numerique.fr/profile/pierrelavayssiere",
            "settings": "https://www.republique-numerique.fr/profile/edit-profile"
          }
        },
        "value": 1
      }
    ],
    "updated_at": "2015-09-28T01:27:27+0200",
    "ranking": 471,
    "is_trashed": false,
    "title": "Mort numérique et droits immatériels",
    "slug": "mort-numerique-et-droits-immateriels",
    "created_at": "2015-09-28T01:27:27+0200",
    "votes_nok": 0,
    "votes_ok": 8,
    "votes_mitige": 0,
    "_links": {
      "show": "https://www.republique-numerique.fr/consultations/projet-de-loi-numerique/consultation/consultation/opinions/section-1-protection-des-donnees-a-caractere-personnel/article-20-personnes-decedees/versions/mort-numerique-et-droits-immateriels",
      "report": "https://www.republique-numerique.fr/consultations/projet-de-loi-numerique/consultation/consultation/opinions/section-1-protection-des-donnees-a-caractere-personnel/article-20-personnes-decedees/versions/mort-numerique-et-droits-immateriels/report"
    },
    "user_vote": null,
    "has_user_reported": false
  },
  "rankingThreshold": null,
  "opinionTerm": 1
}