{
  "version": {
    "isContribuable": false,
    "votes_total": 3,
    "arguments_yes_count": 1,
    "arguments_no_count": 0,
    "id": 240,
    "body": "<ul><li><p>Une transparence totale des op&eacute;rateurs sur les services et options propos&eacute;s et souscris</p>\n</li>\n<li><p>Qu&#39;aucun service ou option ne soient souscris automatiquement par simple consultation d&#39;un site tiers (exemple&nbsp;: annuaire invers&eacute;...)</p>\n</li>\n<li><p>Que les services et options soient valid&eacute;s par une d&eacute;marche claire et s&eacute;curis&eacute;e adopt&eacute;e de la m&ecirc;me mani&egrave;re par tous les op&eacute;rateurs</p>\n</li>\n<li><p>Interdiction des op&eacute;rateurs de connecter le client automatiquement &agrave; son compte client (ex&nbsp;: orange.fr...) sans une connexion s&eacute;curis&eacute;e par identifiant et mot de passe au pr&eacute;alable et donner la possibilit&eacute; au client de se d&eacute;connecter automatiquement pour que le client soit prot&eacute;g&eacute; des 1/3 qui pourraient souscrire &agrave; des services ou options &agrave; l&#39;insu du client.</p>\n</li>\n<li><p>Interdiction de l&#39;op&eacute;rateur d&#39;attribuer une adresse mail automatiquement si elle n&#39;est pas souhait&eacute;e par le client qui peut d&eacute;j&agrave; disposer d&#39;une adresse mail.</p>\n</li>\n<li><p>Obligation de l&#39;op&eacute;rateur de permettre &agrave; un ancien client de conserver son adresse mail.</p>\n</li>\n<li><p>Que le tarif social d&#39;internet soit g&eacute;r&eacute; par tous les op&eacute;rateurs existants (et pas seulement par orange.fr) ou que &ccedil;a fonctionne comme le tarif de premi&egrave;re n&eacute;cessit&eacute; du gaz.</p>\n</li>\n<li><p>La gratuit&eacute; des frais de mise en service pour un b&eacute;n&eacute;ficiaire du Rsa.</p>\n</li>\n<li><p>Gratuit&eacute; d&#39;un appel &agrave; son op&eacute;rateur internet aussi depuis les mobiles (ex. 09)</p>\n</li>\n<li><p>Pourquoi pas, la cr&eacute;ation d&#39;une plateforme internet supervis&eacute;e par l&#39;&eacute;tat sur laquelle tous les op&eacute;rateurs priv&eacute;s devront s&#39;inscrire et proposer tous les services et options que l&#39;usager/client (&agrave; travers un compte unique &laquo;&nbsp;&agrave; vie&nbsp;&raquo;) pourrait souscrire en cochant des cases (avec validation s&eacute;curis&eacute;e et certificat de confirmation), et obliger les op&eacute;rateurs &agrave; une transparence totale des tarifs et faciliter aussi la possibilit&eacute; des clients &agrave; changer d&#39;op&eacute;rateur tout en conservant son compte unique.</p>\n</li>\n<li><p>Que l&#39;&eacute;tat demande aux op&eacute;rateurs de r&eacute;agir rapidement &agrave; un probl&egrave;me signal&eacute; par un grand nombre de clients (cr&eacute;ation d&#39;un num&eacute;ro vert?)</p>\n</li>\n<li><p>Obliger les d&eacute;marcheurs et annonceurs &agrave; fournir un moyen pour se &quot;d&eacute;sabonner&quot; se &quot;d&eacute;sinscrire&quot; de liste d&#39;envoi. Trop de pourriels sont re&ccedil;us. Pr&eacute;voir des sanctions cr&eacute;dibles.</p>\n</li>\n</ul>",
    "comment": "Nos bo&icirc;tes &agrave; lettres sont envahies par de pourriels, m&ecirc;me avec toute l&#39;attention port&eacute;e &agrave; bien cocher que nous ne souhaitons pas des sollicitations par les partenaires de sites consult&eacute;s.",
    "author": {
      "username": "Henri GEDEON",
      "displayName": "Henri GEDEON",
      "uniqueId": "henrigedeon",
      "isAdmin": false,
      "media": null,
      "vip": false,
      "_links": {
        "profile": "https://www.republique-numerique.fr/profile/henrigedeon",
        "settings": "https://www.republique-numerique.fr/profile/edit-profile"
      }
    },
    "arguments": [
      {
        "isContribuable": false,
        "id": 5574,
        "body": "La spécification de sanctions financières doit être incluse dans l'article de loi ou reportée à un décret d'application publié ultérieurement.",
        "created_at": "2015-10-17T22:01:55+0200",
        "updated_at": "2015-10-17T22:01:55+0200",
        "is_enabled": true,
        "votes_count": 0,
        "type": 1,
        "is_trashed": false,
        "author": {
          "username": "Vincent Reverdy",
          "displayName": "Vincent Reverdy",
          "uniqueId": "vincentreverdy",
          "isAdmin": false,
          "media": {
            "url": "/media/cache/default_avatar/default/0001/01/268_default_avatar.jpg"
          },
          "vip": false,
          "_links": {
            "profile": "https://www.republique-numerique.fr/profile/vincentreverdy",
            "settings": "https://www.republique-numerique.fr/profile/edit-profile"
          }
        },
        "_links": {
          "show": "https://www.republique-numerique.fr/consultations/projet-de-loi-numerique/consultation/consultation/opinions/section-1-ouverture-des-donnees-publiques-1/transparence-securite/versions/pourriels-a-contrer#arg-5574",
          "edit": "https://www.republique-numerique.fr/consultations/projet-de-loi-numerique/consultation/consultation/opinions/section-1-ouverture-des-donnees-publiques-1/transparence-securite/arguments/5574/edit",
          "report": "https://www.republique-numerique.fr/consultations/projet-de-loi-numerique/consultation/consultation/opinions/section-1-ouverture-des-donnees-publiques-1/transparence-securite/arguments/5574/report"
        },
        "has_user_voted": false,
        "has_user_reported": false
      }
    ],
    "sources": [],
    "parent": {
      "isContribuable": false,
      "id": 111,
      "body": "<ul>\r\n\t<li>\r\n\t<p>Une transparence totale des op&eacute;rateurs sur les services et options propos&eacute;s et souscris</p>\r\n\t</li>\r\n\t<li>\r\n\t<p>Qu&#39;aucun service ou option ne soient souscris automatiquement par simple consultation d&#39;un site tiers (exemple&nbsp;: annuaire invers&eacute;...)</p>\r\n\t</li>\r\n\t<li>\r\n\t<p>Que les services et options soient valid&eacute;s par une d&eacute;marche claire et s&eacute;curis&eacute;e adopt&eacute;e de la m&ecirc;me mani&egrave;re par tous les op&eacute;rateurs</p>\r\n\t</li>\r\n\t<li>\r\n\t<p>Interdiction des op&eacute;rateurs de connecter le client automatiquement &agrave; son compte client (ex&nbsp;: orange.fr...) sans une connexion s&eacute;curis&eacute;e par identifiant et mot de passe au pr&eacute;alable et donner la possibilit&eacute; au client de se d&eacute;connecter automatiquement pour que le client soit prot&eacute;g&eacute; des 1/3 qui pourraient souscrire &agrave; des services ou options &agrave; l&#39;insu du client.</p>\r\n\t</li>\r\n\t<li>\r\n\t<p>Interdiction de l&#39;op&eacute;rateur d&#39;attribuer une adresse mail automatiquement si elle n&#39;est pas souhait&eacute;e par le client qui peut d&eacute;j&agrave; disposer d&#39;une adresse mail.</p>\r\n\t</li>\r\n\t<li>\r\n\t<p>Obligation de l&#39;op&eacute;rateur de permettre &agrave; un ancien client de conserver son adresse mail.</p>\r\n\t</li>\r\n\t<li>\r\n\t<p><span style=\"line-height:1.6\">Que le tarif social d&#39;internet soit g&eacute;r&eacute; par tous les op&eacute;rateurs existants (et pas seulement par orange.fr) ou que &ccedil;a fonctionne comme le tarif de premi&egrave;re n&eacute;cessit&eacute; du gaz.</span></p>\r\n\t</li>\r\n\t<li>\r\n\t<p>La gratuit&eacute; des frais de mise en service pour un b&eacute;n&eacute;ficiaire du Rsa.</p>\r\n\t</li>\r\n\t<li>\r\n\t<p>Gratuit&eacute; d&#39;un appel &agrave; son op&eacute;rateur internet aussi depuis les mobiles (ex. 09)</p>\r\n\t</li>\r\n\t<li>\r\n\t<p>Pourquoi pas, la cr&eacute;ation d&#39;une plateforme internet supervis&eacute;e par l&#39;&eacute;tat sur laquelle tous les op&eacute;rateurs priv&eacute;s devront s&#39;inscrire et proposer tous les services et options que l&#39;usager/client (&agrave; travers un compte unique &laquo;&nbsp;&agrave; vie&nbsp;&raquo;) pourrait souscrire en cochant des cases (avec validation s&eacute;curis&eacute;e et certificat de confirmation), et obliger les op&eacute;rateurs &agrave; une transparence totale des tarifs et faciliter aussi la possibilit&eacute; des clients &agrave; changer d&#39;op&eacute;rateur tout en conservant son compte unique.</p>\r\n\t</li>\r\n\t<li>\r\n\t<p>Que l&#39;&eacute;tat demande aux op&eacute;rateurs de r&eacute;agir rapidement &agrave; un probl&egrave;me signal&eacute; par un grand nombre de clients (cr&eacute;ation d&#39;un num&eacute;ro vert?)</p>\r\n\t</li>\r\n</ul>",
      "type": {
        "id": 86,
        "title": "Section 1",
        "subtitle": "Ouverture des données publiques",
        "voteWidgetType": 2,
        "votesHelpText": "Pensez-vous que cette proposition permet d'atteindre les objectifs présentés dans l’explication de l’article ?",
        "commentSystem": 2,
        "color": "blue",
        "versionable": true,
        "sourceable": true,
        "votesThreshold": null,
        "votesThresholdHelpText": null
      },
      "modals": [],
      "appendices": [
        {
          "body": null,
          "type": {
            "title": "Explication de l'article"
          }
        }
      ],
      "title": "Transparence / Sécurité",
      "_links": {
        "show": "https://www.republique-numerique.fr/consultations/projet-de-loi-numerique/consultation/consultation/opinions/section-1-ouverture-des-donnees-publiques-1/transparence-securite",
        "edit": "https://www.republique-numerique.fr/consultations/projet-de-loi-numerique/consultation/consultation/opinions/section-1-ouverture-des-donnees-publiques-1/transparence-securite/edit",
        "report": "https://www.republique-numerique.fr/consultations/projet-de-loi-numerique/consultation/consultation/opinions/section-1-ouverture-des-donnees-publiques-1/transparence-securite/report",
        "type": "https://www.republique-numerique.fr/consultations/projet-de-loi-numerique/consultation/consultation/opinions/section-1-ouverture-des-donnees-publiques-1"
      },
      "user_vote": null,
      "has_user_reported": false
    },
    "sources_count": 0,
    "arguments_count": 1,
    "votes": [
      {
        "user": {
          "username": "François Briat",
          "displayName": "François Briat",
          "uniqueId": "francoisbriat",
          "isAdmin": false,
          "media": {
            "url": "/media/cache/default_avatar/default/0001/01/243_default_avatar.jpg"
          },
          "vip": false,
          "_links": {
            "profile": "https://www.republique-numerique.fr/profile/francoisbriat",
            "settings": "https://www.republique-numerique.fr/profile/edit-profile"
          }
        },
        "value": 0
      },
      {
        "user": {
          "username": "Vincent Reverdy",
          "displayName": "Vincent Reverdy",
          "uniqueId": "vincentreverdy",
          "isAdmin": false,
          "media": {
            "url": "/media/cache/default_avatar/default/0001/01/268_default_avatar.jpg"
          },
          "vip": false,
          "_links": {
            "profile": "https://www.republique-numerique.fr/profile/vincentreverdy",
            "settings": "https://www.republique-numerique.fr/profile/edit-profile"
          }
        },
        "value": 1
      },
      {
        "user": {
          "username": "Dominique Mégevand",
          "displayName": "Dominique Mégevand",
          "uniqueId": "dominiquemegevand",
          "isAdmin": false,
          "media": null,
          "vip": false,
          "_links": {
            "profile": "https://www.republique-numerique.fr/profile/dominiquemegevand",
            "settings": "https://www.republique-numerique.fr/profile/edit-profile"
          }
        },
        "value": 1
      }
    ],
    "updated_at": "2015-09-27T18:12:29+0200",
    "ranking": 880,
    "is_trashed": false,
    "title": "Pourriels à contrer",
    "slug": "pourriels-a-contrer",
    "created_at": "2015-09-27T18:12:29+0200",
    "votes_nok": 0,
    "votes_ok": 2,
    "votes_mitige": 1,
    "_links": {
      "show": "https://www.republique-numerique.fr/consultations/projet-de-loi-numerique/consultation/consultation/opinions/section-1-ouverture-des-donnees-publiques-1/transparence-securite/versions/pourriels-a-contrer",
      "report": "https://www.republique-numerique.fr/consultations/projet-de-loi-numerique/consultation/consultation/opinions/section-1-ouverture-des-donnees-publiques-1/transparence-securite/versions/pourriels-a-contrer/report"
    },
    "user_vote": null,
    "has_user_reported": false
  },
  "rankingThreshold": null,
  "opinionTerm": 1
}