{
  "version": {
    "isContribuable": false,
    "votes_total": 105,
    "arguments_yes_count": 1,
    "arguments_no_count": 0,
    "id": 831,
    "body": "<p>Apr&egrave;s le deuxi&egrave;me alin&eacute;a de l&rsquo;article 40 de la loi n&deg;78-17 du 6 janvier 1978 relative &agrave; l&rsquo;informatique, aux fichiers et aux libert&eacute;s, sont ins&eacute;r&eacute;s les alin&eacute;as suivants : <em>(ajouts propos&eacute;s par la Ligue de l&#39;enseignement en italique)</em></p>\n\n<p><em>Titre: Droit &agrave; l&#39;oubli des donn&eacute;es &agrave; caract&egrave;re personnel</em></p>\n\n<p><em>&quot;La Libre disposition des donn&eacute;es &agrave; caract&egrave;re personnel, telle que d&eacute;finie &agrave;&nbsp;l&#39;article 16, est garantie par le droit dont dispose toute personne de solliciter la suppression des dites donn&eacute;es aupr&egrave;s du&nbsp;responsable de&nbsp;traitement des donn&eacute;es &agrave; caract&egrave;re personnel qui ont &eacute;t&eacute; collect&eacute;es dans le cadre vis&eacute;.</em></p>\n\n<p><em>En cas de refus ou d&#39;absence de r&eacute;ponse de la part du responsable du traitement &agrave; l&#39;&eacute;gard de la personne concern&eacute;e, cette derni&egrave;re peut saisir la Commission Nationale de l&#39;Informatique et des Libert&eacute;s, qui se prononce dans un d&eacute;lai de 15 jours.&quot;</em></p>\n\n<p>&laquo; Le responsable du traitement est tenu d&#39;effacer dans les meilleurs d&eacute;lais les donn&eacute;es &agrave; caract&egrave;re personnel qui ont &eacute;t&eacute; collect&eacute;es dans le cadre de l&rsquo;offre de services de la soci&eacute;t&eacute; de l&rsquo;information lorsque la personne concern&eacute;e &eacute;tait mineure <em>ou incapable majeure</em> au moment de la collecte.</p>\n\n<p><br />\n&laquo;&nbsp;En cas de refus ou d&rsquo;absence de r&eacute;ponse de la part du responsable de traitement &agrave; l&rsquo;&eacute;gard de la personne concern&eacute;e, cette derni&egrave;re <em>ou son repr&eacute;sentant</em> peut saisir la Commission Nationale de l&rsquo;Informatique et des Libert&eacute;s, qui se prononce sur la demande dans un d&eacute;lai de 15 jours.</p>\n\n<p>&laquo;&nbsp;Les dispositions des alin&eacute;as pr&eacute;c&eacute;dents ne s&#39;appliquent pas lorsque le traitement de donn&eacute;es &agrave; caract&egrave;re personnel est n&eacute;cessaire :<br />\n- pour exercer le droit &agrave; la libert&eacute; d&rsquo;expression et d&rsquo;information<br />\n- pour respecter une obligation l&eacute;gale qui requiert le traitement des donn&eacute;es ou pour exercer une mission d&rsquo;int&eacute;r&ecirc;t public ou relevant de l&rsquo;exercice de l&rsquo;autorit&eacute; publique dont est investi le responsable du traitement<br />\n- pour des motifs d&rsquo;int&eacute;r&ecirc;t public dans le domaine de la sant&eacute; publique <em>et de la protection des personnes</em><br />\n- &agrave; des fins d&rsquo;archivage dans l&rsquo;int&eacute;r&ecirc;t public ou &agrave; des fins scientifiques statistiques et historiques<br />\n- &agrave; la constatation, &agrave; l&#39;exercice ou &agrave; la d&eacute;fense de droits en justice, <em>sans pr&eacute;judice du respect des r&egrave;gles de prescription &eacute;tablies par la loi</em></p>\n\n<p><em>En cas de discussion sur l&#39;applicabilit&eacute; des r&eacute;serves sus mentionn&eacute;es, la Commission Nationale de l&#39;Informatique et des Libert&eacute;s statue dans un d&eacute;lai de 15 jours apr&egrave;s avoir &eacute;t&eacute; saisie par la partie la plus diligente.&nbsp;</em></p>\n\n<p><br />\n&laquo;&nbsp;Les modalit&eacute;s d&rsquo;application des huit alin&eacute;as pr&eacute;c&eacute;dents sont fix&eacute;es par d&eacute;cret en Conseil d&rsquo;Etat.&nbsp;&raquo;</p>\n\n<p>&nbsp;</p>",
    "comment": "<p>Internet pose la question de la ma&icirc;trise que nous avons des donn&eacute;es &agrave; caract&egrave;re personnel&nbsp;que nous produisons : toutes nos navigations sur Internet, comme les informations que nous y laissons, laissent des traces visibles, appropriables, et trop souvent appropri&eacute;es, sur lesquelles nous n&#39;avons aucun contr&ocirc;le.</p>\n\n<p>Un simple droit d&#39;acc&egrave;s et de maitr&icirc;se d&#39;usage (tel que pr&eacute;vu dans l&#39;article 16) est insuffisant pour garantir un r&eacute;el contr&ocirc;le sur ces donn&eacute;es personnelles.&nbsp;</p>\n\n<p><strong>Etendre le droit &agrave; l&#39;oubli et &agrave; la d&eacute;sindexation pour tous (mineurs comme majeurs), c&#39;est dans ce contexte rendre &agrave; chacun le contr&ocirc;le sur sa vie priv&eacute;e.&nbsp;</strong></p>\n\n<p>Dans ces conditions, l&#39;article 19 modifi&eacute; que nous proposons donne &agrave; chacun le droit de demander &agrave; toute soci&eacute;t&eacute; ou organisme collecteur non seulement la transmission de ces donn&eacute;es, mais aussi leur suppression. Dans l&#39;int&eacute;r&ecirc;t du citoyen, il renforce les pouvoirs de la CNIL en &eacute;tendant les possibilit&eacute;s de saisine. Enfin, il &eacute;tend la syst&eacute;maticit&eacute; des suppressions pour les mineurs aux personnes prot&eacute;g&eacute;es, pour lesquelles la protection des droits est; on le sait, particuli&egrave;rement sensible.&nbsp;</p>\n\n<p><strong>Il s&#39;agit d&#39;un enjeu d&eacute;mocratique de premi&egrave;re importance.&nbsp;</strong></p>",
    "author": {
      "username": "Ligue_de_l'enseignement",
      "displayName": "Ligue_de_l'enseignement",
      "uniqueId": "liguedelenseignement",
      "isAdmin": false,
      "media": {
        "url": "/media/cache/default_avatar/default/0001/01/752_default_avatar.jpg"
      },
      "vip": false,
      "_links": {
        "profile": "https://www.republique-numerique.fr/profile/liguedelenseignement",
        "settings": "https://www.republique-numerique.fr/profile/edit-profile"
      }
    },
    "arguments": [
      {
        "isContribuable": false,
        "id": 3788,
        "body": "Le droit a l'oubli, s'il est primordial pour les mineurs, doit aussi concerner les majeurs qui doivent pouvoir exercer leurs responsabilites dans les domaines de leurs libertes . Qui n'a pas dans sa vie EVOLUE tant dans ses pensées , convictions, voire même  image ???",
        "created_at": "2015-10-14T09:59:38+0200",
        "updated_at": "2015-10-14T09:59:38+0200",
        "is_enabled": true,
        "votes_count": 4,
        "type": 1,
        "is_trashed": false,
        "author": {
          "username": "RANCE Michel",
          "displayName": "RANCE Michel",
          "uniqueId": "rancemichel",
          "isAdmin": false,
          "media": null,
          "vip": false,
          "_links": {
            "profile": "https://www.republique-numerique.fr/profile/rancemichel",
            "settings": "https://www.republique-numerique.fr/profile/edit-profile"
          }
        },
        "_links": {
          "show": "https://www.republique-numerique.fr/consultations/projet-de-loi-numerique/consultation/consultation/opinions/section-1-protection-des-donnees-a-caractere-personnel/article-19-droit-a-l-oubli-pour-les-mineurs-procedure-acceleree/versions/pour-un-droit-a-l-oubli-et-a-la-libre-disposition-de-ses-donnees-pour-tous#arg-3788",
          "edit": "https://www.republique-numerique.fr/consultations/projet-de-loi-numerique/consultation/consultation/opinions/section-1-protection-des-donnees-a-caractere-personnel/article-19-droit-a-l-oubli-pour-les-mineurs-procedure-acceleree/arguments/3788/edit",
          "report": "https://www.republique-numerique.fr/consultations/projet-de-loi-numerique/consultation/consultation/opinions/section-1-protection-des-donnees-a-caractere-personnel/article-19-droit-a-l-oubli-pour-les-mineurs-procedure-acceleree/arguments/3788/report"
        },
        "has_user_voted": false,
        "has_user_reported": false
      }
    ],
    "sources": [],
    "parent": {
      "isContribuable": false,
      "id": 79,
      "body": "<p>Apr&egrave;s le deuxi&egrave;me alin&eacute;a de l&rsquo;article 40 de la loi n&deg;78-17 du 6 janvier 1978 relative &agrave; l&rsquo;informatique, aux fichiers et aux libert&eacute;s, sont ins&eacute;r&eacute;s les alin&eacute;as suivants :</p>\r\n\r\n<p>&laquo; Le responsable du traitement est tenu d&#39;effacer dans les meilleurs d&eacute;lais les donn&eacute;es &agrave; caract&egrave;re personnel qui ont &eacute;t&eacute; collect&eacute;es dans le cadre de l&rsquo;offre de services de la soci&eacute;t&eacute; de l&rsquo;information lorsque la personne concern&eacute;e &eacute;tait mineure au moment de la collecte.<br />\r\n&laquo;&nbsp;En cas de refus ou d&rsquo;absence de r&eacute;ponse de la part du responsable de traitement &agrave; l&rsquo;&eacute;gard de la personne concern&eacute;e, cette derni&egrave;re peut saisir la Commission nationale de l&rsquo;informatique et des libert&eacute;s, qui se prononce sur la demande dans un d&eacute;lai de 15 jours.</p>\r\n\r\n<p>&laquo;&nbsp;Les dispositions des deux alin&eacute;as pr&eacute;c&eacute;dents ne s&#39;appliquent pas lorsque le traitement de donn&eacute;es &agrave; caract&egrave;re personnel est n&eacute;cessaire :<br />\r\n- pour exercer le droit &agrave; la libert&eacute; d&rsquo;expression et d&rsquo;information<br />\r\n- pour respecter une obligation l&eacute;gale qui requiert le traitement des donn&eacute;es ou pour exercer une mission d&rsquo;int&eacute;r&ecirc;t public ou relevant de l&rsquo;exercice de l&rsquo;autorit&eacute; publique dont est investi le responsable du traitement<br />\r\n- pour des motifs d&rsquo;int&eacute;r&ecirc;t public dans le domaine de la sant&eacute; publique<br />\r\n- &agrave; des fins d&rsquo;archivage dans l&rsquo;int&eacute;r&ecirc;t public ou &agrave; des fins scientifiques statistiques et historiques<br />\r\n- &agrave; la constatation, &agrave; l&#39;exercice ou &agrave; la d&eacute;fense de droits en justice<br />\r\n&laquo;&nbsp;Les modalit&eacute;s d&rsquo;application des huit alin&eacute;as pr&eacute;c&eacute;dents sont fix&eacute;es par d&eacute;cret en Conseil d&rsquo;Etat.&nbsp;&raquo;</p>",
      "type": {
        "id": 99,
        "title": "Section 1",
        "subtitle": "Protection des données à caractère personnel",
        "voteWidgetType": 2,
        "votesHelpText": "Pensez-vous que cette proposition permet d'atteindre les objectifs présentés dans l’explication de l’article ?",
        "commentSystem": 2,
        "color": "blue",
        "versionable": true,
        "sourceable": true,
        "votesThreshold": null,
        "votesThresholdHelpText": null
      },
      "modals": [
        {
          "key": "article 40",
          "before": "<p>Toute personne physique justifiant de son identité peut exiger du responsable d'un traitement que soient, selon les cas, rectifiées, complétées, mises à jour, verrouillées ou effacées les données à caractère personnel la concernant, qui sont inexactes, incomplètes, équivoques, périmées, ou dont la collecte, l'utilisation, la communication ou la conservation est interdite.</p><p>Lorsque l'intéressé en fait la demande, le responsable du traitement doit justifier, sans frais pour le demandeur, qu'il a procédé aux opérations exigées en vertu de l'alinéa précédent.</p><p>En cas de contestation, la charge de la preuve incombe au responsable auprès duquel est exercé le droit d'accès sauf lorsqu'il est établi que les données contestées ont été communiquées par l'intéressé ou avec son accord.</p><p>Lorsqu'il obtient une modification de l'enregistrement, l'intéressé est en droit d'obtenir le remboursement des frais correspondant au coût de la copie mentionnée au I de l'article 39.</p>",
          "after": "<p>Toute personne physique justifiant de son identité peut exiger du responsable d'un traitement que soient, selon les cas, rectifiées, complétées, mises à jour, verrouillées ou effacées les données à caractère personnel la concernant, qui sont inexactes, incomplètes, équivoques, périmées, ou dont la collecte, l'utilisation, la communication ou la conservation est interdite.</p><p>Lorsque l'intéressé en fait la demande, le responsable du traitement doit justifier, sans frais pour le demandeur, qu'il a procédé aux opérations exigées en vertu de l'alinéa précédent.</p><p>Le responsable du traitement est tenu d'effacer dans les meilleurs délais les données à caractère personnel qui ont été collectées dans le cadre de l’offre de services de la société de l’information lorsque la personne concernée était mineure au moment de la collecte.</p><p>En cas de refus ou d’absence de réponse de la part du responsable de traitement à l’égard de la personne concernée, cette dernière peut saisir la Commission nationale de l’informatique et des libertés, qui se prononce sur la demande dans un délai de 15 jours.</p><p>Les dispositions des deux alinéas précédents ne s'appliquent pas lorsque le traitement de données à caractère personnel est nécessaire :</p><p>-pour exercer le droit à la liberté d’expression et d’information<br>-pour respecter une obligation légale qui requiert le traitement des données ou pour exercer une mission d’intérêt public ou relevant de l’exercice de l’autorité publique dont est investi le responsable du traitement<br>-pour des motifs d’intérêt public dans le domaine de la santé publique<br>-à des fins d’archivage dans l’intérêt public ou à des fins scientifiques statistiques et historiques<br>- à la constatation, à l'exercice ou à la défense de droits en justice</p><p>Les modalités d’application des huit alinéas précédents sont fixées par décret en Conseil d’Etat</p><p>En cas de contestation, la charge de la preuve incombe au responsable auprès duquel est exercé le droit d'accès sauf lorsqu'il est établi que les données contestées ont été communiquées par l'intéressé ou avec son accord.</p><p>Lorsqu'il obtient une modification de l'enregistrement, l'intéressé est en droit d'obtenir le remboursement des frais correspondant au coût de la copie mentionnée au I de l'article 39.</p>",
          "title": "Article 40 de la loi informatique et libertés (n° 78-17) du 17 janvier 1978"
        }
      ],
      "appendices": [
        {
          "body": "<p><strong>Objectif :</strong> Pr&eacute;voir une proc&eacute;dure acc&eacute;l&eacute;r&eacute;e pour le droit &agrave; l&rsquo;oubli des mineurs</p>\r\n\r\n<p><strong>Explication :</strong> le futur r&egrave;glement europ&eacute;en sur la protection des donn&eacute;es personnelles permettra aux mineurs de disposer d&rsquo;un droit &agrave; l&rsquo;effacement. Le projet de loi propose de pr&eacute;voir une proc&eacute;dure acc&eacute;l&eacute;r&eacute;e pour les mineurs dans l&rsquo;exercice de ce droit. Ainsi, le responsable de traitement devra faire droit &agrave; la demande du mineur dans ses meilleurs d&eacute;lais et la CNIL disposera d&rsquo;un d&eacute;lai de 15 jours pour statuer en cas de refus ou de silence du responsable de traitement.<br />\r\n<em>L&rsquo;adoption finale de cet article sera faite en coordination avec le projet de r&egrave;glement europ&eacute;en sur la protection des donn&eacute;es personnelles en cours de n&eacute;gociation.</em></p>\r\n\r\n<p><strong>Exemple :</strong> Un mineur qui souhaite effacer des photos d&eacute;plaisantes le concernant sur un r&eacute;seau social, pourra obtenir plus facilement et plus rapidement leur effacement</p>",
          "type": {
            "title": "Explication de l'article"
          }
        }
      ],
      "title": "Article 19 - Droit à l’oubli pour les mineurs",
      "_links": {
        "show": "https://www.republique-numerique.fr/consultations/projet-de-loi-numerique/consultation/consultation/opinions/section-1-protection-des-donnees-a-caractere-personnel/article-19-droit-a-l-oubli-pour-les-mineurs-procedure-acceleree",
        "edit": "https://www.republique-numerique.fr/consultations/projet-de-loi-numerique/consultation/consultation/opinions/section-1-protection-des-donnees-a-caractere-personnel/article-19-droit-a-l-oubli-pour-les-mineurs-procedure-acceleree/edit",
        "report": "https://www.republique-numerique.fr/consultations/projet-de-loi-numerique/consultation/consultation/opinions/section-1-protection-des-donnees-a-caractere-personnel/article-19-droit-a-l-oubli-pour-les-mineurs-procedure-acceleree/report",
        "type": "https://www.republique-numerique.fr/consultations/projet-de-loi-numerique/consultation/consultation/opinions/section-1-protection-des-donnees-a-caractere-personnel"
      },
      "user_vote": null,
      "has_user_reported": false
    },
    "sources_count": 0,
    "arguments_count": 1,
    "votes": [
      {
        "user": {
          "username": "Ligue_de_l'enseignement",
          "displayName": "Ligue_de_l'enseignement",
          "uniqueId": "liguedelenseignement",
          "isAdmin": false,
          "media": {
            "url": "/media/cache/default_avatar/default/0001/01/752_default_avatar.jpg"
          },
          "vip": false,
          "_links": {
            "profile": "https://www.republique-numerique.fr/profile/liguedelenseignement",
            "settings": "https://www.republique-numerique.fr/profile/edit-profile"
          }
        },
        "value": 1
      },
      {
        "user": {
          "username": "AUZET Philippe",
          "displayName": "AUZET Philippe",
          "uniqueId": "auzetphilippe",
          "isAdmin": false,
          "media": null,
          "vip": false,
          "_links": {
            "profile": "https://www.republique-numerique.fr/profile/auzetphilippe",
            "settings": "https://www.republique-numerique.fr/profile/edit-profile"
          }
        },
        "value": 1
      },
      {
        "user": {
          "username": "Jeantet S",
          "displayName": "Jeantet S",
          "uniqueId": "jeantets",
          "isAdmin": false,
          "media": null,
          "vip": false,
          "_links": {
            "profile": "https://www.republique-numerique.fr/profile/jeantets",
            "settings": "https://www.republique-numerique.fr/profile/edit-profile"
          }
        },
        "value": 1
      },
      {
        "user": {
          "username": "Vincent Reverdy",
          "displayName": "Vincent Reverdy",
          "uniqueId": "vincentreverdy",
          "isAdmin": false,
          "media": {
            "url": "/media/cache/default_avatar/default/0001/01/268_default_avatar.jpg"
          },
          "vip": false,
          "_links": {
            "profile": "https://www.republique-numerique.fr/profile/vincentreverdy",
            "settings": "https://www.republique-numerique.fr/profile/edit-profile"
          }
        },
        "value": 1
      },
      {
        "user": {
          "username": "Jean-François Morcillo",
          "displayName": "Jean-François Morcillo",
          "uniqueId": "jeanfrancoismorcillo",
          "isAdmin": false,
          "media": null,
          "vip": false,
          "_links": {
            "profile": "https://www.republique-numerique.fr/profile/jeanfrancoismorcillo",
            "settings": "https://www.republique-numerique.fr/profile/edit-profile"
          }
        },
        "value": 1
      }
    ],
    "updated_at": "2015-10-12T15:09:17+0200",
    "ranking": 46,
    "is_trashed": false,
    "title": "Pour un droit à l'oubli et à la libre disposition de ses données pour tous",
    "slug": "pour-un-droit-a-l-oubli-et-a-la-libre-disposition-de-ses-donnees-pour-tous",
    "created_at": "2015-10-12T15:09:17+0200",
    "votes_nok": 0,
    "votes_ok": 104,
    "votes_mitige": 1,
    "_links": {
      "show": "https://www.republique-numerique.fr/consultations/projet-de-loi-numerique/consultation/consultation/opinions/section-1-protection-des-donnees-a-caractere-personnel/article-19-droit-a-l-oubli-pour-les-mineurs-procedure-acceleree/versions/pour-un-droit-a-l-oubli-et-a-la-libre-disposition-de-ses-donnees-pour-tous",
      "report": "https://www.republique-numerique.fr/consultations/projet-de-loi-numerique/consultation/consultation/opinions/section-1-protection-des-donnees-a-caractere-personnel/article-19-droit-a-l-oubli-pour-les-mineurs-procedure-acceleree/versions/pour-un-droit-a-l-oubli-et-a-la-libre-disposition-de-ses-donnees-pour-tous/report"
    },
    "user_vote": null,
    "has_user_reported": false
  },
  "rankingThreshold": null,
  "opinionTerm": 1
}