{
  "opinion": {
    "isContribuable": false,
    "votes_total": 4,
    "arguments_yes_count": 0,
    "arguments_no_count": 0,
    "id": 722,
    "created_at": "2015-10-18T09:28:39+0200",
    "updated_at": "2015-10-18T09:28:39+0200",
    "body": "<p>La protection de l&#39;&eacute;galit&eacute; citoyenne sera mise en place par une surveillance des activit&eacute;s qui mettent en danger l&#39;&eacute;galit&eacute; et la libert&eacute; citoyennes.</p>\r\n\r\n<p>Les entreprises qui pratiquent l&#39;&eacute;vasion fiscale et l&#39;optimisation fiscale verront leur accessibilit&eacute; sur Internet ferm&eacute;es d&egrave;s qu&#39;une irr&eacute;gularit&eacute; au regard du fisc aura &eacute;t&eacute; constat&eacute;e (implantation dans un paradis fiscal, incitation &agrave; l&#39;&eacute;vasion fiscale, pratique de l&#39;optimisation fiscale), et jusqu&#39;&agrave; r&eacute;gularisation de la situation d&eacute;lictueuse.</p>\r\n\r\n<p>&nbsp;</p>",
    "versions_count": 0,
    "sources_count": 0,
    "arguments_count": 0,
    "author": {
      "username": "Jean-Marie Merle",
      "displayName": "Jean-Marie Merle",
      "uniqueId": "jeanmariemerle1",
      "isAdmin": false,
      "media": null,
      "vip": false,
      "_links": {
        "profile": "https://www.republique-numerique.fr/profile/jeanmariemerle1",
        "settings": "https://www.republique-numerique.fr/profile/edit-profile"
      }
    },
    "type": {
      "id": 94,
      "title": "Section 1",
      "subtitle": "Neutralité de l’internet",
      "voteWidgetType": 2,
      "votesHelpText": "Pensez-vous que cette proposition permet d'atteindre les objectifs présentés dans l’explication de l’article ?",
      "commentSystem": 2,
      "color": "blue",
      "versionable": true,
      "sourceable": true,
      "votesThreshold": null,
      "votesThresholdHelpText": null
    },
    "sources": [],
    "arguments": [],
    "modals": [],
    "votes": [
      {
        "user": {
          "username": "Jean-Marie Merle",
          "displayName": "Jean-Marie Merle",
          "uniqueId": "jeanmariemerle1",
          "isAdmin": false,
          "media": null,
          "vip": false,
          "_links": {
            "profile": "https://www.republique-numerique.fr/profile/jeanmariemerle1",
            "settings": "https://www.republique-numerique.fr/profile/edit-profile"
          }
        }
      },
      {
        "user": {
          "username": "Gami",
          "displayName": "Gami",
          "uniqueId": "gami",
          "isAdmin": false,
          "media": null,
          "vip": false,
          "_links": {
            "profile": "https://www.republique-numerique.fr/profile/gami",
            "settings": "https://www.republique-numerique.fr/profile/edit-profile"
          }
        }
      },
      {
        "user": {
          "username": "Jeanne Varasco",
          "displayName": "Jeanne Varasco",
          "uniqueId": "jeannevarasco",
          "isAdmin": false,
          "media": {
            "url": "/media/cache/default_avatar/default/0001/01/139_default_avatar.jpg"
          },
          "vip": false,
          "_links": {
            "profile": "https://www.republique-numerique.fr/profile/jeannevarasco",
            "settings": "https://www.republique-numerique.fr/profile/edit-profile"
          }
        }
      },
      {
        "user": {
          "username": "Maltese Nadine",
          "displayName": "Maltese Nadine",
          "uniqueId": "maltesenadine",
          "isAdmin": false,
          "media": {
            "url": "/media/cache/default_avatar/default/0001/01/113_default_avatar.png"
          },
          "vip": false,
          "_links": {
            "profile": "https://www.republique-numerique.fr/profile/maltesenadine",
            "settings": "https://www.republique-numerique.fr/profile/edit-profile"
          }
        }
      }
    ],
    "appendices": [
      {
        "body": "<p>Le principe de la redistribution fiscale est&nbsp;fondamental pour le bon fonctionnement d&#39;une soci&eacute;t&eacute; et la protection de tous ses citoyens. Les pratiques d&#39;&eacute;vasion fiscale, d&#39;optimisation fiscale et d&#39;implantation dans les paradis fiscaux sont des actes de d&eacute;tournement de fonds publics et de mise en danger de l&#39;&eacute;quilibre des soci&eacute;t&eacute;s et des citoyens les plus vuln&eacute;rables.</p>\r\n\r\n<p>L&#39;interdiction d&#39;exercer sur Internet et l&#39;interdiction de toute activit&eacute; commerciale sur le territoire fran&ccedil;ais &agrave; toute entreprise en infraction avec les r&egrave;gles de perception et de transparence fiscales sera rendue possible afin d&#39;aider ces entreprises &agrave; respecter sans d&eacute;lais les r&egrave;gles du comportement citoyen.</p>",
        "type": {
          "title": "Explication de l'article"
        }
      }
    ],
    "ranking": 506,
    "is_trashed": false,
    "title": "Protection de l'égalité citoyenne",
    "votes_nok": 0,
    "votes_ok": 3,
    "votes_mitige": 1,
    "_links": {
      "show": "https://www.republique-numerique.fr/consultations/projet-de-loi-numerique/consultation/consultation/opinions/section-1-neutralite-de-l-internet/protection-de-l-egalite-citoyenne",
      "edit": "https://www.republique-numerique.fr/consultations/projet-de-loi-numerique/consultation/consultation/opinions/section-1-neutralite-de-l-internet/protection-de-l-egalite-citoyenne/edit",
      "report": "https://www.republique-numerique.fr/consultations/projet-de-loi-numerique/consultation/consultation/opinions/section-1-neutralite-de-l-internet/protection-de-l-egalite-citoyenne/report",
      "type": "https://www.republique-numerique.fr/consultations/projet-de-loi-numerique/consultation/consultation/opinions/section-1-neutralite-de-l-internet"
    },
    "user_vote": null,
    "has_user_reported": false
  },
  "rankingThreshold": null,
  "opinionTerm": 1
}