{
  "opinion": {
    "isContribuable": false,
    "votes_total": 18,
    "arguments_yes_count": 1,
    "arguments_no_count": 2,
    "id": 319,
    "created_at": "2015-09-29T21:08:45+0200",
    "updated_at": "2015-09-29T21:08:45+0200",
    "body": "<p>La formation de l&rsquo;&Eacute;tat &nbsp;dans les mod&egrave;les classiques de Thomas Hobbes<strong>(1)</strong> ou&nbsp; de Jean-Jacques Rousseau<strong>(2)</strong>, vise &agrave; garantir une s&eacute;curit&eacute; et une libert&eacute; qui n&rsquo;existait pas dans &laquo;&nbsp;l&rsquo;&Eacute;tat nature&nbsp;&raquo; o&ugrave; l&rsquo;homme est &laquo;&nbsp;<em>un loup pour l&rsquo;homme</em>&nbsp;&raquo;.&nbsp; Cette garantie permet de fixer des limites que chaque membre du corps social est tenu de respecter sous peine de sanctions.&nbsp; Il s&rsquo;agit par l&agrave; d&rsquo;une application stricte d&rsquo;&eacute;galit&eacute; entre les hommes qui constitue le c&oelig;ur de la d&eacute;mocratie. Une d&eacute;mocratie qui doit &ecirc;tre &eacute;galement pr&eacute;serv&eacute;e &agrave; l&rsquo;&egrave;re num&eacute;rique. C&rsquo;est ainsi que l&rsquo;intervention de l&rsquo;&Eacute;tat dans le domaine du num&eacute;rique est aussi suscit&eacute;e et l&eacute;gitim&eacute;e par l&rsquo;int&eacute;r&ecirc;t collectif et en particulier par la s&eacute;curit&eacute; physique et &laquo;&nbsp;<em>s&eacute;curit&eacute;</em> <em>num&eacute;rique</em>&raquo; des citoyens ainsi que par l&rsquo;&eacute;galit&eacute; des acc&egrave;s, pour tous, aux infrastructures num&eacute;riques. C&rsquo;est pr&eacute;cis&eacute;ment les enjeux du d&eacute;bat nationale autour de la &laquo;&nbsp;r&eacute;publique num&eacute;rique&nbsp;&raquo; qui vient d&rsquo;&ecirc;tre lanc&eacute; par la premier ministre Emmanuel Valls.</p>\r\n\r\n<p>Si nous consid&eacute;rons la conception w&eacute;b&eacute;rienne<strong>(3)</strong> de l&rsquo;&Eacute;tat selon laquelle un &Eacute;tat souverain repose sur quatre &eacute;l&eacute;ments fondamentaux qui sont&nbsp;:</p>\r\n\r\n<ul>\r\n\t<li>Tout d&rsquo;abord, l&rsquo;&Eacute;tat est un <strong><em>espace g&eacute;ographiquement</em></strong> d&eacute;limit&eacute;&nbsp;;</li>\r\n\t<li>Au sein de cet espace g&eacute;ographique, le caract&egrave;re institutionnel introduit l&rsquo;id&eacute;e de rapports <strong><em>d&rsquo;autorit&eacute; &agrave; ob&eacute;issance</em></strong>&nbsp;;</li>\r\n\t<li>Ces rapports d&rsquo;autorit&eacute; &agrave; ob&eacute;issance au sein de l&rsquo;espace g&eacute;ographique de l&rsquo;&Eacute;tat&nbsp; sont suppos&eacute;s &ecirc;tre <strong><em>p&eacute;rennes et durables</em></strong>&nbsp;;</li>\r\n\t<li>Dans cet espace g&eacute;ographique, l&rsquo;&Eacute;tat a <strong><em>le monopole de la l&eacute;gitimit&eacute;</em></strong>.</li>\r\n</ul>\r\n\r\n<p>Et si &eacute;galement nous consid&eacute;rons les diff&eacute;rentes caract&eacute;ristiques constitutives d&rsquo;un &Eacute;tat souverain selon les principes reconnues par la convention de Montevideo du 26 d&eacute;cembre 1933 &agrave; savoir&nbsp;:</p>\r\n\r\n<ul>\r\n\t<li>L&#39;existence d&#39;un <strong>territoire</strong> d&eacute;limit&eacute; et d&eacute;termin&eacute;&nbsp;;</li>\r\n\t<li>L&#39;existence d&#39;une <strong>population</strong> r&eacute;sidente sur ce territoire&nbsp;;</li>\r\n\t<li>L&#39;existence d&#39;une forme minimale de <strong>gouvernement</strong>&nbsp;;</li>\r\n\t<li>La capacit&eacute; &agrave; entrer en <strong>relation</strong> avec les autres &Eacute;tats.</li>\r\n</ul>\r\n\r\n<p>A partir de ces &eacute;l&eacute;ments, nous remarquons que la conception classique de l&rsquo;&Eacute;tat s&rsquo;est transform&eacute;e avec les technologies num&eacute;riques. En effet, ces technologies ont permis l&rsquo;&eacute;mergence d&rsquo;une nouvelle conception de l&rsquo;&Eacute;tat &agrave; savoir le &nbsp;cyber-&Eacute;tat (ou l&rsquo;&Eacute;tat num&eacute;rique ou cyber-r&eacute;publique)&nbsp; selon les principes suivants&nbsp;:</p>\r\n\r\n<ul>\r\n\t<li><strong>L&rsquo;aspect g&eacute;ographique d&eacute;limit&eacute;e disparait dans&nbsp; le cyber-&Eacute;tat</strong>&nbsp;: Consid&eacute;rer un &Eacute;tat comme un espace g&eacute;ographique d&eacute;limit&eacute; est remis en question suite &agrave; la disparition des fronti&egrave;res d&eacute;limit&eacute;es, voire terrestres, entre les diff&eacute;rents &Eacute;tats avec le Cloud Computing et Internet.&nbsp; En effet, les applications mises &agrave; disposition dans le Cloud pour les utilisateurs peuvent &ecirc;tre assimil&eacute;es &agrave; un <strong><em>territoire</em></strong>. Les utilisateurs de ces applications sont consid&eacute;r&eacute;s comme des citoyens apparentant &agrave; ce territoire virtuel, donc des cyber-citoyens. C&rsquo;est ainsi qu&rsquo;ils y forment une <strong><em>population</em></strong>. Cette population utilise une <strong><em>monnaie virtuelle</em></strong> via des plateformes d&eacute;di&eacute;es &agrave; l&rsquo;image de la plateforme Bitcoin<strong>(4)</strong>. De ce fait, les utilisateurs&nbsp; de ses applications, des cyber-citoyens de toutes les nationalit&eacute;s confondues,&nbsp; pratiquent les t&acirc;ches de la vie quotidienne dans cette espace qui appartient &laquo;&nbsp;cyber-&Eacute;tat sans aucune restriction g&eacute;ographique.</li>\r\n\t<li><strong>L&rsquo;aspect ob&eacute;issance &agrave; l&rsquo;autorit&eacute; dans le cyber-&Eacute;tat&nbsp;:</strong> Le rapport d&rsquo;ob&eacute;issance &agrave; l&rsquo;autorit&eacute; de l&rsquo;&Eacute;tat n&rsquo;est plus garanti &agrave; l&rsquo;&egrave;re de Cloud Computing comme il en t&eacute;moigne les diff&eacute;rences des r&egrave;gles juridiques selon le pays d&rsquo;h&eacute;bergement de chaque plateforme. En effet, les plateformes Cloud Computing sont soumises au droit et aux r&egrave;gles juridiques de l&rsquo;&Eacute;tat&nbsp; qui les h&eacute;bergent et non &agrave; celui o&ugrave; se trouvent les utilisateurs qui s&rsquo;y connectent.</li>\r\n</ul>\r\n\r\n<p style=\"margin-left: 40px;\">Ainsi, les diff&eacute;rences de l&eacute;gislation par rapport aux r&egrave;gles du traitement des donn&eacute;es personnelles&nbsp; collect&eacute;es en est un exemple. En effet, les europ&eacute;ens souhaitent int&eacute;grer des r&egrave;gles de bonne gouvernance pour l&rsquo;utilisation de ces donn&eacute;es dans le cadre des accords de libres &eacute;changes avec les &Eacute;tats-Unis. L&rsquo;objectif recherch&eacute; est de s&rsquo;assurer que les citoyens europ&eacute;ens ob&eacute;issent &agrave; l&rsquo;autorit&eacute; de leur &Eacute;tats et non &agrave; celles des plateformes Cloud Computing majoritairement nord-am&eacute;ricaines.</p>\r\n\r\n<p style=\"margin-left: 40px;\">Ainsi, un utilisateur europ&eacute;en qui utilise une plateforme Facebook ou Gmail subi l&rsquo;autorit&eacute; de l&rsquo;entreprise en question et n&rsquo;est plus soumis aux lois de son propre pays. C&rsquo;est ici que l&rsquo;autorit&eacute; de l&rsquo;&Eacute;tat &nbsp;disparait et se perd au profit de ce pouvoir r&eacute;cup&eacute;r&eacute; par les plateformes Cloud Computing donc par le cyber-&Eacute;tat.</p>\r\n\r\n<ul>\r\n\t<li><strong>L&rsquo;aspect de l&eacute;gitimit&eacute; de la violence par le cyber-&Eacute;tat&nbsp;</strong>: Comme nous l&rsquo;avons vu, L&rsquo;&Eacute;tat a le monopole de l&eacute;gitimit&eacute; de la violence, une caract&eacute;ristique qui lui &eacute;chappe actuellement. En effet, la notion de la souverainet&eacute; d&rsquo;un &Eacute;tat est principalement remise en cause et cela pr&eacute;cis&eacute;ment depuis la r&eacute;v&eacute;lation des affaires SWIFT et PRISM par Edouard Snowden. C&rsquo;est ainsi que le contr&ocirc;le du territoire et la pr&eacute;servation de la souverainet&eacute; politique par l&rsquo;&Eacute;tat est remise en cause avec la diffusion des technologies num&eacute;riques et pr&eacute;cis&eacute;ment le Cloud Computing.</li>\r\n</ul>\r\n\r\n<p>En nous basant sur l&rsquo;ensemble des &eacute;l&eacute;ments que nous avons pr&eacute;sent&eacute; pr&eacute;c&eacute;demment. Nous pouvons d&eacute;finir un cyber-&Eacute;tat (ou une cyber-r&eacute;publique) comme &eacute;tant une continuit&eacute; logique de la notion classique de l&rsquo;&Eacute;tat dans le cyberspace (Espace non limit&eacute; + Internet).</p>\r\n\r\n<p>En effet, nous pensons que la notion classique de l&rsquo;&Eacute;tat doit &eacute;voluer et prendre en compte les transformations num&eacute;riques que connait la soci&eacute;t&eacute;. Ainsi, sa repr&eacute;sentation num&eacute;rique serait assimil&eacute;e &agrave; un cyber-&Eacute;tat qui se base principalement sur des technologies num&eacute;riques. Ainsi, ce cyber-&Eacute;tat confirme sa pr&eacute;sence dans un cyberspace mondiale et fait respecter les fondements de l&rsquo;&Eacute;tat classique dans ce monde virtuel. Cela passe principalement par&nbsp;:</p>\r\n\r\n<ul>\r\n\t<li>Assurer une souverainet&eacute; de l&rsquo;&Eacute;tat en d&eacute;veloppant des plateformes nationales capables de fournir les m&ecirc;mes services que les plateformes &eacute;trang&egrave;res&nbsp;;</li>\r\n\t<li>D&eacute;velopper des outils num&eacute;riques conjugu&eacute;s &agrave; une revue des processus pour am&eacute;liorer les services publics fournis aux citoyens &agrave; travers Internet. On pense alors au cyber-service public.</li>\r\n\t<li>D&eacute;velopper une pr&eacute;sence de l&rsquo;&Eacute;tat et l&rsquo;ensemble de ses administrations sur Internet. Ainsi, d&eacute;velopper un cyber-secteur public.</li>\r\n\t<li>Mettre en place des outils techniques n&eacute;cessaire pour assurer la s&eacute;curit&eacute; nationale pour faire face aux programmes d&rsquo;espionnages &eacute;trangers sans pour autant permettre la convergence d&rsquo;un &Eacute;tat policier du contr&ocirc;le et de surveillance en masse&nbsp;;</li>\r\n</ul>\r\n\r\n<p>Ainsi, le contr&ocirc;le et la surveillance des citoyens, la maitrise de la monnaie et du commerce, la s&eacute;curit&eacute; et la souverainet&eacute; du pays, toutes ces activit&eacute;s traditionnellement appartiennent au seul champ d&rsquo;intervention de l&rsquo;&Eacute;tat ne font que prendre d&rsquo;autres formes et se font transf&eacute;rer vers d&rsquo;autres acteurs principalement des plateformes &eacute;trangers dont une majorit&eacute; sont nord-am&eacute;ricaines. Ce changement profond qui &eacute;chappe au contr&ocirc;le de l&rsquo;&Eacute;tat dans sa disposition actuel dont l&rsquo;importance de cette concertation nationale autour de la &laquo;&nbsp;r&eacute;publique num&eacute;rique&nbsp;&raquo;.</p>\r\n\r\n<p>&nbsp;</p>\r\n\r\n<p>Pour finir, il nous semble important que l&#39;Etat doit commencer &agrave; repenser cetet repr&eacute;sentation vrtuelle de son entit&eacute; qui, certainement, prendra forme dans les ann&eacute;es &agrave; venir.</p>\r\n\r\n<p>&nbsp;</p>\r\n\r\n<p>Said El Ouazzani</p>\r\n\r\n<p>Cosultant Cloud et Big data</p>\r\n\r\n<p>Docteur en politiques publiques.</p>\r\n\r\n<p>&nbsp;</p>\r\n\r\n<p><u>R&eacute;f&eacute;rences</u></p>\r\n\r\n<p>(1) T. HOBBES, Leviathan, London, Oxford University Press, 1996.</p>\r\n\r\n<p>(2) J-J. ROUSSEAU, Du contrat social, Paris, Flammarion, 2001.</p>\r\n\r\n<p>(3) M. WEBER, Le Savant et le Politique, La D&eacute;couverte, 2003.&nbsp;</p>\r\n\r\n<p>(4) Le bitcoin est une devise mon&eacute;taire tandis que Bitcoin est un syst&egrave;me de paiement dans cette devise. Sous ces deux aspects, Bitcoin se distingue des syst&egrave;mes pr&eacute;existants sur les points suivants :</p>\r\n\r\n<ul>\r\n\t<li>Contrairement aux autres devises mon&eacute;taires, Bitcoin n&#39;est pas l&#39;incarnation de l&#39;autorit&eacute; d&#39;un &Eacute;tat, d&#39;une banque ou d&#39;une entreprise. La valeur du bitcoin est d&eacute;termin&eacute;e de fa&ccedil;on enti&egrave;rement flottante par l&#39;usage &eacute;conomique qui en est fait et par le march&eacute; des changes. Les r&egrave;gles organisant l&#39;&eacute;mission mon&eacute;taire sont quant &agrave; elles d&eacute;termin&eacute;es uniquement par un code informatique libre ;</li>\r\n\t<li>En tant que syst&egrave;me de paiement, Bitcoin se distingue par le fait que son fonctionnement ne requiert pas l&#39;utilisation d&#39;une infrastructure centralis&eacute;e tenant les comptes des montants d&eacute;tenus afin d&#39;assurer les transactions. Le r&ocirc;le de garantie et de v&eacute;rification existe, mais est attribu&eacute; toutes les dix minutes environ &agrave; un ordinateur du r&eacute;seau choisi de fa&ccedil;on al&eacute;atoire ;</li>\r\n\t<li>Bitcoin repose sur un protocole cryptographique notamment pour, d&#39;une part, r&eacute;soudre le probl&egrave;me dit du double paiement, qui avait jusqu&#39;alors emp&ecirc;ch&eacute; l&#39;&eacute;mergence d&#39;un tel type de monnaie, et pour, d&#39;autre part, garantir l&#39;impossibilit&eacute; de falsifier les identifiants des parties prenantes et la valeur du stock de bitcoins figurant dans les porte-monnaie &eacute;lectroniques.</li>\r\n</ul>\r\n\r\n<p>&nbsp;</p>\r\n\r\n<p>&nbsp;</p>\r\n\r\n<p>&nbsp;</p>\r\n\r\n<p>&nbsp;</p>",
    "versions_count": 0,
    "sources_count": 0,
    "arguments_count": 3,
    "author": {
      "username": "SAID EL OUAZZANI",
      "displayName": "SAID EL OUAZZANI",
      "uniqueId": "saidelouazzani",
      "isAdmin": false,
      "media": null,
      "vip": false,
      "_links": {
        "profile": "https://www.republique-numerique.fr/profile/saidelouazzani",
        "settings": "https://www.republique-numerique.fr/profile/edit-profile"
      }
    },
    "type": {
      "id": 94,
      "title": "Section 1",
      "subtitle": "Neutralité de l’internet",
      "voteWidgetType": 2,
      "votesHelpText": "Pensez-vous que cette proposition permet d'atteindre les objectifs présentés dans l’explication de l’article ?",
      "commentSystem": 2,
      "color": "blue",
      "versionable": true,
      "sourceable": true,
      "votesThreshold": null,
      "votesThresholdHelpText": null
    },
    "sources": [],
    "arguments": [
      {
        "isContribuable": false,
        "id": 5360,
        "body": "Internet n'est que le prolongement du monde concret. Pas d'Etat : pas de serveurs informatiques, pas d'internautes.",
        "created_at": "2015-10-17T16:33:25+0200",
        "updated_at": "2015-10-17T16:33:25+0200",
        "is_enabled": true,
        "votes_count": 0,
        "type": 0,
        "is_trashed": false,
        "author": {
          "username": "Tanéléo",
          "displayName": "Tanéléo",
          "uniqueId": "taneleo",
          "isAdmin": false,
          "media": null,
          "vip": false,
          "_links": {
            "profile": "https://www.republique-numerique.fr/profile/taneleo",
            "settings": "https://www.republique-numerique.fr/profile/edit-profile"
          }
        },
        "_links": {
          "show": "https://www.republique-numerique.fr/consultations/projet-de-loi-numerique/consultation/consultation/opinions/section-1-neutralite-de-l-internet/reconnaitre-le-nouveau-statut-cyber-etat-ou-cyber-republique#arg-5360",
          "edit": "https://www.republique-numerique.fr/consultations/projet-de-loi-numerique/consultation/consultation/opinions/section-1-neutralite-de-l-internet/reconnaitre-le-nouveau-statut-cyber-etat-ou-cyber-republique/arguments/5360/edit",
          "report": "https://www.republique-numerique.fr/consultations/projet-de-loi-numerique/consultation/consultation/opinions/section-1-neutralite-de-l-internet/reconnaitre-le-nouveau-statut-cyber-etat-ou-cyber-republique/arguments/5360/report"
        },
        "has_user_voted": false,
        "has_user_reported": false
      },
      {
        "isContribuable": false,
        "id": 1721,
        "body": "A repenser alors la notion de souveraineté : problèmes fiscaux majeurs liés à l'aterritorialité d'internet (exemple : problématiques de l'établissement stable virtuel, etc.)",
        "created_at": "2015-09-30T23:18:19+0200",
        "updated_at": "2015-09-30T23:18:19+0200",
        "is_enabled": true,
        "votes_count": 1,
        "type": 1,
        "is_trashed": false,
        "author": {
          "username": "Jade Caboche",
          "displayName": "Jade Caboche",
          "uniqueId": "jadecaboche",
          "isAdmin": false,
          "media": {
            "url": "/media/cache/default_avatar/default/0001/01/196_default_avatar.jpg"
          },
          "vip": false,
          "_links": {
            "profile": "https://www.republique-numerique.fr/profile/jadecaboche",
            "settings": "https://www.republique-numerique.fr/profile/edit-profile"
          }
        },
        "_links": {
          "show": "https://www.republique-numerique.fr/consultations/projet-de-loi-numerique/consultation/consultation/opinions/section-1-neutralite-de-l-internet/reconnaitre-le-nouveau-statut-cyber-etat-ou-cyber-republique#arg-1721",
          "edit": "https://www.republique-numerique.fr/consultations/projet-de-loi-numerique/consultation/consultation/opinions/section-1-neutralite-de-l-internet/reconnaitre-le-nouveau-statut-cyber-etat-ou-cyber-republique/arguments/1721/edit",
          "report": "https://www.republique-numerique.fr/consultations/projet-de-loi-numerique/consultation/consultation/opinions/section-1-neutralite-de-l-internet/reconnaitre-le-nouveau-statut-cyber-etat-ou-cyber-republique/arguments/1721/report"
        },
        "has_user_voted": false,
        "has_user_reported": false
      },
      {
        "isContribuable": false,
        "id": 1581,
        "body": "Sur terre, nous n'avons pas une vision uniforme des choses. Les cadres de référence varient énormément d'un état, d'un continent à l'autre et sont tous respectables. L'ingérence qui existent depuis longtemps par les nations occidentales et en particulier les états unis dits\"bien-pensants\" est loin d'être partagé et ce serait d'ailleurs la fin du monde si l'uniformité régnait partout. Alors non, on peut faire des accords internationaux, genre un ONU de l'internet ou chacun peut s'inscrire et discuter et cela serait positif, mais pas de cyber-état.",
        "created_at": "2015-09-30T15:50:15+0200",
        "updated_at": "2015-09-30T15:50:15+0200",
        "is_enabled": true,
        "votes_count": 1,
        "type": 0,
        "is_trashed": false,
        "author": {
          "username": "Jeanne Varasco",
          "displayName": "Jeanne Varasco",
          "uniqueId": "jeannevarasco",
          "isAdmin": false,
          "media": {
            "url": "/media/cache/default_avatar/default/0001/01/139_default_avatar.jpg"
          },
          "vip": false,
          "_links": {
            "profile": "https://www.republique-numerique.fr/profile/jeannevarasco",
            "settings": "https://www.republique-numerique.fr/profile/edit-profile"
          }
        },
        "_links": {
          "show": "https://www.republique-numerique.fr/consultations/projet-de-loi-numerique/consultation/consultation/opinions/section-1-neutralite-de-l-internet/reconnaitre-le-nouveau-statut-cyber-etat-ou-cyber-republique#arg-1581",
          "edit": "https://www.republique-numerique.fr/consultations/projet-de-loi-numerique/consultation/consultation/opinions/section-1-neutralite-de-l-internet/reconnaitre-le-nouveau-statut-cyber-etat-ou-cyber-republique/arguments/1581/edit",
          "report": "https://www.republique-numerique.fr/consultations/projet-de-loi-numerique/consultation/consultation/opinions/section-1-neutralite-de-l-internet/reconnaitre-le-nouveau-statut-cyber-etat-ou-cyber-republique/arguments/1581/report"
        },
        "has_user_voted": false,
        "has_user_reported": false
      }
    ],
    "modals": [],
    "votes": [
      {
        "user": {
          "username": "Pierre",
          "displayName": "Pierre",
          "uniqueId": "pierre1",
          "isAdmin": false,
          "media": {
            "url": "/media/cache/default_avatar/default/0001/01/199_default_avatar.png"
          },
          "vip": false,
          "_links": {
            "profile": "https://www.republique-numerique.fr/profile/pierre1",
            "settings": "https://www.republique-numerique.fr/profile/edit-profile"
          }
        }
      },
      {
        "user": {
          "username": "Jeanne Varasco",
          "displayName": "Jeanne Varasco",
          "uniqueId": "jeannevarasco",
          "isAdmin": false,
          "media": {
            "url": "/media/cache/default_avatar/default/0001/01/139_default_avatar.jpg"
          },
          "vip": false,
          "_links": {
            "profile": "https://www.republique-numerique.fr/profile/jeannevarasco",
            "settings": "https://www.republique-numerique.fr/profile/edit-profile"
          }
        }
      },
      {
        "user": {
          "username": "Jade Caboche",
          "displayName": "Jade Caboche",
          "uniqueId": "jadecaboche",
          "isAdmin": false,
          "media": {
            "url": "/media/cache/default_avatar/default/0001/01/196_default_avatar.jpg"
          },
          "vip": false,
          "_links": {
            "profile": "https://www.republique-numerique.fr/profile/jadecaboche",
            "settings": "https://www.republique-numerique.fr/profile/edit-profile"
          }
        }
      },
      {
        "user": {
          "username": "Olivier Seror-Droin",
          "displayName": "Olivier Seror-Droin",
          "uniqueId": "olivierserordroin",
          "isAdmin": false,
          "media": null,
          "vip": false,
          "_links": {
            "profile": "https://www.republique-numerique.fr/profile/olivierserordroin",
            "settings": "https://www.republique-numerique.fr/profile/edit-profile"
          }
        }
      },
      {
        "user": {
          "username": "Cédric Thiévent",
          "displayName": "Cédric Thiévent",
          "uniqueId": "cedricthievent",
          "isAdmin": false,
          "media": null,
          "vip": false,
          "_links": {
            "profile": "https://www.republique-numerique.fr/profile/cedricthievent",
            "settings": "https://www.republique-numerique.fr/profile/edit-profile"
          }
        }
      }
    ],
    "appendices": [
      {
        "body": null,
        "type": {
          "title": "Explication de l'article"
        }
      }
    ],
    "ranking": 577,
    "is_trashed": false,
    "title": "Reconnaitre le nouveau statut: cyber-État  ou cyber-République",
    "votes_nok": 6,
    "votes_ok": 1,
    "votes_mitige": 11,
    "_links": {
      "show": "https://www.republique-numerique.fr/consultations/projet-de-loi-numerique/consultation/consultation/opinions/section-1-neutralite-de-l-internet/reconnaitre-le-nouveau-statut-cyber-etat-ou-cyber-republique",
      "edit": "https://www.republique-numerique.fr/consultations/projet-de-loi-numerique/consultation/consultation/opinions/section-1-neutralite-de-l-internet/reconnaitre-le-nouveau-statut-cyber-etat-ou-cyber-republique/edit",
      "report": "https://www.republique-numerique.fr/consultations/projet-de-loi-numerique/consultation/consultation/opinions/section-1-neutralite-de-l-internet/reconnaitre-le-nouveau-statut-cyber-etat-ou-cyber-republique/report",
      "type": "https://www.republique-numerique.fr/consultations/projet-de-loi-numerique/consultation/consultation/opinions/section-1-neutralite-de-l-internet"
    },
    "user_vote": null,
    "has_user_reported": false
  },
  "rankingThreshold": null,
  "opinionTerm": 1
}