{
  "version": {
    "isContribuable": false,
    "votes_total": 11,
    "arguments_yes_count": 1,
    "arguments_no_count": 0,
    "id": 565,
    "body": "<p>I. L&rsquo;article L.&nbsp;33-1 du code des postes et des communications &eacute;lectroniques est modifi&eacute; comme suit&nbsp;:</p>\n\n<p>1&deg; Apr&egrave;s le o), il est ajout&eacute; l&rsquo;alin&eacute;a suivant&nbsp;:</p>\n\n<p>&laquo;&nbsp;p) la neutralit&eacute; de l&#39;internet, garantie par le traitement &eacute;gal et non discriminatoire du trafic par les op&eacute;rateurs dans la fourniture des services d&rsquo;acc&egrave;s &agrave; l&#39;internet ainsi que par le droit des utilisateurs finals, y compris les personnes fournissant des services de communication au public en ligne d&#39;acc&eacute;der et de contribuer &agrave; l&#39;internet, conform&eacute;ment au r&egrave;glement du Parlement europ&eacute;en et du Conseil n&deg; &hellip;. du &hellip; &eacute;tablissant des mesures relatives au march&eacute; unique europ&eacute;en des communications &eacute;lectroniques et visant &agrave; faire de l&rsquo;Europe un continent connect&eacute;.&nbsp;&raquo;&nbsp;;</p>\n\n<p>2&deg; Au dernier alin&eacute;a, les mots&nbsp;: &laquo;&nbsp;a &agrave; o&nbsp;&raquo; sont remplac&eacute;s par les mots&nbsp;: &laquo;&nbsp;a &agrave; p&nbsp;&raquo;.</p>\n\n<p>II.&nbsp;-&nbsp;Au 2&deg; du I de l&rsquo;article L. 32-4 du code des postes et des communications &eacute;lectroniques, apr&egrave;s les mots&nbsp;: &laquo;&nbsp;les conditions techniques et tarifaires d&rsquo;acheminement&nbsp;&raquo; sont ajout&eacute;s les mots&nbsp;: &laquo;&nbsp;et de gestion&nbsp;&raquo;.</p>\n\n<p>III. - Le 5&deg; du II de l&rsquo;article L. 36-8 du code des postes et des communications &eacute;lectroniques est ainsi modifi&eacute;&nbsp;:</p>\n\n<p>1&deg; Apr&egrave;s les mots&nbsp;: &laquo;&nbsp;d&rsquo;acheminement&nbsp;&raquo; sont ins&eacute;r&eacute;s les mots&nbsp;: &laquo;&nbsp;, notamment de gestion,&nbsp;&raquo;</p>\n\n<p>2&deg; Le mot &laquo;&nbsp;r&eacute;ciproques&nbsp;&raquo; est supprim&eacute;.</p>\n\n<p>IV.&nbsp;-&nbsp;Au 3&deg; de l&rsquo;article L. 36-7 du code des postes et des communications &eacute;lectroniques, apr&egrave;s les mots&nbsp;: &laquo;&nbsp;&agrave; l&#39;int&eacute;rieur de l&#39;Union&nbsp;&raquo; sont ins&eacute;r&eacute;s les mots&nbsp;: &laquo;&nbsp;et du r&egrave;glement n&deg; &hellip;. du Parlement europ&eacute;en et du Conseil, du &hellip;, &eacute;tablissant des mesures relatives au march&eacute; unique europ&eacute;en des communications &eacute;lectroniques et visant &agrave; faire de l&rsquo;Europe un continent connect&eacute;&nbsp;&raquo;.</p>\n\n<p>V.&nbsp;-&nbsp;L&rsquo;article L. 36-11 du code des postes et des communications &eacute;lectroniques est ainsi modifi&eacute;&nbsp;:</p>\n\n<p>1&deg; Au premier alin&eacute;a, apr&egrave;s les mots :&nbsp;&laquo;&nbsp;des personnes fournissant de services de communications &eacute;lectroniques&nbsp;&raquo;, sont ins&eacute;r&eacute;s les mots&nbsp;: &laquo;&nbsp;ou des personnes fournissant des services de communication au public en ligne&nbsp;&raquo;&nbsp;;</p>\n\n<p>2&deg; Au premier alin&eacute;a du I, le mot&nbsp;: &laquo;&nbsp;ou&nbsp;&raquo; est remplac&eacute; par le mot&nbsp;: &laquo;,&nbsp;par&nbsp;&raquo; et apr&egrave;s les mots&nbsp;: &laquo;&nbsp;personnes fournissant des services de communications &eacute;lectroniques&nbsp;&raquo; sont ins&eacute;r&eacute;s les mots &laquo;,&nbsp;ou par une personne fournissant de services de communication au public en ligne&nbsp;&raquo;&nbsp;;</p>\n\n<p>3&deg; Apr&egrave;s le troisi&egrave;me alin&eacute;a du I est ins&eacute;r&eacute; un alin&eacute;a ainsi r&eacute;dig&eacute;&nbsp;:</p>\n\n<p>&laquo;&nbsp;aux dispositions du r&egrave;glement n&deg; &hellip;. du Parlement europ&eacute;en et du Conseil, du &hellip; &eacute;tablissant des mesures relatives au march&eacute; unique europ&eacute;en des communications &eacute;lectroniques et visant &agrave; faire de l&rsquo;Europe un continent connect&eacute;&nbsp;;&nbsp;&raquo;</p>\n\n<p>4&deg; Apr&egrave;s le sixi&egrave;me alin&eacute;a du I, il est ajout&eacute; un alin&eacute;a ainsi r&eacute;dig&eacute;&nbsp;:</p>\n\n<p>&laquo;&nbsp;Lorsque l&#39;Autorit&eacute; estime qu&#39;il existe un risque caract&eacute;ris&eacute; qu&#39;un exploitant de r&eacute;seau ou une personne fournissant des services de communications &eacute;lectroniques ne respecte pas ses obligations, r&eacute;sultant des dispositions et prescriptions mentionn&eacute;es au I, &agrave; l&#39;&eacute;ch&eacute;ance pr&eacute;vue initialement, elle peut mettre en demeure l&#39;exploitant ou le fournisseur de s&rsquo;y conformer &agrave; cette &eacute;ch&eacute;ance.&nbsp;&raquo;</p>",
    "comment": "<p>Il faut &ecirc;tre logique.&nbsp;<br />\nSoit l&#39;on &eacute;crit &quot;Internet&quot;, sans article avec une majuscule, car l&#39;on estime qu&#39;il s&#39;agit d&#39;un nom propre.&nbsp;<br />\nSoit l&#39;on suit la recommandation de l&#39;Acad&eacute;mie fran&ccedil;aise (ici :&nbsp;<a _src=\"http://www.cnrtl.fr/definition/academie9/internet)\" class=\"external-link\" href=\"http://www.cnrtl.fr/definition/academie9/internet)\">http://www.cnrtl.fr/definition/academie9/internet)</a>&nbsp; et l&#39;on &eacute;crit &quot;l&#39;internet&quot;, avec un article et sans majuscule.&nbsp;</p>\n\n<p>Pour l&#39;instant, c&#39;est un m&eacute;lange des deux solutions, voire de l&#39;affreux &quot;l&#39;Internet&quot; sur cet article.&nbsp;</p>",
    "author": {
      "username": "Clément Baillon",
      "displayName": "Clément Baillon",
      "uniqueId": "clementbaillon",
      "isAdmin": false,
      "media": null,
      "vip": false,
      "_links": {
        "profile": "https://www.republique-numerique.fr/profile/clementbaillon",
        "settings": "https://www.republique-numerique.fr/profile/edit-profile"
      }
    },
    "arguments": [
      {
        "isContribuable": false,
        "id": 2581,
        "body": "C'est un détail mais il conviendrait d'être cohérent en utilisant « l'internet » puisque le terme est déjà présent dans le Code des postes et télécommunication (ex : Article R20-44-43) ",
        "created_at": "2015-10-07T22:42:35+0200",
        "updated_at": "2015-10-07T22:42:35+0200",
        "is_enabled": true,
        "votes_count": 6,
        "type": 1,
        "is_trashed": false,
        "author": {
          "username": "Adrien Cordonnier",
          "displayName": "Adrien Cordonnier",
          "uniqueId": "adriencordonnier",
          "isAdmin": false,
          "media": null,
          "vip": false,
          "_links": {
            "profile": "https://www.republique-numerique.fr/profile/adriencordonnier",
            "settings": "https://www.republique-numerique.fr/profile/edit-profile"
          }
        },
        "_links": {
          "show": "https://www.republique-numerique.fr/consultations/projet-de-loi-numerique/consultation/consultation/opinions/section-1-neutralite-de-l-internet/article-11-neutralite-de-l-internet/versions/orthographe-1#arg-2581",
          "edit": "https://www.republique-numerique.fr/consultations/projet-de-loi-numerique/consultation/consultation/opinions/section-1-neutralite-de-l-internet/article-11-neutralite-de-l-internet/arguments/2581/edit",
          "report": "https://www.republique-numerique.fr/consultations/projet-de-loi-numerique/consultation/consultation/opinions/section-1-neutralite-de-l-internet/article-11-neutralite-de-l-internet/arguments/2581/report"
        },
        "has_user_voted": false,
        "has_user_reported": false
      }
    ],
    "sources": [],
    "parent": {
      "isContribuable": false,
      "id": 71,
      "body": "<p>I. L&rsquo;article L.&nbsp;33-1 du code des postes et des communications &eacute;lectroniques est modifi&eacute; comme suit&nbsp;:</p>\r\n\r\n<p>1&deg; Apr&egrave;s le o), il est ajout&eacute; l&rsquo;alin&eacute;a suivant&nbsp;:</p>\r\n\r\n<p>&laquo;&nbsp;p) la neutralit&eacute; de l&#39;Internet, garantie par le traitement &eacute;gal et non discriminatoire du trafic par les op&eacute;rateurs dans la fourniture des services d&rsquo;acc&egrave;s &agrave; Internet ainsi que par le droit des utilisateurs finals, y compris les personnes fournissant des services de communication au public en ligne d&#39;acc&eacute;der et de contribuer &agrave; Internet, conform&eacute;ment au r&egrave;glement du Parlement europ&eacute;en et du Conseil n&deg; &hellip;. du &hellip; &eacute;tablissant des mesures relatives au march&eacute; unique europ&eacute;en des communications &eacute;lectroniques et visant &agrave; faire de l&rsquo;Europe un continent connect&eacute;.&nbsp;&raquo;&nbsp;;</p>\r\n\r\n<p>2&deg; Au dernier alin&eacute;a, les mots&nbsp;: &laquo;&nbsp;a &agrave; o&nbsp;&raquo; sont remplac&eacute;s par les mots&nbsp;: &laquo;&nbsp;a &agrave; p&nbsp;&raquo;.</p>\r\n\r\n<p>II.&nbsp;-&nbsp;Au 2&deg; du I de l&rsquo;article L. 32-4 du code des postes et des communications &eacute;lectroniques, apr&egrave;s les mots&nbsp;: &laquo;&nbsp;les conditions techniques et tarifaires d&rsquo;acheminement&nbsp;&raquo; sont ajout&eacute;s les mots&nbsp;: &laquo;&nbsp;et de gestion&nbsp;&raquo;.</p>\r\n\r\n<p>III. - Le 5&deg; du II de l&rsquo;article L. 36-8 du code des postes et des communications &eacute;lectroniques est ainsi modifi&eacute;&nbsp;:</p>\r\n\r\n<p>1&deg; Apr&egrave;s les mots&nbsp;: &laquo;&nbsp;d&rsquo;acheminement&nbsp;&raquo; sont ins&eacute;r&eacute;s les mots&nbsp;: &laquo;&nbsp;, notamment de gestion,&nbsp;&raquo;</p>\r\n\r\n<p>2&deg; Le mot &laquo;&nbsp;r&eacute;ciproques&nbsp;&raquo; est supprim&eacute;.</p>\r\n\r\n<p>IV.&nbsp;-&nbsp;Au 3&deg; de l&rsquo;article L. 36-7 du code des postes et des communications &eacute;lectroniques, apr&egrave;s les mots&nbsp;: &laquo;&nbsp;&agrave; l&#39;int&eacute;rieur de l&#39;Union&nbsp;&raquo; sont ins&eacute;r&eacute;s les mots&nbsp;: &laquo;&nbsp;et du r&egrave;glement n&deg; &hellip;. du Parlement europ&eacute;en et du Conseil, du &hellip;, &eacute;tablissant des mesures relatives au march&eacute; unique europ&eacute;en des communications &eacute;lectroniques et visant &agrave; faire de l&rsquo;Europe un continent connect&eacute;&nbsp;&raquo;.</p>\r\n\r\n<p>V.&nbsp;-&nbsp;L&rsquo;article L. 36-11 du code des postes et des communications &eacute;lectroniques est ainsi modifi&eacute;&nbsp;:</p>\r\n\r\n<p>1&deg; Au premier alin&eacute;a, apr&egrave;s les mots :&nbsp;&laquo;&nbsp;des personnes fournissant de services de communications &eacute;lectroniques&nbsp;&raquo;, sont ins&eacute;r&eacute;s les mots&nbsp;: &laquo;&nbsp;ou des personnes fournissant des services de communication au public en ligne&nbsp;&raquo;&nbsp;;</p>\r\n\r\n<p>2&deg; Au premier alin&eacute;a du I, le mot&nbsp;: &laquo;&nbsp;ou&nbsp;&raquo; est remplac&eacute; par le mot&nbsp;: &laquo;,&nbsp;par&nbsp;&raquo; et apr&egrave;s les mots&nbsp;: &laquo;&nbsp;personnes fournissant des services de communications &eacute;lectroniques&nbsp;&raquo; sont ins&eacute;r&eacute;s les mots &laquo;,&nbsp;ou par une personne fournissant de services de communication au public en ligne&nbsp;&raquo;&nbsp;;</p>\r\n\r\n<p>3&deg; Apr&egrave;s le troisi&egrave;me alin&eacute;a du I est ins&eacute;r&eacute; un alin&eacute;a ainsi r&eacute;dig&eacute;&nbsp;:</p>\r\n\r\n<p>&laquo;&nbsp;aux dispositions du r&egrave;glement n&deg; &hellip;. du Parlement europ&eacute;en et du Conseil, du &hellip; &eacute;tablissant des mesures relatives au march&eacute; unique europ&eacute;en des communications &eacute;lectroniques et visant &agrave; faire de l&rsquo;Europe un continent connect&eacute;&nbsp;;&nbsp;&raquo;</p>\r\n\r\n<p>4&deg; Apr&egrave;s le sixi&egrave;me alin&eacute;a du I, il est ajout&eacute; un alin&eacute;a ainsi r&eacute;dig&eacute;&nbsp;:</p>\r\n\r\n<p>&laquo;&nbsp;Lorsque l&#39;Autorit&eacute; estime qu&#39;il existe un risque caract&eacute;ris&eacute; qu&#39;un exploitant de r&eacute;seau ou une personne fournissant des services de communications &eacute;lectroniques ne respecte pas ses obligations, r&eacute;sultant des dispositions et prescriptions mentionn&eacute;es au I, &agrave; l&#39;&eacute;ch&eacute;ance pr&eacute;vue initialement, elle peut mettre en demeure l&#39;exploitant ou le fournisseur de s&rsquo;y conformer &agrave; cette &eacute;ch&eacute;ance.&nbsp;&raquo;</p>",
      "type": {
        "id": 94,
        "title": "Section 1",
        "subtitle": "Neutralité de l’internet",
        "voteWidgetType": 2,
        "votesHelpText": "Pensez-vous que cette proposition permet d'atteindre les objectifs présentés dans l’explication de l’article ?",
        "commentSystem": 2,
        "color": "blue",
        "versionable": true,
        "sourceable": true,
        "votesThreshold": null,
        "votesThresholdHelpText": null
      },
      "modals": [
        {
          "key": "article L. 33-1",
          "before": "<p>...</p><p>Un décret fixe les modalités d'application du présent article, notamment le contenu du dossier de déclaration et celui des informations visées aux n bis et n ter, et précise, en tant que de besoin, selon les différentes catégories de réseaux et de services, les règles mentionnées aux a à o.»</p>",
          "after": "<p>...</p><p>p) la neutralité de l'Internet, garantie par le traitement égal et non discriminatoire du trafic par les opérateurs dans la fourniture des services d’accès à Internet ainsi que par le droit des utilisateurs finals, y compris les personnes fournissant des services de communication au public en ligne d'accéder et de contribuer à Internet, conformément au règlement du Parlement européen et du Conseil n° …. du … établissant des mesures relatives au marché unique européen des communications électroniques et visant à faire de l’Europe un continent connecté.</p><p>Un décret fixe les modalités d'application du présent article, notamment le contenu du dossier de déclaration et celui des informations visées aux n bis et n ter, et précise, en tant que de besoin, selon les différentes catégories de réseaux et de services, les règles mentionnées aux a à p.» ;</p>",
          "title": "Article L33-1 du code des postes et des communications électroniques"
        },
        {
          "key": "article L. 32-4",
          "before": "<p>...</p><p>2° Recueillir auprès des personnes fournissant des services de communication au public en ligne les informations ou documents concernant les conditions techniques et tarifaires d'acheminement du trafic appliquées à leurs services ; »</p><p>...</p>",
          "after": "<p>...</p><p>2° Recueillir auprès des personnes fournissant des services de communication au public en ligne les informations ou documents concernant les conditions techniques et tarifaires d'acheminement et de gestion du trafic appliquées à leurs services ; »</p><p>...</p>",
          "title": "Article L32-4 du CPCE"
        },
        {
          "key": "article L. 36-8",
          "before": "<p>...</p><p>5° Les conditions réciproques techniques et tarifaires d'acheminement du trafic entre un opérateur et une entreprise fournissant des services de communication au public en ligne.»</p><p>...</p>",
          "after": "<p>...</p><p>5° Les conditions réciproques techniques et tarifaires d'acheminement, notamment de gestion du trafic entre un opérateur et une entreprise fournissant des services de communication au public en ligne.»</p><p>...</p>",
          "title": "Article L36-8 du CPCE"
        },
        {
          "key": "article L. 36-7",
          "before": "<p>...</p><p>3° Contrôle le respect par les opérateurs des obligations résultant des dispositions législatives et réglementaires qui leur sont applicables en vertu du présent code, du règlement (UE) n° 531/2012 du Parlement européen et du Conseil, du 13 juin 2012, concernant l'itinérance sur les réseaux publics de communications mobiles à l'intérieur de l'Union et des autorisations dont ils bénéficient et sanctionne les manquements constatés dans les conditions prévues aux articles L. 36-10 et L. 36-11 ; »</p><p>...</p>",
          "after": "<p>...</p><p>3° Contrôle le respect par les opérateurs des obligations résultant des dispositions législatives et réglementaires qui leur sont applicables en vertu du présent code, du règlement (UE) n° 531/2012 du Parlement européen et du Conseil, du 13 juin 2012, concernant l'itinérance sur les réseaux publics de communications mobiles à l'intérieur de l'Union et du règlement n° … du Parlement européen et du Conseil du … établissant des mesures relatives au marché unique européen des communication électroniques et visant à faire de l’Europe un continent connecté et des autorisations dont ils bénéficient et sanctionne les manquements constatés dans les conditions prévues aux articles L. 36-10 et L. 36-11 ; »</p><p>...</p>",
          "title": "Article L36-7 du CPCE"
        },
        {
          "key": "article L. 36-11",
          "before": "<p>« L'Autorité de régulation des communications électroniques et des postes peut, soit d'office, soit à la demande du ministre chargé des communications électroniques, d'une organisation professionnelle, d'une association agréée d'utilisateurs ou d'une personne physique ou morale concernée, sanctionner les manquements qu'elle constate de la part des exploitants de réseau et des fournisseurs de services de communications électroniques.</p><p> Ce pouvoir de sanction est exercé dans les conditions suivantes : </p><p>I. En cas de manquement par un exploitant de réseau ou un fournisseur de services de communications électroniques :</p><p>- aux dispositions législatives et réglementaires au respect desquelles l'Autorité a pour mission de veiller ou aux textes et décisions pris en application de ces dispositions ;</p><p>- aux dispositions du règlement (UE) n° 531/2012 du Parlement européen et du Conseil du 13 juin 2012 concernant l'itinérance sur les réseaux publics de communications mobiles à l'intérieur de l'Union ;</p><p>ainsi qu'aux prescriptions d'une décision d'attribution ou d'assignation de fréquence prise par l'Autorité en application de l'article 26 de la loi n° 86-1067 du 30 septembre 1986 relative à la liberté de communication, l'exploitant ou le fournisseur est mis en demeure par l'Autorité de régulation des communications électroniques et des postes de s'y conformer dans un délai qu'elle détermine.</p><p>La mise en demeure peut être assortie d'obligations de se conformer à des étapes intermédiaires dans le même délai. Elle est motivée et notifiée à l'intéressé. L'Autorité peut rendre publique cette mise en demeure.»</p>",
          "after": "<p>« L'Autorité de régulation des communications électroniques et des postes peut, soit d'office, soit à la demande du ministre chargé des communications électroniques, d'une organisation professionnelle, d'une association agréée d'utilisateurs ou d'une personne physique ou morale concernée, sanctionner les manquements qu'elle constate de la part des exploitants de réseau et des fournisseurs de services de communications électroniques ou des personnes fournissant des services de communication au public en ligne.</p><p>Ce pouvoir de sanction est exercé dans les conditions suivantes :</p><p>I. En cas de manquement par un exploitant de réseau, par un fournisseur de services de communications électroniques ou par une personne fournissant des services de communication au public en ligne :</p><p>- aux dispositions législatives et réglementaires au respect desquelles l'Autorité a pour mission de veiller ou aux textes et décisions pris en application de ces dispositions ;</p><p>- aux dispositions du règlement n° du Parlement Européen et du Conseil, du … établissant des mesures relatives au marché unique européen des communications électroniques et visant à faire de l’Europe un continent connecté ;</p><p>ainsi qu'aux prescriptions d'une décision d'attribution ou d'assignation de fréquence prise par l'Autorité en application de l'article 26 de la loi n° 86-1067 du 30 septembre 1986 relative à la liberté de communication, l'exploitant ou le fournisseur est mis en demeure par l'Autorité de régulation des communications électroniques et des postes de s'y conformer dans un délai qu'elle détermine.</p><p>La mise en demeure peut être assortie d'obligations de se conformer à des étapes intermédiaires dans le même délai. Elle est motivée et notifiée à l'intéressé. L'Autorité peut rendre publique cette mise en demeure.</p><p>Lorsque l’Autorité estime qu’il existe un risque caractérisé qu’un exploitant de réseau ou une personne fournissant des services de communications électroniques ne respecte pas ses obligations, résultant des dispositions et prescriptions mentionnées au I, à l’échéance prévue initialement, elle peut mettre en demeure l’exploitant ou le fournisseur de s’y conformer à cette échéance. »</p>",
          "title": "Article L36-11 du CPCE"
        }
      ],
      "appendices": [
        {
          "body": "<p><strong>Objectif :</strong> Affirmer et organiser l&rsquo;application de la neutralit&eacute; de l&rsquo;internet en France</p>\r\n\r\n<p><strong>Explication :</strong> Les op&eacute;rateurs jouent un r&ocirc;le central dans l&rsquo;acc&egrave;s &agrave; l&rsquo;information et le d&eacute;veloppement du num&eacute;rique. Ils contr&ocirc;lent notamment l&rsquo;acc&egrave;s &agrave; internet de chaque abonn&eacute; et mettent en place les technologies n&eacute;cessaires pour garantir la disponibilit&eacute;, la qualit&eacute; et la rapidit&eacute; des flux. L&rsquo;usage de ces technologies ne doit pas conduire &agrave; favoriser ind&ucirc;ment certains services, ou &agrave; restreindre l&#39;acc&egrave;s des abonn&eacute;s, en bridant ou en bloquant l&#39;acc&egrave;s &agrave; certains contenus, services ou applications en ligne (protocoles, sites web, etc.), en dehors de leurs obligations l&eacute;gales.<br />\r\nDor&eacute;navant, les pratiques des fournisseurs d&rsquo;acc&egrave;s seront pr&eacute;cis&eacute;ment encadr&eacute;es : il sera notamment interdit de d&eacute;t&eacute;riorer la qualit&eacute; de diffusion d&rsquo;un site au profit d&rsquo;un autre, et plus largement de limiter de mani&egrave;re injustifi&eacute;e l&rsquo;acc&egrave;s des consommateurs &agrave; l&rsquo;internet ouvert. L&rsquo;ARCEP (Autorit&eacute; de R&eacute;gulation des Communications Electroniques et des Postes) sera l&rsquo;autorit&eacute; comp&eacute;tente pour veiller au respect du principe de neutralit&eacute; de l&rsquo;internet.</p>\r\n\r\n<p><strong>Exemple :</strong> un op&eacute;rateur ne pourra pas d&eacute;cider de r&eacute;duire la bande passante accord&eacute;e &agrave; certains sites de partages de vid&eacute;os et augmenter cette bande passante aupr&egrave;s d&rsquo;autres sites moyennant paiement.</p>",
          "type": {
            "title": "Explication de l'article"
          }
        }
      ],
      "title": "Article 11 - Neutralité de l’internet",
      "_links": {
        "show": "https://www.republique-numerique.fr/consultations/projet-de-loi-numerique/consultation/consultation/opinions/section-1-neutralite-de-l-internet/article-11-neutralite-de-l-internet",
        "edit": "https://www.republique-numerique.fr/consultations/projet-de-loi-numerique/consultation/consultation/opinions/section-1-neutralite-de-l-internet/article-11-neutralite-de-l-internet/edit",
        "report": "https://www.republique-numerique.fr/consultations/projet-de-loi-numerique/consultation/consultation/opinions/section-1-neutralite-de-l-internet/article-11-neutralite-de-l-internet/report",
        "type": "https://www.republique-numerique.fr/consultations/projet-de-loi-numerique/consultation/consultation/opinions/section-1-neutralite-de-l-internet"
      },
      "user_vote": null,
      "has_user_reported": false
    },
    "sources_count": 0,
    "arguments_count": 1,
    "votes": [
      {
        "user": {
          "username": "Vincent Reverdy",
          "displayName": "Vincent Reverdy",
          "uniqueId": "vincentreverdy",
          "isAdmin": false,
          "media": {
            "url": "/media/cache/default_avatar/default/0001/01/268_default_avatar.jpg"
          },
          "vip": false,
          "_links": {
            "profile": "https://www.republique-numerique.fr/profile/vincentreverdy",
            "settings": "https://www.republique-numerique.fr/profile/edit-profile"
          }
        },
        "value": -1
      },
      {
        "user": {
          "username": "Adrien Cordonnier",
          "displayName": "Adrien Cordonnier",
          "uniqueId": "adriencordonnier",
          "isAdmin": false,
          "media": null,
          "vip": false,
          "_links": {
            "profile": "https://www.republique-numerique.fr/profile/adriencordonnier",
            "settings": "https://www.republique-numerique.fr/profile/edit-profile"
          }
        },
        "value": 1
      },
      {
        "user": {
          "username": "GRENIER Claude",
          "displayName": "GRENIER Claude",
          "uniqueId": "grenierclaude",
          "isAdmin": false,
          "media": null,
          "vip": false,
          "_links": {
            "profile": "https://www.republique-numerique.fr/profile/grenierclaude",
            "settings": "https://www.republique-numerique.fr/profile/edit-profile"
          }
        },
        "value": 1
      },
      {
        "user": {
          "username": "Busch Baptiste",
          "displayName": "Busch Baptiste",
          "uniqueId": "buschbaptiste",
          "isAdmin": false,
          "media": null,
          "vip": false,
          "_links": {
            "profile": "https://www.republique-numerique.fr/profile/buschbaptiste",
            "settings": "https://www.republique-numerique.fr/profile/edit-profile"
          }
        },
        "value": 1
      },
      {
        "user": {
          "username": "Letort",
          "displayName": "Letort",
          "uniqueId": "letort",
          "isAdmin": false,
          "media": null,
          "vip": false,
          "_links": {
            "profile": "https://www.republique-numerique.fr/profile/letort",
            "settings": "https://www.republique-numerique.fr/profile/edit-profile"
          }
        },
        "value": 1
      }
    ],
    "updated_at": "2015-10-02T16:49:23+0200",
    "ranking": 439,
    "is_trashed": false,
    "title": "Orthographe",
    "slug": "orthographe-1",
    "created_at": "2015-10-02T16:49:23+0200",
    "votes_nok": 2,
    "votes_ok": 9,
    "votes_mitige": 0,
    "_links": {
      "show": "https://www.republique-numerique.fr/consultations/projet-de-loi-numerique/consultation/consultation/opinions/section-1-neutralite-de-l-internet/article-11-neutralite-de-l-internet/versions/orthographe-1",
      "report": "https://www.republique-numerique.fr/consultations/projet-de-loi-numerique/consultation/consultation/opinions/section-1-neutralite-de-l-internet/article-11-neutralite-de-l-internet/versions/orthographe-1/report"
    },
    "user_vote": null,
    "has_user_reported": false
  },
  "rankingThreshold": null,
  "opinionTerm": 1
}