{
  "opinion": {
    "isContribuable": false,
    "votes_total": 5,
    "arguments_yes_count": 1,
    "arguments_no_count": 2,
    "id": 668,
    "created_at": "2015-10-16T12:09:01+0200",
    "updated_at": "2015-10-16T12:09:01+0200",
    "body": "<p>Dans sa section 1 &laquo;&nbsp;Protection des donn&eacute;es &agrave; caract&egrave;re personnel&nbsp;&raquo; de son chapitre II &laquo;&nbsp;Protection de la vie priv&eacute;e en ligne&nbsp;&raquo; de son titre 2 &laquo;&nbsp;La protection dans la soci&eacute;t&eacute; num&eacute;rique&nbsp;&raquo;, la loi pour une R&eacute;publique num&eacute;rique doit &laquo;&nbsp;<em>interdire &agrave; tous les services, &agrave; toutes les soci&eacute;t&eacute;s et &agrave; toutes les autres entit&eacute;s d&#39;obliger ou d&#39;inciter, quelle que soit la m&eacute;thode directe ou indirecte employ&eacute;e, les usagers &agrave; accepter sur leurs mat&eacute;riels les mouchards (cookies) pour que la navigation sur leurs sites y soit possible</em>&nbsp;&raquo; et doit pr&eacute;voir des sanctions suffisamment dissuasives &agrave; l&#39;encontre des services, soci&eacute;t&eacute;s et autres entit&eacute;s qui ne respecteraient pas cette interdiction.</p>",
    "versions_count": 0,
    "sources_count": 0,
    "arguments_count": 3,
    "author": {
      "username": "Bernard MERCIER",
      "displayName": "Bernard MERCIER",
      "uniqueId": "bernardmercier",
      "isAdmin": false,
      "media": null,
      "vip": false,
      "_links": {
        "profile": "https://www.republique-numerique.fr/profile/bernardmercier",
        "settings": "https://www.republique-numerique.fr/profile/edit-profile"
      }
    },
    "type": {
      "id": 99,
      "title": "Section 1",
      "subtitle": "Protection des données à caractère personnel",
      "voteWidgetType": 2,
      "votesHelpText": "Pensez-vous que cette proposition permet d'atteindre les objectifs présentés dans l’explication de l’article ?",
      "commentSystem": 2,
      "color": "blue",
      "versionable": true,
      "sourceable": true,
      "votesThreshold": null,
      "votesThresholdHelpText": null
    },
    "sources": [],
    "arguments": [
      {
        "isContribuable": false,
        "id": 5934,
        "body": "Loi inapplicable, notamment à cause des cookies d'authentification, qui permettent à l'utilisateur d'éviter de s'authentifier activement à chaque nouvelle demande du serveur...<br>\nJe ne me vois pas me connecter 15 (150?) fois par session de navigation (disons par jour) à un site - disons pour l'exemple, de presse - sur lequel je vais devoir retaper les identifiants à chaque chargement de page ou requête AJAX.<br>\nEn revanche, la soumission de mouchards, et notamment publicitaires, devrait être régulée.",
        "created_at": "2015-10-18T17:24:25+0200",
        "updated_at": "2015-10-18T17:24:25+0200",
        "is_enabled": true,
        "votes_count": 1,
        "type": 0,
        "is_trashed": false,
        "author": {
          "username": "Gami",
          "displayName": "Gami",
          "uniqueId": "gami",
          "isAdmin": false,
          "media": null,
          "vip": false,
          "_links": {
            "profile": "https://www.republique-numerique.fr/profile/gami",
            "settings": "https://www.republique-numerique.fr/profile/edit-profile"
          }
        },
        "_links": {
          "show": "https://www.republique-numerique.fr/consultations/projet-de-loi-numerique/consultation/consultation/opinions/section-1-protection-des-donnees-a-caractere-personnel/interdire-l-obligation-ou-l-incitation-a-accepter-les-mouchards-cookies#arg-5934",
          "edit": "https://www.republique-numerique.fr/consultations/projet-de-loi-numerique/consultation/consultation/opinions/section-1-protection-des-donnees-a-caractere-personnel/interdire-l-obligation-ou-l-incitation-a-accepter-les-mouchards-cookies/arguments/5934/edit",
          "report": "https://www.republique-numerique.fr/consultations/projet-de-loi-numerique/consultation/consultation/opinions/section-1-protection-des-donnees-a-caractere-personnel/interdire-l-obligation-ou-l-incitation-a-accepter-les-mouchards-cookies/arguments/5934/report"
        },
        "has_user_voted": false,
        "has_user_reported": false
      },
      {
        "isContribuable": false,
        "id": 5841,
        "body": "En réponse à @jeanneverdasco : utile, mais ne devrait pas être nécessaire.",
        "created_at": "2015-10-18T14:48:46+0200",
        "updated_at": "2015-10-18T14:48:46+0200",
        "is_enabled": true,
        "votes_count": 0,
        "type": 1,
        "is_trashed": false,
        "author": {
          "username": "Bertrand EMERIT",
          "displayName": "Bertrand EMERIT",
          "uniqueId": "bertrandemerit",
          "isAdmin": false,
          "media": null,
          "vip": false,
          "_links": {
            "profile": "https://www.republique-numerique.fr/profile/bertrandemerit",
            "settings": "https://www.republique-numerique.fr/profile/edit-profile"
          }
        },
        "_links": {
          "show": "https://www.republique-numerique.fr/consultations/projet-de-loi-numerique/consultation/consultation/opinions/section-1-protection-des-donnees-a-caractere-personnel/interdire-l-obligation-ou-l-incitation-a-accepter-les-mouchards-cookies#arg-5841",
          "edit": "https://www.republique-numerique.fr/consultations/projet-de-loi-numerique/consultation/consultation/opinions/section-1-protection-des-donnees-a-caractere-personnel/interdire-l-obligation-ou-l-incitation-a-accepter-les-mouchards-cookies/arguments/5841/edit",
          "report": "https://www.republique-numerique.fr/consultations/projet-de-loi-numerique/consultation/consultation/opinions/section-1-protection-des-donnees-a-caractere-personnel/interdire-l-obligation-ou-l-incitation-a-accepter-les-mouchards-cookies/arguments/5841/report"
        },
        "has_user_voted": false,
        "has_user_reported": false
      },
      {
        "isContribuable": false,
        "id": 5031,
        "body": "Attention de ne pas confondre Cookie et mouchard. Un cookie peut être informatiquement et techniquement utile pour votre navigation. Par contre il serait intéressant que les navigateurs aient l'obligation de vider les cookies à la fermeture de la session, puisse qu’alors ils ne sont plus nécessaires. Les cookies qui servent à tracer les personnes à leur insu devraient, eux, être interdits.",
        "created_at": "2015-10-16T21:02:16+0200",
        "updated_at": "2015-10-16T21:02:16+0200",
        "is_enabled": true,
        "votes_count": 2,
        "type": 0,
        "is_trashed": false,
        "author": {
          "username": "Jeanne Varasco",
          "displayName": "Jeanne Varasco",
          "uniqueId": "jeannevarasco",
          "isAdmin": false,
          "media": {
            "url": "/media/cache/default_avatar/default/0001/01/139_default_avatar.jpg"
          },
          "vip": false,
          "_links": {
            "profile": "https://www.republique-numerique.fr/profile/jeannevarasco",
            "settings": "https://www.republique-numerique.fr/profile/edit-profile"
          }
        },
        "_links": {
          "show": "https://www.republique-numerique.fr/consultations/projet-de-loi-numerique/consultation/consultation/opinions/section-1-protection-des-donnees-a-caractere-personnel/interdire-l-obligation-ou-l-incitation-a-accepter-les-mouchards-cookies#arg-5031",
          "edit": "https://www.republique-numerique.fr/consultations/projet-de-loi-numerique/consultation/consultation/opinions/section-1-protection-des-donnees-a-caractere-personnel/interdire-l-obligation-ou-l-incitation-a-accepter-les-mouchards-cookies/arguments/5031/edit",
          "report": "https://www.republique-numerique.fr/consultations/projet-de-loi-numerique/consultation/consultation/opinions/section-1-protection-des-donnees-a-caractere-personnel/interdire-l-obligation-ou-l-incitation-a-accepter-les-mouchards-cookies/arguments/5031/report"
        },
        "has_user_voted": false,
        "has_user_reported": false
      }
    ],
    "modals": [],
    "votes": [
      {
        "user": {
          "username": "Jeanne Varasco",
          "displayName": "Jeanne Varasco",
          "uniqueId": "jeannevarasco",
          "isAdmin": false,
          "media": {
            "url": "/media/cache/default_avatar/default/0001/01/139_default_avatar.jpg"
          },
          "vip": false,
          "_links": {
            "profile": "https://www.republique-numerique.fr/profile/jeannevarasco",
            "settings": "https://www.republique-numerique.fr/profile/edit-profile"
          }
        }
      },
      {
        "user": {
          "username": "paccoud pierre",
          "displayName": "paccoud pierre",
          "uniqueId": "paccoudpierre",
          "isAdmin": false,
          "media": null,
          "vip": false,
          "_links": {
            "profile": "https://www.republique-numerique.fr/profile/paccoudpierre",
            "settings": "https://www.republique-numerique.fr/profile/edit-profile"
          }
        }
      },
      {
        "user": {
          "username": "EICHEL Frédéric",
          "displayName": "EICHEL Frédéric",
          "uniqueId": "eichelfrederic",
          "isAdmin": false,
          "media": null,
          "vip": false,
          "_links": {
            "profile": "https://www.republique-numerique.fr/profile/eichelfrederic",
            "settings": "https://www.republique-numerique.fr/profile/edit-profile"
          }
        }
      },
      {
        "user": {
          "username": "Bertrand EMERIT",
          "displayName": "Bertrand EMERIT",
          "uniqueId": "bertrandemerit",
          "isAdmin": false,
          "media": null,
          "vip": false,
          "_links": {
            "profile": "https://www.republique-numerique.fr/profile/bertrandemerit",
            "settings": "https://www.republique-numerique.fr/profile/edit-profile"
          }
        }
      },
      {
        "user": {
          "username": "Gami",
          "displayName": "Gami",
          "uniqueId": "gami",
          "isAdmin": false,
          "media": null,
          "vip": false,
          "_links": {
            "profile": "https://www.republique-numerique.fr/profile/gami",
            "settings": "https://www.republique-numerique.fr/profile/edit-profile"
          }
        }
      }
    ],
    "appendices": [
      {
        "body": "<p>Les usagers enregistrent leurs donn&eacute;es sur leurs mat&eacute;riels dont leurs (micro-)ordinateurs personnels. Ils sont les propri&eacute;taires et gestionnaires <u>exclusifs</u> de leurs donn&eacute;es ainsi que de leurs mat&eacute;riels et doivent le rester ou le redevenir. C&#39;est pourquoi, entre autres, eux et eux seuls doivent d&eacute;cider, <u>librement</u>, de ce qu&#39;ils acceptent et/ou refusent d&#39;y enregistrer.</p>",
        "type": {
          "title": "Explication de l'article"
        }
      }
    ],
    "ranking": 542,
    "is_trashed": false,
    "title": "Interdire l'obligation ou l'incitation à accepter les mouchards (cookies)",
    "votes_nok": 1,
    "votes_ok": 2,
    "votes_mitige": 2,
    "_links": {
      "show": "https://www.republique-numerique.fr/consultations/projet-de-loi-numerique/consultation/consultation/opinions/section-1-protection-des-donnees-a-caractere-personnel/interdire-l-obligation-ou-l-incitation-a-accepter-les-mouchards-cookies",
      "edit": "https://www.republique-numerique.fr/consultations/projet-de-loi-numerique/consultation/consultation/opinions/section-1-protection-des-donnees-a-caractere-personnel/interdire-l-obligation-ou-l-incitation-a-accepter-les-mouchards-cookies/edit",
      "report": "https://www.republique-numerique.fr/consultations/projet-de-loi-numerique/consultation/consultation/opinions/section-1-protection-des-donnees-a-caractere-personnel/interdire-l-obligation-ou-l-incitation-a-accepter-les-mouchards-cookies/report",
      "type": "https://www.republique-numerique.fr/consultations/projet-de-loi-numerique/consultation/consultation/opinions/section-1-protection-des-donnees-a-caractere-personnel"
    },
    "user_vote": null,
    "has_user_reported": false
  },
  "rankingThreshold": null,
  "opinionTerm": 1
}