{
  "opinion": {
    "isContribuable": false,
    "votes_total": 43,
    "arguments_yes_count": 1,
    "arguments_no_count": 1,
    "id": 365,
    "created_at": "2015-10-01T09:04:02+0200",
    "updated_at": "2015-10-01T09:04:02+0200",
    "body": "Si mes mails passent par Orange c'est pas pour qu'ils les forward à n'importe qui!",
    "versions_count": 0,
    "sources_count": 0,
    "arguments_count": 2,
    "author": {
      "username": "Cestuila",
      "displayName": "Cestuila",
      "uniqueId": "cestuila",
      "isAdmin": false,
      "media": null,
      "vip": false,
      "_links": {
        "profile": "https://www.republique-numerique.fr/profile/cestuila",
        "settings": "https://www.republique-numerique.fr/profile/edit-profile"
      }
    },
    "type": {
      "id": 100,
      "title": "Section 2",
      "subtitle": "Confidentialité des correspondances privées",
      "voteWidgetType": 2,
      "votesHelpText": "Pensez-vous que cette proposition permet d'atteindre les objectifs présentés dans l’explication de l’article ?",
      "commentSystem": 2,
      "color": "blue",
      "versionable": true,
      "sourceable": true,
      "votesThreshold": null,
      "votesThresholdHelpText": null
    },
    "sources": [],
    "arguments": [
      {
        "isContribuable": false,
        "id": 5738,
        "body": "protection des lanceurs d'alerte.\nReprise et analyse par un organisme d'état de leur travail. Apparemment seuls les médias semblent les relayer.",
        "created_at": "2015-10-18T11:32:10+0200",
        "updated_at": "2015-10-18T11:32:10+0200",
        "is_enabled": true,
        "votes_count": 2,
        "type": 1,
        "is_trashed": false,
        "author": {
          "username": "pico",
          "displayName": "pico",
          "uniqueId": "pico",
          "isAdmin": false,
          "media": null,
          "vip": false,
          "_links": {
            "profile": "https://www.republique-numerique.fr/profile/pico",
            "settings": "https://www.republique-numerique.fr/profile/edit-profile"
          }
        },
        "_links": {
          "show": "https://www.republique-numerique.fr/consultations/projet-de-loi-numerique/consultation/consultation/opinions/section-2-confidentialite-des-correspondances-privees/impunite-pour-les-lanceurs-d-alerte-qui-mettent-en-lumiere-les-abus-des-organismes-prives-ou-publics#arg-5738",
          "edit": "https://www.republique-numerique.fr/consultations/projet-de-loi-numerique/consultation/consultation/opinions/section-2-confidentialite-des-correspondances-privees/impunite-pour-les-lanceurs-d-alerte-qui-mettent-en-lumiere-les-abus-des-organismes-prives-ou-publics/arguments/5738/edit",
          "report": "https://www.republique-numerique.fr/consultations/projet-de-loi-numerique/consultation/consultation/opinions/section-2-confidentialite-des-correspondances-privees/impunite-pour-les-lanceurs-d-alerte-qui-mettent-en-lumiere-les-abus-des-organismes-prives-ou-publics/arguments/5738/report"
        },
        "has_user_voted": false,
        "has_user_reported": false
      },
      {
        "isContribuable": false,
        "id": 5404,
        "body": "Impunité est un terme bien trop fort juridiquement...",
        "created_at": "2015-10-17T17:32:10+0200",
        "updated_at": "2015-10-17T17:32:10+0200",
        "is_enabled": true,
        "votes_count": 0,
        "type": 0,
        "is_trashed": false,
        "author": {
          "username": "Tanéléo",
          "displayName": "Tanéléo",
          "uniqueId": "taneleo",
          "isAdmin": false,
          "media": null,
          "vip": false,
          "_links": {
            "profile": "https://www.republique-numerique.fr/profile/taneleo",
            "settings": "https://www.republique-numerique.fr/profile/edit-profile"
          }
        },
        "_links": {
          "show": "https://www.republique-numerique.fr/consultations/projet-de-loi-numerique/consultation/consultation/opinions/section-2-confidentialite-des-correspondances-privees/impunite-pour-les-lanceurs-d-alerte-qui-mettent-en-lumiere-les-abus-des-organismes-prives-ou-publics#arg-5404",
          "edit": "https://www.republique-numerique.fr/consultations/projet-de-loi-numerique/consultation/consultation/opinions/section-2-confidentialite-des-correspondances-privees/impunite-pour-les-lanceurs-d-alerte-qui-mettent-en-lumiere-les-abus-des-organismes-prives-ou-publics/arguments/5404/edit",
          "report": "https://www.republique-numerique.fr/consultations/projet-de-loi-numerique/consultation/consultation/opinions/section-2-confidentialite-des-correspondances-privees/impunite-pour-les-lanceurs-d-alerte-qui-mettent-en-lumiere-les-abus-des-organismes-prives-ou-publics/arguments/5404/report"
        },
        "has_user_voted": false,
        "has_user_reported": false
      }
    ],
    "modals": [],
    "votes": [
      {
        "user": {
          "username": "Cestuila",
          "displayName": "Cestuila",
          "uniqueId": "cestuila",
          "isAdmin": false,
          "media": null,
          "vip": false,
          "_links": {
            "profile": "https://www.republique-numerique.fr/profile/cestuila",
            "settings": "https://www.republique-numerique.fr/profile/edit-profile"
          }
        }
      },
      {
        "user": {
          "username": "berger",
          "displayName": "berger",
          "uniqueId": "berger",
          "isAdmin": false,
          "media": {
            "url": "/media/cache/default_avatar/default/0001/01/364_default_avatar.jpg"
          },
          "vip": false,
          "_links": {
            "profile": "https://www.republique-numerique.fr/profile/berger",
            "settings": "https://www.republique-numerique.fr/profile/edit-profile"
          }
        }
      },
      {
        "user": {
          "username": "François Briat",
          "displayName": "François Briat",
          "uniqueId": "francoisbriat",
          "isAdmin": false,
          "media": {
            "url": "/media/cache/default_avatar/default/0001/01/243_default_avatar.jpg"
          },
          "vip": false,
          "_links": {
            "profile": "https://www.republique-numerique.fr/profile/francoisbriat",
            "settings": "https://www.republique-numerique.fr/profile/edit-profile"
          }
        }
      },
      {
        "user": {
          "username": "Jeanne Varasco",
          "displayName": "Jeanne Varasco",
          "uniqueId": "jeannevarasco",
          "isAdmin": false,
          "media": {
            "url": "/media/cache/default_avatar/default/0001/01/139_default_avatar.jpg"
          },
          "vip": false,
          "_links": {
            "profile": "https://www.republique-numerique.fr/profile/jeannevarasco",
            "settings": "https://www.republique-numerique.fr/profile/edit-profile"
          }
        }
      },
      {
        "user": {
          "username": "Stéphane Auclair",
          "displayName": "Stéphane Auclair",
          "uniqueId": "stephaneauclair1",
          "isAdmin": false,
          "media": null,
          "vip": false,
          "_links": {
            "profile": "https://www.republique-numerique.fr/profile/stephaneauclair1",
            "settings": "https://www.republique-numerique.fr/profile/edit-profile"
          }
        }
      }
    ],
    "appendices": [
      {
        "body": "Droit d'asile et impunité pour E. Snowden!",
        "type": {
          "title": "Explication de l'article"
        }
      }
    ],
    "ranking": 161,
    "is_trashed": false,
    "title": "Impunité pour les lanceurs d'alerte qui mettent en lumière les abus des organismes privés ou publics",
    "votes_nok": 1,
    "votes_ok": 39,
    "votes_mitige": 3,
    "_links": {
      "show": "https://www.republique-numerique.fr/consultations/projet-de-loi-numerique/consultation/consultation/opinions/section-2-confidentialite-des-correspondances-privees/impunite-pour-les-lanceurs-d-alerte-qui-mettent-en-lumiere-les-abus-des-organismes-prives-ou-publics",
      "edit": "https://www.republique-numerique.fr/consultations/projet-de-loi-numerique/consultation/consultation/opinions/section-2-confidentialite-des-correspondances-privees/impunite-pour-les-lanceurs-d-alerte-qui-mettent-en-lumiere-les-abus-des-organismes-prives-ou-publics/edit",
      "report": "https://www.republique-numerique.fr/consultations/projet-de-loi-numerique/consultation/consultation/opinions/section-2-confidentialite-des-correspondances-privees/impunite-pour-les-lanceurs-d-alerte-qui-mettent-en-lumiere-les-abus-des-organismes-prives-ou-publics/report",
      "type": "https://www.republique-numerique.fr/consultations/projet-de-loi-numerique/consultation/consultation/opinions/section-2-confidentialite-des-correspondances-privees"
    },
    "user_vote": null,
    "has_user_reported": false
  },
  "rankingThreshold": null,
  "opinionTerm": 1
}