{
  "version": {
    "isContribuable": false,
    "votes_total": 1713,
    "arguments_yes_count": 4,
    "arguments_no_count": 1,
    "id": 568,
    "body": "<p>I. Rel&egrave;vent du domaine commun informationnel :</p>\n\n<p>1&deg; Les informations, faits, id&eacute;es, principes, m&eacute;thodes, d&eacute;couvertes, d&egrave;s lors qu&rsquo;ils ont fait l&rsquo;objet d&rsquo;une divulgation publique licite, notamment dans le respect du secret industriel et commercial et du droit &agrave; la protection de la vie priv&eacute;e, et qu&rsquo;ils ne sont pas prot&eacute;g&eacute;s par un droit sp&eacute;cifique, tel qu&rsquo;un droit de propri&eacute;t&eacute; ou une obligation contractuelle ou extracontractuelle ;</p>\n\n<p>2&deg; Les &oelig;uvres, dessins, mod&egrave;les, inventions, bases de donn&eacute;es, prot&eacute;g&eacute;s par le code de la propri&eacute;t&eacute; intellectuelle, dont la dur&eacute;e de protection l&eacute;gale, &agrave; l&rsquo;exception du droit moral des auteurs, a expir&eacute; ;</p>\n\n<p>3&deg; Les informations issues des documents administratifs diffus&eacute;s publiquement par les personnes mentionn&eacute;es &agrave; l&rsquo;article 1 de la loi n&deg;78-753 du 17 juillet 1978 et dans les conditions pr&eacute;cis&eacute;es &agrave; l&rsquo;article 7 de la m&ecirc;me loi, sans pr&eacute;judice des dispositions des articles 9, 10, 14 et 15 de ladite loi.</p>\n\n<p>Les choses qui composent le domaine commun informationnel sont des choses communes au sens de l&rsquo;article 714 du Code civil. Elles ne peuvent, en tant que tels, faire l&#39;objet d&rsquo;une exclusivit&eacute;, ni d&#39;une restriction de l&rsquo;usage commun &agrave; tous, autre que l&rsquo;exercice du droit moral.</p>\n\n<p>Les associations <s>agr&eacute;&eacute;es</s> ayant pour objet la diffusion des savoirs ou la d&eacute;fense des choses communes, ainsi que toute personne int&eacute;ress&eacute;e, ont qualit&eacute; pour agir aux fins de faire cesser toute atteinte au domaine commun informationnel. <s>Cet agr&eacute;ment est attribu&eacute; dans des conditions d&eacute;finies par un d&eacute;cret en Conseil d&rsquo;Etat. Il est valable pour une dur&eacute;e limit&eacute;e, et peut &ecirc;tre abrog&eacute; lorsque l&rsquo;association ne satisfait plus aux conditions qui ont conduit &agrave; le d&eacute;livrer.</s></p>\n\n<p>II. Au troisi&egrave;me alin&eacute;a de l&rsquo;article L.411-1 du code de la propri&eacute;t&eacute; intellectuelle, apr&egrave;s les mots &laquo;&nbsp;protection des innovations,&nbsp;&raquo;, il est ins&eacute;r&eacute; les mots&nbsp;: &laquo;&nbsp;pour la promotion de l&rsquo;innovation collaborative et du domaine commun informationnel&nbsp;&raquo;.</p>",
    "comment": "<p>La r&eacute;daction actuelle du projet de loi restreint l&#39;int&eacute;r&ecirc;t pour agir en d&eacute;fense du domaine commun &agrave; des associations agr&eacute;&eacute;s. Si l&#39;on souhaite que la protection du domaine commun soit effective, il importe d&#39;ouvrir plus largement ces possibilit&eacute;s d&#39;action en supprimant la proc&eacute;dure d&#39;agr&eacute;ment pr&eacute;alable, ainsi qu&#39;aux simples individus. Par ailleurs, il est n&eacute;cessaire que cette action ne se limite pas &agrave; demander que cesse l&#39;atteinte au domaine commun, mais aussi que la responsabilit&eacute; des fautifs puissent &ecirc;tre engag&eacute;e.&nbsp;</p>",
    "author": {
      "username": "La Quadrature du Net",
      "displayName": "La Quadrature du Net",
      "uniqueId": "laquadraturedunet",
      "isAdmin": false,
      "media": {
        "url": "/media/cache/default_avatar/default/0001/01/370_default_avatar.jpg"
      },
      "vip": false,
      "_links": {
        "profile": "https://www.republique-numerique.fr/profile/laquadraturedunet",
        "settings": "https://www.republique-numerique.fr/profile/edit-profile"
      }
    },
    "arguments": [
      {
        "isContribuable": false,
        "id": 2781,
        "body": "\"Cet agrément est attribué dans des conditions définies par un décret en Conseil d’Etat. Il est valable pour une durée limitée\" - pourquoi durée limitée pour le domaine commun informationnel? C'est notre domaine, patrimoine commun informationnel de l'humanité - il est important de le préserver à long terme, durée illimité. ",
        "created_at": "2015-10-09T11:38:21+0200",
        "updated_at": "2015-10-09T11:38:21+0200",
        "is_enabled": true,
        "votes_count": 13,
        "type": 1,
        "is_trashed": false,
        "author": {
          "username": "Elisabeth Porteneuve",
          "displayName": "Elisabeth Porteneuve",
          "uniqueId": "elisabethporteneuve",
          "isAdmin": false,
          "media": null,
          "vip": false,
          "_links": {
            "profile": "https://www.republique-numerique.fr/profile/elisabethporteneuve",
            "settings": "https://www.republique-numerique.fr/profile/edit-profile"
          }
        },
        "_links": {
          "show": "https://www.republique-numerique.fr/consultations/projet-de-loi-numerique/consultation/consultation/opinions/section-1-les-communs/article-8-definition-du-domaine-commun-informationnel/versions/elargir-les-possibilites-d-action-contre-les-atteintes-au-domaine-commun-informationnel#arg-2781",
          "edit": "https://www.republique-numerique.fr/consultations/projet-de-loi-numerique/consultation/consultation/opinions/section-1-les-communs/article-8-definition-du-domaine-commun-informationnel/arguments/2781/edit",
          "report": "https://www.republique-numerique.fr/consultations/projet-de-loi-numerique/consultation/consultation/opinions/section-1-les-communs/article-8-definition-du-domaine-commun-informationnel/arguments/2781/report"
        },
        "has_user_voted": false,
        "has_user_reported": false
      },
      {
        "isContribuable": false,
        "id": 3264,
        "body": "Entièrement d'accord, la restriction n'a pas lieu d'être. Si elles sont adoptées, ces dispositions pourraient facilement être contestées devant le conseil constitutionnel ou la CEDH, qui protègent tous les deux le droit à un recours juridictionnel effectif. ",
        "created_at": "2015-10-12T11:07:22+0200",
        "updated_at": "2015-10-12T11:07:22+0200",
        "is_enabled": true,
        "votes_count": 8,
        "type": 1,
        "is_trashed": false,
        "author": {
          "username": "Guillaume Schaeffer",
          "displayName": "Guillaume Schaeffer",
          "uniqueId": "guillaumeschaeffer",
          "isAdmin": false,
          "media": null,
          "vip": false,
          "_links": {
            "profile": "https://www.republique-numerique.fr/profile/guillaumeschaeffer",
            "settings": "https://www.republique-numerique.fr/profile/edit-profile"
          }
        },
        "_links": {
          "show": "https://www.republique-numerique.fr/consultations/projet-de-loi-numerique/consultation/consultation/opinions/section-1-les-communs/article-8-definition-du-domaine-commun-informationnel/versions/elargir-les-possibilites-d-action-contre-les-atteintes-au-domaine-commun-informationnel#arg-3264",
          "edit": "https://www.republique-numerique.fr/consultations/projet-de-loi-numerique/consultation/consultation/opinions/section-1-les-communs/article-8-definition-du-domaine-commun-informationnel/arguments/3264/edit",
          "report": "https://www.republique-numerique.fr/consultations/projet-de-loi-numerique/consultation/consultation/opinions/section-1-les-communs/article-8-definition-du-domaine-commun-informationnel/arguments/3264/report"
        },
        "has_user_voted": false,
        "has_user_reported": false
      },
      {
        "isContribuable": false,
        "id": 3352,
        "body": "On ne voit effectivement pas pourquoi restreindre à des associations agréées, et pourquoi il faudrait un décret en CE pour définir les conditions de cet agrément. \n\nDes groupes parfaitement compétents seraient en ce cas facilement écartés - on imagine mal certains gouvernements donner leur agrément au groupe constitué autour de la revue Multitudes, qui travaille sur les commons depuis plusieurs années.\n\nSi le législateur craint de submerger la justice par des plaintes non-fondées - et si ce risque, que la CADA peut sans doute essayer d'évaluer, se révélait avéré - la simple exigence de se constituer en tant qu'association - tout court - devrait suffire à éviter un tel engorgement. ",
        "created_at": "2015-10-12T18:58:55+0200",
        "updated_at": "2015-10-12T18:58:55+0200",
        "is_enabled": true,
        "votes_count": 11,
        "type": 1,
        "is_trashed": false,
        "author": {
          "username": "samson_d",
          "displayName": "samson_d",
          "uniqueId": "samsond",
          "isAdmin": false,
          "media": null,
          "vip": false,
          "_links": {
            "profile": "https://www.republique-numerique.fr/profile/samsond",
            "settings": "https://www.republique-numerique.fr/profile/edit-profile"
          }
        },
        "_links": {
          "show": "https://www.republique-numerique.fr/consultations/projet-de-loi-numerique/consultation/consultation/opinions/section-1-les-communs/article-8-definition-du-domaine-commun-informationnel/versions/elargir-les-possibilites-d-action-contre-les-atteintes-au-domaine-commun-informationnel#arg-3352",
          "edit": "https://www.republique-numerique.fr/consultations/projet-de-loi-numerique/consultation/consultation/opinions/section-1-les-communs/article-8-definition-du-domaine-commun-informationnel/arguments/3352/edit",
          "report": "https://www.republique-numerique.fr/consultations/projet-de-loi-numerique/consultation/consultation/opinions/section-1-les-communs/article-8-definition-du-domaine-commun-informationnel/arguments/3352/report"
        },
        "has_user_voted": false,
        "has_user_reported": false
      },
      {
        "isContribuable": false,
        "id": 3500,
        "body": "Techniquement, il est irrationnel d'imaginer pouvoir s'approprier un bien public. Les institutions européennes ont bien essayé récemment de réglementer l'usage les photos d'édifice privés.\r\n\r\nOn atteint ici les limites du bien commun. Comment peut on interdire l'usage de quelque chose que l'on tient à exposer aux yeux de tous ?\r\nLe fait de regarder un immeuble est déjà en faire un usage. Dès lors qu'un bien privé devient d'un usage commun utile à tous, et non pas utile en cellule privée ou restreinte, aucun droit ne doit pouvoir s'exercer.\r\n\r\nEst ce que quelqu'un paye pour l'invention du courant alternatif ?",
        "created_at": "2015-10-13T10:42:32+0200",
        "updated_at": "2015-10-13T10:43:00+0200",
        "is_enabled": true,
        "votes_count": 2,
        "type": 0,
        "is_trashed": false,
        "author": {
          "username": "georges Le mâitre",
          "displayName": "georges Le mâitre",
          "uniqueId": "georgeslemaitre",
          "isAdmin": false,
          "media": null,
          "vip": false,
          "_links": {
            "profile": "https://www.republique-numerique.fr/profile/georgeslemaitre",
            "settings": "https://www.republique-numerique.fr/profile/edit-profile"
          }
        },
        "_links": {
          "show": "https://www.republique-numerique.fr/consultations/projet-de-loi-numerique/consultation/consultation/opinions/section-1-les-communs/article-8-definition-du-domaine-commun-informationnel/versions/elargir-les-possibilites-d-action-contre-les-atteintes-au-domaine-commun-informationnel#arg-3500",
          "edit": "https://www.republique-numerique.fr/consultations/projet-de-loi-numerique/consultation/consultation/opinions/section-1-les-communs/article-8-definition-du-domaine-commun-informationnel/arguments/3500/edit",
          "report": "https://www.republique-numerique.fr/consultations/projet-de-loi-numerique/consultation/consultation/opinions/section-1-les-communs/article-8-definition-du-domaine-commun-informationnel/arguments/3500/report"
        },
        "has_user_voted": false,
        "has_user_reported": false
      },
      {
        "isContribuable": false,
        "id": 3733,
        "body": "Élargir le champ d'action et ne plus le restreindre aux associations agréées serait un grand pas en avant pour plus de démocratie participative.",
        "created_at": "2015-10-13T22:46:42+0200",
        "updated_at": "2015-10-13T22:46:42+0200",
        "is_enabled": true,
        "votes_count": 6,
        "type": 1,
        "is_trashed": false,
        "author": {
          "username": "Vivi Gatt",
          "displayName": "Vivi Gatt",
          "uniqueId": "vivigatt",
          "isAdmin": false,
          "media": null,
          "vip": false,
          "_links": {
            "profile": "https://www.republique-numerique.fr/profile/vivigatt",
            "settings": "https://www.republique-numerique.fr/profile/edit-profile"
          }
        },
        "_links": {
          "show": "https://www.republique-numerique.fr/consultations/projet-de-loi-numerique/consultation/consultation/opinions/section-1-les-communs/article-8-definition-du-domaine-commun-informationnel/versions/elargir-les-possibilites-d-action-contre-les-atteintes-au-domaine-commun-informationnel#arg-3733",
          "edit": "https://www.republique-numerique.fr/consultations/projet-de-loi-numerique/consultation/consultation/opinions/section-1-les-communs/article-8-definition-du-domaine-commun-informationnel/arguments/3733/edit",
          "report": "https://www.republique-numerique.fr/consultations/projet-de-loi-numerique/consultation/consultation/opinions/section-1-les-communs/article-8-definition-du-domaine-commun-informationnel/arguments/3733/report"
        },
        "has_user_voted": false,
        "has_user_reported": false
      }
    ],
    "sources": [],
    "parent": {
      "isContribuable": false,
      "id": 68,
      "body": "<p>I. Rel&egrave;vent du domaine commun informationnel :</p>\r\n\r\n<p>1&deg; Les informations, faits, id&eacute;es, principes, m&eacute;thodes, d&eacute;couvertes, d&egrave;s lors qu&rsquo;ils ont fait l&rsquo;objet d&rsquo;une divulgation publique licite, notamment dans le respect du secret industriel et commercial et du droit &agrave; la protection de la vie priv&eacute;e, et qu&rsquo;ils ne sont pas prot&eacute;g&eacute;s par un droit sp&eacute;cifique, tel qu&rsquo;un droit de propri&eacute;t&eacute; ou une obligation contractuelle ou extracontractuelle ;</p>\r\n\r\n<p>2&deg; Les &oelig;uvres, dessins, mod&egrave;les, inventions, bases de donn&eacute;es, prot&eacute;g&eacute;s par le code de la propri&eacute;t&eacute; intellectuelle, dont la dur&eacute;e de protection l&eacute;gale, &agrave; l&rsquo;exception du droit moral des auteurs, a expir&eacute; ;</p>\r\n\r\n<p>3&deg; Les informations issues des documents administratifs diffus&eacute;s publiquement par les personnes mentionn&eacute;es &agrave; l&rsquo;article 1 de la loi n&deg;78-753 du 17 juillet 1978 et dans les conditions pr&eacute;cis&eacute;es &agrave; l&rsquo;article 7 de la m&ecirc;me loi, sans pr&eacute;judice des dispositions des articles 9, 10, 14 et 15 de ladite loi.</p>\r\n\r\n<p>Les choses qui composent le domaine commun informationnel sont des choses communes au sens de l&rsquo;article 714 du Code civil. Elles ne peuvent, en tant que tels, faire l&#39;objet d&rsquo;une exclusivit&eacute;, ni d&#39;une restriction de l&rsquo;usage commun &agrave; tous, autre que l&rsquo;exercice du droit moral.</p>\r\n\r\n<p>Les associations agr&eacute;&eacute;es ayant pour objet la diffusion des savoirs ou la d&eacute;fense des choses communes ont qualit&eacute; pour agir aux fins de faire cesser toute atteinte au domaine commun informationnel. Cet agr&eacute;ment est attribu&eacute; dans des conditions d&eacute;finies par un d&eacute;cret en Conseil d&rsquo;Etat. Il est valable pour une dur&eacute;e limit&eacute;e, et peut &ecirc;tre abrog&eacute; lorsque l&rsquo;association ne satisfait plus aux conditions qui ont conduit &agrave; le d&eacute;livrer.</p>\r\n\r\n<p>II. Au troisi&egrave;me alin&eacute;a de l&rsquo;article L.411-1 du code de la propri&eacute;t&eacute; intellectuelle, apr&egrave;s les mots &laquo;&nbsp;protection des innovations,&nbsp;&raquo;, il est ins&eacute;r&eacute; les mots&nbsp;: &laquo;&nbsp;pour la promotion de l&rsquo;innovation collaborative et du domaine commun informationnel&nbsp;&raquo;.</p>",
      "type": {
        "id": 90,
        "title": "Section 1",
        "subtitle": "Les Communs",
        "voteWidgetType": 2,
        "votesHelpText": "Pensez-vous que cette proposition permet d'atteindre les objectifs présentés dans l’explication de l’article ?",
        "commentSystem": 2,
        "color": "blue",
        "versionable": true,
        "sourceable": true,
        "votesThreshold": null,
        "votesThresholdHelpText": null
      },
      "modals": [
        {
          "key": "article L.411-1",
          "before": "<p>« L'Institut national de la propriété industrielle est un établissement public doté de la personnalité civile et de l'autonomie financière, placé auprès du ministre chargé de la propriété industrielle.</p><p>Cet établissement a pour mission :</p><p>1° De centraliser et diffuser toute information nécessaire pour la protection des innovations et pour l'enregistrement des entreprises, ainsi que d'engager toute action de sensibilisation et de formation dans ces domaines ;   »</p>",
          "after": "<p>« L'Institut national de la propriété industrielle est un établissement public doté de la personnalité civile et de l'autonomie financière, placé auprès du ministre chargé de la propriété industrielle.</p><p>Cet établissement a pour mission :</p><p>1° De centraliser et diffuser toute information nécessaire pour la protection des innovations pour la promotion de l’innovation collaborative et du domaine commun informationnel et pour l'enregistrement des entreprises, ainsi que d'engager toute action de sensibilisation et de formation dans ces domaines ;   »</p>",
          "title": "Article L411-1 du Code de la Propriété Intellectuelle"
        },
        {
          "key": "<key>",
          "before": "<p>« L'Institut national de la propriété industrielle est un établissement public doté de la personnalité civile et de l'autonomie financière, placé auprès du ministre chargé de la propriété industrielle.</p><p>Cet établissement a pour mission :</p><p>1° De centraliser et diffuser toute information nécessaire pour la protection des innovations et pour l'enregistrement des entreprises, ainsi que d'engager toute action de sensibilisation et de formation dans ces domaines ;   »</p>",
          "after": "<p>« L'Institut national de la propriété industrielle est un établissement public doté de la personnalité civile et de l'autonomie financière, placé auprès du ministre chargé de la propriété industrielle.</p><p>Cet établissement a pour mission :</p><p>1° De centraliser et diffuser toute information nécessaire pour la protection des innovations pour la promotion de l’innovation collaborative et du domaine commun informationnel et pour l'enregistrement des entreprises, ainsi que d'engager toute action de sensibilisation et de formation dans ces domaines ;   »</p>",
          "title": "Article L411-1 du Code de la Propriété Intellectuelle"
        }
      ],
      "appendices": [
        {
          "body": "<p><strong>Objectif :</strong> Prot&eacute;ger les ressources communes &agrave; tous appartenant au domaine public contre les pratiques d&rsquo;appropriation qui conduisent &agrave; en interdire l&rsquo;acc&egrave;s</p>\r\n\r\n<p><strong>Explication :</strong> aujourd&rsquo;hui, des pratiques abusives consistent &agrave; revendiquer des droits sur des choses qui appartiennent au domaine public.&nbsp;Afin de mettre fin &agrave; ces abus, il sera d&eacute;sormais possible pour des associations agr&eacute;&eacute;es d&rsquo;intenter une action en justice pour d&eacute;fendre le p&eacute;rim&egrave;tre de ce domaine public et faire cesser toute tentative de r&eacute;appropriation exclusive.</p>\r\n\r\n<p><strong>Exemple :</strong> des associations agr&eacute;&eacute;es pourront agir contre certains sites qui interdisent la reproduction num&eacute;rique d&rsquo;&oelig;uvres appartenant au domaine public et faire supprimer les clauses des conditions g&eacute;n&eacute;rales d&rsquo;utilisation illicites.</p>\r\n\r\n<p>La r&eacute;daction de cet article est provisoire et &agrave; consolider dans le cadre de la concertation avec les experts et les parties prenantes, avant d&eacute;cision de maintien.</p>",
          "type": {
            "title": "Explication de l'article"
          }
        }
      ],
      "title": "Article 8 - Définition positive du domaine commun informationnel",
      "_links": {
        "show": "https://www.republique-numerique.fr/consultations/projet-de-loi-numerique/consultation/consultation/opinions/section-1-les-communs/article-8-definition-du-domaine-commun-informationnel",
        "edit": "https://www.republique-numerique.fr/consultations/projet-de-loi-numerique/consultation/consultation/opinions/section-1-les-communs/article-8-definition-du-domaine-commun-informationnel/edit",
        "report": "https://www.republique-numerique.fr/consultations/projet-de-loi-numerique/consultation/consultation/opinions/section-1-les-communs/article-8-definition-du-domaine-commun-informationnel/report",
        "type": "https://www.republique-numerique.fr/consultations/projet-de-loi-numerique/consultation/consultation/opinions/section-1-les-communs"
      },
      "user_vote": null,
      "has_user_reported": false
    },
    "sources_count": 0,
    "arguments_count": 5,
    "votes": [
      {
        "user": {
          "username": "Max Denver",
          "displayName": "Max Denver",
          "uniqueId": "maxdenver",
          "isAdmin": false,
          "media": null,
          "vip": false,
          "_links": {
            "profile": "https://www.republique-numerique.fr/profile/maxdenver",
            "settings": "https://www.republique-numerique.fr/profile/edit-profile"
          }
        },
        "value": 1
      },
      {
        "user": {
          "username": "Léon Zitroll",
          "displayName": "Léon Zitroll",
          "uniqueId": "leonzitroll",
          "isAdmin": false,
          "media": {
            "url": "/media/cache/default_avatar/default/0001/01/100_default_avatar.png"
          },
          "vip": false,
          "_links": {
            "profile": "https://www.republique-numerique.fr/profile/leonzitroll",
            "settings": "https://www.republique-numerique.fr/profile/edit-profile"
          }
        },
        "value": 1
      },
      {
        "user": {
          "username": "Nerstak",
          "displayName": "Nerstak",
          "uniqueId": "nerstak",
          "isAdmin": false,
          "media": {
            "url": "/media/cache/default_avatar/default/0001/01/181_default_avatar.png"
          },
          "vip": false,
          "_links": {
            "profile": "https://www.republique-numerique.fr/profile/nerstak",
            "settings": "https://www.republique-numerique.fr/profile/edit-profile"
          }
        },
        "value": 1
      },
      {
        "user": {
          "username": "Jumpman",
          "displayName": "Jumpman",
          "uniqueId": "jumpman",
          "isAdmin": false,
          "media": null,
          "vip": false,
          "_links": {
            "profile": "https://www.republique-numerique.fr/profile/jumpman",
            "settings": "https://www.republique-numerique.fr/profile/edit-profile"
          }
        },
        "value": 1
      },
      {
        "user": {
          "username": "Arnaud Astruc",
          "displayName": "Arnaud Astruc",
          "uniqueId": "arnaudastruc",
          "isAdmin": false,
          "media": null,
          "vip": false,
          "_links": {
            "profile": "https://www.republique-numerique.fr/profile/arnaudastruc",
            "settings": "https://www.republique-numerique.fr/profile/edit-profile"
          }
        },
        "value": 1
      }
    ],
    "updated_at": "2015-10-02T16:53:58+0200",
    "ranking": 4,
    "is_trashed": false,
    "title": "Élargir les possibilités d'action contre les atteintes au domaine commun informationnel",
    "slug": "elargir-les-possibilites-d-action-contre-les-atteintes-au-domaine-commun-informationnel",
    "created_at": "2015-10-02T16:53:58+0200",
    "votes_nok": 12,
    "votes_ok": 1698,
    "votes_mitige": 3,
    "_links": {
      "show": "https://www.republique-numerique.fr/consultations/projet-de-loi-numerique/consultation/consultation/opinions/section-1-les-communs/article-8-definition-du-domaine-commun-informationnel/versions/elargir-les-possibilites-d-action-contre-les-atteintes-au-domaine-commun-informationnel",
      "report": "https://www.republique-numerique.fr/consultations/projet-de-loi-numerique/consultation/consultation/opinions/section-1-les-communs/article-8-definition-du-domaine-commun-informationnel/versions/elargir-les-possibilites-d-action-contre-les-atteintes-au-domaine-commun-informationnel/report"
    },
    "user_vote": null,
    "has_user_reported": false
  },
  "rankingThreshold": null,
  "opinionTerm": 1
}