{
  "version": {
    "isContribuable": false,
    "votes_total": 53,
    "arguments_yes_count": 0,
    "arguments_no_count": 0,
    "id": 1219,
    "body": "<p>Suppression [I. Rel&egrave;vent du domaine commun informationnel :</p>\n\n<p>1&deg; Les informations, faits, id&eacute;es, principes, m&eacute;thodes, d&eacute;couvertes, d&egrave;s lors qu&rsquo;ils ont fait l&rsquo;objet d&rsquo;une divulgation publique licite, notamment dans le respect du secret industriel et commercial et du droit &agrave; la protection de la vie priv&eacute;e, et qu&rsquo;ils ne sont pas prot&eacute;g&eacute;s par un droit sp&eacute;cifique, tel qu&rsquo;un droit de propri&eacute;t&eacute; ou une obligation contractuelle ou extracontractuelle ;</p>\n\n<p>2&deg; Les &oelig;uvres, dessins, mod&egrave;les, inventions, bases de donn&eacute;es, prot&eacute;g&eacute;s par le code de la propri&eacute;t&eacute; intellectuelle, dont la dur&eacute;e de protection l&eacute;gale, &agrave; l&rsquo;exception du droit moral des auteurs, a expir&eacute; ;</p>\n\n<p>3&deg; Les informations issues des documents administratifs diffus&eacute;s publiquement par les personnes mentionn&eacute;es &agrave; l&rsquo;article 1 de la loi n&deg;78-753 du 17 juillet 1978 et dans les conditions pr&eacute;cis&eacute;es &agrave; l&rsquo;article 7 de la m&ecirc;me loi, sans pr&eacute;judice des dispositions des articles 9, 10, 14 et 15 de ladite loi.</p>\n\n<p>Les choses qui composent le domaine commun informationnel sont des choses communes au sens de l&rsquo;article 714 du Code civil. Elles ne peuvent, en tant que tels, faire l&#39;objet d&rsquo;une exclusivit&eacute;, ni d&#39;une restriction de l&rsquo;usage commun &agrave; tous, autre que l&rsquo;exercice du droit moral.</p>\n\n<p>Les associations agr&eacute;&eacute;es ayant pour objet la diffusion des savoirs ou la d&eacute;fense des choses communes ont qualit&eacute; pour agir aux fins de faire cesser toute atteinte au domaine commun informationnel. Cet agr&eacute;ment est attribu&eacute; dans des conditions d&eacute;finies par un d&eacute;cret en Conseil d&rsquo;Etat. Il est valable pour une dur&eacute;e limit&eacute;e, et peut &ecirc;tre abrog&eacute; lorsque l&rsquo;association ne satisfait plus aux conditions qui ont conduit &agrave; le d&eacute;livrer.</p>\n\n<p>II. Au troisi&egrave;me alin&eacute;a de l&rsquo;article L.411-1 du code de la propri&eacute;t&eacute; intellectuelle, apr&egrave;s les mots &laquo;&nbsp;protection des innovations,&nbsp;&raquo;, il est ins&eacute;r&eacute; les mots&nbsp;: &laquo;&nbsp;pour la promotion de l&rsquo;innovation collaborative et du domaine commun informationnel&nbsp;&raquo;.]</p>",
    "comment": "<p>La Scam estime pr&eacute;matur&eacute;e l&rsquo;introduction dans le droit d&rsquo;une notion de &laquo; domaine public informationnel &raquo;.&nbsp; Si elle est appel&eacute;e de ses v&oelig;ux par certaines associations, la question de son opportunit&eacute; et/ou de sa n&eacute;cessit&eacute; reste ouverte, de m&ecirc;me que son r&eacute;gime.</p>\n\n<p>L&rsquo;application des r&egrave;gles existantes n&rsquo;a pas, jusqu&rsquo;&agrave; preuve du contraire, suscit&eacute; de probl&egrave;me pour les juges. En l&rsquo;&eacute;tat du droit, il n&rsquo;y a pas de vide juridique, pas d&rsquo;ambigu&iuml;t&eacute; sur les limites de la propri&eacute;t&eacute; dont jouissent les titulaires de droit de propri&eacute;t&eacute; intellectuelle. En pratique, les r&egrave;gles de droit sont assez claires et permettent de contester une titularit&eacute; des droits qui serait infond&eacute;e. La jurisprudence est &eacute;tablie et constante s&rsquo;agissant de ce qui rel&egrave;ve ou non du champ de la protection par la propri&eacute;t&eacute; intellectuelle. Les id&eacute;es ne sont pas prot&eacute;geables, de m&ecirc;me que les d&eacute;couvertes et les autres &eacute;l&eacute;ments incorporels dont il est question dans cet article. Concernant la dur&eacute;e de protection, il en est de m&ecirc;me : le juge a &eacute;t&eacute; amen&eacute; &agrave; se prononcer de fa&ccedil;on claire sur son terme, notamment dans l&rsquo;affaire Monet (arr&ecirc;t de la Cour de cassation du 27 f&eacute;vrier 2007).</p>\n\n<p>Ce qui est dans le domaine public est notoirement ce qui n&rsquo;est pas ou plus prot&eacute;g&eacute; par la propri&eacute;t&eacute; intellectuelle. L&rsquo;absence de d&eacute;finition positive n&rsquo;est pas d&eacute;ceptif pour le domaine public, elle est technique. Cette absence permet aujourd&rsquo;hui une conception extensive du domaine public.</p>\n\n<p>D&eacute;finir, c&rsquo;est limiter. Il est logique que ce soit la propri&eacute;t&eacute; priv&eacute;e qui soit limit&eacute;e et non le domaine public. Ce retournement que constitue une d&eacute;finition &laquo; positive &raquo; du domaine public am&egrave;ne d&egrave;s lors certaines interrogations sur le rapport entre propri&eacute;t&eacute; priv&eacute;e et domaine public. Et ce nouveau rapport n&rsquo;a pas &eacute;t&eacute; &eacute;tudi&eacute;. La remise en cause de cet &eacute;quilibre sugg&egrave;re qu&rsquo;on en &eacute;tudie les cons&eacute;quences, ne serait-ce qu&rsquo;au niveau juridique.</p>\n\n<p>Toutes les options relatives &agrave; un r&eacute;gime qui serait propre au domaine public n&rsquo;ont pas non plus &eacute;t&eacute; &eacute;puis&eacute;es. Loin de l&agrave;. La simple concertation organis&eacute;e &agrave; ce stade ne pourra pas y pourvoir. L&rsquo;article 8 du projet de loi adjoint aux biens du domaine public le r&eacute;gime de l&rsquo;article 174 du code civil sans qu&rsquo;aucune analyse n&rsquo;ait &eacute;t&eacute; finalement men&eacute;e au fond.</p>\n\n<p>C&rsquo;est pourquoi, la Scam demande qu&rsquo;une expertise soit men&eacute;e en amont sur toutes ces questions. Une &eacute;tude d&rsquo;impact nous para&icirc;t &ecirc;tre un pr&eacute;alable de m&ecirc;me qu&rsquo;une &eacute;tude juridique approfondie. Au demeurant, un rapport vient d&rsquo;&ecirc;tre command&eacute; par le Conseil Sup&eacute;rieur de la Propri&eacute;t&eacute; Litt&eacute;raire et Artistique (CSPLA) &agrave; Jean Martin, sp&eacute;cialiste de la propri&eacute;t&eacute; intellectuelle, qui permettra de d&eacute;gager des pistes de r&eacute;flexion.</p>\n\n<p>La Scam s&rsquo;&eacute;tonne que la sauvegarde du patrimoine ne demeure pas au fond la pr&eacute;occupation premi&egrave;re, et que les propositions relatives au domaine public l&rsquo;ignorent. Sans &oelig;uvres, le r&eacute;gime applicable quel qu&rsquo;il soit, n&rsquo;a pas de raison d&rsquo;&ecirc;tre. D&rsquo;&eacute;vidence les &oelig;uvres sont de plus en plus nombreuses, et leur pr&eacute;servation &agrave; terme pose de plus en plus probl&egrave;me. Dans un contexte de financement public contraint, il ne faut pas &eacute;luder la possibilit&eacute; pour les d&eacute;positaires des supports, tableaux, sculptures, films, enregistrements, manuscrits etc. de recourir &agrave; des financements alternatifs pour permettre leur conservation. Ce financement peut le cas &eacute;ch&eacute;ant passer par une mon&eacute;tisation de leur reproduction ou de leur repr&eacute;sentation. Des pistes de r&eacute;flexion ont &eacute;t&eacute; lanc&eacute;es dans cette direction. Il est surprenant qu&rsquo;on finisse par davantage faire cas d&rsquo;un logo &laquo; copyright &raquo; appos&eacute; sur une reproduction d&rsquo;une &oelig;uvre que de l&rsquo;&oelig;uvre elle-m&ecirc;me et sa survie. La pr&eacute;servation du bien commun passe avant tout par la pr&eacute;servation mat&eacute;rielle des &oelig;uvres.</p>\n\n<p>Quant &agrave; l&rsquo;abus de droit des h&eacute;ritiers et autres ayants droit, le code de la propri&eacute;t&eacute; intellectuelle le sanctionne d&eacute;j&agrave;. Pour m&eacute;moire, l&rsquo;article L. 122-9&nbsp; de ce code sanctionne l&rsquo;abus dans l&rsquo;exercice du droit patrimonial, l&rsquo;article L. 121-3, l&rsquo;abus de droit moral et l&rsquo;article L. 111-3 va jusqu&rsquo;&agrave; sanctionner l&rsquo;abus du droit du propri&eacute;taire du support. Si des abus ou des m&eacute;connaissances sont constat&eacute;s, les r&egrave;gles actuelles permettent au juge d&rsquo;y rem&eacute;dier, voire de les sanctionner. L&agrave; encore, la n&eacute;cessit&eacute; de nouveaux dispositifs juridiques qui pourraient faire doublon restent &agrave; prouver.</p>\n\n<p>Nous pr&eacute;conisons le retrait de cette disposition du projet de loi &laquo; Libert&eacute;s num&eacute;riques &raquo;.</p>\n\n<p>&nbsp;</p>",
    "author": {
      "username": "La Scam",
      "displayName": "La Scam",
      "uniqueId": "lascam",
      "isAdmin": false,
      "media": {
        "url": "/media/cache/default_avatar/default/0001/01/732_default_avatar.jpg"
      },
      "vip": false,
      "_links": {
        "profile": "https://www.republique-numerique.fr/profile/lascam",
        "settings": "https://www.republique-numerique.fr/profile/edit-profile"
      }
    },
    "arguments": [],
    "sources": [],
    "parent": {
      "isContribuable": false,
      "id": 68,
      "body": "<p>I. Rel&egrave;vent du domaine commun informationnel :</p>\r\n\r\n<p>1&deg; Les informations, faits, id&eacute;es, principes, m&eacute;thodes, d&eacute;couvertes, d&egrave;s lors qu&rsquo;ils ont fait l&rsquo;objet d&rsquo;une divulgation publique licite, notamment dans le respect du secret industriel et commercial et du droit &agrave; la protection de la vie priv&eacute;e, et qu&rsquo;ils ne sont pas prot&eacute;g&eacute;s par un droit sp&eacute;cifique, tel qu&rsquo;un droit de propri&eacute;t&eacute; ou une obligation contractuelle ou extracontractuelle ;</p>\r\n\r\n<p>2&deg; Les &oelig;uvres, dessins, mod&egrave;les, inventions, bases de donn&eacute;es, prot&eacute;g&eacute;s par le code de la propri&eacute;t&eacute; intellectuelle, dont la dur&eacute;e de protection l&eacute;gale, &agrave; l&rsquo;exception du droit moral des auteurs, a expir&eacute; ;</p>\r\n\r\n<p>3&deg; Les informations issues des documents administratifs diffus&eacute;s publiquement par les personnes mentionn&eacute;es &agrave; l&rsquo;article 1 de la loi n&deg;78-753 du 17 juillet 1978 et dans les conditions pr&eacute;cis&eacute;es &agrave; l&rsquo;article 7 de la m&ecirc;me loi, sans pr&eacute;judice des dispositions des articles 9, 10, 14 et 15 de ladite loi.</p>\r\n\r\n<p>Les choses qui composent le domaine commun informationnel sont des choses communes au sens de l&rsquo;article 714 du Code civil. Elles ne peuvent, en tant que tels, faire l&#39;objet d&rsquo;une exclusivit&eacute;, ni d&#39;une restriction de l&rsquo;usage commun &agrave; tous, autre que l&rsquo;exercice du droit moral.</p>\r\n\r\n<p>Les associations agr&eacute;&eacute;es ayant pour objet la diffusion des savoirs ou la d&eacute;fense des choses communes ont qualit&eacute; pour agir aux fins de faire cesser toute atteinte au domaine commun informationnel. Cet agr&eacute;ment est attribu&eacute; dans des conditions d&eacute;finies par un d&eacute;cret en Conseil d&rsquo;Etat. Il est valable pour une dur&eacute;e limit&eacute;e, et peut &ecirc;tre abrog&eacute; lorsque l&rsquo;association ne satisfait plus aux conditions qui ont conduit &agrave; le d&eacute;livrer.</p>\r\n\r\n<p>II. Au troisi&egrave;me alin&eacute;a de l&rsquo;article L.411-1 du code de la propri&eacute;t&eacute; intellectuelle, apr&egrave;s les mots &laquo;&nbsp;protection des innovations,&nbsp;&raquo;, il est ins&eacute;r&eacute; les mots&nbsp;: &laquo;&nbsp;pour la promotion de l&rsquo;innovation collaborative et du domaine commun informationnel&nbsp;&raquo;.</p>",
      "type": {
        "id": 90,
        "title": "Section 1",
        "subtitle": "Les Communs",
        "voteWidgetType": 2,
        "votesHelpText": "Pensez-vous que cette proposition permet d'atteindre les objectifs présentés dans l’explication de l’article ?",
        "commentSystem": 2,
        "color": "blue",
        "versionable": true,
        "sourceable": true,
        "votesThreshold": null,
        "votesThresholdHelpText": null
      },
      "modals": [
        {
          "key": "article L.411-1",
          "before": "<p>« L'Institut national de la propriété industrielle est un établissement public doté de la personnalité civile et de l'autonomie financière, placé auprès du ministre chargé de la propriété industrielle.</p><p>Cet établissement a pour mission :</p><p>1° De centraliser et diffuser toute information nécessaire pour la protection des innovations et pour l'enregistrement des entreprises, ainsi que d'engager toute action de sensibilisation et de formation dans ces domaines ;   »</p>",
          "after": "<p>« L'Institut national de la propriété industrielle est un établissement public doté de la personnalité civile et de l'autonomie financière, placé auprès du ministre chargé de la propriété industrielle.</p><p>Cet établissement a pour mission :</p><p>1° De centraliser et diffuser toute information nécessaire pour la protection des innovations pour la promotion de l’innovation collaborative et du domaine commun informationnel et pour l'enregistrement des entreprises, ainsi que d'engager toute action de sensibilisation et de formation dans ces domaines ;   »</p>",
          "title": "Article L411-1 du Code de la Propriété Intellectuelle"
        },
        {
          "key": "<key>",
          "before": "<p>« L'Institut national de la propriété industrielle est un établissement public doté de la personnalité civile et de l'autonomie financière, placé auprès du ministre chargé de la propriété industrielle.</p><p>Cet établissement a pour mission :</p><p>1° De centraliser et diffuser toute information nécessaire pour la protection des innovations et pour l'enregistrement des entreprises, ainsi que d'engager toute action de sensibilisation et de formation dans ces domaines ;   »</p>",
          "after": "<p>« L'Institut national de la propriété industrielle est un établissement public doté de la personnalité civile et de l'autonomie financière, placé auprès du ministre chargé de la propriété industrielle.</p><p>Cet établissement a pour mission :</p><p>1° De centraliser et diffuser toute information nécessaire pour la protection des innovations pour la promotion de l’innovation collaborative et du domaine commun informationnel et pour l'enregistrement des entreprises, ainsi que d'engager toute action de sensibilisation et de formation dans ces domaines ;   »</p>",
          "title": "Article L411-1 du Code de la Propriété Intellectuelle"
        }
      ],
      "appendices": [
        {
          "body": "<p><strong>Objectif :</strong> Prot&eacute;ger les ressources communes &agrave; tous appartenant au domaine public contre les pratiques d&rsquo;appropriation qui conduisent &agrave; en interdire l&rsquo;acc&egrave;s</p>\r\n\r\n<p><strong>Explication :</strong> aujourd&rsquo;hui, des pratiques abusives consistent &agrave; revendiquer des droits sur des choses qui appartiennent au domaine public.&nbsp;Afin de mettre fin &agrave; ces abus, il sera d&eacute;sormais possible pour des associations agr&eacute;&eacute;es d&rsquo;intenter une action en justice pour d&eacute;fendre le p&eacute;rim&egrave;tre de ce domaine public et faire cesser toute tentative de r&eacute;appropriation exclusive.</p>\r\n\r\n<p><strong>Exemple :</strong> des associations agr&eacute;&eacute;es pourront agir contre certains sites qui interdisent la reproduction num&eacute;rique d&rsquo;&oelig;uvres appartenant au domaine public et faire supprimer les clauses des conditions g&eacute;n&eacute;rales d&rsquo;utilisation illicites.</p>\r\n\r\n<p>La r&eacute;daction de cet article est provisoire et &agrave; consolider dans le cadre de la concertation avec les experts et les parties prenantes, avant d&eacute;cision de maintien.</p>",
          "type": {
            "title": "Explication de l'article"
          }
        }
      ],
      "title": "Article 8 - Définition positive du domaine commun informationnel",
      "_links": {
        "show": "https://www.republique-numerique.fr/consultations/projet-de-loi-numerique/consultation/consultation/opinions/section-1-les-communs/article-8-definition-du-domaine-commun-informationnel",
        "edit": "https://www.republique-numerique.fr/consultations/projet-de-loi-numerique/consultation/consultation/opinions/section-1-les-communs/article-8-definition-du-domaine-commun-informationnel/edit",
        "report": "https://www.republique-numerique.fr/consultations/projet-de-loi-numerique/consultation/consultation/opinions/section-1-les-communs/article-8-definition-du-domaine-commun-informationnel/report",
        "type": "https://www.republique-numerique.fr/consultations/projet-de-loi-numerique/consultation/consultation/opinions/section-1-les-communs"
      },
      "user_vote": null,
      "has_user_reported": false
    },
    "sources_count": 0,
    "arguments_count": 0,
    "votes": [
      {
        "user": {
          "username": "Michel Donval",
          "displayName": "Michel Donval",
          "uniqueId": "micheldonval",
          "isAdmin": false,
          "media": null,
          "vip": false,
          "_links": {
            "profile": "https://www.republique-numerique.fr/profile/micheldonval",
            "settings": "https://www.republique-numerique.fr/profile/edit-profile"
          }
        },
        "value": 1
      },
      {
        "user": {
          "username": "Jean Yves Martin",
          "displayName": "Jean Yves Martin",
          "uniqueId": "jeanyvesmartin",
          "isAdmin": false,
          "media": null,
          "vip": false,
          "_links": {
            "profile": "https://www.republique-numerique.fr/profile/jeanyvesmartin",
            "settings": "https://www.republique-numerique.fr/profile/edit-profile"
          }
        },
        "value": 1
      },
      {
        "user": {
          "username": "Guillaume ROBERT",
          "displayName": "Guillaume ROBERT",
          "uniqueId": "guillaumerobert",
          "isAdmin": false,
          "media": null,
          "vip": false,
          "_links": {
            "profile": "https://www.republique-numerique.fr/profile/guillaumerobert",
            "settings": "https://www.republique-numerique.fr/profile/edit-profile"
          }
        },
        "value": -1
      },
      {
        "user": {
          "username": "Julian BH",
          "displayName": "Julian BH",
          "uniqueId": "julianbh",
          "isAdmin": false,
          "media": null,
          "vip": false,
          "_links": {
            "profile": "https://www.republique-numerique.fr/profile/julianbh",
            "settings": "https://www.republique-numerique.fr/profile/edit-profile"
          }
        },
        "value": -1
      },
      {
        "user": {
          "username": "Samuel Authueil",
          "displayName": "Samuel Authueil",
          "uniqueId": "samuelauthueil",
          "isAdmin": false,
          "media": null,
          "vip": false,
          "_links": {
            "profile": "https://www.republique-numerique.fr/profile/samuelauthueil",
            "settings": "https://www.republique-numerique.fr/profile/edit-profile"
          }
        },
        "value": -1
      }
    ],
    "updated_at": "2015-10-16T18:30:10+0200",
    "ranking": 233,
    "is_trashed": false,
    "title": "Suppression de l'article 8.",
    "slug": "suppression-de-l-article-8-1",
    "created_at": "2015-10-16T18:30:10+0200",
    "votes_nok": 33,
    "votes_ok": 20,
    "votes_mitige": 0,
    "_links": {
      "show": "https://www.republique-numerique.fr/consultations/projet-de-loi-numerique/consultation/consultation/opinions/section-1-les-communs/article-8-definition-du-domaine-commun-informationnel/versions/suppression-de-l-article-8-1",
      "report": "https://www.republique-numerique.fr/consultations/projet-de-loi-numerique/consultation/consultation/opinions/section-1-les-communs/article-8-definition-du-domaine-commun-informationnel/versions/suppression-de-l-article-8-1/report"
    },
    "user_vote": null,
    "has_user_reported": false
  },
  "rankingThreshold": null,
  "opinionTerm": 1
}