{
  "version": {
    "isContribuable": false,
    "votes_total": 3,
    "arguments_yes_count": 2,
    "arguments_no_count": 1,
    "id": 545,
    "body": "<p>I. Rel&egrave;vent du domaine commun informationnel :</p>\n\n<p>1&deg; Les informations sur les&nbsp;faits, id&eacute;es, principes, m&eacute;thodes, d&eacute;couvertes, d&egrave;s lors qu&rsquo;ils ont fait l&rsquo;objet d&rsquo;une divulgation publique licite, notamment dans le respect du secret industriel et commercial et du droit &agrave; la protection de la vie priv&eacute;e, et qu&rsquo;ils ne sont pas prot&eacute;g&eacute;s par un droit sp&eacute;cifique, tel qu&rsquo;un droit de propri&eacute;t&eacute; ou une obligation contractuelle ou extracontractuelle ;</p>\n\n<p>2&deg; Les &oelig;uvres, dessins, mod&egrave;les, inventions, bases de donn&eacute;es, prot&eacute;g&eacute;s par le code de la propri&eacute;t&eacute; intellectuelle, dont la dur&eacute;e de protection l&eacute;gale, &agrave; l&rsquo;exception du droit moral des auteurs, a expir&eacute; ;</p>\n\n<p>3&deg; Les informations issues des documents administratifs diffus&eacute;s publiquement par les personnes mentionn&eacute;es &agrave; l&rsquo;article 1 de la loi n&deg;78-753 du 17 juillet 1978 et dans les conditions pr&eacute;cis&eacute;es &agrave; l&rsquo;article 7 de la m&ecirc;me loi, sans pr&eacute;judice des dispositions des articles 9, 10, 14 et 15 de ladite loi.</p>\n\n<p>Les choses qui composent le domaine commun informationnel sont des choses communes au sens de l&rsquo;article 714 du Code civil. Elles ne peuvent, en tant que tels, faire l&#39;objet d&rsquo;une exclusivit&eacute;, ni d&#39;une restriction de l&rsquo;usage commun &agrave; tous, autre que l&rsquo;exercice du droit moral.</p>\n\n<p>Les associations agr&eacute;&eacute;es ayant pour objet la diffusion des savoirs ou la d&eacute;fense des choses communes ont qualit&eacute; pour agir aux fins de faire cesser toute atteinte au domaine commun informationnel. Cet agr&eacute;ment est attribu&eacute; dans des conditions d&eacute;finies par un d&eacute;cret en Conseil d&rsquo;Etat. Il est valable pour une dur&eacute;e limit&eacute;e, et peut &ecirc;tre abrog&eacute; lorsque l&rsquo;association ne satisfait plus aux conditions qui ont conduit &agrave; le d&eacute;livrer.</p>\n\n<p>II. Au troisi&egrave;me alin&eacute;a de l&rsquo;article L.411-1 du code de la propri&eacute;t&eacute; intellectuelle, apr&egrave;s les mots &laquo;&nbsp;protection des innovations,&nbsp;&raquo;, il est ins&eacute;r&eacute; les mots&nbsp;: &laquo;&nbsp;pour la promotion de l&rsquo;innovation collaborative et du domaine commun informationnel&nbsp;&raquo;.</p>",
    "comment": "<p>C&#39;est une&nbsp;extension de la d&eacute;finition du domaine commun informationnel car, par exemple, une information sur une id&eacute;e ne divulgue que partiellement&nbsp;cette id&eacute;e.</p>\n\n<p>Cette extension est faite dans&nbsp;le souci d&#39;anticiper sur des articles de lois qui se serviraient de cette d&eacute;finition pour permettre aux personnes cr&eacute;atives&nbsp;de&nbsp;prot&eacute;ger&nbsp;leur propri&eacute;t&eacute; intellectuelle&nbsp;ind&eacute;pendamment du contexte professionnel dans laquelle elle a &eacute;t&eacute; faite.</p>\n\n<p>Le domaine commun informationnel &nbsp;ainsi &eacute;tendu concernerait&nbsp;non seulement&nbsp;&nbsp;des choses &quot; du pass&eacute;&quot; mais aussi l&#39;information &nbsp;pr&eacute;cisant&nbsp;l&#39;inventeur, le contenu, la date d&#39;une invention&nbsp;&nbsp;&quot;en puissance&quot;.</p>\n\n<p>Gr&acirc;ce &agrave; cette extension du domaine,&nbsp;la&nbsp;dialectique entre &quot;secret et transparence&quot; peut jouer pour les inventions en puissance.</p>\n\n<p>Je pense sp&eacute;cialement aux jeunes ayant besoin de mettre dans leur CV&nbsp;des cr&eacute;ations intellectuelles effectu&eacute;es&nbsp;lors de stages, ou de th&egrave;ses qui ont &eacute;t&eacute; men&eacute;s dans des structures &nbsp;priv&eacute;es ou publiques&nbsp;qui ne les&nbsp;recruteront pas.&nbsp;</p>\n\n<p>Je pense &eacute;galement au besoin pour les chercheurs de prot&eacute;ger temporairement une oeuvre intellectuelle&nbsp;en pla&ccedil;ant une information sur celle-ci&nbsp;dans le domaine commun informationnel. Bien souvent&nbsp;les publications ou les brevets &nbsp;qui &nbsp;sont des cons&eacute;quences de leur contribution&nbsp;&nbsp;sont soumises &agrave; des strat&eacute;gies d&#39;organismes ou d&#39;entreprises, aussi&nbsp;elles&nbsp;viendront seulement&nbsp;une ou deux ann&eacute;es&nbsp;apr&egrave;s l&#39;id&eacute;e native.&nbsp;</p>\n\n<p>Enfin, le terme <em>information</em> m&eacute;rite d&#39;&ecirc;tre pr&eacute;ciser&nbsp;en disant sur quoi il porte .</p>\n\n<p>&nbsp;</p>",
    "author": {
      "username": "sallantin",
      "displayName": "sallantin",
      "uniqueId": "sallantin",
      "isAdmin": false,
      "media": null,
      "vip": false,
      "_links": {
        "profile": "https://www.republique-numerique.fr/profile/sallantin",
        "settings": "https://www.republique-numerique.fr/profile/edit-profile"
      }
    },
    "arguments": [
      {
        "isContribuable": false,
        "id": 2314,
        "body": "Il conviendrait en effet à minima de préciser la notion d'information. C'est toutefois plus une question de formalisation que de fond. ",
        "created_at": "2015-10-05T20:39:08+0200",
        "updated_at": "2015-10-05T20:39:08+0200",
        "is_enabled": true,
        "votes_count": 1,
        "type": 1,
        "is_trashed": false,
        "author": {
          "username": "Alain Mille",
          "displayName": "Alain Mille",
          "uniqueId": "alainmille",
          "isAdmin": false,
          "media": null,
          "vip": false,
          "_links": {
            "profile": "https://www.republique-numerique.fr/profile/alainmille",
            "settings": "https://www.republique-numerique.fr/profile/edit-profile"
          }
        },
        "_links": {
          "show": "https://www.republique-numerique.fr/consultations/projet-de-loi-numerique/consultation/consultation/opinions/section-1-les-communs/article-8-definition-du-domaine-commun-informationnel/versions/extension-du-domaine-commun-informationnel#arg-2314",
          "edit": "https://www.republique-numerique.fr/consultations/projet-de-loi-numerique/consultation/consultation/opinions/section-1-les-communs/article-8-definition-du-domaine-commun-informationnel/arguments/2314/edit",
          "report": "https://www.republique-numerique.fr/consultations/projet-de-loi-numerique/consultation/consultation/opinions/section-1-les-communs/article-8-definition-du-domaine-commun-informationnel/arguments/2314/report"
        },
        "has_user_voted": false,
        "has_user_reported": false
      },
      {
        "isContribuable": false,
        "id": 2466,
        "body": "Pour répondre à Alain Mille la question de fond est de  défendre non pas les idées mais l'information sur les idées.  On crée alors le support à un cercle vertueux de la créativité. Qu'importe si le terme information est vague : le terme information sur une idée ne l'est pas.",
        "created_at": "2015-10-07T10:50:39+0200",
        "updated_at": "2015-10-07T10:52:03+0200",
        "is_enabled": true,
        "votes_count": 0,
        "type": 1,
        "is_trashed": false,
        "author": {
          "username": "sallantin",
          "displayName": "sallantin",
          "uniqueId": "sallantin",
          "isAdmin": false,
          "media": null,
          "vip": false,
          "_links": {
            "profile": "https://www.republique-numerique.fr/profile/sallantin",
            "settings": "https://www.republique-numerique.fr/profile/edit-profile"
          }
        },
        "_links": {
          "show": "https://www.republique-numerique.fr/consultations/projet-de-loi-numerique/consultation/consultation/opinions/section-1-les-communs/article-8-definition-du-domaine-commun-informationnel/versions/extension-du-domaine-commun-informationnel#arg-2466",
          "edit": "https://www.republique-numerique.fr/consultations/projet-de-loi-numerique/consultation/consultation/opinions/section-1-les-communs/article-8-definition-du-domaine-commun-informationnel/arguments/2466/edit",
          "report": "https://www.republique-numerique.fr/consultations/projet-de-loi-numerique/consultation/consultation/opinions/section-1-les-communs/article-8-definition-du-domaine-commun-informationnel/arguments/2466/report"
        },
        "has_user_voted": false,
        "has_user_reported": false
      },
      {
        "isContribuable": false,
        "id": 3105,
        "body": "Cette nouvelle rédaction limite (aux seules INFORMATIONS) plutôt qu'étend la portée de l'article.",
        "created_at": "2015-10-11T09:58:34+0200",
        "updated_at": "2015-10-11T09:58:34+0200",
        "is_enabled": true,
        "votes_count": 0,
        "type": 0,
        "is_trashed": false,
        "author": {
          "username": "Franklin Sam",
          "displayName": "Franklin Sam",
          "uniqueId": "franklinsam",
          "isAdmin": false,
          "media": null,
          "vip": false,
          "_links": {
            "profile": "https://www.republique-numerique.fr/profile/franklinsam",
            "settings": "https://www.republique-numerique.fr/profile/edit-profile"
          }
        },
        "_links": {
          "show": "https://www.republique-numerique.fr/consultations/projet-de-loi-numerique/consultation/consultation/opinions/section-1-les-communs/article-8-definition-du-domaine-commun-informationnel/versions/extension-du-domaine-commun-informationnel#arg-3105",
          "edit": "https://www.republique-numerique.fr/consultations/projet-de-loi-numerique/consultation/consultation/opinions/section-1-les-communs/article-8-definition-du-domaine-commun-informationnel/arguments/3105/edit",
          "report": "https://www.republique-numerique.fr/consultations/projet-de-loi-numerique/consultation/consultation/opinions/section-1-les-communs/article-8-definition-du-domaine-commun-informationnel/arguments/3105/report"
        },
        "has_user_voted": false,
        "has_user_reported": false
      }
    ],
    "sources": [],
    "parent": {
      "isContribuable": false,
      "id": 68,
      "body": "<p>I. Rel&egrave;vent du domaine commun informationnel :</p>\r\n\r\n<p>1&deg; Les informations, faits, id&eacute;es, principes, m&eacute;thodes, d&eacute;couvertes, d&egrave;s lors qu&rsquo;ils ont fait l&rsquo;objet d&rsquo;une divulgation publique licite, notamment dans le respect du secret industriel et commercial et du droit &agrave; la protection de la vie priv&eacute;e, et qu&rsquo;ils ne sont pas prot&eacute;g&eacute;s par un droit sp&eacute;cifique, tel qu&rsquo;un droit de propri&eacute;t&eacute; ou une obligation contractuelle ou extracontractuelle ;</p>\r\n\r\n<p>2&deg; Les &oelig;uvres, dessins, mod&egrave;les, inventions, bases de donn&eacute;es, prot&eacute;g&eacute;s par le code de la propri&eacute;t&eacute; intellectuelle, dont la dur&eacute;e de protection l&eacute;gale, &agrave; l&rsquo;exception du droit moral des auteurs, a expir&eacute; ;</p>\r\n\r\n<p>3&deg; Les informations issues des documents administratifs diffus&eacute;s publiquement par les personnes mentionn&eacute;es &agrave; l&rsquo;article 1 de la loi n&deg;78-753 du 17 juillet 1978 et dans les conditions pr&eacute;cis&eacute;es &agrave; l&rsquo;article 7 de la m&ecirc;me loi, sans pr&eacute;judice des dispositions des articles 9, 10, 14 et 15 de ladite loi.</p>\r\n\r\n<p>Les choses qui composent le domaine commun informationnel sont des choses communes au sens de l&rsquo;article 714 du Code civil. Elles ne peuvent, en tant que tels, faire l&#39;objet d&rsquo;une exclusivit&eacute;, ni d&#39;une restriction de l&rsquo;usage commun &agrave; tous, autre que l&rsquo;exercice du droit moral.</p>\r\n\r\n<p>Les associations agr&eacute;&eacute;es ayant pour objet la diffusion des savoirs ou la d&eacute;fense des choses communes ont qualit&eacute; pour agir aux fins de faire cesser toute atteinte au domaine commun informationnel. Cet agr&eacute;ment est attribu&eacute; dans des conditions d&eacute;finies par un d&eacute;cret en Conseil d&rsquo;Etat. Il est valable pour une dur&eacute;e limit&eacute;e, et peut &ecirc;tre abrog&eacute; lorsque l&rsquo;association ne satisfait plus aux conditions qui ont conduit &agrave; le d&eacute;livrer.</p>\r\n\r\n<p>II. Au troisi&egrave;me alin&eacute;a de l&rsquo;article L.411-1 du code de la propri&eacute;t&eacute; intellectuelle, apr&egrave;s les mots &laquo;&nbsp;protection des innovations,&nbsp;&raquo;, il est ins&eacute;r&eacute; les mots&nbsp;: &laquo;&nbsp;pour la promotion de l&rsquo;innovation collaborative et du domaine commun informationnel&nbsp;&raquo;.</p>",
      "type": {
        "id": 90,
        "title": "Section 1",
        "subtitle": "Les Communs",
        "voteWidgetType": 2,
        "votesHelpText": "Pensez-vous que cette proposition permet d'atteindre les objectifs présentés dans l’explication de l’article ?",
        "commentSystem": 2,
        "color": "blue",
        "versionable": true,
        "sourceable": true,
        "votesThreshold": null,
        "votesThresholdHelpText": null
      },
      "modals": [
        {
          "key": "article L.411-1",
          "before": "<p>« L'Institut national de la propriété industrielle est un établissement public doté de la personnalité civile et de l'autonomie financière, placé auprès du ministre chargé de la propriété industrielle.</p><p>Cet établissement a pour mission :</p><p>1° De centraliser et diffuser toute information nécessaire pour la protection des innovations et pour l'enregistrement des entreprises, ainsi que d'engager toute action de sensibilisation et de formation dans ces domaines ;   »</p>",
          "after": "<p>« L'Institut national de la propriété industrielle est un établissement public doté de la personnalité civile et de l'autonomie financière, placé auprès du ministre chargé de la propriété industrielle.</p><p>Cet établissement a pour mission :</p><p>1° De centraliser et diffuser toute information nécessaire pour la protection des innovations pour la promotion de l’innovation collaborative et du domaine commun informationnel et pour l'enregistrement des entreprises, ainsi que d'engager toute action de sensibilisation et de formation dans ces domaines ;   »</p>",
          "title": "Article L411-1 du Code de la Propriété Intellectuelle"
        },
        {
          "key": "<key>",
          "before": "<p>« L'Institut national de la propriété industrielle est un établissement public doté de la personnalité civile et de l'autonomie financière, placé auprès du ministre chargé de la propriété industrielle.</p><p>Cet établissement a pour mission :</p><p>1° De centraliser et diffuser toute information nécessaire pour la protection des innovations et pour l'enregistrement des entreprises, ainsi que d'engager toute action de sensibilisation et de formation dans ces domaines ;   »</p>",
          "after": "<p>« L'Institut national de la propriété industrielle est un établissement public doté de la personnalité civile et de l'autonomie financière, placé auprès du ministre chargé de la propriété industrielle.</p><p>Cet établissement a pour mission :</p><p>1° De centraliser et diffuser toute information nécessaire pour la protection des innovations pour la promotion de l’innovation collaborative et du domaine commun informationnel et pour l'enregistrement des entreprises, ainsi que d'engager toute action de sensibilisation et de formation dans ces domaines ;   »</p>",
          "title": "Article L411-1 du Code de la Propriété Intellectuelle"
        }
      ],
      "appendices": [
        {
          "body": "<p><strong>Objectif :</strong> Prot&eacute;ger les ressources communes &agrave; tous appartenant au domaine public contre les pratiques d&rsquo;appropriation qui conduisent &agrave; en interdire l&rsquo;acc&egrave;s</p>\r\n\r\n<p><strong>Explication :</strong> aujourd&rsquo;hui, des pratiques abusives consistent &agrave; revendiquer des droits sur des choses qui appartiennent au domaine public.&nbsp;Afin de mettre fin &agrave; ces abus, il sera d&eacute;sormais possible pour des associations agr&eacute;&eacute;es d&rsquo;intenter une action en justice pour d&eacute;fendre le p&eacute;rim&egrave;tre de ce domaine public et faire cesser toute tentative de r&eacute;appropriation exclusive.</p>\r\n\r\n<p><strong>Exemple :</strong> des associations agr&eacute;&eacute;es pourront agir contre certains sites qui interdisent la reproduction num&eacute;rique d&rsquo;&oelig;uvres appartenant au domaine public et faire supprimer les clauses des conditions g&eacute;n&eacute;rales d&rsquo;utilisation illicites.</p>\r\n\r\n<p>La r&eacute;daction de cet article est provisoire et &agrave; consolider dans le cadre de la concertation avec les experts et les parties prenantes, avant d&eacute;cision de maintien.</p>",
          "type": {
            "title": "Explication de l'article"
          }
        }
      ],
      "title": "Article 8 - Définition positive du domaine commun informationnel",
      "_links": {
        "show": "https://www.republique-numerique.fr/consultations/projet-de-loi-numerique/consultation/consultation/opinions/section-1-les-communs/article-8-definition-du-domaine-commun-informationnel",
        "edit": "https://www.republique-numerique.fr/consultations/projet-de-loi-numerique/consultation/consultation/opinions/section-1-les-communs/article-8-definition-du-domaine-commun-informationnel/edit",
        "report": "https://www.republique-numerique.fr/consultations/projet-de-loi-numerique/consultation/consultation/opinions/section-1-les-communs/article-8-definition-du-domaine-commun-informationnel/report",
        "type": "https://www.republique-numerique.fr/consultations/projet-de-loi-numerique/consultation/consultation/opinions/section-1-les-communs"
      },
      "user_vote": null,
      "has_user_reported": false
    },
    "sources_count": 0,
    "arguments_count": 3,
    "votes": [
      {
        "user": {
          "username": "Asselin de Williencourt",
          "displayName": "Asselin de Williencourt",
          "uniqueId": "asselindewilliencourt",
          "isAdmin": false,
          "media": null,
          "vip": false,
          "_links": {
            "profile": "https://www.republique-numerique.fr/profile/asselindewilliencourt",
            "settings": "https://www.republique-numerique.fr/profile/edit-profile"
          }
        },
        "value": 0
      },
      {
        "user": {
          "username": "Alain Mille",
          "displayName": "Alain Mille",
          "uniqueId": "alainmille",
          "isAdmin": false,
          "media": null,
          "vip": false,
          "_links": {
            "profile": "https://www.republique-numerique.fr/profile/alainmille",
            "settings": "https://www.republique-numerique.fr/profile/edit-profile"
          }
        },
        "value": 1
      },
      {
        "user": {
          "username": "Franklin Sam",
          "displayName": "Franklin Sam",
          "uniqueId": "franklinsam",
          "isAdmin": false,
          "media": null,
          "vip": false,
          "_links": {
            "profile": "https://www.republique-numerique.fr/profile/franklinsam",
            "settings": "https://www.republique-numerique.fr/profile/edit-profile"
          }
        },
        "value": -1
      }
    ],
    "updated_at": "2015-10-01T18:40:08+0200",
    "ranking": 1028,
    "is_trashed": false,
    "title": "Extension du domaine commun informationnel",
    "slug": "extension-du-domaine-commun-informationnel",
    "created_at": "2015-10-01T17:56:18+0200",
    "votes_nok": 1,
    "votes_ok": 1,
    "votes_mitige": 1,
    "_links": {
      "show": "https://www.republique-numerique.fr/consultations/projet-de-loi-numerique/consultation/consultation/opinions/section-1-les-communs/article-8-definition-du-domaine-commun-informationnel/versions/extension-du-domaine-commun-informationnel",
      "report": "https://www.republique-numerique.fr/consultations/projet-de-loi-numerique/consultation/consultation/opinions/section-1-les-communs/article-8-definition-du-domaine-commun-informationnel/versions/extension-du-domaine-commun-informationnel/report"
    },
    "user_vote": null,
    "has_user_reported": false
  },
  "rankingThreshold": null,
  "opinionTerm": 1
}