{
  "version": {
    "isContribuable": false,
    "votes_total": 13,
    "arguments_yes_count": 0,
    "arguments_no_count": 0,
    "id": 112,
    "body": "<p>I. Rel&egrave;vent du domaine commun informationnel :</p>\n\n<p>1&deg; Les informations, faits, id&eacute;es, principes, m&eacute;thodes, d&eacute;couvertes, d&egrave;s lors qu&rsquo;ils ont fait l&rsquo;objet d&rsquo;une divulgation publique licite, notamment dans le respect du secret industriel et commercial et du droit &agrave; la protection de la vie priv&eacute;e, et qu&rsquo;ils ne sont pas prot&eacute;g&eacute;s par un droit sp&eacute;cifique, tel qu&rsquo;un droit de propri&eacute;t&eacute; ou une obligation contractuelle ou extracontractuelle ;</p>\n\n<p>2&deg; Les &oelig;uvres, dessins, mod&egrave;les, inventions, bases de donn&eacute;es, codes source, prot&eacute;g&eacute;s par le code de la propri&eacute;t&eacute; intellectuelle, dont la dur&eacute;e de protection l&eacute;gale, &agrave; l&rsquo;exception du droit moral des auteurs, a expir&eacute; ;</p>\n\n<p>3&deg; Les informations issues des documents administratifs diffus&eacute;s publiquement par les personnes mentionn&eacute;es &agrave; l&rsquo;article 1 de la loi n&deg;78-753 du 17 juillet 1978 et dans les conditions pr&eacute;cis&eacute;es &agrave; l&rsquo;article 7 de la m&ecirc;me loi, sans pr&eacute;judice des dispositions des articles 9, 10, 14 et 15 de ladite loi.</p>\n\n<p>Les choses qui composent le domaine commun informationnel sont des choses communes au sens de l&rsquo;article 714 du Code civil. Elles ne peuvent, en tant que tels, faire l&#39;objet d&rsquo;une exclusivit&eacute;, ni d&#39;une restriction de l&rsquo;usage commun &agrave; tous, autre que l&rsquo;exercice du droit moral.</p>\n\n<p>Les associations agr&eacute;&eacute;es ayant pour objet la diffusion des savoirs ou la d&eacute;fense des choses communes ont qualit&eacute; pour agir aux fins de faire cesser toute atteinte au domaine commun informationnel. Cet agr&eacute;ment est attribu&eacute; dans des conditions d&eacute;finies par un d&eacute;cret en Conseil d&rsquo;Etat. Il est valable pour une dur&eacute;e limit&eacute;e, et peut &ecirc;tre abrog&eacute; lorsque l&rsquo;association ne satisfait plus aux conditions qui ont conduit &agrave; le d&eacute;livrer.</p>\n\n<p>II. Au troisi&egrave;me alin&eacute;a de l&rsquo;article L.411-1 du code de la propri&eacute;t&eacute; intellectuelle, apr&egrave;s les mots &laquo;&nbsp;protection des innovations,&nbsp;&raquo;, il est ins&eacute;r&eacute; les mots&nbsp;: &laquo;&nbsp;pour la promotion de l&rsquo;innovation collaborative et du domaine commun informationnel&nbsp;&raquo;.</p>",
    "comment": "Au 3&deg;, rajouter les codes sources",
    "author": {
      "username": "dencoy",
      "displayName": "dencoy",
      "uniqueId": "dencoy",
      "isAdmin": false,
      "media": null,
      "vip": false,
      "_links": {
        "profile": "https://www.republique-numerique.fr/profile/dencoy",
        "settings": "https://www.republique-numerique.fr/profile/edit-profile"
      }
    },
    "arguments": [],
    "sources": [],
    "parent": {
      "isContribuable": false,
      "id": 68,
      "body": "<p>I. Rel&egrave;vent du domaine commun informationnel :</p>\r\n\r\n<p>1&deg; Les informations, faits, id&eacute;es, principes, m&eacute;thodes, d&eacute;couvertes, d&egrave;s lors qu&rsquo;ils ont fait l&rsquo;objet d&rsquo;une divulgation publique licite, notamment dans le respect du secret industriel et commercial et du droit &agrave; la protection de la vie priv&eacute;e, et qu&rsquo;ils ne sont pas prot&eacute;g&eacute;s par un droit sp&eacute;cifique, tel qu&rsquo;un droit de propri&eacute;t&eacute; ou une obligation contractuelle ou extracontractuelle ;</p>\r\n\r\n<p>2&deg; Les &oelig;uvres, dessins, mod&egrave;les, inventions, bases de donn&eacute;es, prot&eacute;g&eacute;s par le code de la propri&eacute;t&eacute; intellectuelle, dont la dur&eacute;e de protection l&eacute;gale, &agrave; l&rsquo;exception du droit moral des auteurs, a expir&eacute; ;</p>\r\n\r\n<p>3&deg; Les informations issues des documents administratifs diffus&eacute;s publiquement par les personnes mentionn&eacute;es &agrave; l&rsquo;article 1 de la loi n&deg;78-753 du 17 juillet 1978 et dans les conditions pr&eacute;cis&eacute;es &agrave; l&rsquo;article 7 de la m&ecirc;me loi, sans pr&eacute;judice des dispositions des articles 9, 10, 14 et 15 de ladite loi.</p>\r\n\r\n<p>Les choses qui composent le domaine commun informationnel sont des choses communes au sens de l&rsquo;article 714 du Code civil. Elles ne peuvent, en tant que tels, faire l&#39;objet d&rsquo;une exclusivit&eacute;, ni d&#39;une restriction de l&rsquo;usage commun &agrave; tous, autre que l&rsquo;exercice du droit moral.</p>\r\n\r\n<p>Les associations agr&eacute;&eacute;es ayant pour objet la diffusion des savoirs ou la d&eacute;fense des choses communes ont qualit&eacute; pour agir aux fins de faire cesser toute atteinte au domaine commun informationnel. Cet agr&eacute;ment est attribu&eacute; dans des conditions d&eacute;finies par un d&eacute;cret en Conseil d&rsquo;Etat. Il est valable pour une dur&eacute;e limit&eacute;e, et peut &ecirc;tre abrog&eacute; lorsque l&rsquo;association ne satisfait plus aux conditions qui ont conduit &agrave; le d&eacute;livrer.</p>\r\n\r\n<p>II. Au troisi&egrave;me alin&eacute;a de l&rsquo;article L.411-1 du code de la propri&eacute;t&eacute; intellectuelle, apr&egrave;s les mots &laquo;&nbsp;protection des innovations,&nbsp;&raquo;, il est ins&eacute;r&eacute; les mots&nbsp;: &laquo;&nbsp;pour la promotion de l&rsquo;innovation collaborative et du domaine commun informationnel&nbsp;&raquo;.</p>",
      "type": {
        "id": 90,
        "title": "Section 1",
        "subtitle": "Les Communs",
        "voteWidgetType": 2,
        "votesHelpText": "Pensez-vous que cette proposition permet d'atteindre les objectifs présentés dans l’explication de l’article ?",
        "commentSystem": 2,
        "color": "blue",
        "versionable": true,
        "sourceable": true,
        "votesThreshold": null,
        "votesThresholdHelpText": null
      },
      "modals": [
        {
          "key": "article L.411-1",
          "before": "<p>« L'Institut national de la propriété industrielle est un établissement public doté de la personnalité civile et de l'autonomie financière, placé auprès du ministre chargé de la propriété industrielle.</p><p>Cet établissement a pour mission :</p><p>1° De centraliser et diffuser toute information nécessaire pour la protection des innovations et pour l'enregistrement des entreprises, ainsi que d'engager toute action de sensibilisation et de formation dans ces domaines ;   »</p>",
          "after": "<p>« L'Institut national de la propriété industrielle est un établissement public doté de la personnalité civile et de l'autonomie financière, placé auprès du ministre chargé de la propriété industrielle.</p><p>Cet établissement a pour mission :</p><p>1° De centraliser et diffuser toute information nécessaire pour la protection des innovations pour la promotion de l’innovation collaborative et du domaine commun informationnel et pour l'enregistrement des entreprises, ainsi que d'engager toute action de sensibilisation et de formation dans ces domaines ;   »</p>",
          "title": "Article L411-1 du Code de la Propriété Intellectuelle"
        },
        {
          "key": "<key>",
          "before": "<p>« L'Institut national de la propriété industrielle est un établissement public doté de la personnalité civile et de l'autonomie financière, placé auprès du ministre chargé de la propriété industrielle.</p><p>Cet établissement a pour mission :</p><p>1° De centraliser et diffuser toute information nécessaire pour la protection des innovations et pour l'enregistrement des entreprises, ainsi que d'engager toute action de sensibilisation et de formation dans ces domaines ;   »</p>",
          "after": "<p>« L'Institut national de la propriété industrielle est un établissement public doté de la personnalité civile et de l'autonomie financière, placé auprès du ministre chargé de la propriété industrielle.</p><p>Cet établissement a pour mission :</p><p>1° De centraliser et diffuser toute information nécessaire pour la protection des innovations pour la promotion de l’innovation collaborative et du domaine commun informationnel et pour l'enregistrement des entreprises, ainsi que d'engager toute action de sensibilisation et de formation dans ces domaines ;   »</p>",
          "title": "Article L411-1 du Code de la Propriété Intellectuelle"
        }
      ],
      "appendices": [
        {
          "body": "<p><strong>Objectif :</strong> Prot&eacute;ger les ressources communes &agrave; tous appartenant au domaine public contre les pratiques d&rsquo;appropriation qui conduisent &agrave; en interdire l&rsquo;acc&egrave;s</p>\r\n\r\n<p><strong>Explication :</strong> aujourd&rsquo;hui, des pratiques abusives consistent &agrave; revendiquer des droits sur des choses qui appartiennent au domaine public.&nbsp;Afin de mettre fin &agrave; ces abus, il sera d&eacute;sormais possible pour des associations agr&eacute;&eacute;es d&rsquo;intenter une action en justice pour d&eacute;fendre le p&eacute;rim&egrave;tre de ce domaine public et faire cesser toute tentative de r&eacute;appropriation exclusive.</p>\r\n\r\n<p><strong>Exemple :</strong> des associations agr&eacute;&eacute;es pourront agir contre certains sites qui interdisent la reproduction num&eacute;rique d&rsquo;&oelig;uvres appartenant au domaine public et faire supprimer les clauses des conditions g&eacute;n&eacute;rales d&rsquo;utilisation illicites.</p>\r\n\r\n<p>La r&eacute;daction de cet article est provisoire et &agrave; consolider dans le cadre de la concertation avec les experts et les parties prenantes, avant d&eacute;cision de maintien.</p>",
          "type": {
            "title": "Explication de l'article"
          }
        }
      ],
      "title": "Article 8 - Définition positive du domaine commun informationnel",
      "_links": {
        "show": "https://www.republique-numerique.fr/consultations/projet-de-loi-numerique/consultation/consultation/opinions/section-1-les-communs/article-8-definition-du-domaine-commun-informationnel",
        "edit": "https://www.republique-numerique.fr/consultations/projet-de-loi-numerique/consultation/consultation/opinions/section-1-les-communs/article-8-definition-du-domaine-commun-informationnel/edit",
        "report": "https://www.republique-numerique.fr/consultations/projet-de-loi-numerique/consultation/consultation/opinions/section-1-les-communs/article-8-definition-du-domaine-commun-informationnel/report",
        "type": "https://www.republique-numerique.fr/consultations/projet-de-loi-numerique/consultation/consultation/opinions/section-1-les-communs"
      },
      "user_vote": null,
      "has_user_reported": false
    },
    "sources_count": 0,
    "arguments_count": 0,
    "votes": [
      {
        "user": {
          "username": "dencoy",
          "displayName": "dencoy",
          "uniqueId": "dencoy",
          "isAdmin": false,
          "media": null,
          "vip": false,
          "_links": {
            "profile": "https://www.republique-numerique.fr/profile/dencoy",
            "settings": "https://www.republique-numerique.fr/profile/edit-profile"
          }
        },
        "value": 1
      },
      {
        "user": {
          "username": "Christine Hennion",
          "displayName": "Christine Hennion",
          "uniqueId": "christinehennion",
          "isAdmin": false,
          "media": null,
          "vip": false,
          "_links": {
            "profile": "https://www.republique-numerique.fr/profile/christinehennion",
            "settings": "https://www.republique-numerique.fr/profile/edit-profile"
          }
        },
        "value": 1
      },
      {
        "user": {
          "username": "Jonathan Crequer",
          "displayName": "Jonathan Crequer",
          "uniqueId": "jonathancrequer",
          "isAdmin": false,
          "media": null,
          "vip": false,
          "_links": {
            "profile": "https://www.republique-numerique.fr/profile/jonathancrequer",
            "settings": "https://www.republique-numerique.fr/profile/edit-profile"
          }
        },
        "value": 1
      },
      {
        "user": {
          "username": "Jeanne Varasco",
          "displayName": "Jeanne Varasco",
          "uniqueId": "jeannevarasco",
          "isAdmin": false,
          "media": {
            "url": "/media/cache/default_avatar/default/0001/01/139_default_avatar.jpg"
          },
          "vip": false,
          "_links": {
            "profile": "https://www.republique-numerique.fr/profile/jeannevarasco",
            "settings": "https://www.republique-numerique.fr/profile/edit-profile"
          }
        },
        "value": 1
      },
      {
        "user": {
          "username": "Frédéric Duplaix",
          "displayName": "Frédéric Duplaix",
          "uniqueId": "fredericduplaix",
          "isAdmin": false,
          "media": null,
          "vip": false,
          "_links": {
            "profile": "https://www.republique-numerique.fr/profile/fredericduplaix",
            "settings": "https://www.republique-numerique.fr/profile/edit-profile"
          }
        },
        "value": 1
      }
    ],
    "updated_at": "2015-09-26T14:24:59+0200",
    "ranking": 324,
    "is_trashed": false,
    "title": "Modification 3° alinéa",
    "slug": "modification-3deg-alinea",
    "created_at": "2015-09-26T14:24:59+0200",
    "votes_nok": 0,
    "votes_ok": 13,
    "votes_mitige": 0,
    "_links": {
      "show": "https://www.republique-numerique.fr/consultations/projet-de-loi-numerique/consultation/consultation/opinions/section-1-les-communs/article-8-definition-du-domaine-commun-informationnel/versions/modification-3deg-alinea",
      "report": "https://www.republique-numerique.fr/consultations/projet-de-loi-numerique/consultation/consultation/opinions/section-1-les-communs/article-8-definition-du-domaine-commun-informationnel/versions/modification-3deg-alinea/report"
    },
    "user_vote": null,
    "has_user_reported": false
  },
  "rankingThreshold": null,
  "opinionTerm": 1
}