{
  "opinion": {
    "isContribuable": false,
    "votes_total": 144,
    "arguments_yes_count": 9,
    "arguments_no_count": 4,
    "id": 176,
    "created_at": "2015-09-27T10:15:07+0200",
    "updated_at": "2015-09-27T10:15:07+0200",
    "body": "<p>Profiter de ce qui se fait avec la d&eacute;claration d&#39;impots : <strong>identification et signature &eacute;lectronique</strong> pour le g&eacute;n&eacute;raliser pour toutes les tranactions administrative et &eacute;ventuellement les relations avec les entreprises.</p>\r\n\r\n<p>Il faudrait officialiser les impots comme tiers de confiance.</p>",
    "versions_count": 2,
    "sources_count": 1,
    "arguments_count": 13,
    "author": {
      "username": "Michel Van Caneghem",
      "displayName": "Michel Van Caneghem",
      "uniqueId": "michelvancaneghem",
      "isAdmin": false,
      "media": null,
      "vip": false,
      "_links": {
        "profile": "https://www.republique-numerique.fr/profile/michelvancaneghem",
        "settings": "https://www.republique-numerique.fr/profile/edit-profile"
      }
    },
    "type": {
      "id": 106,
      "title": "Section 1",
      "subtitle": "Recommandé électronique",
      "voteWidgetType": 2,
      "votesHelpText": "Pensez-vous que cette proposition permet d'atteindre les objectifs présentés dans l’explication de l’article ?",
      "commentSystem": 2,
      "color": "blue",
      "versionable": true,
      "sourceable": true,
      "votesThreshold": null,
      "votesThresholdHelpText": null
    },
    "sources": [
      {
        "isContribuable": false,
        "id": 280,
        "title": "Identité numérique: l'exemple estonien",
        "link": "http://www.atelier.net/trends/articles/carte-identite-numerique-vote-ligne-exemple-de-estonie_433925",
        "body": "L'Estonie est un petit pays qui montre l'exemple en matière d'identité numérique et de simplification administrative.",
        "created_at": "2015-10-11T12:57:58+0200",
        "updated_at": "2015-10-11T12:57:58+0200",
        "author": {
          "username": "Martine OTTER",
          "displayName": "Martine OTTER",
          "uniqueId": "martineotter",
          "isAdmin": false,
          "media": null,
          "vip": false,
          "_links": {
            "profile": "https://www.republique-numerique.fr/profile/martineotter",
            "settings": "https://www.republique-numerique.fr/profile/edit-profile"
          }
        },
        "category": "Site internet",
        "votes_count": 0,
        "_links": {
          "edit": "https://www.republique-numerique.fr/consultations/projet-de-loi-numerique/consultation/consultation/opinions/section-1-recommande-electronique/identite-numerique/sources/identite-numerique-l-exemple-estonien/edit",
          "report": "https://www.republique-numerique.fr/consultations/projet-de-loi-numerique/consultation/consultation/opinions/section-1-recommande-electronique/identite-numerique/sources/identite-numerique-l-exemple-estonien/report"
        },
        "has_user_voted": false,
        "has_user_reported": false
      }
    ],
    "arguments": [
      {
        "isContribuable": false,
        "id": 5933,
        "body": "L'identité numérique gérée par l'État (impôts ou non, c'pas la question) = NON. Une identité numérique, c'est une clé de chiffrement. La confiance se fait en réseau, en cercles, en toile de confiance, comme cela se fait AFK. L'administration peut être l'une des entités participant à cette validation de l'identité mais pas plus. Pas d'état civil numérique. ",
        "created_at": "2015-10-18T17:23:00+0200",
        "updated_at": "2015-10-18T17:23:00+0200",
        "is_enabled": true,
        "votes_count": 0,
        "type": 0,
        "is_trashed": false,
        "author": {
          "username": "glucas",
          "displayName": "glucas",
          "uniqueId": "glucas",
          "isAdmin": false,
          "media": null,
          "vip": false,
          "_links": {
            "profile": "https://www.republique-numerique.fr/profile/glucas",
            "settings": "https://www.republique-numerique.fr/profile/edit-profile"
          }
        },
        "_links": {
          "show": "https://www.republique-numerique.fr/consultations/projet-de-loi-numerique/consultation/consultation/opinions/section-1-recommande-electronique/identite-numerique#arg-5933",
          "edit": "https://www.republique-numerique.fr/consultations/projet-de-loi-numerique/consultation/consultation/opinions/section-1-recommande-electronique/identite-numerique/arguments/5933/edit",
          "report": "https://www.republique-numerique.fr/consultations/projet-de-loi-numerique/consultation/consultation/opinions/section-1-recommande-electronique/identite-numerique/arguments/5933/report"
        },
        "has_user_voted": false,
        "has_user_reported": false
      },
      {
        "isContribuable": false,
        "id": 4327,
        "body": "Une carte d'identité numérique, voilà une très bonne idée ! Mais il ne faudrait pas se la faire falsifier avec tous les hackers...",
        "created_at": "2015-10-15T17:43:12+0200",
        "updated_at": "2015-10-15T17:43:12+0200",
        "is_enabled": true,
        "votes_count": 0,
        "type": 1,
        "is_trashed": false,
        "author": {
          "username": "lagaude",
          "displayName": "lagaude",
          "uniqueId": "lagaude",
          "isAdmin": false,
          "media": null,
          "vip": false,
          "_links": {
            "profile": "https://www.republique-numerique.fr/profile/lagaude",
            "settings": "https://www.republique-numerique.fr/profile/edit-profile"
          }
        },
        "_links": {
          "show": "https://www.republique-numerique.fr/consultations/projet-de-loi-numerique/consultation/consultation/opinions/section-1-recommande-electronique/identite-numerique#arg-4327",
          "edit": "https://www.republique-numerique.fr/consultations/projet-de-loi-numerique/consultation/consultation/opinions/section-1-recommande-electronique/identite-numerique/arguments/4327/edit",
          "report": "https://www.republique-numerique.fr/consultations/projet-de-loi-numerique/consultation/consultation/opinions/section-1-recommande-electronique/identite-numerique/arguments/4327/report"
        },
        "has_user_voted": false,
        "has_user_reported": false
      },
      {
        "isContribuable": false,
        "id": 3515,
        "body": "Le système existe en Suisse et est géré par la poste Suisse qui émet une carte à puce aux personnes souhaitant bénéficier d'une signature numérique. Utilisable pour les impôts et dans certaines banques ainsi que pour des achats en ligne. Pas vraiment un gros succès. Pour l'instant. Il est vrai: service payant et cher (à mon avis).",
        "created_at": "2015-10-13T11:04:34+0200",
        "updated_at": "2015-10-13T11:05:33+0200",
        "is_enabled": true,
        "votes_count": 0,
        "type": 1,
        "is_trashed": false,
        "author": {
          "username": "Bernard Ludwig",
          "displayName": "Bernard Ludwig",
          "uniqueId": "bernardludwig",
          "isAdmin": false,
          "media": null,
          "vip": false,
          "_links": {
            "profile": "https://www.republique-numerique.fr/profile/bernardludwig",
            "settings": "https://www.republique-numerique.fr/profile/edit-profile"
          }
        },
        "_links": {
          "show": "https://www.republique-numerique.fr/consultations/projet-de-loi-numerique/consultation/consultation/opinions/section-1-recommande-electronique/identite-numerique#arg-3515",
          "edit": "https://www.republique-numerique.fr/consultations/projet-de-loi-numerique/consultation/consultation/opinions/section-1-recommande-electronique/identite-numerique/arguments/3515/edit",
          "report": "https://www.republique-numerique.fr/consultations/projet-de-loi-numerique/consultation/consultation/opinions/section-1-recommande-electronique/identite-numerique/arguments/3515/report"
        },
        "has_user_voted": false,
        "has_user_reported": false
      },
      {
        "isContribuable": false,
        "id": 2986,
        "body": "La question est de savoir si le certificat des impôt est le meilleur moyen:  tout le monde ne paye pas des impôts, les conjoints n'ont pas forcément leur propre certificat, et les enfants majeurs rattachés en seraient exclus.   Peut-être plutôt les services qui se chargent déjà de l'identité (même démarche que pour la carte d'identité ou le passeport) ?  Ou inciter des acteurs privés à démocratiser le marché du certificat (la poste, les banques ...) ",
        "created_at": "2015-10-10T17:17:47+0200",
        "updated_at": "2015-10-10T17:17:47+0200",
        "is_enabled": true,
        "votes_count": 2,
        "type": 0,
        "is_trashed": false,
        "author": {
          "username": "Christophe Thierry",
          "displayName": "Christophe Thierry",
          "uniqueId": "christophethierry",
          "isAdmin": false,
          "media": null,
          "vip": false,
          "_links": {
            "profile": "https://www.republique-numerique.fr/profile/christophethierry",
            "settings": "https://www.republique-numerique.fr/profile/edit-profile"
          }
        },
        "_links": {
          "show": "https://www.republique-numerique.fr/consultations/projet-de-loi-numerique/consultation/consultation/opinions/section-1-recommande-electronique/identite-numerique#arg-2986",
          "edit": "https://www.republique-numerique.fr/consultations/projet-de-loi-numerique/consultation/consultation/opinions/section-1-recommande-electronique/identite-numerique/arguments/2986/edit",
          "report": "https://www.republique-numerique.fr/consultations/projet-de-loi-numerique/consultation/consultation/opinions/section-1-recommande-electronique/identite-numerique/arguments/2986/report"
        },
        "has_user_voted": false,
        "has_user_reported": false
      },
      {
        "isContribuable": false,
        "id": 2985,
        "body": "Il convient effectivement de renforcer l'identité numérique, en démocratisant les certificats numériques.  En Belgique et en Allemagne, les cartes d'identités sont à puces et son équipées d'un certificat numérique.  Celui-ci permet d’authentifier des messages électroniques grâce à un lecteur de cartes. Dans d'autres pays, ce sont les banques qui distribuent des certificats.  ",
        "created_at": "2015-10-10T17:14:26+0200",
        "updated_at": "2015-10-10T17:14:26+0200",
        "is_enabled": true,
        "votes_count": 1,
        "type": 1,
        "is_trashed": false,
        "author": {
          "username": "Christophe Thierry",
          "displayName": "Christophe Thierry",
          "uniqueId": "christophethierry",
          "isAdmin": false,
          "media": null,
          "vip": false,
          "_links": {
            "profile": "https://www.republique-numerique.fr/profile/christophethierry",
            "settings": "https://www.republique-numerique.fr/profile/edit-profile"
          }
        },
        "_links": {
          "show": "https://www.republique-numerique.fr/consultations/projet-de-loi-numerique/consultation/consultation/opinions/section-1-recommande-electronique/identite-numerique#arg-2985",
          "edit": "https://www.republique-numerique.fr/consultations/projet-de-loi-numerique/consultation/consultation/opinions/section-1-recommande-electronique/identite-numerique/arguments/2985/edit",
          "report": "https://www.republique-numerique.fr/consultations/projet-de-loi-numerique/consultation/consultation/opinions/section-1-recommande-electronique/identite-numerique/arguments/2985/report"
        },
        "has_user_voted": false,
        "has_user_reported": false
      },
      {
        "isContribuable": false,
        "id": 2384,
        "body": "Ok avec un service public d'identité numérique. Géré par l'état ou indépendant par contre, il y a du pour et du contre. \nIl pourrait être intéressant de pousser la réflexion pour un service d'autorisations où la personne physique reste propriétaire de ses données (analyses médicales par exemple) et autorise un accès à ces données à un tiers (médecin).\nLes hébergeurs de données (laboratoire d'analyses) doivent supporter ces fournisseurs d'identité et d'autorisations.",
        "created_at": "2015-10-06T13:57:22+0200",
        "updated_at": "2015-10-06T13:57:22+0200",
        "is_enabled": true,
        "votes_count": 1,
        "type": 1,
        "is_trashed": false,
        "author": {
          "username": "Frédéric Bouquet",
          "displayName": "Frédéric Bouquet",
          "uniqueId": "fredericbouquet",
          "isAdmin": false,
          "media": null,
          "vip": false,
          "_links": {
            "profile": "https://www.republique-numerique.fr/profile/fredericbouquet",
            "settings": "https://www.republique-numerique.fr/profile/edit-profile"
          }
        },
        "_links": {
          "show": "https://www.republique-numerique.fr/consultations/projet-de-loi-numerique/consultation/consultation/opinions/section-1-recommande-electronique/identite-numerique#arg-2384",
          "edit": "https://www.republique-numerique.fr/consultations/projet-de-loi-numerique/consultation/consultation/opinions/section-1-recommande-electronique/identite-numerique/arguments/2384/edit",
          "report": "https://www.republique-numerique.fr/consultations/projet-de-loi-numerique/consultation/consultation/opinions/section-1-recommande-electronique/identite-numerique/arguments/2384/report"
        },
        "has_user_voted": false,
        "has_user_reported": false
      },
      {
        "isContribuable": false,
        "id": 2320,
        "body": "@Michel, Ce serait bien d'ajouter quelques sources.",
        "created_at": "2015-10-05T21:17:41+0200",
        "updated_at": "2015-10-05T21:17:41+0200",
        "is_enabled": true,
        "votes_count": 0,
        "type": 1,
        "is_trashed": false,
        "author": {
          "username": "Alain Mille",
          "displayName": "Alain Mille",
          "uniqueId": "alainmille",
          "isAdmin": false,
          "media": null,
          "vip": false,
          "_links": {
            "profile": "https://www.republique-numerique.fr/profile/alainmille",
            "settings": "https://www.republique-numerique.fr/profile/edit-profile"
          }
        },
        "_links": {
          "show": "https://www.republique-numerique.fr/consultations/projet-de-loi-numerique/consultation/consultation/opinions/section-1-recommande-electronique/identite-numerique#arg-2320",
          "edit": "https://www.republique-numerique.fr/consultations/projet-de-loi-numerique/consultation/consultation/opinions/section-1-recommande-electronique/identite-numerique/arguments/2320/edit",
          "report": "https://www.republique-numerique.fr/consultations/projet-de-loi-numerique/consultation/consultation/opinions/section-1-recommande-electronique/identite-numerique/arguments/2320/report"
        },
        "has_user_voted": false,
        "has_user_reported": false
      },
      {
        "isContribuable": false,
        "id": 2119,
        "body": "Comme pour toutes les propositions parlant d'une identité unique numérique gérée par l'État, et n'ayant aucune confiance en ce dernier à long terme pour ne pas en profiter pour croiser indûment ces fichiers, je vote CONTRE.\nQue ferons-nous le jour où un gouvernement non démocratique utilisera ces fichiers pour un eugénisme ou une discrimination de masse, sinon pire ? RIEN. Et en tant que professionnel de la data et des réseaux, je sais à quel point il est impossible de se protéger ainsi de ces effets à long terme. ",
        "created_at": "2015-10-03T16:51:52+0200",
        "updated_at": "2015-10-03T16:51:52+0200",
        "is_enabled": true,
        "votes_count": 8,
        "type": 0,
        "is_trashed": false,
        "author": {
          "username": "Benjamin Sonntag",
          "displayName": "Benjamin Sonntag",
          "uniqueId": "benjaminsonntag",
          "isAdmin": false,
          "media": {
            "url": "/media/cache/default_avatar/default/0001/01/387_default_avatar.jpg"
          },
          "vip": false,
          "_links": {
            "profile": "https://www.republique-numerique.fr/profile/benjaminsonntag",
            "settings": "https://www.republique-numerique.fr/profile/edit-profile"
          }
        },
        "_links": {
          "show": "https://www.republique-numerique.fr/consultations/projet-de-loi-numerique/consultation/consultation/opinions/section-1-recommande-electronique/identite-numerique#arg-2119",
          "edit": "https://www.republique-numerique.fr/consultations/projet-de-loi-numerique/consultation/consultation/opinions/section-1-recommande-electronique/identite-numerique/arguments/2119/edit",
          "report": "https://www.republique-numerique.fr/consultations/projet-de-loi-numerique/consultation/consultation/opinions/section-1-recommande-electronique/identite-numerique/arguments/2119/report"
        },
        "has_user_voted": false,
        "has_user_reported": false
      },
      {
        "isContribuable": false,
        "id": 1878,
        "body": "Cela implique de considérer l'État comme un tiers de confiance (malgré des lois comme celle sur le terrorisme de 2014 ou le renseignement de 2015) et de lui donner des données privées.",
        "created_at": "2015-10-01T14:55:18+0200",
        "updated_at": "2015-10-01T14:55:18+0200",
        "is_enabled": true,
        "votes_count": 7,
        "type": 0,
        "is_trashed": false,
        "author": {
          "username": "Nicola Spanti",
          "displayName": "Nicola Spanti",
          "uniqueId": "nicolaspanti",
          "isAdmin": false,
          "media": {
            "url": "/media/cache/default_avatar/default/0001/01/352_default_avatar.png"
          },
          "vip": false,
          "_links": {
            "profile": "https://www.republique-numerique.fr/profile/nicolaspanti",
            "settings": "https://www.republique-numerique.fr/profile/edit-profile"
          }
        },
        "_links": {
          "show": "https://www.republique-numerique.fr/consultations/projet-de-loi-numerique/consultation/consultation/opinions/section-1-recommande-electronique/identite-numerique#arg-1878",
          "edit": "https://www.republique-numerique.fr/consultations/projet-de-loi-numerique/consultation/consultation/opinions/section-1-recommande-electronique/identite-numerique/arguments/1878/edit",
          "report": "https://www.republique-numerique.fr/consultations/projet-de-loi-numerique/consultation/consultation/opinions/section-1-recommande-electronique/identite-numerique/arguments/1878/report"
        },
        "has_user_voted": false,
        "has_user_reported": false
      },
      {
        "isContribuable": false,
        "id": 1200,
        "body": "Pour aller un peu plus loin : création d'un identifiant unique par citoyen @france.fr permettant l'accès à toutes les plateformes institutionnelles, permettant la dématérialisation administrative",
        "created_at": "2015-09-29T12:11:47+0200",
        "updated_at": "2015-09-29T12:11:47+0200",
        "is_enabled": true,
        "votes_count": 5,
        "type": 1,
        "is_trashed": false,
        "author": {
          "username": "Romain Lavielle",
          "displayName": "Romain Lavielle",
          "uniqueId": "romainlavielle",
          "isAdmin": false,
          "media": null,
          "vip": false,
          "_links": {
            "profile": "https://www.republique-numerique.fr/profile/romainlavielle",
            "settings": "https://www.republique-numerique.fr/profile/edit-profile"
          }
        },
        "_links": {
          "show": "https://www.republique-numerique.fr/consultations/projet-de-loi-numerique/consultation/consultation/opinions/section-1-recommande-electronique/identite-numerique#arg-1200",
          "edit": "https://www.republique-numerique.fr/consultations/projet-de-loi-numerique/consultation/consultation/opinions/section-1-recommande-electronique/identite-numerique/arguments/1200/edit",
          "report": "https://www.republique-numerique.fr/consultations/projet-de-loi-numerique/consultation/consultation/opinions/section-1-recommande-electronique/identite-numerique/arguments/1200/report"
        },
        "has_user_voted": false,
        "has_user_reported": false
      },
      {
        "isContribuable": false,
        "id": 1045,
        "body": "On devrait coupler dans la carte de citoyen les infos de permis de conduire également comme ça plus qu'une carte (au format carte de crédit).\nA voir pour la carte vitale ?",
        "created_at": "2015-09-28T21:46:13+0200",
        "updated_at": "2015-09-28T21:46:13+0200",
        "is_enabled": true,
        "votes_count": 2,
        "type": 1,
        "is_trashed": false,
        "author": {
          "username": "Fabien FOSSAT",
          "displayName": "Fabien FOSSAT",
          "uniqueId": "fabienfossat",
          "isAdmin": false,
          "media": null,
          "vip": false,
          "_links": {
            "profile": "https://www.republique-numerique.fr/profile/fabienfossat",
            "settings": "https://www.republique-numerique.fr/profile/edit-profile"
          }
        },
        "_links": {
          "show": "https://www.republique-numerique.fr/consultations/projet-de-loi-numerique/consultation/consultation/opinions/section-1-recommande-electronique/identite-numerique#arg-1045",
          "edit": "https://www.republique-numerique.fr/consultations/projet-de-loi-numerique/consultation/consultation/opinions/section-1-recommande-electronique/identite-numerique/arguments/1045/edit",
          "report": "https://www.republique-numerique.fr/consultations/projet-de-loi-numerique/consultation/consultation/opinions/section-1-recommande-electronique/identite-numerique/arguments/1045/report"
        },
        "has_user_voted": false,
        "has_user_reported": false
      },
      {
        "isContribuable": false,
        "id": 466,
        "body": "Certains pays, comme par exemple le Portugal proposent une \"carte de citoyen\" (à puce) qui a remplacé la CNI et qui par le biais d'un lecteur branché sur un ordinateur permet une identité électronique complète (signature, adresse, etc).",
        "created_at": "2015-09-27T11:19:59+0200",
        "updated_at": "2015-09-27T11:19:59+0200",
        "is_enabled": true,
        "votes_count": 8,
        "type": 1,
        "is_trashed": false,
        "author": {
          "username": "Luis TITO DE MORAIS",
          "displayName": "Luis TITO DE MORAIS",
          "uniqueId": "luistitodemorais",
          "isAdmin": false,
          "media": null,
          "vip": false,
          "_links": {
            "profile": "https://www.republique-numerique.fr/profile/luistitodemorais",
            "settings": "https://www.republique-numerique.fr/profile/edit-profile"
          }
        },
        "_links": {
          "show": "https://www.republique-numerique.fr/consultations/projet-de-loi-numerique/consultation/consultation/opinions/section-1-recommande-electronique/identite-numerique#arg-466",
          "edit": "https://www.republique-numerique.fr/consultations/projet-de-loi-numerique/consultation/consultation/opinions/section-1-recommande-electronique/identite-numerique/arguments/466/edit",
          "report": "https://www.republique-numerique.fr/consultations/projet-de-loi-numerique/consultation/consultation/opinions/section-1-recommande-electronique/identite-numerique/arguments/466/report"
        },
        "has_user_voted": false,
        "has_user_reported": false
      },
      {
        "isContribuable": false,
        "id": 452,
        "body": "voir proposition  Euroconnect, pour un état civil européen",
        "created_at": "2015-09-27T10:56:46+0200",
        "updated_at": "2015-09-27T10:56:46+0200",
        "is_enabled": true,
        "votes_count": 6,
        "type": 1,
        "is_trashed": false,
        "author": {
          "username": "pierre obrecht",
          "displayName": "pierre obrecht",
          "uniqueId": "pierreobrecht",
          "isAdmin": false,
          "media": {
            "url": "/media/cache/default_avatar/default/0001/01/106_default_avatar.jpg"
          },
          "vip": false,
          "_links": {
            "profile": "https://www.republique-numerique.fr/profile/pierreobrecht",
            "settings": "https://www.republique-numerique.fr/profile/edit-profile"
          }
        },
        "_links": {
          "show": "https://www.republique-numerique.fr/consultations/projet-de-loi-numerique/consultation/consultation/opinions/section-1-recommande-electronique/identite-numerique#arg-452",
          "edit": "https://www.republique-numerique.fr/consultations/projet-de-loi-numerique/consultation/consultation/opinions/section-1-recommande-electronique/identite-numerique/arguments/452/edit",
          "report": "https://www.republique-numerique.fr/consultations/projet-de-loi-numerique/consultation/consultation/opinions/section-1-recommande-electronique/identite-numerique/arguments/452/report"
        },
        "has_user_voted": false,
        "has_user_reported": false
      }
    ],
    "modals": [],
    "votes": [
      {
        "user": {
          "username": "pierre obrecht",
          "displayName": "pierre obrecht",
          "uniqueId": "pierreobrecht",
          "isAdmin": false,
          "media": {
            "url": "/media/cache/default_avatar/default/0001/01/106_default_avatar.jpg"
          },
          "vip": false,
          "_links": {
            "profile": "https://www.republique-numerique.fr/profile/pierreobrecht",
            "settings": "https://www.republique-numerique.fr/profile/edit-profile"
          }
        }
      },
      {
        "user": {
          "username": "Luis TITO DE MORAIS",
          "displayName": "Luis TITO DE MORAIS",
          "uniqueId": "luistitodemorais",
          "isAdmin": false,
          "media": null,
          "vip": false,
          "_links": {
            "profile": "https://www.republique-numerique.fr/profile/luistitodemorais",
            "settings": "https://www.republique-numerique.fr/profile/edit-profile"
          }
        }
      },
      {
        "user": {
          "username": "Zeralda Rléziènne",
          "displayName": "Zeralda Rléziènne",
          "uniqueId": "zeraldarlezienne",
          "isAdmin": false,
          "media": null,
          "vip": false,
          "_links": {
            "profile": "https://www.republique-numerique.fr/profile/zeraldarlezienne",
            "settings": "https://www.republique-numerique.fr/profile/edit-profile"
          }
        }
      },
      {
        "user": {
          "username": "Emmanuel Hadoux",
          "displayName": "Emmanuel Hadoux",
          "uniqueId": "emmanuelhadoux",
          "isAdmin": false,
          "media": null,
          "vip": false,
          "_links": {
            "profile": "https://www.republique-numerique.fr/profile/emmanuelhadoux",
            "settings": "https://www.republique-numerique.fr/profile/edit-profile"
          }
        }
      },
      {
        "user": {
          "username": "SGL",
          "displayName": "SGL",
          "uniqueId": "sgl",
          "isAdmin": false,
          "media": null,
          "vip": false,
          "_links": {
            "profile": "https://www.republique-numerique.fr/profile/sgl",
            "settings": "https://www.republique-numerique.fr/profile/edit-profile"
          }
        }
      }
    ],
    "appendices": [
      {
        "body": "<p>Il est tr&egrave;s difficile de v&eacute;rifier une identit&eacute; num&eacute;rique. L&#39;usurpation d&#39;identit&eacute; permet de cr&eacute;er de fausses identit&eacute;s num&eacute;riques.</p>\r\n\r\n<p>Les impots font ce travail de mani&egrave;re approfondie, cela serait dommage de ne pas profiter de ce service. Je me suis toujours demand&eacute; pourquoi la signature num&eacute;rique de la d&eacute;claration d&#39;impots n&#39;&eacute;tait pas utilis&eacute; par d&#39;autres services de l&#39;administration.</p>\r\n\r\n<p>La notion de recommand&eacute; n&#39;a pas vraiment de sens avec internet, cette partie de la loi devrait plut&ocirc;t &ecirc;tre nomm&eacute; identit&eacute; et signature num&eacute;rique.</p>\r\n\r\n<p>Une derni&egrave;re remarque : bien que cela utilise les m&ecirc;mes types d&#39;algorithmes que la cryptographie, cela n&#39;a rien avoir dans l&#39;utilisation et on peut utiliser des algorithmes tr&egrave;s performants.</p>\r\n\r\n<p>Je peux bien s&ucirc;r d&eacute;tailler tout cela si vous le trouvez int&eacute;ressant (pour moi c&#39;est &eacute;vident que c&#39;est fondamental!)</p>",
        "type": {
          "title": "Explication de l'article"
        }
      }
    ],
    "ranking": 104,
    "is_trashed": false,
    "title": "identité numérique",
    "votes_nok": 40,
    "votes_ok": 89,
    "votes_mitige": 15,
    "_links": {
      "show": "https://www.republique-numerique.fr/consultations/projet-de-loi-numerique/consultation/consultation/opinions/section-1-recommande-electronique/identite-numerique",
      "edit": "https://www.republique-numerique.fr/consultations/projet-de-loi-numerique/consultation/consultation/opinions/section-1-recommande-electronique/identite-numerique/edit",
      "report": "https://www.republique-numerique.fr/consultations/projet-de-loi-numerique/consultation/consultation/opinions/section-1-recommande-electronique/identite-numerique/report",
      "type": "https://www.republique-numerique.fr/consultations/projet-de-loi-numerique/consultation/consultation/opinions/section-1-recommande-electronique"
    },
    "user_vote": null,
    "has_user_reported": false
  },
  "rankingThreshold": null,
  "opinionTerm": 1
}