{
  "opinion": {
    "isContribuable": false,
    "votes_total": 9,
    "arguments_yes_count": 1,
    "arguments_no_count": 1,
    "id": 495,
    "created_at": "2015-10-09T14:11:02+0200",
    "updated_at": "2015-10-09T14:11:02+0200",
    "body": "<p>R&egrave;glementation sur les messages publicitaires.</p>",
    "versions_count": 0,
    "sources_count": 0,
    "arguments_count": 2,
    "author": {
      "username": "Ryk",
      "displayName": "Ryk",
      "uniqueId": "ryk",
      "isAdmin": false,
      "media": null,
      "vip": false,
      "_links": {
        "profile": "https://www.republique-numerique.fr/profile/ryk",
        "settings": "https://www.republique-numerique.fr/profile/edit-profile"
      }
    },
    "type": {
      "id": 94,
      "title": "Section 1",
      "subtitle": "Neutralité de l’internet",
      "voteWidgetType": 2,
      "votesHelpText": "Pensez-vous que cette proposition permet d'atteindre les objectifs présentés dans l’explication de l’article ?",
      "commentSystem": 2,
      "color": "blue",
      "versionable": true,
      "sourceable": true,
      "votesThreshold": null,
      "votesThresholdHelpText": null
    },
    "sources": [],
    "arguments": [
      {
        "isContribuable": false,
        "id": 2995,
        "body": "Des informations concernant la politique publicitaire des sites devraient etre generalisées.",
        "created_at": "2015-10-10T17:49:39+0200",
        "updated_at": "2015-10-10T17:49:39+0200",
        "is_enabled": true,
        "votes_count": 1,
        "type": 1,
        "is_trashed": false,
        "author": {
          "username": "Maltese Nadine",
          "displayName": "Maltese Nadine",
          "uniqueId": "maltesenadine",
          "isAdmin": false,
          "media": {
            "url": "/media/cache/default_avatar/default/0001/01/113_default_avatar.png"
          },
          "vip": false,
          "_links": {
            "profile": "https://www.republique-numerique.fr/profile/maltesenadine",
            "settings": "https://www.republique-numerique.fr/profile/edit-profile"
          }
        },
        "_links": {
          "show": "https://www.republique-numerique.fr/consultations/projet-de-loi-numerique/consultation/consultation/opinions/section-1-neutralite-de-l-internet/obligation-des-annonceurs-de-publicite-et-aux-responsables-de-sites-internet-de-mieux-identifier-les-annonces#arg-2995",
          "edit": "https://www.republique-numerique.fr/consultations/projet-de-loi-numerique/consultation/consultation/opinions/section-1-neutralite-de-l-internet/obligation-des-annonceurs-de-publicite-et-aux-responsables-de-sites-internet-de-mieux-identifier-les-annonces/arguments/2995/edit",
          "report": "https://www.republique-numerique.fr/consultations/projet-de-loi-numerique/consultation/consultation/opinions/section-1-neutralite-de-l-internet/obligation-des-annonceurs-de-publicite-et-aux-responsables-de-sites-internet-de-mieux-identifier-les-annonces/arguments/2995/report"
        },
        "has_user_voted": false,
        "has_user_reported": false
      },
      {
        "isContribuable": false,
        "id": 2960,
        "body": "Souhaitable sur le fond. Tout simplement inapplicable (les fournisseurs de ces publicités sont bien loins de nos juridictions...).",
        "created_at": "2015-10-10T15:39:59+0200",
        "updated_at": "2015-10-10T15:39:59+0200",
        "is_enabled": true,
        "votes_count": 1,
        "type": 0,
        "is_trashed": false,
        "author": {
          "username": "Bernard Martinez",
          "displayName": "Bernard Martinez",
          "uniqueId": "bernardmartinez",
          "isAdmin": false,
          "media": null,
          "vip": false,
          "_links": {
            "profile": "https://www.republique-numerique.fr/profile/bernardmartinez",
            "settings": "https://www.republique-numerique.fr/profile/edit-profile"
          }
        },
        "_links": {
          "show": "https://www.republique-numerique.fr/consultations/projet-de-loi-numerique/consultation/consultation/opinions/section-1-neutralite-de-l-internet/obligation-des-annonceurs-de-publicite-et-aux-responsables-de-sites-internet-de-mieux-identifier-les-annonces#arg-2960",
          "edit": "https://www.republique-numerique.fr/consultations/projet-de-loi-numerique/consultation/consultation/opinions/section-1-neutralite-de-l-internet/obligation-des-annonceurs-de-publicite-et-aux-responsables-de-sites-internet-de-mieux-identifier-les-annonces/arguments/2960/edit",
          "report": "https://www.republique-numerique.fr/consultations/projet-de-loi-numerique/consultation/consultation/opinions/section-1-neutralite-de-l-internet/obligation-des-annonceurs-de-publicite-et-aux-responsables-de-sites-internet-de-mieux-identifier-les-annonces/arguments/2960/report"
        },
        "has_user_voted": false,
        "has_user_reported": false
      }
    ],
    "modals": [],
    "votes": [
      {
        "user": {
          "username": "Axel Gondel",
          "displayName": "Axel Gondel",
          "uniqueId": "axelgondel",
          "isAdmin": false,
          "media": null,
          "vip": false,
          "_links": {
            "profile": "https://www.republique-numerique.fr/profile/axelgondel",
            "settings": "https://www.republique-numerique.fr/profile/edit-profile"
          }
        }
      },
      {
        "user": {
          "username": "Jeanne Varasco",
          "displayName": "Jeanne Varasco",
          "uniqueId": "jeannevarasco",
          "isAdmin": false,
          "media": {
            "url": "/media/cache/default_avatar/default/0001/01/139_default_avatar.jpg"
          },
          "vip": false,
          "_links": {
            "profile": "https://www.republique-numerique.fr/profile/jeannevarasco",
            "settings": "https://www.republique-numerique.fr/profile/edit-profile"
          }
        }
      },
      {
        "user": {
          "username": "Bernard Martinez",
          "displayName": "Bernard Martinez",
          "uniqueId": "bernardmartinez",
          "isAdmin": false,
          "media": null,
          "vip": false,
          "_links": {
            "profile": "https://www.republique-numerique.fr/profile/bernardmartinez",
            "settings": "https://www.republique-numerique.fr/profile/edit-profile"
          }
        }
      },
      {
        "user": {
          "username": "Maltese Nadine",
          "displayName": "Maltese Nadine",
          "uniqueId": "maltesenadine",
          "isAdmin": false,
          "media": {
            "url": "/media/cache/default_avatar/default/0001/01/113_default_avatar.png"
          },
          "vip": false,
          "_links": {
            "profile": "https://www.republique-numerique.fr/profile/maltesenadine",
            "settings": "https://www.republique-numerique.fr/profile/edit-profile"
          }
        }
      },
      {
        "user": {
          "username": "CapitaineNemo",
          "displayName": "CapitaineNemo",
          "uniqueId": "capitainenemo",
          "isAdmin": false,
          "media": null,
          "vip": false,
          "_links": {
            "profile": "https://www.republique-numerique.fr/profile/capitainenemo",
            "settings": "https://www.republique-numerique.fr/profile/edit-profile"
          }
        }
      }
    ],
    "appendices": [
      {
        "body": "<p>Les utilisateurs de l&rsquo;internet sont souvent confronter aux publicit&eacute;s. Ceci n&rsquo;est pas un mal en soi et permet de contribuer &agrave; l&rsquo;&eacute;conomie d&rsquo;Internet. Cependant, on constate des abus dans la pr&eacute;sentation du message publicitaire que l&rsquo;on peut parfois confondre avec le site internet en lui-m&ecirc;me. Comme par exemple&nbsp;: avoir deux boutons t&eacute;l&eacute;charger sur la m&ecirc;me page. S&rsquo;agit-il du bouton qui concerne notre demande ou d&rsquo;autre chose&nbsp;? Il serait peut &ecirc;tre prudent de bien r&eacute;glementer les pratiques de la publicit&eacute; sur le web et d&rsquo;avoir plus de transparence. Peut &ecirc;tre comme une mention &quot;Ceci est une publicit&eacute;&quot;.</p>",
        "type": {
          "title": "Explication de l'article"
        }
      }
    ],
    "ranking": 364,
    "is_trashed": false,
    "title": "Obligation des annonceurs de publicité et aux responsables de sites Internet de mieux identifier les annonces.",
    "votes_nok": 1,
    "votes_ok": 8,
    "votes_mitige": 0,
    "_links": {
      "show": "https://www.republique-numerique.fr/consultations/projet-de-loi-numerique/consultation/consultation/opinions/section-1-neutralite-de-l-internet/obligation-des-annonceurs-de-publicite-et-aux-responsables-de-sites-internet-de-mieux-identifier-les-annonces",
      "edit": "https://www.republique-numerique.fr/consultations/projet-de-loi-numerique/consultation/consultation/opinions/section-1-neutralite-de-l-internet/obligation-des-annonceurs-de-publicite-et-aux-responsables-de-sites-internet-de-mieux-identifier-les-annonces/edit",
      "report": "https://www.republique-numerique.fr/consultations/projet-de-loi-numerique/consultation/consultation/opinions/section-1-neutralite-de-l-internet/obligation-des-annonceurs-de-publicite-et-aux-responsables-de-sites-internet-de-mieux-identifier-les-annonces/report",
      "type": "https://www.republique-numerique.fr/consultations/projet-de-loi-numerique/consultation/consultation/opinions/section-1-neutralite-de-l-internet"
    },
    "user_vote": null,
    "has_user_reported": false
  },
  "rankingThreshold": null,
  "opinionTerm": 1
}