{
  "opinion": {
    "isContribuable": false,
    "votes_total": 1,
    "arguments_yes_count": 0,
    "arguments_no_count": 0,
    "id": 726,
    "created_at": "2015-10-18T11:44:02+0200",
    "updated_at": "2015-10-18T21:52:30+0200",
    "body": "<p>Imposer un syst&egrave;me uniformis&eacute; de pictogrammes informatifs relatif aux traitements, usages, finalit&eacute;s, et dur&eacute;es de conservation des donn&eacute;es &agrave; caract&egrave;re personnel.&nbsp;</p>",
    "versions_count": 0,
    "sources_count": 0,
    "arguments_count": 0,
    "author": {
      "username": "Digital New Deal Foundation",
      "displayName": "Digital New Deal Foundation",
      "uniqueId": "digitalnewdealfoundation1",
      "isAdmin": false,
      "media": {
        "url": "/media/cache/default_avatar/default/0001/01/996_default_avatar.jpg"
      },
      "vip": false,
      "_links": {
        "profile": "https://www.republique-numerique.fr/profile/digitalnewdealfoundation1",
        "settings": "https://www.republique-numerique.fr/profile/edit-profile"
      }
    },
    "type": {
      "id": 99,
      "title": "Section 1",
      "subtitle": "Protection des données à caractère personnel",
      "voteWidgetType": 2,
      "votesHelpText": "Pensez-vous que cette proposition permet d'atteindre les objectifs présentés dans l’explication de l’article ?",
      "commentSystem": 2,
      "color": "blue",
      "versionable": true,
      "sourceable": true,
      "votesThreshold": null,
      "votesThresholdHelpText": null
    },
    "sources": [],
    "arguments": [],
    "modals": [],
    "votes": [
      {
        "user": {
          "username": "Maltese Nadine",
          "displayName": "Maltese Nadine",
          "uniqueId": "maltesenadine",
          "isAdmin": false,
          "media": {
            "url": "/media/cache/default_avatar/default/0001/01/113_default_avatar.png"
          },
          "vip": false,
          "_links": {
            "profile": "https://www.republique-numerique.fr/profile/maltesenadine",
            "settings": "https://www.republique-numerique.fr/profile/edit-profile"
          }
        }
      }
    ],
    "appendices": [
      {
        "body": "<p>Le premier imp&eacute;ratif concernant la protection des donn&eacute;es &agrave; caract&egrave;re personnel est de permettre aux personnes de s&rsquo;informer correctement sur les donn&eacute;es r&eacute;colt&eacute;es et les usages qui en sont faits.</p>\r\n\r\n<p>Les conditions g&eacute;n&eacute;rales ne sont que tr&egrave;s rarement lues et souvent obscures. Aussi serait-il b&eacute;n&eacute;fique de d&eacute;velopper un syst&egrave;me de pictogrammes simple et uniforme &ndash; facilement compr&eacute;hensible par l&rsquo;internaute moyen &ndash; permettant d&rsquo;indiquer clairement et rapidement le type de donn&eacute;es r&eacute;colt&eacute;es, leur quantit&eacute;, leurs traitements, la finalit&eacute; de ces derniers ainsi que leur dur&eacute;e.</p>\r\n\r\n<p>Ces pictogrammes devraient &ecirc;tre pr&eacute;sents sur les pages de navigation du site et non sur la seule page d&eacute;di&eacute;e aux conditions g&eacute;n&eacute;rales.</p>\r\n\r\n<p>Le l&eacute;gislateur pourrait s&rsquo;inspirer des <em>privacy icons</em> d&eacute;velopp&eacute;es par le Conseil national du num&eacute;rique et pr&eacute;sent&eacute;s dans son avis 2014-2.</p>",
        "type": {
          "title": "Explication de l'article"
        }
      }
    ],
    "ranking": 577,
    "is_trashed": false,
    "title": "Instaurer un système de pictogrammes informatifs relatifs aux traitements des données à caractère personnel",
    "votes_nok": 0,
    "votes_ok": 1,
    "votes_mitige": 0,
    "_links": {
      "show": "https://www.republique-numerique.fr/consultations/projet-de-loi-numerique/consultation/consultation/opinions/section-1-protection-des-donnees-a-caractere-personnel/instaurer-un-systeme-de-pictogrammes-d-information",
      "edit": "https://www.republique-numerique.fr/consultations/projet-de-loi-numerique/consultation/consultation/opinions/section-1-protection-des-donnees-a-caractere-personnel/instaurer-un-systeme-de-pictogrammes-d-information/edit",
      "report": "https://www.republique-numerique.fr/consultations/projet-de-loi-numerique/consultation/consultation/opinions/section-1-protection-des-donnees-a-caractere-personnel/instaurer-un-systeme-de-pictogrammes-d-information/report",
      "type": "https://www.republique-numerique.fr/consultations/projet-de-loi-numerique/consultation/consultation/opinions/section-1-protection-des-donnees-a-caractere-personnel"
    },
    "user_vote": null,
    "has_user_reported": false
  },
  "rankingThreshold": null,
  "opinionTerm": 1
}