{
  "version": {
    "isContribuable": false,
    "votes_total": 9,
    "arguments_yes_count": 1,
    "arguments_no_count": 0,
    "id": 851,
    "body": "<p>Mettre en place d&eacute;s la seconde des s&eacute;ances de d&eacute;couverte et de perfectionnement au num&eacute;rique au sein des &eacute;tablissements, sous forme d&#39;ateliers g&eacute;r&eacute;s par les r&eacute;f&eacute;rents num&eacute;riques :</p>",
    "comment": "<p>Que cela ne soit pas des professeurs mais des CATIC( conseil et accompagnements aux techniques de l&#39;information et de la communications- ) c&#39;est a dire des personnes form&eacute;es pour appr&eacute;hender le num&eacute;rique et qui sachant le transmettre ....</p>\n\n<p>D&egrave;s la seconde ? pourquoi pas mais permettre aux enfants de voir le num&eacute;rique autrement que par skype .. le voir comme un support permettant de faire et d&#39;avancer avec le traitement de texte, le tableur, les pr&eacute;sentations ... en fait integrer le num&eacute;rique aux autres mati&egrave;res .. m&ecirc;me les arts plastiques .. avec la cr&eacute;ations de films ...</p>",
    "author": {
      "username": "Corinne Robert",
      "displayName": "Corinne Robert",
      "uniqueId": "corinnerobert",
      "isAdmin": false,
      "media": null,
      "vip": false,
      "_links": {
        "profile": "https://www.republique-numerique.fr/profile/corinnerobert",
        "settings": "https://www.republique-numerique.fr/profile/edit-profile"
      }
    },
    "arguments": [
      {
        "isContribuable": false,
        "id": 4722,
        "body": "c'est ce qui se pratique dans les fablabs. utiliser une imprimante 3D, une fraiseuse etc . c'est un moyen de mettre fin à l'obsolescence programmée.",
        "created_at": "2015-10-16T14:28:30+0200",
        "updated_at": "2015-10-16T14:28:30+0200",
        "is_enabled": true,
        "votes_count": 1,
        "type": 1,
        "is_trashed": false,
        "author": {
          "username": "GARNIER-VIALLET",
          "displayName": "GARNIER-VIALLET",
          "uniqueId": "garnierviallet",
          "isAdmin": false,
          "media": null,
          "vip": false,
          "_links": {
            "profile": "https://www.republique-numerique.fr/profile/garnierviallet",
            "settings": "https://www.republique-numerique.fr/profile/edit-profile"
          }
        },
        "_links": {
          "show": "https://www.republique-numerique.fr/consultations/projet-de-loi-numerique/consultation/consultation/opinions/section-1-ouverture-des-donnees-publiques-1/ecole-entreprise-reunion/versions/referents-numeriques#arg-4722",
          "edit": "https://www.republique-numerique.fr/consultations/projet-de-loi-numerique/consultation/consultation/opinions/section-1-ouverture-des-donnees-publiques-1/ecole-entreprise-reunion/arguments/4722/edit",
          "report": "https://www.republique-numerique.fr/consultations/projet-de-loi-numerique/consultation/consultation/opinions/section-1-ouverture-des-donnees-publiques-1/ecole-entreprise-reunion/arguments/4722/report"
        },
        "has_user_voted": false,
        "has_user_reported": false
      }
    ],
    "sources": [],
    "parent": {
      "isContribuable": false,
      "id": 91,
      "body": "<p>Mettre en place d&eacute;s la seconde des s&eacute;ances de d&eacute;couverte et de perfectionnement au num&eacute;rique au sein des &eacute;tablissements, sous forme d&#39;ateliers g&eacute;r&eacute;s par les r&eacute;f&eacute;rents num&eacute;riques&nbsp;</p>",
      "type": {
        "id": 86,
        "title": "Section 1",
        "subtitle": "Ouverture des données publiques",
        "voteWidgetType": 2,
        "votesHelpText": "Pensez-vous que cette proposition permet d'atteindre les objectifs présentés dans l’explication de l’article ?",
        "commentSystem": 2,
        "color": "blue",
        "versionable": true,
        "sourceable": true,
        "votesThreshold": null,
        "votesThresholdHelpText": null
      },
      "modals": [],
      "appendices": [
        {
          "body": null,
          "type": {
            "title": "Explication de l'article"
          }
        }
      ],
      "title": "Ecole entreprise Réunion",
      "_links": {
        "show": "https://www.republique-numerique.fr/consultations/projet-de-loi-numerique/consultation/consultation/opinions/section-1-ouverture-des-donnees-publiques-1/ecole-entreprise-reunion",
        "edit": "https://www.republique-numerique.fr/consultations/projet-de-loi-numerique/consultation/consultation/opinions/section-1-ouverture-des-donnees-publiques-1/ecole-entreprise-reunion/edit",
        "report": "https://www.republique-numerique.fr/consultations/projet-de-loi-numerique/consultation/consultation/opinions/section-1-ouverture-des-donnees-publiques-1/ecole-entreprise-reunion/report",
        "type": "https://www.republique-numerique.fr/consultations/projet-de-loi-numerique/consultation/consultation/opinions/section-1-ouverture-des-donnees-publiques-1"
      },
      "user_vote": null,
      "has_user_reported": false
    },
    "sources_count": 0,
    "arguments_count": 1,
    "votes": [
      {
        "user": {
          "username": "BERANGER",
          "displayName": "BERANGER",
          "uniqueId": "beranger",
          "isAdmin": false,
          "media": null,
          "vip": false,
          "_links": {
            "profile": "https://www.republique-numerique.fr/profile/beranger",
            "settings": "https://www.republique-numerique.fr/profile/edit-profile"
          }
        },
        "value": 0
      },
      {
        "user": {
          "username": "Loïc Mignon",
          "displayName": "Loïc Mignon",
          "uniqueId": "loicmignon",
          "isAdmin": false,
          "media": null,
          "vip": false,
          "_links": {
            "profile": "https://www.republique-numerique.fr/profile/loicmignon",
            "settings": "https://www.republique-numerique.fr/profile/edit-profile"
          }
        },
        "value": 1
      },
      {
        "user": {
          "username": "Daniel Tartavel-jeannot",
          "displayName": "Daniel Tartavel-jeannot",
          "uniqueId": "danieltartaveljeannot",
          "isAdmin": false,
          "media": null,
          "vip": false,
          "_links": {
            "profile": "https://www.republique-numerique.fr/profile/danieltartaveljeannot",
            "settings": "https://www.republique-numerique.fr/profile/edit-profile"
          }
        },
        "value": 1
      },
      {
        "user": {
          "username": "Chosson Chatain",
          "displayName": "Chosson Chatain",
          "uniqueId": "chossonchatain",
          "isAdmin": false,
          "media": null,
          "vip": false,
          "_links": {
            "profile": "https://www.republique-numerique.fr/profile/chossonchatain",
            "settings": "https://www.republique-numerique.fr/profile/edit-profile"
          }
        },
        "value": 1
      },
      {
        "user": {
          "username": "Pierre Baraduc",
          "displayName": "Pierre Baraduc",
          "uniqueId": "pierrebaraduc",
          "isAdmin": false,
          "media": null,
          "vip": false,
          "_links": {
            "profile": "https://www.republique-numerique.fr/profile/pierrebaraduc",
            "settings": "https://www.republique-numerique.fr/profile/edit-profile"
          }
        },
        "value": 0
      }
    ],
    "updated_at": "2015-10-12T17:20:51+0200",
    "ranking": 696,
    "is_trashed": false,
    "title": "Référents numériques",
    "slug": "referents-numeriques",
    "created_at": "2015-10-12T17:20:51+0200",
    "votes_nok": 2,
    "votes_ok": 4,
    "votes_mitige": 3,
    "_links": {
      "show": "https://www.republique-numerique.fr/consultations/projet-de-loi-numerique/consultation/consultation/opinions/section-1-ouverture-des-donnees-publiques-1/ecole-entreprise-reunion/versions/referents-numeriques",
      "report": "https://www.republique-numerique.fr/consultations/projet-de-loi-numerique/consultation/consultation/opinions/section-1-ouverture-des-donnees-publiques-1/ecole-entreprise-reunion/versions/referents-numeriques/report"
    },
    "user_vote": null,
    "has_user_reported": false
  },
  "rankingThreshold": null,
  "opinionTerm": 1
}