{
  "version": {
    "isContribuable": false,
    "votes_total": 0,
    "arguments_yes_count": 0,
    "arguments_no_count": 0,
    "id": 1180,
    "body": "<div>Au 1&deg; du I de l&#39;article 6 de la loi n&deg; 78-753 du 17 juillet 1978 supprimer &laquo; Les avis du Conseil d&#39;Etat et des juridictions administratives, &raquo;.</div>",
    "comment": "Il manque une subdivision (en chifres romains) et de plus le 2 ne parle pas du Conseil d&#39;Etat",
    "author": {
      "username": "Frédéric Da Vitoria",
      "displayName": "Frédéric Da Vitoria",
      "uniqueId": "fredericdavitoria",
      "isAdmin": false,
      "media": null,
      "vip": false,
      "_links": {
        "profile": "https://www.republique-numerique.fr/profile/fredericdavitoria",
        "settings": "https://www.republique-numerique.fr/profile/edit-profile"
      }
    },
    "arguments": [],
    "sources": [],
    "parent": {
      "isContribuable": false,
      "id": 640,
      "body": "<div>&Agrave; l&#39;alin&eacute;a 2 de l&#39;article 6 de la loi n&deg; 78-753 du 17 juillet 1978 supprimer &laquo; Les avis du Conseil d&#39;Etat et des juridictions administratives, &raquo;.</div>",
      "type": {
        "id": 86,
        "title": "Section 1",
        "subtitle": "Ouverture des données publiques",
        "voteWidgetType": 2,
        "votesHelpText": "Pensez-vous que cette proposition permet d'atteindre les objectifs présentés dans l’explication de l’article ?",
        "commentSystem": 2,
        "color": "blue",
        "versionable": true,
        "sourceable": true,
        "votesThreshold": null,
        "votesThresholdHelpText": null
      },
      "modals": [],
      "appendices": [
        {
          "body": "<div>Les avis du Conseil d&#39;&Eacute;tat sont aujourd&#39;hui syst&eacute;matiquement publi&eacute;s lorsque cette institution est saisie suite &agrave; un engagement du Pr&eacute;sident de la R&eacute;publique. Il faut que cet engagement soit durablement incrit dans la loi.</div>\r\n\r\n<div>&nbsp;</div>\r\n\r\n<div>L&#39;engagement du pr&eacute;sident est list&eacute; ici : <a _src=\"http://www.lefigaro.fr/politique/le-scan/2015/01/20/25001-20150120ARTFIG00174-transparence-de-la-vie-publique-simplification-les-annonces-de-hollande.php\" class=\"external-link\" href=\"http://www.lefigaro.fr/politique/le-scan/2015/01/20/25001-20150120ARTFIG00174-transparence-de-la-vie-publique-simplification-les-annonces-de-hollande.php\">http://www.lefigaro.fr/politique/le-scan/2015/01/20/25001-20150120ARTFIG00174-transparence-de-la-vie-publique-simplification-les-annonces-de-hollande.php</a></div>",
          "type": {
            "title": "Explication de l'article"
          }
        }
      ],
      "title": "Retirer le Conseil d'État des exceptions à la CADA",
      "_links": {
        "show": "https://www.republique-numerique.fr/consultations/projet-de-loi-numerique/consultation/consultation/opinions/section-1-ouverture-des-donnees-publiques-1/retirer-le-conseil-d-etat-des-exceptions-a-la-cada",
        "edit": "https://www.republique-numerique.fr/consultations/projet-de-loi-numerique/consultation/consultation/opinions/section-1-ouverture-des-donnees-publiques-1/retirer-le-conseil-d-etat-des-exceptions-a-la-cada/edit",
        "report": "https://www.republique-numerique.fr/consultations/projet-de-loi-numerique/consultation/consultation/opinions/section-1-ouverture-des-donnees-publiques-1/retirer-le-conseil-d-etat-des-exceptions-a-la-cada/report",
        "type": "https://www.republique-numerique.fr/consultations/projet-de-loi-numerique/consultation/consultation/opinions/section-1-ouverture-des-donnees-publiques-1"
      },
      "user_vote": null,
      "has_user_reported": false
    },
    "sources_count": 0,
    "arguments_count": 0,
    "votes": [],
    "updated_at": "2015-10-16T13:23:14+0200",
    "ranking": 1201,
    "is_trashed": false,
    "title": "Rectification des coordonnées du texte à modifier",
    "slug": "rectification-des-coordonnees-du-texte-a-modifier",
    "created_at": "2015-10-16T13:23:14+0200",
    "votes_nok": 0,
    "votes_ok": 0,
    "votes_mitige": 0,
    "_links": {
      "show": "https://www.republique-numerique.fr/consultations/projet-de-loi-numerique/consultation/consultation/opinions/section-1-ouverture-des-donnees-publiques-1/retirer-le-conseil-d-etat-des-exceptions-a-la-cada/versions/rectification-des-coordonnees-du-texte-a-modifier",
      "report": "https://www.republique-numerique.fr/consultations/projet-de-loi-numerique/consultation/consultation/opinions/section-1-ouverture-des-donnees-publiques-1/retirer-le-conseil-d-etat-des-exceptions-a-la-cada/versions/rectification-des-coordonnees-du-texte-a-modifier/report"
    },
    "user_vote": null,
    "has_user_reported": false
  },
  "rankingThreshold": null,
  "opinionTerm": 1
}