{
  "opinion": {
    "isContribuable": false,
    "votes_total": 18,
    "arguments_yes_count": 0,
    "arguments_no_count": 1,
    "id": 549,
    "created_at": "2015-10-12T14:25:30+0200",
    "updated_at": "2015-10-12T14:25:30+0200",
    "body": "<p>La loi NOTR&eacute; est modifi&eacute;e comme suit:<br />\r\nSont confi&eacute;s aux D&eacute;partements au titre de leurs comp&eacute;tences sp&eacute;cifiques la d&eacute;finition d&rsquo;un sch&eacute;ma de coh&eacute;sion sociale et num&eacute;rique visant &agrave; l&rsquo;articulation entre les politiques d&rsquo;inclusion sociale et les politiques de m&eacute;diation num&eacute;rique.</p>\r\n\r\n<p>Est&nbsp;confi&eacute; aux R&eacute;gions au titre de leurs comp&eacute;tences sp&eacute;cifiques la mise en place d&rsquo;un volet &ldquo;m&eacute;diation num&eacute;rique&rdquo; au sein du SDTAN introduit par la loi du 17 d&eacute;cembre 2009 relative &agrave; la lutte contre la fracture num&eacute;rique (loi Pintat), articles 23 et 24 ou au sein de SRADDT lorsque celui-ci comprend un volet num&eacute;rique conform&eacute;ment &agrave; la loi n&deg; 2014-58 du 27 janvier 2014 de modernisation de l&rsquo;action publique territoriale et d&rsquo;affirmation des m&eacute;tropoles.</p>\r\n\r\n<p>Est cr&eacute;&eacute; par d&eacute;cret, un acc&egrave;s bonifi&eacute; au fonds d&rsquo;am&eacute;nagement num&eacute;rique des territoires (FANT) pour les collectivit&eacute;s faisant dotant un volet &ldquo;m&eacute;diation num&eacute;rique&rdquo; au sein de leur SDTAN</p>",
    "versions_count": 2,
    "sources_count": 0,
    "arguments_count": 1,
    "author": {
      "username": "MEDIAS-CITE",
      "displayName": "MEDIAS-CITE",
      "uniqueId": "mediascite",
      "isAdmin": false,
      "media": {
        "url": "/media/cache/default_avatar/default/0001/01/532_default_avatar.jpg"
      },
      "vip": false,
      "_links": {
        "profile": "https://www.republique-numerique.fr/profile/mediascite",
        "settings": "https://www.republique-numerique.fr/profile/edit-profile"
      }
    },
    "type": {
      "id": 103,
      "title": "Section 1",
      "subtitle": "Compétences et organisation",
      "voteWidgetType": 2,
      "votesHelpText": "Pensez-vous que cette proposition permet d'atteindre les objectifs présentés dans l’explication de l’article ?",
      "commentSystem": 2,
      "color": "blue",
      "versionable": true,
      "sourceable": true,
      "votesThreshold": null,
      "votesThresholdHelpText": null
    },
    "sources": [],
    "arguments": [
      {
        "isContribuable": false,
        "id": 5445,
        "body": "A-t-on vraiment besoin de cette modification ?",
        "created_at": "2015-10-17T18:13:47+0200",
        "updated_at": "2015-10-17T18:13:47+0200",
        "is_enabled": true,
        "votes_count": 0,
        "type": 0,
        "is_trashed": false,
        "author": {
          "username": "Tanéléo",
          "displayName": "Tanéléo",
          "uniqueId": "taneleo",
          "isAdmin": false,
          "media": null,
          "vip": false,
          "_links": {
            "profile": "https://www.republique-numerique.fr/profile/taneleo",
            "settings": "https://www.republique-numerique.fr/profile/edit-profile"
          }
        },
        "_links": {
          "show": "https://www.republique-numerique.fr/consultations/projet-de-loi-numerique/consultation/consultation/opinions/section-1-competences-et-organisation/les-competences-des-differents-echelons-territoriaux#arg-5445",
          "edit": "https://www.republique-numerique.fr/consultations/projet-de-loi-numerique/consultation/consultation/opinions/section-1-competences-et-organisation/les-competences-des-differents-echelons-territoriaux/arguments/5445/edit",
          "report": "https://www.republique-numerique.fr/consultations/projet-de-loi-numerique/consultation/consultation/opinions/section-1-competences-et-organisation/les-competences-des-differents-echelons-territoriaux/arguments/5445/report"
        },
        "has_user_voted": false,
        "has_user_reported": false
      }
    ],
    "modals": [],
    "votes": [
      {
        "user": {
          "username": "Jeanne Varasco",
          "displayName": "Jeanne Varasco",
          "uniqueId": "jeannevarasco",
          "isAdmin": false,
          "media": {
            "url": "/media/cache/default_avatar/default/0001/01/139_default_avatar.jpg"
          },
          "vip": false,
          "_links": {
            "profile": "https://www.republique-numerique.fr/profile/jeannevarasco",
            "settings": "https://www.republique-numerique.fr/profile/edit-profile"
          }
        }
      },
      {
        "user": {
          "username": "NIZON G.",
          "displayName": "NIZON G.",
          "uniqueId": "nizong",
          "isAdmin": false,
          "media": null,
          "vip": false,
          "_links": {
            "profile": "https://www.republique-numerique.fr/profile/nizong",
            "settings": "https://www.republique-numerique.fr/profile/edit-profile"
          }
        }
      },
      {
        "user": {
          "username": "Cheval",
          "displayName": "Cheval",
          "uniqueId": "cheval",
          "isAdmin": false,
          "media": null,
          "vip": false,
          "_links": {
            "profile": "https://www.republique-numerique.fr/profile/cheval",
            "settings": "https://www.republique-numerique.fr/profile/edit-profile"
          }
        }
      },
      {
        "user": {
          "username": "Guillaume Pénelon",
          "displayName": "Guillaume Pénelon",
          "uniqueId": "guillaumepenelon",
          "isAdmin": false,
          "media": null,
          "vip": false,
          "_links": {
            "profile": "https://www.republique-numerique.fr/profile/guillaumepenelon",
            "settings": "https://www.republique-numerique.fr/profile/edit-profile"
          }
        }
      },
      {
        "user": {
          "username": "Samuel Pabion",
          "displayName": "Samuel Pabion",
          "uniqueId": "samuelpabion",
          "isAdmin": false,
          "media": null,
          "vip": false,
          "_links": {
            "profile": "https://www.republique-numerique.fr/profile/samuelpabion",
            "settings": "https://www.republique-numerique.fr/profile/edit-profile"
          }
        }
      }
    ],
    "appendices": [
      {
        "body": "<p>Il s&#39;agit de contribuer &agrave; la structuration des actions de m&eacute;diations num&eacute;riques par l&#39;articulation des comp&eacute;tences historiques des collectivit&eacute;s avec le champs de la m&eacute;diation num&eacute;rique. Et de d&eacute;velopper par le biais d&#39;une mesure incitative, le d&eacute;veloppement d&#39;un volet &quot;m&eacute;diation num&eacute;rique&quot; dans les politiques contractuelles de ces collectivit&eacute;s.</p>",
        "type": {
          "title": "Explication de l'article"
        }
      }
    ],
    "ranking": 243,
    "is_trashed": false,
    "title": "Les compétences des différents échelons territoriaux",
    "votes_nok": 0,
    "votes_ok": 17,
    "votes_mitige": 1,
    "_links": {
      "show": "https://www.republique-numerique.fr/consultations/projet-de-loi-numerique/consultation/consultation/opinions/section-1-competences-et-organisation/les-competences-des-differents-echelons-territoriaux",
      "edit": "https://www.republique-numerique.fr/consultations/projet-de-loi-numerique/consultation/consultation/opinions/section-1-competences-et-organisation/les-competences-des-differents-echelons-territoriaux/edit",
      "report": "https://www.republique-numerique.fr/consultations/projet-de-loi-numerique/consultation/consultation/opinions/section-1-competences-et-organisation/les-competences-des-differents-echelons-territoriaux/report",
      "type": "https://www.republique-numerique.fr/consultations/projet-de-loi-numerique/consultation/consultation/opinions/section-1-competences-et-organisation"
    },
    "user_vote": null,
    "has_user_reported": false
  },
  "rankingThreshold": null,
  "opinionTerm": 1
}