{
  "opinion": {
    "isContribuable": false,
    "votes_total": 8,
    "arguments_yes_count": 0,
    "arguments_no_count": 0,
    "id": 596,
    "created_at": "2015-10-14T10:10:43+0200",
    "updated_at": "2015-10-14T10:10:43+0200",
    "body": "<p>A l&#39;heure dun acc&eacute;s &agrave; internet par la fibre optique, au fin fond de campagnes fran&ccedil;aise, l&#39;acc&eacute;s a internet est encore li&eacute; aux lignes t&eacute;l&eacute;phoniques. Bien souvent un grand nombre de secteurs n&#39;est pas en d&eacute;groupage total ce qui induit une double peine pour les utilisateurs : un acc&eacute;s &agrave; internet plus lent que sur l&#39;ensemble du territoire, la non possibilit&eacute; d&#39;inclure l&#39;option&nbsp;t&eacute;l&eacute;vision propos&eacute;e par les fournisseur d&#39;acc&eacute;s et un co&ucirc;t financier plus &eacute;lev&eacute; car les forfaits propos&eacute;s inclus la location de la ligne t&eacute;l&eacute;phonique &nbsp;&agrave; France T&eacute;l&eacute;com ( entre 16 et 17 &euro; par mois).</p>\r\n\r\n<p>Que le d&eacute;veloppement de l&#39;acc&eacute;s &agrave; internet par le cable ou la fibre continue est normal, par contre France t&eacute;l&eacute;com devrait avoir obligation de d&eacute;grouper l&#39;ensemble de son r&eacute;seau et ce dans les plus brefs d&eacute;lais.</p>\r\n\r\n<p>Il faut savoir que les petites communes, n&#39;ont pas les moyens de financer cette mise a niveau, d&#39;autant plus &agrave; partir de cette ann&eacute;e avec la restiction des allocations de l&#39;&eacute;tat.</p>",
    "versions_count": 0,
    "sources_count": 0,
    "arguments_count": 0,
    "author": {
      "username": "Sancerni",
      "displayName": "Sancerni",
      "uniqueId": "sancerni",
      "isAdmin": false,
      "media": null,
      "vip": false,
      "_links": {
        "profile": "https://www.republique-numerique.fr/profile/sancerni",
        "settings": "https://www.republique-numerique.fr/profile/edit-profile"
      }
    },
    "type": {
      "id": 111,
      "title": "Section 3",
      "subtitle": "Maintien de la connexion internet",
      "voteWidgetType": 2,
      "votesHelpText": "Pensez-vous que cette proposition permet d'atteindre les objectifs présentés dans l’explication de l’article ?",
      "commentSystem": 2,
      "color": "blue",
      "versionable": true,
      "sourceable": true,
      "votesThreshold": null,
      "votesThresholdHelpText": null
    },
    "sources": [],
    "arguments": [],
    "modals": [],
    "votes": [
      {
        "user": {
          "username": "Jeanne Varasco",
          "displayName": "Jeanne Varasco",
          "uniqueId": "jeannevarasco",
          "isAdmin": false,
          "media": {
            "url": "/media/cache/default_avatar/default/0001/01/139_default_avatar.jpg"
          },
          "vip": false,
          "_links": {
            "profile": "https://www.republique-numerique.fr/profile/jeannevarasco",
            "settings": "https://www.republique-numerique.fr/profile/edit-profile"
          }
        }
      },
      {
        "user": {
          "username": "Rajjou",
          "displayName": "Rajjou",
          "uniqueId": "rajjou",
          "isAdmin": false,
          "media": null,
          "vip": false,
          "_links": {
            "profile": "https://www.republique-numerique.fr/profile/rajjou",
            "settings": "https://www.republique-numerique.fr/profile/edit-profile"
          }
        }
      },
      {
        "user": {
          "username": "Vincent Reverdy",
          "displayName": "Vincent Reverdy",
          "uniqueId": "vincentreverdy",
          "isAdmin": false,
          "media": {
            "url": "/media/cache/default_avatar/default/0001/01/268_default_avatar.jpg"
          },
          "vip": false,
          "_links": {
            "profile": "https://www.republique-numerique.fr/profile/vincentreverdy",
            "settings": "https://www.republique-numerique.fr/profile/edit-profile"
          }
        }
      },
      {
        "user": {
          "username": "stehlin",
          "displayName": "stehlin",
          "uniqueId": "stehlin1",
          "isAdmin": false,
          "media": {
            "url": "/media/cache/default_avatar/default/0001/01/894_default_avatar.jpg"
          },
          "vip": false,
          "_links": {
            "profile": "https://www.republique-numerique.fr/profile/stehlin1",
            "settings": "https://www.republique-numerique.fr/profile/edit-profile"
          }
        }
      },
      {
        "user": {
          "username": "sasha mouchel",
          "displayName": "sasha mouchel",
          "uniqueId": "sashamouchel",
          "isAdmin": false,
          "media": null,
          "vip": false,
          "_links": {
            "profile": "https://www.republique-numerique.fr/profile/sashamouchel",
            "settings": "https://www.republique-numerique.fr/profile/edit-profile"
          }
        }
      }
    ],
    "appendices": [
      {
        "body": "<p>r&eacute;duire les in&eacute;galit&eacute;s finaci&egrave;res d&#39;acc&eacute;s &agrave; internet</p>",
        "type": {
          "title": "Explication de l'article"
        }
      }
    ],
    "ranking": 364,
    "is_trashed": false,
    "title": "gommer les inégalité d'accés à internet",
    "votes_nok": 0,
    "votes_ok": 8,
    "votes_mitige": 0,
    "_links": {
      "show": "https://www.republique-numerique.fr/consultations/projet-de-loi-numerique/consultation/consultation/opinions/section-3-maintien-de-la-connexion-internet/gommer-les-inegalite-d-acces-a-internet",
      "edit": "https://www.republique-numerique.fr/consultations/projet-de-loi-numerique/consultation/consultation/opinions/section-3-maintien-de-la-connexion-internet/gommer-les-inegalite-d-acces-a-internet/edit",
      "report": "https://www.republique-numerique.fr/consultations/projet-de-loi-numerique/consultation/consultation/opinions/section-3-maintien-de-la-connexion-internet/gommer-les-inegalite-d-acces-a-internet/report",
      "type": "https://www.republique-numerique.fr/consultations/projet-de-loi-numerique/consultation/consultation/opinions/section-3-maintien-de-la-connexion-internet"
    },
    "user_vote": null,
    "has_user_reported": false
  },
  "rankingThreshold": null,
  "opinionTerm": 1
}