{
  "version": {
    "isContribuable": false,
    "votes_total": 70,
    "arguments_yes_count": 0,
    "arguments_no_count": 1,
    "id": 213,
    "body": "<p>Tout rapport financ&eacute; en tout ou partie par&nbsp;un organisme public doit faire l&rsquo;objet d&rsquo;une diffusion publique num&eacute;rique sous format ouvert.</p>\n\n<p>Les donn&eacute;es brutes (sondage, consultation etc..) ayant servi &agrave; la r&eacute;daction du dit&nbsp;rapport doivent &ecirc;tre aussi publi&eacute; avec le rapport sous format ouvert en respectant les donn&eacute;es personnelles (et donc apr&egrave;s anonymisation)</p>",
    "comment": "<p>Nombre de rapports ne sont pas &eacute;mis car enterr&eacute;s &quot;politiquement&quot;. Ceci n&#39;est plus admissible dans la gouvernance opengouv pour laquelle la France s&#39;est engag&eacute;e.</p>\n\n<p>Dernier exemple en date : un rapport sur le cr&eacute;dit imp&ocirc;t recherche a &eacute;t&eacute; enterr&eacute; par une commission au s&eacute;nat.</p>\n\n<p>Source http://www.20minutes.fr/politique/1664855-20150810-comment-senat-enterre-rapport-genant-francois-hollande-credit-impot-recherche</p>",
    "author": {
      "username": "LAUNAY",
      "displayName": "LAUNAY",
      "uniqueId": "launay",
      "isAdmin": false,
      "media": {
        "url": "/media/cache/default_avatar/default/0001/01/348_default_avatar.jpg"
      },
      "vip": false,
      "_links": {
        "profile": "https://www.republique-numerique.fr/profile/launay",
        "settings": "https://www.republique-numerique.fr/profile/edit-profile"
      }
    },
    "arguments": [
      {
        "isContribuable": false,
        "id": 2033,
        "body": "Pas les données sensibles, secrètes (intérêt de la nation, intérêt public) ou nominatives.",
        "created_at": "2015-10-02T17:13:28+0200",
        "updated_at": "2015-10-02T17:13:28+0200",
        "is_enabled": true,
        "votes_count": 3,
        "type": 0,
        "is_trashed": false,
        "author": {
          "username": "Jeanne Varasco",
          "displayName": "Jeanne Varasco",
          "uniqueId": "jeannevarasco",
          "isAdmin": false,
          "media": {
            "url": "/media/cache/default_avatar/default/0001/01/139_default_avatar.jpg"
          },
          "vip": false,
          "_links": {
            "profile": "https://www.republique-numerique.fr/profile/jeannevarasco",
            "settings": "https://www.republique-numerique.fr/profile/edit-profile"
          }
        },
        "_links": {
          "show": "https://www.republique-numerique.fr/consultations/projet-de-loi-numerique/consultation/consultation/opinions/section-1-ouverture-des-donnees-publiques-1/ouvrir-les-donnees-ayant-servi-a-la-redaction-d-un-rapport-publique/versions/tout-rapport-finance-en-tout-ou-partie-un-organisme-public-doit-faire-l-objet-d-une-diffusion-publique-numerique#arg-2033",
          "edit": "https://www.republique-numerique.fr/consultations/projet-de-loi-numerique/consultation/consultation/opinions/section-1-ouverture-des-donnees-publiques-1/ouvrir-les-donnees-ayant-servi-a-la-redaction-d-un-rapport-publique/arguments/2033/edit",
          "report": "https://www.republique-numerique.fr/consultations/projet-de-loi-numerique/consultation/consultation/opinions/section-1-ouverture-des-donnees-publiques-1/ouvrir-les-donnees-ayant-servi-a-la-redaction-d-un-rapport-publique/arguments/2033/report"
        },
        "has_user_voted": false,
        "has_user_reported": false
      }
    ],
    "sources": [],
    "parent": {
      "isContribuable": false,
      "id": 94,
      "body": "<p>Les donn&eacute;es brutes (sondage, consultation etc..) ayant servi &agrave; la r&eacute;daction d&#39;un rapport doivent &ecirc;tre aussi publi&eacute; avec le rapport.</p>",
      "type": {
        "id": 86,
        "title": "Section 1",
        "subtitle": "Ouverture des données publiques",
        "voteWidgetType": 2,
        "votesHelpText": "Pensez-vous que cette proposition permet d'atteindre les objectifs présentés dans l’explication de l’article ?",
        "commentSystem": 2,
        "color": "blue",
        "versionable": true,
        "sourceable": true,
        "votesThreshold": null,
        "votesThresholdHelpText": null
      },
      "modals": [],
      "appendices": [
        {
          "body": "<p>L&#39;id&eacute;e est de permettre de r&eacute;utiliser les donn&eacute;es ayant servi &agrave; la r&eacute;daction d&#39;un rapport autrement que tel qu&#39;elles ont &eacute;t&eacute; utilis&eacute;es dans le rapport.</p>\r\n\r\n<p>Exemple :</p>\r\n\r\n<p>Un rapport sur les fablab publi&eacute; par le minist&egrave;re de l&#39;&eacute;conomie disait que 92% de fablab (ayant r&eacute;pondu &agrave; la consultation) poss&eacute;dait une imprimante 3d. Et que 77% fablab (ayant r&eacute;pondu &agrave; la consultation) poss&eacute;dait une fraiseuse num&eacute;rique.</p>\r\n\r\n<p>Mais il &eacute;tait impossible de savoir combien de fablab poss&eacute;dait les 2 &agrave; la fois ou une imprimante 3d et une d&eacute;coupeuse laser par exemple.</p>\r\n\r\n<p><a _src=\"http://www.entreprises.gouv.fr/files/files/directions_services/etudes-et-statistiques/etudes/numerique/etat-des-lieux-fablabs-2014.pdf\" class=\"external-link\" href=\"http://www.entreprises.gouv.fr/files/files/directions_services/etudes-et-statistiques/etudes/numerique/etat-des-lieux-fablabs-2014.pdf\">http://www.entreprises.gouv.fr/files/files/directions_services/etudes-et-statistiques/etudes/numerique/etat-des-lieux-fablabs-2014.pdf</a></p>",
          "type": {
            "title": "Explication de l'article"
          }
        }
      ],
      "title": "Ouvrir les données ayant servi à la rédaction d'un rapport publique",
      "_links": {
        "show": "https://www.republique-numerique.fr/consultations/projet-de-loi-numerique/consultation/consultation/opinions/section-1-ouverture-des-donnees-publiques-1/ouvrir-les-donnees-ayant-servi-a-la-redaction-d-un-rapport-publique",
        "edit": "https://www.republique-numerique.fr/consultations/projet-de-loi-numerique/consultation/consultation/opinions/section-1-ouverture-des-donnees-publiques-1/ouvrir-les-donnees-ayant-servi-a-la-redaction-d-un-rapport-publique/edit",
        "report": "https://www.republique-numerique.fr/consultations/projet-de-loi-numerique/consultation/consultation/opinions/section-1-ouverture-des-donnees-publiques-1/ouvrir-les-donnees-ayant-servi-a-la-redaction-d-un-rapport-publique/report",
        "type": "https://www.republique-numerique.fr/consultations/projet-de-loi-numerique/consultation/consultation/opinions/section-1-ouverture-des-donnees-publiques-1"
      },
      "user_vote": null,
      "has_user_reported": false
    },
    "sources_count": 0,
    "arguments_count": 1,
    "votes": [
      {
        "user": {
          "username": "Elodie PONCET",
          "displayName": "Elodie PONCET",
          "uniqueId": "elodieponcet",
          "isAdmin": false,
          "media": null,
          "vip": false,
          "_links": {
            "profile": "https://www.republique-numerique.fr/profile/elodieponcet",
            "settings": "https://www.republique-numerique.fr/profile/edit-profile"
          }
        },
        "value": 1
      },
      {
        "user": {
          "username": "Massart",
          "displayName": "Massart",
          "uniqueId": "massart",
          "isAdmin": false,
          "media": null,
          "vip": false,
          "_links": {
            "profile": "https://www.republique-numerique.fr/profile/massart",
            "settings": "https://www.republique-numerique.fr/profile/edit-profile"
          }
        },
        "value": 1
      },
      {
        "user": {
          "username": "Pierre",
          "displayName": "Pierre",
          "uniqueId": "pierre1",
          "isAdmin": false,
          "media": {
            "url": "/media/cache/default_avatar/default/0001/01/199_default_avatar.png"
          },
          "vip": false,
          "_links": {
            "profile": "https://www.republique-numerique.fr/profile/pierre1",
            "settings": "https://www.republique-numerique.fr/profile/edit-profile"
          }
        },
        "value": 1
      },
      {
        "user": {
          "username": "LOUIBA",
          "displayName": "LOUIBA",
          "uniqueId": "louiba",
          "isAdmin": false,
          "media": null,
          "vip": false,
          "_links": {
            "profile": "https://www.republique-numerique.fr/profile/louiba",
            "settings": "https://www.republique-numerique.fr/profile/edit-profile"
          }
        },
        "value": 0
      },
      {
        "user": {
          "username": "Boris SCHAPIRA",
          "displayName": "Boris SCHAPIRA",
          "uniqueId": "borisschapira",
          "isAdmin": false,
          "media": null,
          "vip": false,
          "_links": {
            "profile": "https://www.republique-numerique.fr/profile/borisschapira",
            "settings": "https://www.republique-numerique.fr/profile/edit-profile"
          }
        },
        "value": 1
      }
    ],
    "updated_at": "2015-09-27T13:27:05+0200",
    "ranking": 66,
    "is_trashed": false,
    "title": "Tout rapport financé en tout ou partie par un organisme public doit faire l’objet d’une diffusion publique numérique",
    "slug": "tout-rapport-finance-en-tout-ou-partie-un-organisme-public-doit-faire-l-objet-d-une-diffusion-publique-numerique",
    "created_at": "2015-09-27T13:15:13+0200",
    "votes_nok": 1,
    "votes_ok": 68,
    "votes_mitige": 1,
    "_links": {
      "show": "https://www.republique-numerique.fr/consultations/projet-de-loi-numerique/consultation/consultation/opinions/section-1-ouverture-des-donnees-publiques-1/ouvrir-les-donnees-ayant-servi-a-la-redaction-d-un-rapport-publique/versions/tout-rapport-finance-en-tout-ou-partie-un-organisme-public-doit-faire-l-objet-d-une-diffusion-publique-numerique",
      "report": "https://www.republique-numerique.fr/consultations/projet-de-loi-numerique/consultation/consultation/opinions/section-1-ouverture-des-donnees-publiques-1/ouvrir-les-donnees-ayant-servi-a-la-redaction-d-un-rapport-publique/versions/tout-rapport-finance-en-tout-ou-partie-un-organisme-public-doit-faire-l-objet-d-une-diffusion-publique-numerique/report"
    },
    "user_vote": null,
    "has_user_reported": false
  },
  "rankingThreshold": null,
  "opinionTerm": 1
}