{
  "opinion": {
    "isContribuable": false,
    "votes_total": 4,
    "arguments_yes_count": 0,
    "arguments_no_count": 1,
    "id": 658,
    "created_at": "2015-10-16T07:13:25+0200",
    "updated_at": "2015-10-16T07:13:25+0200",
    "body": "<p>Les fichiers de donn&eacute;es mises en ligne doivent &ecirc;tre facilement utilisables par les moyens bureautiques grand public.</p>",
    "versions_count": 1,
    "sources_count": 0,
    "arguments_count": 1,
    "author": {
      "username": "Patrick D.",
      "displayName": "Patrick D.",
      "uniqueId": "patrickd",
      "isAdmin": false,
      "media": null,
      "vip": false,
      "_links": {
        "profile": "https://www.republique-numerique.fr/profile/patrickd",
        "settings": "https://www.republique-numerique.fr/profile/edit-profile"
      }
    },
    "type": {
      "id": 95,
      "title": "Section 2",
      "subtitle": "Portabilité des données",
      "voteWidgetType": 2,
      "votesHelpText": "Pensez-vous que cette proposition permet d'atteindre les objectifs présentés dans l’explication de l’article ?",
      "commentSystem": 2,
      "color": "blue",
      "versionable": true,
      "sourceable": true,
      "votesThreshold": null,
      "votesThresholdHelpText": null
    },
    "sources": [],
    "arguments": [
      {
        "isContribuable": false,
        "id": 5858,
        "body": "Dans l'idée je suis d'accord, néanmoins certains jeux de données ne sont pas adaptés à cette proposition de par leur nature: je pense notamment aux gros fichiers (>1go), qui nécessitent des outils certes disponibles au grand public, mais qui ne sont peut-être pas actuellement considérés comme tel (comme une base de données pour l'exemple précédent).\r\nLe simple fait d'être libres et effectivement implémenté au sein d'outils libres devrait être suffisant pour caractériser un format compatible avec l'open data.",
        "created_at": "2015-10-18T15:20:40+0200",
        "updated_at": "2015-10-18T15:23:06+0200",
        "is_enabled": true,
        "votes_count": 0,
        "type": 0,
        "is_trashed": false,
        "author": {
          "username": "Gami",
          "displayName": "Gami",
          "uniqueId": "gami",
          "isAdmin": false,
          "media": null,
          "vip": false,
          "_links": {
            "profile": "https://www.republique-numerique.fr/profile/gami",
            "settings": "https://www.republique-numerique.fr/profile/edit-profile"
          }
        },
        "_links": {
          "show": "https://www.republique-numerique.fr/consultations/projet-de-loi-numerique/consultation/consultation/opinions/section-2-portabilite-des-donnees/donnees-exploitables-par-le-citoyen#arg-5858",
          "edit": "https://www.republique-numerique.fr/consultations/projet-de-loi-numerique/consultation/consultation/opinions/section-2-portabilite-des-donnees/donnees-exploitables-par-le-citoyen/arguments/5858/edit",
          "report": "https://www.republique-numerique.fr/consultations/projet-de-loi-numerique/consultation/consultation/opinions/section-2-portabilite-des-donnees/donnees-exploitables-par-le-citoyen/arguments/5858/report"
        },
        "has_user_voted": false,
        "has_user_reported": false
      }
    ],
    "modals": [],
    "votes": [
      {
        "user": {
          "username": "Patrick D.",
          "displayName": "Patrick D.",
          "uniqueId": "patrickd",
          "isAdmin": false,
          "media": null,
          "vip": false,
          "_links": {
            "profile": "https://www.republique-numerique.fr/profile/patrickd",
            "settings": "https://www.republique-numerique.fr/profile/edit-profile"
          }
        }
      },
      {
        "user": {
          "username": "Jeanne Varasco",
          "displayName": "Jeanne Varasco",
          "uniqueId": "jeannevarasco",
          "isAdmin": false,
          "media": {
            "url": "/media/cache/default_avatar/default/0001/01/139_default_avatar.jpg"
          },
          "vip": false,
          "_links": {
            "profile": "https://www.republique-numerique.fr/profile/jeannevarasco",
            "settings": "https://www.republique-numerique.fr/profile/edit-profile"
          }
        }
      },
      {
        "user": {
          "username": "Maltese Nadine",
          "displayName": "Maltese Nadine",
          "uniqueId": "maltesenadine",
          "isAdmin": false,
          "media": {
            "url": "/media/cache/default_avatar/default/0001/01/113_default_avatar.png"
          },
          "vip": false,
          "_links": {
            "profile": "https://www.republique-numerique.fr/profile/maltesenadine",
            "settings": "https://www.republique-numerique.fr/profile/edit-profile"
          }
        }
      },
      {
        "user": {
          "username": "Gami",
          "displayName": "Gami",
          "uniqueId": "gami",
          "isAdmin": false,
          "media": null,
          "vip": false,
          "_links": {
            "profile": "https://www.republique-numerique.fr/profile/gami",
            "settings": "https://www.republique-numerique.fr/profile/edit-profile"
          }
        }
      }
    ],
    "appendices": [
      {
        "body": "<p>La mise &agrave; disposition de fichiers en format xml et autres n&eacute;cessitent des comp&eacute;tences que souvent seules les entreprise et administrations disposent. Ce qui est une mani&egrave;re d&#39;emp&ecirc;cher un acc&egrave;s libre au citoyen.&nbsp;Alors que les formats bureautiques (txt, ods,xls, rtf,...) sont ais&eacute;ment utilisables.</p>",
        "type": {
          "title": "Explication de l'article"
        }
      }
    ],
    "ranking": 506,
    "is_trashed": false,
    "title": "données exploitables par le citoyen",
    "votes_nok": 0,
    "votes_ok": 3,
    "votes_mitige": 1,
    "_links": {
      "show": "https://www.republique-numerique.fr/consultations/projet-de-loi-numerique/consultation/consultation/opinions/section-2-portabilite-des-donnees/donnees-exploitables-par-le-citoyen",
      "edit": "https://www.republique-numerique.fr/consultations/projet-de-loi-numerique/consultation/consultation/opinions/section-2-portabilite-des-donnees/donnees-exploitables-par-le-citoyen/edit",
      "report": "https://www.republique-numerique.fr/consultations/projet-de-loi-numerique/consultation/consultation/opinions/section-2-portabilite-des-donnees/donnees-exploitables-par-le-citoyen/report",
      "type": "https://www.republique-numerique.fr/consultations/projet-de-loi-numerique/consultation/consultation/opinions/section-2-portabilite-des-donnees"
    },
    "user_vote": null,
    "has_user_reported": false
  },
  "rankingThreshold": null,
  "opinionTerm": 1
}