{
  "version": {
    "isContribuable": false,
    "votes_total": 69,
    "arguments_yes_count": 0,
    "arguments_no_count": 1,
    "id": 1131,
    "body": "<p>I. Dans la loi n&deg; 93-122 du 29 janvier 1993 relative &agrave; la pr&eacute;vention de la corruption et &agrave; la transparence de la vie &eacute;conomique et des proc&eacute;dures publiques, il est ins&eacute;r&eacute; un article 40-2 ainsi r&eacute;dig&eacute; :</p>\n\n<p>&laquo; Art. 40-2.- <s>Sauf stipulation contraire,</s> le d&eacute;l&eacute;gataire fournit &agrave; la personne morale de droit public, dans un standard ouvert ais&eacute;ment r&eacute;utilisable, les donn&eacute;es et bases de donn&eacute;es collect&eacute;es ou produites &agrave; l&#39;occasion de l&#39;exploitation du service public. Il autorise par ailleurs la personne morale de droit public<s>, ou un tiers d&eacute;sign&eacute; par celle-ci,</s> &agrave; extraire et exploiter librement tout ou partie de ces donn&eacute;es et bases de donn&eacute;es, notamment en vue de leur mise &agrave; disposition &agrave; titre gratuit &agrave; des fins de r&eacute;utilisation pour le bien commun. &raquo;</p>\n\n<p>II. Apr&egrave;s l&rsquo;article L. 1411-3&nbsp;du code g&eacute;n&eacute;ral des collectivit&eacute;s territoriales, il est ins&eacute;r&eacute; un article ainsi r&eacute;dig&eacute; :</p>\n\n<p>&laquo; Art. 1411-3-1 - <s>Sauf stipulation contraire, </s>le d&eacute;l&eacute;gataire fournit &agrave; la personne morale de droit public, dans un standard ouvert ais&eacute;ment r&eacute;utilisable, les donn&eacute;es et bases de donn&eacute;es collect&eacute;es ou produites &agrave; l&rsquo;occasion de l&rsquo;ex&eacute;cution du service public. Il autorise par ailleurs la personne morale de droit public<s>, ou un tiers d&eacute;sign&eacute; par celle-ci,</s> &agrave; extraire et exploiter librement tout ou partie de ces donn&eacute;es et bases de donn&eacute;es, notamment en vue de leur mise &agrave; disposition &agrave; titre gratuit &agrave; des fins de r&eacute;utilisation pour le bien commun. &raquo;</p>\n\n<p>III. Le I et le II du pr&eacute;sent sont applicables aux contrats conclus ou reconduits post&eacute;rieurement &agrave; la promulgation de la pr&eacute;sente loi.</p>",
    "comment": "La transmission des donn&eacute;es publiques doit se faire pour le bien commun, sans stipulation contraire et sans d&eacute;l&eacute;gation &agrave; un tiers qui peut &ecirc;tre priv&eacute; et concurrentiel au service public",
    "author": {
      "username": "SNESUP",
      "displayName": "SNESUP",
      "uniqueId": "snesup",
      "isAdmin": false,
      "media": null,
      "vip": false,
      "_links": {
        "profile": "https://www.republique-numerique.fr/profile/snesup",
        "settings": "https://www.republique-numerique.fr/profile/edit-profile"
      }
    },
    "arguments": [
      {
        "isContribuable": false,
        "id": 5742,
        "body": "Il doit pouvoir exister des cas où la fourniture des données de la délégation de service public n'est pas automatique. Forcer les délégataires de service public à publier leurs données sans garde-fou, c'est exposer l'industriel et la collectivité délégante à fournir parfois des données rompant le secret des affaires et fournissant des armes aux industriels privés concurrents qui eux n'ont pas la même obligation de publicité sur leur activité.\nPeut-être alors préciser que c'est à la main de la collectivité publique de définir les exceptions ? \"sauf stipulation contraire déterminée par l'autorité délégante\"",
        "created_at": "2015-10-18T11:39:04+0200",
        "updated_at": "2015-10-18T11:39:04+0200",
        "is_enabled": true,
        "votes_count": 0,
        "type": 0,
        "is_trashed": false,
        "author": {
          "username": "Gael S.",
          "displayName": "Gael S.",
          "uniqueId": "gaels",
          "isAdmin": false,
          "media": null,
          "vip": false,
          "_links": {
            "profile": "https://www.republique-numerique.fr/profile/gaels",
            "settings": "https://www.republique-numerique.fr/profile/edit-profile"
          }
        },
        "_links": {
          "show": "https://www.republique-numerique.fr/consultations/projet-de-loi-numerique/consultation/consultation/opinions/section-3-donnees-d-interet-general/article-5-ouverture-des-donnees-par-defaut-dans-les-contrats-de-dsp/versions/la-transmission-des-donnees-publiques-doit-se-faire-pour-le-bien-commun-sans-stipulation-contraire-et-sans-delegation-a-un-tiers#arg-5742",
          "edit": "https://www.republique-numerique.fr/consultations/projet-de-loi-numerique/consultation/consultation/opinions/section-3-donnees-d-interet-general/article-5-ouverture-des-donnees-par-defaut-dans-les-contrats-de-dsp/arguments/5742/edit",
          "report": "https://www.republique-numerique.fr/consultations/projet-de-loi-numerique/consultation/consultation/opinions/section-3-donnees-d-interet-general/article-5-ouverture-des-donnees-par-defaut-dans-les-contrats-de-dsp/arguments/5742/report"
        },
        "has_user_voted": false,
        "has_user_reported": false
      }
    ],
    "sources": [],
    "parent": {
      "isContribuable": false,
      "id": 65,
      "body": "<p>I. Dans la loi n&deg; 93-122 du 29 janvier 1993 relative &agrave; la pr&eacute;vention de la corruption et &agrave; la transparence de la vie &eacute;conomique et des proc&eacute;dures publiques, il est ins&eacute;r&eacute; un article 40-2 ainsi r&eacute;dig&eacute; :</p>\r\n\r\n<p>&laquo; Art. 40-2.- Sauf stipulation contraire, le d&eacute;l&eacute;gataire fournit &agrave; la personne morale de droit public, dans un standard ouvert ais&eacute;ment r&eacute;utilisable, les donn&eacute;es et bases de donn&eacute;es collect&eacute;es ou produites &agrave; l&#39;occasion de l&#39;exploitation du service public. Il autorise par ailleurs la personne morale de droit public, ou un tiers d&eacute;sign&eacute; par celle-ci, &agrave; extraire et exploiter librement tout ou partie de ces donn&eacute;es et bases de donn&eacute;es, notamment en vue de leur mise &agrave; disposition &agrave; titre gratuit &agrave; des fins de r&eacute;utilisation &agrave; titre gratuit ou on&eacute;reux. &raquo;</p>\r\n\r\n<p>II. Apr&egrave;s l&rsquo;article L. 1411-3&nbsp;du code g&eacute;n&eacute;ral des collectivit&eacute;s territoriales, il est ins&eacute;r&eacute; un article ainsi r&eacute;dig&eacute; :</p>\r\n\r\n<p>&laquo; Art. 1411-3-1 - Sauf stipulation contraire, le d&eacute;l&eacute;gataire fournit &agrave; la personne morale de droit public, dans un standard ouvert ais&eacute;ment r&eacute;utilisable, les donn&eacute;es et bases de donn&eacute;es collect&eacute;es ou produites &agrave; l&rsquo;occasion de l&rsquo;ex&eacute;cution du service public. Il autorise par ailleurs la personne morale de droit public, ou un tiers d&eacute;sign&eacute; par celle-ci, &agrave; extraire et exploiter librement tout ou partie de ces donn&eacute;es et bases de donn&eacute;es, notamment en vue de leur mise &agrave; disposition &agrave; titre gratuit &agrave; des fins de r&eacute;utilisation &agrave; titre gratuit ou on&eacute;reux. &raquo;</p>\r\n\r\n<p>III. Le I et le II du pr&eacute;sent sont applicables aux contrats conclus ou reconduits post&eacute;rieurement &agrave; la promulgation de la pr&eacute;sente loi.</p>",
      "type": {
        "id": 88,
        "title": "Section 3",
        "subtitle": "Données d’intérêt général",
        "voteWidgetType": 2,
        "votesHelpText": "Pensez-vous que cette proposition permet d'atteindre les objectifs présentés dans l’explication de l’article ?",
        "commentSystem": 2,
        "color": "blue",
        "versionable": true,
        "sourceable": true,
        "votesThreshold": null,
        "votesThresholdHelpText": null
      },
      "modals": [
        {
          "key": "article 40-2",
          "before": "",
          "after": "<p>Sauf stipulation contraire, le délégataire fournit à la personne morale de droit public, dans un standard ouvert aisément réutilisable, les données et bases de données collectées ou produites à l'occasion de l'exploitation du service public. Il autorise par ailleurs la personne morale de droit public, ou un tiers désigné par celle-ci, à extraire et exploiter librement tout ou partie de ces données et bases de données, notamment en vue de leur mise à disposition à titre gratuit à des fins de réutilisation à titre gratuit ou onéreux.</p>",
          "title": "Création de l’article 40-2 dans la loi n° 93-122 du 29 janvier 1993"
        },
        {
          "key": "article L. 1411-3-1",
          "before": "",
          "after": "<p>Sauf stipulation contraire, le délégataire fournit à la personne morale de droit public, dans un standard ouvert aisément réutilisable, les données et bases de données collectées ou produites à l’occasion de l’exécution du service public. Il autorise par ailleurs la personne morale de droit public, ou un tiers désigné par celle-ci, à extraire et exploiter librement tout ou partie de ces données et bases de données, notamment en vue de leur mise à disposition à titre gratuit à des fins de réutilisation à titre gratuit ou onéreux.</p>",
          "title": "Création de l‘article 1411-3-1 du code général des collectivités territoriales"
        }
      ],
      "appendices": [
        {
          "body": "<p><strong>Objectif :</strong> publier en open data les donn&eacute;es issues de la mission de service public rendue par les entreprises qui g&egrave;rent une d&eacute;l&eacute;gation de service public (DSP).</p>\r\n\r\n<p><strong>Explication :</strong> la loi du 8 f&eacute;vrier 1995 pr&eacute;voit d&eacute;j&agrave; que le d&eacute;l&eacute;gataire d&rsquo;un service public remette &agrave; l&rsquo;autorit&eacute; publique d&eacute;l&eacute;gante un rapport annuel comportant les donn&eacute;es essentielles de la DSP (donn&eacute;es comptables, donn&eacute;es sur la qualit&eacute; de service), qu&rsquo;il n&rsquo;est pas obligatoire de rendre public aujourd&rsquo;hui. Une premi&egrave;re r&eacute;forme consiste &agrave; publier ces donn&eacute;es essentielles, ce que pr&eacute;voient d&eacute;j&agrave; l&rsquo;ordonnance du 23 juillet 2015 sur les contrats de march&eacute;s publics et le projet d&rsquo;ordonnance relative aux contrats de concession mis en consultation publique en juillet 2015.<br />\r\nL&rsquo;article va plus loin : il introduit dans les d&eacute;l&eacute;gations de service public une clause par d&eacute;faut obligeant &agrave; publier en open data les donn&eacute;es issues de l&rsquo;activit&eacute; de l&rsquo;entreprise exploitant la DSP dans le cadre de sa mission de service public. Il est possible d&rsquo;&eacute;carter cette clause si cela est express&eacute;ment pr&eacute;vu dans le contrat de DSP.</p>\r\n\r\n<p><strong>Exemple :</strong> les donn&eacute;es relatives &agrave; la localisation des bicyclettes en temps r&eacute;el produites par une entreprise dans le cadre d&rsquo;un service public de location de v&eacute;los dans une grande ville qui lui a &eacute;t&eacute; d&eacute;l&eacute;gu&eacute;, pourront &ecirc;tre publi&eacute;es par d&eacute;faut.</p>",
          "type": {
            "title": "Explication de l'article"
          }
        }
      ],
      "title": "Article 5 - Ouverture des données des délégations de service public",
      "_links": {
        "show": "https://www.republique-numerique.fr/consultations/projet-de-loi-numerique/consultation/consultation/opinions/section-3-donnees-d-interet-general/article-5-ouverture-des-donnees-par-defaut-dans-les-contrats-de-dsp",
        "edit": "https://www.republique-numerique.fr/consultations/projet-de-loi-numerique/consultation/consultation/opinions/section-3-donnees-d-interet-general/article-5-ouverture-des-donnees-par-defaut-dans-les-contrats-de-dsp/edit",
        "report": "https://www.republique-numerique.fr/consultations/projet-de-loi-numerique/consultation/consultation/opinions/section-3-donnees-d-interet-general/article-5-ouverture-des-donnees-par-defaut-dans-les-contrats-de-dsp/report",
        "type": "https://www.republique-numerique.fr/consultations/projet-de-loi-numerique/consultation/consultation/opinions/section-3-donnees-d-interet-general"
      },
      "user_vote": null,
      "has_user_reported": false
    },
    "sources_count": 0,
    "arguments_count": 1,
    "votes": [
      {
        "user": {
          "username": "Heidi Charvin",
          "displayName": "Heidi Charvin",
          "uniqueId": "heidicharvin",
          "isAdmin": false,
          "media": null,
          "vip": false,
          "_links": {
            "profile": "https://www.republique-numerique.fr/profile/heidicharvin",
            "settings": "https://www.republique-numerique.fr/profile/edit-profile"
          }
        },
        "value": 1
      },
      {
        "user": {
          "username": "Confais Aurélia",
          "displayName": "Confais Aurélia",
          "uniqueId": "confaisaurelia",
          "isAdmin": false,
          "media": null,
          "vip": false,
          "_links": {
            "profile": "https://www.republique-numerique.fr/profile/confaisaurelia",
            "settings": "https://www.republique-numerique.fr/profile/edit-profile"
          }
        },
        "value": 1
      },
      {
        "user": {
          "username": "CENAC Peggy",
          "displayName": "CENAC Peggy",
          "uniqueId": "cenacpeggy",
          "isAdmin": false,
          "media": null,
          "vip": false,
          "_links": {
            "profile": "https://www.republique-numerique.fr/profile/cenacpeggy",
            "settings": "https://www.republique-numerique.fr/profile/edit-profile"
          }
        },
        "value": 1
      },
      {
        "user": {
          "username": "Isabelle Garcin-Marrou",
          "displayName": "Isabelle Garcin-Marrou",
          "uniqueId": "isabellegarcinmarrou",
          "isAdmin": false,
          "media": null,
          "vip": false,
          "_links": {
            "profile": "https://www.republique-numerique.fr/profile/isabellegarcinmarrou",
            "settings": "https://www.republique-numerique.fr/profile/edit-profile"
          }
        },
        "value": 1
      },
      {
        "user": {
          "username": "DEROIN",
          "displayName": "DEROIN",
          "uniqueId": "deroin",
          "isAdmin": false,
          "media": null,
          "vip": false,
          "_links": {
            "profile": "https://www.republique-numerique.fr/profile/deroin",
            "settings": "https://www.republique-numerique.fr/profile/edit-profile"
          }
        },
        "value": 1
      }
    ],
    "updated_at": "2015-10-16T00:50:13+0200",
    "ranking": 66,
    "is_trashed": false,
    "title": "La transmission des données publiques doit se faire pour le bien commun, sans stipulation contraire et sans délégation à un tiers",
    "slug": "la-transmission-des-donnees-publiques-doit-se-faire-pour-le-bien-commun-sans-stipulation-contraire-et-sans-delegation-a-un-tiers",
    "created_at": "2015-10-16T00:50:13+0200",
    "votes_nok": 1,
    "votes_ok": 68,
    "votes_mitige": 0,
    "_links": {
      "show": "https://www.republique-numerique.fr/consultations/projet-de-loi-numerique/consultation/consultation/opinions/section-3-donnees-d-interet-general/article-5-ouverture-des-donnees-par-defaut-dans-les-contrats-de-dsp/versions/la-transmission-des-donnees-publiques-doit-se-faire-pour-le-bien-commun-sans-stipulation-contraire-et-sans-delegation-a-un-tiers",
      "report": "https://www.republique-numerique.fr/consultations/projet-de-loi-numerique/consultation/consultation/opinions/section-3-donnees-d-interet-general/article-5-ouverture-des-donnees-par-defaut-dans-les-contrats-de-dsp/versions/la-transmission-des-donnees-publiques-doit-se-faire-pour-le-bien-commun-sans-stipulation-contraire-et-sans-delegation-a-un-tiers/report"
    },
    "user_vote": null,
    "has_user_reported": false
  },
  "rankingThreshold": null,
  "opinionTerm": 1
}