{
  "version": {
    "isContribuable": false,
    "votes_total": 16,
    "arguments_yes_count": 0,
    "arguments_no_count": 1,
    "id": 138,
    "body": "<p>I. Dans la loi n&deg; 93-122 du 29 janvier 1993 relative &agrave; la pr&eacute;vention de la corruption et &agrave; la transparence de la vie &eacute;conomique et des proc&eacute;dures publiques, il est ins&eacute;r&eacute; un article 40-2 ainsi r&eacute;dig&eacute; :</p>\n\n<p>&laquo; Art. 40-2.- Les donn&eacute;es et bases de donn&eacute;es li&eacute;es &agrave; l&#39;exploitation du service public par un d&eacute;l&eacute;gataire de service public doivent &ecirc;tre rendues intelligibles et mises &agrave; disposition du public. Leur r&eacute;utilisation &agrave; titre gratuit ou on&eacute;reux est libre. Seul un motif imp&eacute;rieux d&#39;int&eacute;r&ecirc;t g&eacute;n&eacute;ral peut justifier une exception &agrave; la loi. &raquo;</p>\n\n<p>II. Apr&egrave;s l&rsquo;article L. 1411-3&nbsp;du code g&eacute;n&eacute;ral des collectivit&eacute;s territoriales, il est ins&eacute;r&eacute; un article ainsi r&eacute;dig&eacute; :</p>\n\n<p>&laquo; Art. 1411-3-1 - Les donn&eacute;es et bases de donn&eacute;es li&eacute;es &agrave; l&#39;exploitation du service public par un d&eacute;l&eacute;gataire de service public doivent &ecirc;tre rendues intelligibles et mises &agrave; disposition du public. Leur r&eacute;utilisation &agrave; titre gratuit ou on&eacute;reux est libre. Seul un motif imp&eacute;rieux d&#39;int&eacute;r&ecirc;t g&eacute;n&eacute;ral peut justifier une exception &agrave; la loi. &raquo;</p>\n\n<p>III. Le I et le II du pr&eacute;sent sont applicables aux contrats conclus ou reconduits post&eacute;rieurement &agrave; la promulgation de la pr&eacute;sente loi.</p>",
    "comment": "<p>S&eacute;rieusement, la loi disposerait que le contrat pourrait stipuler de mani&egrave;re contraire &agrave; la loi ? Je rigole..</p>\n\n<p>Non allez rendons &agrave; la loi tout son empire et son ambition. Posons les principes. Avis aux r&eacute;dacteurs de ce projet de texte : quand vous avez fini d&#39;&eacute;crire tous les d&eacute;tails d&#39;un texte, coupez au couteau sans crainte la moiti&eacute; ou 3/4 du texte. Puis d&eacute;gagez de ce qu&#39;il reste les principes, mettez les &agrave; nu. Et enlever encore les derniers habits. Pas de pudeur, que les principes s&#39;expriment !</p>",
    "author": {
      "username": "Edwin Galan",
      "displayName": "Edwin Galan",
      "uniqueId": "edwingalan",
      "isAdmin": false,
      "media": null,
      "vip": false,
      "_links": {
        "profile": "https://www.republique-numerique.fr/profile/edwingalan",
        "settings": "https://www.republique-numerique.fr/profile/edit-profile"
      }
    },
    "arguments": [
      {
        "isContribuable": false,
        "id": 5746,
        "body": "Il doit pouvoir exister des cas où la fourniture des données de la délégation de service public n'est pas automatique. Forcer les délégataires de service public à publier leurs données sans garde-fou, c'est exposer l'industriel et la collectivité délégante à fournir parfois des données rompant le secret des affaires et fournissant des armes aux industriels privés concurrents qui eux n'ont pas la même obligation de publicité sur leur activité.\nPeut-être alors préciser que c'est à la main de la collectivité publique de définir les exceptions ? \"sauf stipulation contraire déterminée par l'autorité délégante\"",
        "created_at": "2015-10-18T11:41:11+0200",
        "updated_at": "2015-10-18T11:41:11+0200",
        "is_enabled": true,
        "votes_count": 0,
        "type": 0,
        "is_trashed": false,
        "author": {
          "username": "Gael S.",
          "displayName": "Gael S.",
          "uniqueId": "gaels",
          "isAdmin": false,
          "media": null,
          "vip": false,
          "_links": {
            "profile": "https://www.republique-numerique.fr/profile/gaels",
            "settings": "https://www.republique-numerique.fr/profile/edit-profile"
          }
        },
        "_links": {
          "show": "https://www.republique-numerique.fr/consultations/projet-de-loi-numerique/consultation/consultation/opinions/section-3-donnees-d-interet-general/article-5-ouverture-des-donnees-par-defaut-dans-les-contrats-de-dsp/versions/allez-soyons-reellement-ambitieux-les-donnees-et-bases-de-donnees-liees-a-l-exploitation-du-service-public-par-un-delegataire-de-service-public-doivent-etre-rendues-intelligibles-et-mises-a-disposition-du-public-leur-reutilisation-a-titre-gratuit-ou-onere#arg-5746",
          "edit": "https://www.republique-numerique.fr/consultations/projet-de-loi-numerique/consultation/consultation/opinions/section-3-donnees-d-interet-general/article-5-ouverture-des-donnees-par-defaut-dans-les-contrats-de-dsp/arguments/5746/edit",
          "report": "https://www.republique-numerique.fr/consultations/projet-de-loi-numerique/consultation/consultation/opinions/section-3-donnees-d-interet-general/article-5-ouverture-des-donnees-par-defaut-dans-les-contrats-de-dsp/arguments/5746/report"
        },
        "has_user_voted": false,
        "has_user_reported": false
      }
    ],
    "sources": [],
    "parent": {
      "isContribuable": false,
      "id": 65,
      "body": "<p>I. Dans la loi n&deg; 93-122 du 29 janvier 1993 relative &agrave; la pr&eacute;vention de la corruption et &agrave; la transparence de la vie &eacute;conomique et des proc&eacute;dures publiques, il est ins&eacute;r&eacute; un article 40-2 ainsi r&eacute;dig&eacute; :</p>\r\n\r\n<p>&laquo; Art. 40-2.- Sauf stipulation contraire, le d&eacute;l&eacute;gataire fournit &agrave; la personne morale de droit public, dans un standard ouvert ais&eacute;ment r&eacute;utilisable, les donn&eacute;es et bases de donn&eacute;es collect&eacute;es ou produites &agrave; l&#39;occasion de l&#39;exploitation du service public. Il autorise par ailleurs la personne morale de droit public, ou un tiers d&eacute;sign&eacute; par celle-ci, &agrave; extraire et exploiter librement tout ou partie de ces donn&eacute;es et bases de donn&eacute;es, notamment en vue de leur mise &agrave; disposition &agrave; titre gratuit &agrave; des fins de r&eacute;utilisation &agrave; titre gratuit ou on&eacute;reux. &raquo;</p>\r\n\r\n<p>II. Apr&egrave;s l&rsquo;article L. 1411-3&nbsp;du code g&eacute;n&eacute;ral des collectivit&eacute;s territoriales, il est ins&eacute;r&eacute; un article ainsi r&eacute;dig&eacute; :</p>\r\n\r\n<p>&laquo; Art. 1411-3-1 - Sauf stipulation contraire, le d&eacute;l&eacute;gataire fournit &agrave; la personne morale de droit public, dans un standard ouvert ais&eacute;ment r&eacute;utilisable, les donn&eacute;es et bases de donn&eacute;es collect&eacute;es ou produites &agrave; l&rsquo;occasion de l&rsquo;ex&eacute;cution du service public. Il autorise par ailleurs la personne morale de droit public, ou un tiers d&eacute;sign&eacute; par celle-ci, &agrave; extraire et exploiter librement tout ou partie de ces donn&eacute;es et bases de donn&eacute;es, notamment en vue de leur mise &agrave; disposition &agrave; titre gratuit &agrave; des fins de r&eacute;utilisation &agrave; titre gratuit ou on&eacute;reux. &raquo;</p>\r\n\r\n<p>III. Le I et le II du pr&eacute;sent sont applicables aux contrats conclus ou reconduits post&eacute;rieurement &agrave; la promulgation de la pr&eacute;sente loi.</p>",
      "type": {
        "id": 88,
        "title": "Section 3",
        "subtitle": "Données d’intérêt général",
        "voteWidgetType": 2,
        "votesHelpText": "Pensez-vous que cette proposition permet d'atteindre les objectifs présentés dans l’explication de l’article ?",
        "commentSystem": 2,
        "color": "blue",
        "versionable": true,
        "sourceable": true,
        "votesThreshold": null,
        "votesThresholdHelpText": null
      },
      "modals": [
        {
          "key": "article 40-2",
          "before": "",
          "after": "<p>Sauf stipulation contraire, le délégataire fournit à la personne morale de droit public, dans un standard ouvert aisément réutilisable, les données et bases de données collectées ou produites à l'occasion de l'exploitation du service public. Il autorise par ailleurs la personne morale de droit public, ou un tiers désigné par celle-ci, à extraire et exploiter librement tout ou partie de ces données et bases de données, notamment en vue de leur mise à disposition à titre gratuit à des fins de réutilisation à titre gratuit ou onéreux.</p>",
          "title": "Création de l’article 40-2 dans la loi n° 93-122 du 29 janvier 1993"
        },
        {
          "key": "article L. 1411-3-1",
          "before": "",
          "after": "<p>Sauf stipulation contraire, le délégataire fournit à la personne morale de droit public, dans un standard ouvert aisément réutilisable, les données et bases de données collectées ou produites à l’occasion de l’exécution du service public. Il autorise par ailleurs la personne morale de droit public, ou un tiers désigné par celle-ci, à extraire et exploiter librement tout ou partie de ces données et bases de données, notamment en vue de leur mise à disposition à titre gratuit à des fins de réutilisation à titre gratuit ou onéreux.</p>",
          "title": "Création de l‘article 1411-3-1 du code général des collectivités territoriales"
        }
      ],
      "appendices": [
        {
          "body": "<p><strong>Objectif :</strong> publier en open data les donn&eacute;es issues de la mission de service public rendue par les entreprises qui g&egrave;rent une d&eacute;l&eacute;gation de service public (DSP).</p>\r\n\r\n<p><strong>Explication :</strong> la loi du 8 f&eacute;vrier 1995 pr&eacute;voit d&eacute;j&agrave; que le d&eacute;l&eacute;gataire d&rsquo;un service public remette &agrave; l&rsquo;autorit&eacute; publique d&eacute;l&eacute;gante un rapport annuel comportant les donn&eacute;es essentielles de la DSP (donn&eacute;es comptables, donn&eacute;es sur la qualit&eacute; de service), qu&rsquo;il n&rsquo;est pas obligatoire de rendre public aujourd&rsquo;hui. Une premi&egrave;re r&eacute;forme consiste &agrave; publier ces donn&eacute;es essentielles, ce que pr&eacute;voient d&eacute;j&agrave; l&rsquo;ordonnance du 23 juillet 2015 sur les contrats de march&eacute;s publics et le projet d&rsquo;ordonnance relative aux contrats de concession mis en consultation publique en juillet 2015.<br />\r\nL&rsquo;article va plus loin : il introduit dans les d&eacute;l&eacute;gations de service public une clause par d&eacute;faut obligeant &agrave; publier en open data les donn&eacute;es issues de l&rsquo;activit&eacute; de l&rsquo;entreprise exploitant la DSP dans le cadre de sa mission de service public. Il est possible d&rsquo;&eacute;carter cette clause si cela est express&eacute;ment pr&eacute;vu dans le contrat de DSP.</p>\r\n\r\n<p><strong>Exemple :</strong> les donn&eacute;es relatives &agrave; la localisation des bicyclettes en temps r&eacute;el produites par une entreprise dans le cadre d&rsquo;un service public de location de v&eacute;los dans une grande ville qui lui a &eacute;t&eacute; d&eacute;l&eacute;gu&eacute;, pourront &ecirc;tre publi&eacute;es par d&eacute;faut.</p>",
          "type": {
            "title": "Explication de l'article"
          }
        }
      ],
      "title": "Article 5 - Ouverture des données des délégations de service public",
      "_links": {
        "show": "https://www.republique-numerique.fr/consultations/projet-de-loi-numerique/consultation/consultation/opinions/section-3-donnees-d-interet-general/article-5-ouverture-des-donnees-par-defaut-dans-les-contrats-de-dsp",
        "edit": "https://www.republique-numerique.fr/consultations/projet-de-loi-numerique/consultation/consultation/opinions/section-3-donnees-d-interet-general/article-5-ouverture-des-donnees-par-defaut-dans-les-contrats-de-dsp/edit",
        "report": "https://www.republique-numerique.fr/consultations/projet-de-loi-numerique/consultation/consultation/opinions/section-3-donnees-d-interet-general/article-5-ouverture-des-donnees-par-defaut-dans-les-contrats-de-dsp/report",
        "type": "https://www.republique-numerique.fr/consultations/projet-de-loi-numerique/consultation/consultation/opinions/section-3-donnees-d-interet-general"
      },
      "user_vote": null,
      "has_user_reported": false
    },
    "sources_count": 0,
    "arguments_count": 1,
    "votes": [
      {
        "user": {
          "username": "Jeanne Varasco",
          "displayName": "Jeanne Varasco",
          "uniqueId": "jeannevarasco",
          "isAdmin": false,
          "media": {
            "url": "/media/cache/default_avatar/default/0001/01/139_default_avatar.jpg"
          },
          "vip": false,
          "_links": {
            "profile": "https://www.republique-numerique.fr/profile/jeannevarasco",
            "settings": "https://www.republique-numerique.fr/profile/edit-profile"
          }
        },
        "value": 1
      },
      {
        "user": {
          "username": "Claude PERRY",
          "displayName": "Claude PERRY",
          "uniqueId": "claudeperry",
          "isAdmin": false,
          "media": null,
          "vip": false,
          "_links": {
            "profile": "https://www.republique-numerique.fr/profile/claudeperry",
            "settings": "https://www.republique-numerique.fr/profile/edit-profile"
          }
        },
        "value": 1
      },
      {
        "user": {
          "username": "SPAHR Hugo",
          "displayName": "SPAHR Hugo",
          "uniqueId": "spahrhugo",
          "isAdmin": false,
          "media": {
            "url": "/media/cache/default_avatar/default/0001/01/89_default_avatar.jpg"
          },
          "vip": false,
          "_links": {
            "profile": "https://www.republique-numerique.fr/profile/spahrhugo",
            "settings": "https://www.republique-numerique.fr/profile/edit-profile"
          }
        },
        "value": 1
      },
      {
        "user": {
          "username": "Hugues Van Besien",
          "displayName": "Hugues Van Besien",
          "uniqueId": "huguesvanbesien",
          "isAdmin": false,
          "media": null,
          "vip": false,
          "_links": {
            "profile": "https://www.republique-numerique.fr/profile/huguesvanbesien",
            "settings": "https://www.republique-numerique.fr/profile/edit-profile"
          }
        },
        "value": 1
      },
      {
        "user": {
          "username": "Fabien Duprat",
          "displayName": "Fabien Duprat",
          "uniqueId": "fabienduprat",
          "isAdmin": false,
          "media": {
            "url": "/media/cache/default_avatar/default/0001/01/275_default_avatar.jpg"
          },
          "vip": false,
          "_links": {
            "profile": "https://www.republique-numerique.fr/profile/fabienduprat",
            "settings": "https://www.republique-numerique.fr/profile/edit-profile"
          }
        },
        "value": 1
      }
    ],
    "updated_at": "2015-09-26T16:43:52+0200",
    "ranking": 306,
    "is_trashed": false,
    "title": "Allez soyons réellement ambitieux : Les données et bases de données liées à l'exploitation du service public par un délégataire de service public doivent être rendues intelligibles et mises à disposition du public. Leur réutilisation à titre gratuit ou on",
    "slug": "allez-soyons-reellement-ambitieux-les-donnees-et-bases-de-donnees-liees-a-l-exploitation-du-service-public-par-un-delegataire-de-service-public-doivent-etre-rendues-intelligibles-et-mises-a-disposition-du-public-leur-reutilisation-a-titre-gratuit-ou-onere",
    "created_at": "2015-09-26T16:43:52+0200",
    "votes_nok": 1,
    "votes_ok": 14,
    "votes_mitige": 1,
    "_links": {
      "show": "https://www.republique-numerique.fr/consultations/projet-de-loi-numerique/consultation/consultation/opinions/section-3-donnees-d-interet-general/article-5-ouverture-des-donnees-par-defaut-dans-les-contrats-de-dsp/versions/allez-soyons-reellement-ambitieux-les-donnees-et-bases-de-donnees-liees-a-l-exploitation-du-service-public-par-un-delegataire-de-service-public-doivent-etre-rendues-intelligibles-et-mises-a-disposition-du-public-leur-reutilisation-a-titre-gratuit-ou-onere",
      "report": "https://www.republique-numerique.fr/consultations/projet-de-loi-numerique/consultation/consultation/opinions/section-3-donnees-d-interet-general/article-5-ouverture-des-donnees-par-defaut-dans-les-contrats-de-dsp/versions/allez-soyons-reellement-ambitieux-les-donnees-et-bases-de-donnees-liees-a-l-exploitation-du-service-public-par-un-delegataire-de-service-public-doivent-etre-rendues-intelligibles-et-mises-a-disposition-du-public-leur-reutilisation-a-titre-gratuit-ou-onere/report"
    },
    "user_vote": null,
    "has_user_reported": false
  },
  "rankingThreshold": null,
  "opinionTerm": 1
}