{
  "version": {
    "isContribuable": false,
    "votes_total": 0,
    "arguments_yes_count": 0,
    "arguments_no_count": 0,
    "id": 1387,
    "body": "<p>&nbsp;La publicit&eacute; sur le net <strong>serait limit&eacute;e</strong> &agrave; une certaine proportion de la page (exemple : 1/8) et en quantit&eacute; de donn&eacute;es.&nbsp;</p>\n\n<p>&nbsp;Il serait possible de<strong> fermer facilement la publicit&eacute;</strong>.</p>\n\n<p>&nbsp;Les <strong>entreprises tirant profit de&nbsp;la publicit&eacute; sur le net devrait s&#39;acquitter d&#39;une taxe</strong> pour favoriser la protection des donn&eacute;es et&nbsp;des mineurs sur le net ou le financement des <strong>nouvelles technologies pour apprendre </strong>(livres num&eacute;riques, tablettes &eacute;ducatives...).</p>\n\n<p>&nbsp;</p>",
    "comment": "<p>La limite doit s&#39;appliquer &agrave; la fois sur la dimension d&#39;affichage sur l&#39;&eacute;cran ET aussi en quantit&eacute; de donn&eacute;es &agrave; t&eacute;l&eacute;charger : une vid&eacute;o peut &ecirc;tre visuellement petite sur l&#39;&eacute;cran mais grosse consommatrice de bande passante.</p>\n\n<p>&nbsp;</p>\n\n<p>&nbsp;</p>",
    "author": {
      "username": "Eric BIENFAIT",
      "displayName": "Eric BIENFAIT",
      "uniqueId": "ericbienfait",
      "isAdmin": false,
      "media": null,
      "vip": false,
      "_links": {
        "profile": "https://www.republique-numerique.fr/profile/ericbienfait",
        "settings": "https://www.republique-numerique.fr/profile/edit-profile"
      }
    },
    "arguments": [],
    "sources": [],
    "parent": {
      "isContribuable": false,
      "id": 182,
      "body": "<p>&nbsp;La publicit&eacute; sur le net <strong>serait limit&eacute;e</strong> &agrave; une certaine proportion de la page (exemple : 1/8).&nbsp;</p>\r\n\r\n<p>&nbsp;Il serait possible de<strong> fermer facilement la publicit&eacute;</strong>.</p>\r\n\r\n<p>&nbsp;Les <strong>entreprises tirant profit de&nbsp;la publicit&eacute; sur le net devrait s&#39;acquitter d&#39;une taxe</strong> pour favoriser la protection des donn&eacute;es et&nbsp;des mineurs sur le net ou le financement des <strong>nouvelles technologies pour apprendre </strong>(livres num&eacute;riques, tablettes &eacute;ducatives...).</p>\r\n\r\n<p>&nbsp;</p>",
      "type": {
        "id": 97,
        "title": "Section 4",
        "subtitle": "Information des consommateurs",
        "voteWidgetType": 2,
        "votesHelpText": "Pensez-vous que cette proposition permet d'atteindre les objectifs présentés dans l’explication de l’article ?",
        "commentSystem": 2,
        "color": "blue",
        "versionable": true,
        "sourceable": true,
        "votesThreshold": null,
        "votesThresholdHelpText": null
      },
      "modals": [],
      "appendices": [
        {
          "body": "<p>&nbsp;Aujourd&#39;hui, tr&egrave;s fr&eacute;quemment, les publicit&eacute;s sont pr&eacute;sentes lors de la navigation et ce en permanence sans qu&#39;il soit possible, pour la plupart,&nbsp;de les fermer.</p>\r\n\r\n<p>&nbsp;Les limiter serait <strong>faciliter la navigation des internautes</strong> et leur permettrait de naviguer dans un <strong>environnement neutre</strong>.&nbsp;</p>\r\n\r\n<p>&nbsp;Cette mesure permet donc une <strong>&eacute;volution vers le progr&egrave;s et vers la neutralit&eacute;&nbsp;du num&eacute;rique et du net.&nbsp;</strong></p>\r\n\r\n<p>&nbsp;</p>\r\n\r\n<p>&nbsp;</p>",
          "type": {
            "title": "Explication de l'article"
          }
        }
      ],
      "title": "Limitation de la publicité sur le net",
      "_links": {
        "show": "https://www.republique-numerique.fr/consultations/projet-de-loi-numerique/consultation/consultation/opinions/section-4-information-des-consommateurs/limitation-de-la-publicite-sur-le-net",
        "edit": "https://www.republique-numerique.fr/consultations/projet-de-loi-numerique/consultation/consultation/opinions/section-4-information-des-consommateurs/limitation-de-la-publicite-sur-le-net/edit",
        "report": "https://www.republique-numerique.fr/consultations/projet-de-loi-numerique/consultation/consultation/opinions/section-4-information-des-consommateurs/limitation-de-la-publicite-sur-le-net/report",
        "type": "https://www.republique-numerique.fr/consultations/projet-de-loi-numerique/consultation/consultation/opinions/section-4-information-des-consommateurs"
      },
      "user_vote": null,
      "has_user_reported": false
    },
    "sources_count": 0,
    "arguments_count": 0,
    "votes": [],
    "updated_at": "2015-10-18T20:01:53+0200",
    "ranking": 1201,
    "is_trashed": false,
    "title": "Limite en quantité de données",
    "slug": "limite-en-quantite-de-donnees",
    "created_at": "2015-10-18T20:01:53+0200",
    "votes_nok": 0,
    "votes_ok": 0,
    "votes_mitige": 0,
    "_links": {
      "show": "https://www.republique-numerique.fr/consultations/projet-de-loi-numerique/consultation/consultation/opinions/section-4-information-des-consommateurs/limitation-de-la-publicite-sur-le-net/versions/limite-en-quantite-de-donnees",
      "report": "https://www.republique-numerique.fr/consultations/projet-de-loi-numerique/consultation/consultation/opinions/section-4-information-des-consommateurs/limitation-de-la-publicite-sur-le-net/versions/limite-en-quantite-de-donnees/report"
    },
    "user_vote": null,
    "has_user_reported": false
  },
  "rankingThreshold": null,
  "opinionTerm": 1
}