{
  "version": {
    "isContribuable": false,
    "votes_total": 27,
    "arguments_yes_count": 1,
    "arguments_no_count": 2,
    "id": 204,
    "body": "<p>Les publicit&eacute;s dites intrusives (d&eacute;finition pr&eacute;cisie &agrave; d&eacute;finir) sont interdites.</p>\n\n<p>Le nombre de publicit&eacute;s par page internet est limit&eacute; &agrave; X (chiffre &agrave; d&eacute;finir).</p>\n\n<p>&nbsp;</p>",
    "comment": "<p>Il me semble pr&eacute;f&eacute;rable de s&#39;attaquer tout d&#39;abord &agrave; la probl&eacute;matique des publicit&eacute;s dites intrusives (exemples : &laquo; popup &raquo; (fen&ecirc;tre qui s&#39;ouvre toute seule), &laquo; interstitiel &raquo; (entre deux pages ou &agrave; l&#39;entr&eacute;e du site) et &laquo; flash transparent &raquo; (animation en transparence sur une page)).</p>\n\n<p>Le nombre de publicit&eacute;s par page internet pourrait &eacute;galement &ecirc;tre limit&eacute;.</p>",
    "author": {
      "username": "Jonathan Crequer",
      "displayName": "Jonathan Crequer",
      "uniqueId": "jonathancrequer",
      "isAdmin": false,
      "media": null,
      "vip": false,
      "_links": {
        "profile": "https://www.republique-numerique.fr/profile/jonathancrequer",
        "settings": "https://www.republique-numerique.fr/profile/edit-profile"
      }
    },
    "arguments": [
      {
        "isContribuable": false,
        "id": 1341,
        "body": "plus un contenu internet à de l'intérêt plus le consommateur accepte d'etre exposé à de la publicité et inversement. Or, plus un contenu internet à de l'intérêt, plus il coute cher à produire. Limiter autoritairement la publicité pénalisera de nombreux sites, notamment médias qui pour la plupart perdent de l'argent. Cela conduira à la multiplication des contenus payants, créant une distortion d'accès à l'information entre ceux qui peuvent payer et ceux qui ne le peuvent pas. Donc je suis opposé à la limitation par la loi des écrans publicitaires.",
        "created_at": "2015-09-29T18:42:52+0200",
        "updated_at": "2015-09-29T18:42:52+0200",
        "is_enabled": true,
        "votes_count": 1,
        "type": 0,
        "is_trashed": false,
        "author": {
          "username": "laurent jacob",
          "displayName": "laurent jacob",
          "uniqueId": "laurentjacob",
          "isAdmin": false,
          "media": null,
          "vip": false,
          "_links": {
            "profile": "https://www.republique-numerique.fr/profile/laurentjacob",
            "settings": "https://www.republique-numerique.fr/profile/edit-profile"
          }
        },
        "_links": {
          "show": "https://www.republique-numerique.fr/consultations/projet-de-loi-numerique/consultation/consultation/opinions/section-4-information-des-consommateurs/limitation-de-la-publicite-sur-le-net/versions/interdiction-des-publicites-intrusives#arg-1341",
          "edit": "https://www.republique-numerique.fr/consultations/projet-de-loi-numerique/consultation/consultation/opinions/section-4-information-des-consommateurs/limitation-de-la-publicite-sur-le-net/arguments/1341/edit",
          "report": "https://www.republique-numerique.fr/consultations/projet-de-loi-numerique/consultation/consultation/opinions/section-4-information-des-consommateurs/limitation-de-la-publicite-sur-le-net/arguments/1341/report"
        },
        "has_user_voted": false,
        "has_user_reported": false
      },
      {
        "isContribuable": false,
        "id": 1870,
        "body": "* Il y a des éléments importants à définir et qui ne sont pas triviaux.\n* Il faudrait mieux utiliser \"page web\" à la place de \"page internet\", ou mieux trouver une expression plus générale.",
        "created_at": "2015-10-01T14:37:11+0200",
        "updated_at": "2015-10-01T14:37:11+0200",
        "is_enabled": true,
        "votes_count": 0,
        "type": 0,
        "is_trashed": false,
        "author": {
          "username": "Nicola Spanti",
          "displayName": "Nicola Spanti",
          "uniqueId": "nicolaspanti",
          "isAdmin": false,
          "media": {
            "url": "/media/cache/default_avatar/default/0001/01/352_default_avatar.png"
          },
          "vip": false,
          "_links": {
            "profile": "https://www.republique-numerique.fr/profile/nicolaspanti",
            "settings": "https://www.republique-numerique.fr/profile/edit-profile"
          }
        },
        "_links": {
          "show": "https://www.republique-numerique.fr/consultations/projet-de-loi-numerique/consultation/consultation/opinions/section-4-information-des-consommateurs/limitation-de-la-publicite-sur-le-net/versions/interdiction-des-publicites-intrusives#arg-1870",
          "edit": "https://www.republique-numerique.fr/consultations/projet-de-loi-numerique/consultation/consultation/opinions/section-4-information-des-consommateurs/limitation-de-la-publicite-sur-le-net/arguments/1870/edit",
          "report": "https://www.republique-numerique.fr/consultations/projet-de-loi-numerique/consultation/consultation/opinions/section-4-information-des-consommateurs/limitation-de-la-publicite-sur-le-net/arguments/1870/report"
        },
        "has_user_voted": false,
        "has_user_reported": false
      },
      {
        "isContribuable": false,
        "id": 3407,
        "body": "Rajouter dans les publicités intrusives les vidéos qui se lancent sans qu'on ne l'ait lancé",
        "created_at": "2015-10-12T22:09:12+0200",
        "updated_at": "2015-10-12T22:09:12+0200",
        "is_enabled": true,
        "votes_count": 1,
        "type": 1,
        "is_trashed": false,
        "author": {
          "username": "Coutable",
          "displayName": "Coutable",
          "uniqueId": "coutable",
          "isAdmin": false,
          "media": null,
          "vip": false,
          "_links": {
            "profile": "https://www.republique-numerique.fr/profile/coutable",
            "settings": "https://www.republique-numerique.fr/profile/edit-profile"
          }
        },
        "_links": {
          "show": "https://www.republique-numerique.fr/consultations/projet-de-loi-numerique/consultation/consultation/opinions/section-4-information-des-consommateurs/limitation-de-la-publicite-sur-le-net/versions/interdiction-des-publicites-intrusives#arg-3407",
          "edit": "https://www.republique-numerique.fr/consultations/projet-de-loi-numerique/consultation/consultation/opinions/section-4-information-des-consommateurs/limitation-de-la-publicite-sur-le-net/arguments/3407/edit",
          "report": "https://www.republique-numerique.fr/consultations/projet-de-loi-numerique/consultation/consultation/opinions/section-4-information-des-consommateurs/limitation-de-la-publicite-sur-le-net/arguments/3407/report"
        },
        "has_user_voted": false,
        "has_user_reported": false
      }
    ],
    "sources": [],
    "parent": {
      "isContribuable": false,
      "id": 182,
      "body": "<p>&nbsp;La publicit&eacute; sur le net <strong>serait limit&eacute;e</strong> &agrave; une certaine proportion de la page (exemple : 1/8).&nbsp;</p>\r\n\r\n<p>&nbsp;Il serait possible de<strong> fermer facilement la publicit&eacute;</strong>.</p>\r\n\r\n<p>&nbsp;Les <strong>entreprises tirant profit de&nbsp;la publicit&eacute; sur le net devrait s&#39;acquitter d&#39;une taxe</strong> pour favoriser la protection des donn&eacute;es et&nbsp;des mineurs sur le net ou le financement des <strong>nouvelles technologies pour apprendre </strong>(livres num&eacute;riques, tablettes &eacute;ducatives...).</p>\r\n\r\n<p>&nbsp;</p>",
      "type": {
        "id": 97,
        "title": "Section 4",
        "subtitle": "Information des consommateurs",
        "voteWidgetType": 2,
        "votesHelpText": "Pensez-vous que cette proposition permet d'atteindre les objectifs présentés dans l’explication de l’article ?",
        "commentSystem": 2,
        "color": "blue",
        "versionable": true,
        "sourceable": true,
        "votesThreshold": null,
        "votesThresholdHelpText": null
      },
      "modals": [],
      "appendices": [
        {
          "body": "<p>&nbsp;Aujourd&#39;hui, tr&egrave;s fr&eacute;quemment, les publicit&eacute;s sont pr&eacute;sentes lors de la navigation et ce en permanence sans qu&#39;il soit possible, pour la plupart,&nbsp;de les fermer.</p>\r\n\r\n<p>&nbsp;Les limiter serait <strong>faciliter la navigation des internautes</strong> et leur permettrait de naviguer dans un <strong>environnement neutre</strong>.&nbsp;</p>\r\n\r\n<p>&nbsp;Cette mesure permet donc une <strong>&eacute;volution vers le progr&egrave;s et vers la neutralit&eacute;&nbsp;du num&eacute;rique et du net.&nbsp;</strong></p>\r\n\r\n<p>&nbsp;</p>\r\n\r\n<p>&nbsp;</p>",
          "type": {
            "title": "Explication de l'article"
          }
        }
      ],
      "title": "Limitation de la publicité sur le net",
      "_links": {
        "show": "https://www.republique-numerique.fr/consultations/projet-de-loi-numerique/consultation/consultation/opinions/section-4-information-des-consommateurs/limitation-de-la-publicite-sur-le-net",
        "edit": "https://www.republique-numerique.fr/consultations/projet-de-loi-numerique/consultation/consultation/opinions/section-4-information-des-consommateurs/limitation-de-la-publicite-sur-le-net/edit",
        "report": "https://www.republique-numerique.fr/consultations/projet-de-loi-numerique/consultation/consultation/opinions/section-4-information-des-consommateurs/limitation-de-la-publicite-sur-le-net/report",
        "type": "https://www.republique-numerique.fr/consultations/projet-de-loi-numerique/consultation/consultation/opinions/section-4-information-des-consommateurs"
      },
      "user_vote": null,
      "has_user_reported": false
    },
    "sources_count": 0,
    "arguments_count": 3,
    "votes": [
      {
        "user": {
          "username": "Jonathan Crequer",
          "displayName": "Jonathan Crequer",
          "uniqueId": "jonathancrequer",
          "isAdmin": false,
          "media": null,
          "vip": false,
          "_links": {
            "profile": "https://www.republique-numerique.fr/profile/jonathancrequer",
            "settings": "https://www.republique-numerique.fr/profile/edit-profile"
          }
        },
        "value": 1
      },
      {
        "user": {
          "username": "Lio Nel",
          "displayName": "Lio Nel",
          "uniqueId": "lionel",
          "isAdmin": false,
          "media": null,
          "vip": false,
          "_links": {
            "profile": "https://www.republique-numerique.fr/profile/lionel",
            "settings": "https://www.republique-numerique.fr/profile/edit-profile"
          }
        },
        "value": 1
      },
      {
        "user": {
          "username": "Pascal Rossini",
          "displayName": "Pascal Rossini",
          "uniqueId": "pascalrossini",
          "isAdmin": false,
          "media": null,
          "vip": false,
          "_links": {
            "profile": "https://www.republique-numerique.fr/profile/pascalrossini",
            "settings": "https://www.republique-numerique.fr/profile/edit-profile"
          }
        },
        "value": 1
      },
      {
        "user": {
          "username": "Jeanne Varasco",
          "displayName": "Jeanne Varasco",
          "uniqueId": "jeannevarasco",
          "isAdmin": false,
          "media": {
            "url": "/media/cache/default_avatar/default/0001/01/139_default_avatar.jpg"
          },
          "vip": false,
          "_links": {
            "profile": "https://www.republique-numerique.fr/profile/jeannevarasco",
            "settings": "https://www.republique-numerique.fr/profile/edit-profile"
          }
        },
        "value": 1
      },
      {
        "user": {
          "username": "MICHEL CHAMPON",
          "displayName": "MICHEL CHAMPON",
          "uniqueId": "michelchampon",
          "isAdmin": false,
          "media": null,
          "vip": false,
          "_links": {
            "profile": "https://www.republique-numerique.fr/profile/michelchampon",
            "settings": "https://www.republique-numerique.fr/profile/edit-profile"
          }
        },
        "value": 1
      }
    ],
    "updated_at": "2015-09-27T11:55:05+0200",
    "ranking": 178,
    "is_trashed": false,
    "title": "Interdiction des publicités intrusives",
    "slug": "interdiction-des-publicites-intrusives",
    "created_at": "2015-09-27T11:55:05+0200",
    "votes_nok": 1,
    "votes_ok": 25,
    "votes_mitige": 1,
    "_links": {
      "show": "https://www.republique-numerique.fr/consultations/projet-de-loi-numerique/consultation/consultation/opinions/section-4-information-des-consommateurs/limitation-de-la-publicite-sur-le-net/versions/interdiction-des-publicites-intrusives",
      "report": "https://www.republique-numerique.fr/consultations/projet-de-loi-numerique/consultation/consultation/opinions/section-4-information-des-consommateurs/limitation-de-la-publicite-sur-le-net/versions/interdiction-des-publicites-intrusives/report"
    },
    "user_vote": null,
    "has_user_reported": false
  },
  "rankingThreshold": null,
  "opinionTerm": 1
}