{
  "opinion": {
    "isContribuable": false,
    "votes_total": 166,
    "arguments_yes_count": 7,
    "arguments_no_count": 10,
    "id": 129,
    "created_at": "2015-09-26T19:47:17+0200",
    "updated_at": "2015-09-26T19:47:17+0200",
    "body": "<p>Conditions g&eacute;n&eacute;rales de vente et conditions g&eacute;n&eacute;rale d&#39;utilisation sont abr&eacute;vi&eacute;e par CGV et CGU</p>\r\n\r\n<p>Article 1 : Les CGV et CGU doivent toutes &ecirc;tre pr&egrave;sentes dans leurs int&eacute;gralit&eacute;s en fran&ccedil;ais.&nbsp;<br />\r\nUn manquement &agrave; cet article peut &ecirc;tre sanctionn&eacute; par une coupure du site jusqu&#39;a pr&eacute;sentation d&#39;une CGV-CGU en fran&ccedil;ais.&nbsp;</p>\r\n\r\n<p>Article 2 : Les exploitants du logiciel/site web sont tenus de rendre leurs CGV/CGU les plus fa&ccedil;iles &agrave; la comprehension possibles. Les autorit&eacute;s peuvent, juridiquement, obliger l&#39;exploitant &agrave; les simplifier et si elles le jugent n&eacute;c&eacute;ssaire imposer une longueur maximale en fonction du produit.&nbsp;</p>\r\n\r\n<p>Article 3 : Les CGU ne peuvent pas inclure le t&eacute;l&eacute;chargements de produits non-essentiels &agrave; l&#39;utilisation du logiciels.&nbsp;</p>\r\n\r\n<p>Article 4 : Les CGV et CGV doivent obligatoirement inclure le traitement des donn&eacute;es et leurs stockages.&nbsp;</p>\r\n\r\n<p>Article 5 : Les CGV et CGU doivent &ecirc;tre &eacute;crites sous formes de paragraphes d&eacute;finies dans la loi.&nbsp;</p>\r\n\r\n<p>Article 6 : Les CGV et/ou CGU abusives conduisent &agrave; une amende d&eacute;finie en fonction du profit du &agrave; la fraude et peuvent conduire &agrave; la&nbsp;fermeture.&nbsp;</p>\r\n\r\n<p>Article 7 : Tout utilisateur ayant accept&eacute; des CGV ou CGU pr&eacute;c&eacute;demment ne peut pas se voir oblig&eacute;s d&#39;accepter les nouvelles CGV ou CGU en cas de modifications.&nbsp;</p>\r\n\r\n<p>&nbsp;</p>",
    "versions_count": 3,
    "sources_count": 3,
    "arguments_count": 17,
    "author": {
      "username": "Timothé LUCIUS",
      "displayName": "Timothé LUCIUS",
      "uniqueId": "timothelucius",
      "isAdmin": false,
      "media": null,
      "vip": false,
      "_links": {
        "profile": "https://www.republique-numerique.fr/profile/timothelucius",
        "settings": "https://www.republique-numerique.fr/profile/edit-profile"
      }
    },
    "type": {
      "id": 106,
      "title": "Section 1",
      "subtitle": "Recommandé électronique",
      "voteWidgetType": 2,
      "votesHelpText": "Pensez-vous que cette proposition permet d'atteindre les objectifs présentés dans l’explication de l’article ?",
      "commentSystem": 2,
      "color": "blue",
      "versionable": true,
      "sourceable": true,
      "votesThreshold": null,
      "votesThresholdHelpText": null
    },
    "sources": [
      {
        "isContribuable": false,
        "id": 385,
        "title": "Les conditions générales de Vente",
        "link": "https://books.google.com/books?id=uXgOBQAAQBAJ",
        "body": "Livre sur les CGV par Paul Alain Foriers.",
        "created_at": "2015-10-17T22:49:17+0200",
        "updated_at": "2015-10-17T22:49:17+0200",
        "author": {
          "username": "Vincent Reverdy",
          "displayName": "Vincent Reverdy",
          "uniqueId": "vincentreverdy",
          "isAdmin": false,
          "media": {
            "url": "/media/cache/default_avatar/default/0001/01/268_default_avatar.jpg"
          },
          "vip": false,
          "_links": {
            "profile": "https://www.republique-numerique.fr/profile/vincentreverdy",
            "settings": "https://www.republique-numerique.fr/profile/edit-profile"
          }
        },
        "category": "Rapport / Étude",
        "votes_count": 1,
        "_links": {
          "edit": "https://www.republique-numerique.fr/consultations/projet-de-loi-numerique/consultation/consultation/opinions/section-1-recommande-electronique/encadrement-et-simplification-des-cgu-et-cgv/sources/les-conditions-generales-de-vente/edit",
          "report": "https://www.republique-numerique.fr/consultations/projet-de-loi-numerique/consultation/consultation/opinions/section-1-recommande-electronique/encadrement-et-simplification-des-cgu-et-cgv/sources/les-conditions-generales-de-vente/report"
        },
        "has_user_voted": false,
        "has_user_reported": false
      },
      {
        "isContribuable": false,
        "id": 236,
        "title": "Creative Commons : licences à trois niveaux de lectures",
        "link": "https://creativecommons.org/licenses/",
        "body": "Ce système proposé par la Creative Commons, permet d'avoir trois couches de lectures sur une licence. Une couche juridique, une couche plus visible par l'humain, et enfin une couche lisible par une machine (code informatique).",
        "created_at": "2015-10-08T10:13:45+0200",
        "updated_at": "2015-10-08T10:13:45+0200",
        "author": {
          "username": "Alexandre Vilay",
          "displayName": "Alexandre Vilay",
          "uniqueId": "alexandrevilay",
          "isAdmin": false,
          "media": null,
          "vip": false,
          "_links": {
            "profile": "https://www.republique-numerique.fr/profile/alexandrevilay",
            "settings": "https://www.republique-numerique.fr/profile/edit-profile"
          }
        },
        "category": "Site internet",
        "votes_count": 1,
        "_links": {
          "edit": "https://www.republique-numerique.fr/consultations/projet-de-loi-numerique/consultation/consultation/opinions/section-1-recommande-electronique/encadrement-et-simplification-des-cgu-et-cgv/sources/creative-commons-licences-a-trois-niveaux-de-lectures/edit",
          "report": "https://www.republique-numerique.fr/consultations/projet-de-loi-numerique/consultation/consultation/opinions/section-1-recommande-electronique/encadrement-et-simplification-des-cgu-et-cgv/sources/creative-commons-licences-a-trois-niveaux-de-lectures/report"
        },
        "has_user_voted": false,
        "has_user_reported": false
      },
      {
        "isContribuable": false,
        "id": 235,
        "title": "Legal Design : une voie simple pour de meilleures politiques de confidentialité et CGU, La Fing, 1er",
        "link": "http://mesinfos.fing.org/wp-content/uploads/2015/09/benchmark_legaldesign_fing.pdf",
        "body": "Le groupe de travail ‪#‎MesInfos‬ a publié une note de synthèse appelée Legal Design, permettant de rendre plus accessible le jargon des CGU.",
        "created_at": "2015-10-08T09:54:21+0200",
        "updated_at": "2015-10-08T09:54:21+0200",
        "author": {
          "username": "Alexandre Vilay",
          "displayName": "Alexandre Vilay",
          "uniqueId": "alexandrevilay",
          "isAdmin": false,
          "media": null,
          "vip": false,
          "_links": {
            "profile": "https://www.republique-numerique.fr/profile/alexandrevilay",
            "settings": "https://www.republique-numerique.fr/profile/edit-profile"
          }
        },
        "category": "Rapport / Étude",
        "votes_count": 1,
        "_links": {
          "edit": "https://www.republique-numerique.fr/consultations/projet-de-loi-numerique/consultation/consultation/opinions/section-1-recommande-electronique/encadrement-et-simplification-des-cgu-et-cgv/sources/legal-design-une-voie-simple-pour-de-meilleures-politiques-de-confidentialite-et-cgu-la-fing-1er-juin-2015/edit",
          "report": "https://www.republique-numerique.fr/consultations/projet-de-loi-numerique/consultation/consultation/opinions/section-1-recommande-electronique/encadrement-et-simplification-des-cgu-et-cgv/sources/legal-design-une-voie-simple-pour-de-meilleures-politiques-de-confidentialite-et-cgu-la-fing-1er-juin-2015/report"
        },
        "has_user_voted": false,
        "has_user_reported": false
      }
    ],
    "arguments": [
      {
        "isContribuable": false,
        "id": 6070,
        "body": "Le souci est louable, la rédaction problématique. Il faudrait trouver une façon simple de simplifier !",
        "created_at": "2015-10-18T20:21:15+0200",
        "updated_at": "2015-10-18T20:21:15+0200",
        "is_enabled": true,
        "votes_count": 0,
        "type": 0,
        "is_trashed": false,
        "author": {
          "username": "Lefebvre-Naré Frédéric",
          "displayName": "Lefebvre-Naré Frédéric",
          "uniqueId": "lefebvrenarefrederic",
          "isAdmin": false,
          "media": {
            "url": "/media/cache/default_avatar/default/0001/02/1044_default_avatar.jpg"
          },
          "vip": false,
          "_links": {
            "profile": "https://www.republique-numerique.fr/profile/lefebvrenarefrederic",
            "settings": "https://www.republique-numerique.fr/profile/edit-profile"
          }
        },
        "_links": {
          "show": "https://www.republique-numerique.fr/consultations/projet-de-loi-numerique/consultation/consultation/opinions/section-1-recommande-electronique/encadrement-et-simplification-des-cgu-et-cgv#arg-6070",
          "edit": "https://www.republique-numerique.fr/consultations/projet-de-loi-numerique/consultation/consultation/opinions/section-1-recommande-electronique/encadrement-et-simplification-des-cgu-et-cgv/arguments/6070/edit",
          "report": "https://www.republique-numerique.fr/consultations/projet-de-loi-numerique/consultation/consultation/opinions/section-1-recommande-electronique/encadrement-et-simplification-des-cgu-et-cgv/arguments/6070/report"
        },
        "has_user_voted": false,
        "has_user_reported": false
      },
      {
        "isContribuable": false,
        "id": 5469,
        "body": "Nous sommes dans le domaine du droit des obligations, cela me semble donc hors de propos.",
        "created_at": "2015-10-17T18:36:43+0200",
        "updated_at": "2015-10-17T18:36:43+0200",
        "is_enabled": true,
        "votes_count": 0,
        "type": 0,
        "is_trashed": false,
        "author": {
          "username": "Tanéléo",
          "displayName": "Tanéléo",
          "uniqueId": "taneleo",
          "isAdmin": false,
          "media": null,
          "vip": false,
          "_links": {
            "profile": "https://www.republique-numerique.fr/profile/taneleo",
            "settings": "https://www.republique-numerique.fr/profile/edit-profile"
          }
        },
        "_links": {
          "show": "https://www.republique-numerique.fr/consultations/projet-de-loi-numerique/consultation/consultation/opinions/section-1-recommande-electronique/encadrement-et-simplification-des-cgu-et-cgv#arg-5469",
          "edit": "https://www.republique-numerique.fr/consultations/projet-de-loi-numerique/consultation/consultation/opinions/section-1-recommande-electronique/encadrement-et-simplification-des-cgu-et-cgv/arguments/5469/edit",
          "report": "https://www.republique-numerique.fr/consultations/projet-de-loi-numerique/consultation/consultation/opinions/section-1-recommande-electronique/encadrement-et-simplification-des-cgu-et-cgv/arguments/5469/report"
        },
        "has_user_voted": false,
        "has_user_reported": false
      },
      {
        "isContribuable": false,
        "id": 4597,
        "body": "Article 2: c'est imprécis...\nArticle 3: c'est déjà interdit via \"la vente liée\" en France, non ?\nArticle 5: il y aura toujours une clause \"paragraphe complémentaire\" ajoutée par les rédacteurs de CGV/CGU, on aura juste tous les articles déportés dans cette clause dont la taille explosera\nArticle 6: \"peuvent conduire à la fermeture...\" une CGV mal rédigée peut-elle justifier la fermeture d'une PME ? N'est-ce pas disproportionné ? De plus, si les clauses sont abusives, une juridiction peut déjà rendre caduque le contrat.\nArticle 7: c'est déjà le cas. Soit vous acceptez les nouvelles conditions soit vous arrêtez l'utilisation du service. On ne peut pas obliger une entreprise à maintenir un service existant sans le changer, sinon le risque économique et donc à terme social serait trop élevé.",
        "created_at": "2015-10-16T11:19:54+0200",
        "updated_at": "2015-10-16T11:19:54+0200",
        "is_enabled": true,
        "votes_count": 0,
        "type": 0,
        "is_trashed": false,
        "author": {
          "username": "Antoine Varet",
          "displayName": "Antoine Varet",
          "uniqueId": "antoinevaret",
          "isAdmin": false,
          "media": null,
          "vip": false,
          "_links": {
            "profile": "https://www.republique-numerique.fr/profile/antoinevaret",
            "settings": "https://www.republique-numerique.fr/profile/edit-profile"
          }
        },
        "_links": {
          "show": "https://www.republique-numerique.fr/consultations/projet-de-loi-numerique/consultation/consultation/opinions/section-1-recommande-electronique/encadrement-et-simplification-des-cgu-et-cgv#arg-4597",
          "edit": "https://www.republique-numerique.fr/consultations/projet-de-loi-numerique/consultation/consultation/opinions/section-1-recommande-electronique/encadrement-et-simplification-des-cgu-et-cgv/arguments/4597/edit",
          "report": "https://www.republique-numerique.fr/consultations/projet-de-loi-numerique/consultation/consultation/opinions/section-1-recommande-electronique/encadrement-et-simplification-des-cgu-et-cgv/arguments/4597/report"
        },
        "has_user_voted": false,
        "has_user_reported": false
      },
      {
        "isContribuable": false,
        "id": 4329,
        "body": "je crois que le site service public propose un modèle adaptable de CGU et mentions légales .",
        "created_at": "2015-10-15T17:44:43+0200",
        "updated_at": "2015-10-15T17:44:43+0200",
        "is_enabled": true,
        "votes_count": 0,
        "type": 1,
        "is_trashed": false,
        "author": {
          "username": "lagaude",
          "displayName": "lagaude",
          "uniqueId": "lagaude",
          "isAdmin": false,
          "media": null,
          "vip": false,
          "_links": {
            "profile": "https://www.republique-numerique.fr/profile/lagaude",
            "settings": "https://www.republique-numerique.fr/profile/edit-profile"
          }
        },
        "_links": {
          "show": "https://www.republique-numerique.fr/consultations/projet-de-loi-numerique/consultation/consultation/opinions/section-1-recommande-electronique/encadrement-et-simplification-des-cgu-et-cgv#arg-4329",
          "edit": "https://www.republique-numerique.fr/consultations/projet-de-loi-numerique/consultation/consultation/opinions/section-1-recommande-electronique/encadrement-et-simplification-des-cgu-et-cgv/arguments/4329/edit",
          "report": "https://www.republique-numerique.fr/consultations/projet-de-loi-numerique/consultation/consultation/opinions/section-1-recommande-electronique/encadrement-et-simplification-des-cgu-et-cgv/arguments/4329/report"
        },
        "has_user_voted": false,
        "has_user_reported": false
      },
      {
        "isContribuable": false,
        "id": 3540,
        "body": "La proposition d'encadrer me semble très souhaitable. Mais les articles, tels que rédigés, mènent tout droit à l'impossibilité de commercer. ",
        "created_at": "2015-10-13T11:49:50+0200",
        "updated_at": "2015-10-13T11:49:50+0200",
        "is_enabled": true,
        "votes_count": 0,
        "type": 0,
        "is_trashed": false,
        "author": {
          "username": "Pile Hola",
          "displayName": "Pile Hola",
          "uniqueId": "pilehola",
          "isAdmin": false,
          "media": null,
          "vip": false,
          "_links": {
            "profile": "https://www.republique-numerique.fr/profile/pilehola",
            "settings": "https://www.republique-numerique.fr/profile/edit-profile"
          }
        },
        "_links": {
          "show": "https://www.republique-numerique.fr/consultations/projet-de-loi-numerique/consultation/consultation/opinions/section-1-recommande-electronique/encadrement-et-simplification-des-cgu-et-cgv#arg-3540",
          "edit": "https://www.republique-numerique.fr/consultations/projet-de-loi-numerique/consultation/consultation/opinions/section-1-recommande-electronique/encadrement-et-simplification-des-cgu-et-cgv/arguments/3540/edit",
          "report": "https://www.republique-numerique.fr/consultations/projet-de-loi-numerique/consultation/consultation/opinions/section-1-recommande-electronique/encadrement-et-simplification-des-cgu-et-cgv/arguments/3540/report"
        },
        "has_user_voted": false,
        "has_user_reported": false
      },
      {
        "isContribuable": false,
        "id": 3523,
        "body": "Pour faire appliquer cette loi par les sites étrangers: prévoir que le for judiciaire en cas de conflit est le lieu de résidence du client et non un quelconque tribunal dans un pays compréhensif. Etendre également la notion de clause abusive lorsque les CGV/CGU font plus de trois/quatre pages car personnes ne lit plus de 3 pages à l'écran. Et je ne parle pas d'écran de iPhone. Cela obligera les sites commerciaux à être concis. Et s'ils ne le peuvent pas (veulent pas?) qu'ils disparaissent du fait de leur inefficacité comme le veut la règle de base du capitalisme.",
        "created_at": "2015-10-13T11:16:16+0200",
        "updated_at": "2015-10-13T11:16:16+0200",
        "is_enabled": true,
        "votes_count": 1,
        "type": 1,
        "is_trashed": false,
        "author": {
          "username": "Bernard Ludwig",
          "displayName": "Bernard Ludwig",
          "uniqueId": "bernardludwig",
          "isAdmin": false,
          "media": null,
          "vip": false,
          "_links": {
            "profile": "https://www.republique-numerique.fr/profile/bernardludwig",
            "settings": "https://www.republique-numerique.fr/profile/edit-profile"
          }
        },
        "_links": {
          "show": "https://www.republique-numerique.fr/consultations/projet-de-loi-numerique/consultation/consultation/opinions/section-1-recommande-electronique/encadrement-et-simplification-des-cgu-et-cgv#arg-3523",
          "edit": "https://www.republique-numerique.fr/consultations/projet-de-loi-numerique/consultation/consultation/opinions/section-1-recommande-electronique/encadrement-et-simplification-des-cgu-et-cgv/arguments/3523/edit",
          "report": "https://www.republique-numerique.fr/consultations/projet-de-loi-numerique/consultation/consultation/opinions/section-1-recommande-electronique/encadrement-et-simplification-des-cgu-et-cgv/arguments/3523/report"
        },
        "has_user_voted": false,
        "has_user_reported": false
      },
      {
        "isContribuable": false,
        "id": 3014,
        "body": "Si la cnil nous informe sur une partie, si des personnes les proposent gratuitement sur internet, ou s'il sont copiés de site en site, il serait bien que l'Etat propose un modele avec des informations minimum obligatoires.",
        "created_at": "2015-10-10T18:45:36+0200",
        "updated_at": "2015-10-10T18:46:30+0200",
        "is_enabled": true,
        "votes_count": 0,
        "type": 1,
        "is_trashed": false,
        "author": {
          "username": "Maltese Nadine",
          "displayName": "Maltese Nadine",
          "uniqueId": "maltesenadine",
          "isAdmin": false,
          "media": {
            "url": "/media/cache/default_avatar/default/0001/01/113_default_avatar.png"
          },
          "vip": false,
          "_links": {
            "profile": "https://www.republique-numerique.fr/profile/maltesenadine",
            "settings": "https://www.republique-numerique.fr/profile/edit-profile"
          }
        },
        "_links": {
          "show": "https://www.republique-numerique.fr/consultations/projet-de-loi-numerique/consultation/consultation/opinions/section-1-recommande-electronique/encadrement-et-simplification-des-cgu-et-cgv#arg-3014",
          "edit": "https://www.republique-numerique.fr/consultations/projet-de-loi-numerique/consultation/consultation/opinions/section-1-recommande-electronique/encadrement-et-simplification-des-cgu-et-cgv/arguments/3014/edit",
          "report": "https://www.republique-numerique.fr/consultations/projet-de-loi-numerique/consultation/consultation/opinions/section-1-recommande-electronique/encadrement-et-simplification-des-cgu-et-cgv/arguments/3014/report"
        },
        "has_user_voted": false,
        "has_user_reported": false
      },
      {
        "isContribuable": false,
        "id": 2987,
        "body": "D'accord sur le principe, mais... l'enfer est pavé de bonnes intentions.  SI cet article avait été dans la loi, aucun citoyen français n'aurait pu aller sur Facebook ou sur Google à leurs débuts, quand des centaines de milliers d'internautes d'autres pays européens pouvaient déjà en bénéficier.  Je suis de plus consommateur international, adhérent à des associations anglaises et/ou américaines et je souhaite continuer à en bénéficier en anglais (car elles n'ont pas les moyens ni l'envie de tout traduire dans toutes les langues, même si cela impliquerait une coupure dans un pays dans lequel elles n'ont que peu de visiteurs).  ",
        "created_at": "2015-10-10T17:27:24+0200",
        "updated_at": "2015-10-10T17:27:24+0200",
        "is_enabled": true,
        "votes_count": 1,
        "type": 0,
        "is_trashed": false,
        "author": {
          "username": "Christophe Thierry",
          "displayName": "Christophe Thierry",
          "uniqueId": "christophethierry",
          "isAdmin": false,
          "media": null,
          "vip": false,
          "_links": {
            "profile": "https://www.republique-numerique.fr/profile/christophethierry",
            "settings": "https://www.republique-numerique.fr/profile/edit-profile"
          }
        },
        "_links": {
          "show": "https://www.republique-numerique.fr/consultations/projet-de-loi-numerique/consultation/consultation/opinions/section-1-recommande-electronique/encadrement-et-simplification-des-cgu-et-cgv#arg-2987",
          "edit": "https://www.republique-numerique.fr/consultations/projet-de-loi-numerique/consultation/consultation/opinions/section-1-recommande-electronique/encadrement-et-simplification-des-cgu-et-cgv/arguments/2987/edit",
          "report": "https://www.republique-numerique.fr/consultations/projet-de-loi-numerique/consultation/consultation/opinions/section-1-recommande-electronique/encadrement-et-simplification-des-cgu-et-cgv/arguments/2987/report"
        },
        "has_user_voted": false,
        "has_user_reported": false
      },
      {
        "isContribuable": false,
        "id": 2624,
        "body": "Les CGU et CGV méritent d'être plus clairs. Cependant on ne peut pas forcer les commerçants à les simplifier. On pourrait proposer de créer plusieurs niveaux de lectures pour rendre l'informatique juridique plus lisible, comme le fait Creative Commons (voir les sources). On aurait donc un niveau juridique avec ses clauses, et un niveau humain plus dépouillé et simplifié avec des logos, une mise en forme avec des titres principaux sur de grands principes, pour bien éclairer le consentement du consommateur.",
        "created_at": "2015-10-08T10:08:20+0200",
        "updated_at": "2015-10-08T10:10:14+0200",
        "is_enabled": true,
        "votes_count": 1,
        "type": 0,
        "is_trashed": false,
        "author": {
          "username": "Alexandre Vilay",
          "displayName": "Alexandre Vilay",
          "uniqueId": "alexandrevilay",
          "isAdmin": false,
          "media": null,
          "vip": false,
          "_links": {
            "profile": "https://www.republique-numerique.fr/profile/alexandrevilay",
            "settings": "https://www.republique-numerique.fr/profile/edit-profile"
          }
        },
        "_links": {
          "show": "https://www.republique-numerique.fr/consultations/projet-de-loi-numerique/consultation/consultation/opinions/section-1-recommande-electronique/encadrement-et-simplification-des-cgu-et-cgv#arg-2624",
          "edit": "https://www.republique-numerique.fr/consultations/projet-de-loi-numerique/consultation/consultation/opinions/section-1-recommande-electronique/encadrement-et-simplification-des-cgu-et-cgv/arguments/2624/edit",
          "report": "https://www.republique-numerique.fr/consultations/projet-de-loi-numerique/consultation/consultation/opinions/section-1-recommande-electronique/encadrement-et-simplification-des-cgu-et-cgv/arguments/2624/report"
        },
        "has_user_voted": false,
        "has_user_reported": false
      },
      {
        "isContribuable": false,
        "id": 2510,
        "body": "La simplification de la documentation juridique est une belle idée. Mais en pratique, dans le domaine du B To C, ce n'est pas si simple. La législation est d'une grande complexité. Or, le e-commerçant doit informer complètement les clients, avec la reprise impérative de documentation-type (Par ex. bordereau de rétractation), etc. Pourquoi pas, en revanche, \r\n1) un principe de \"minimisation\", à l'instar de la minimisation de la collecte des données personnelles,\r\n2) une documentation à deux niveaux, avec des CGV développées et un résumé fidèle sous forme d'infographie, affiché obligatoirement avant le double clic manifestant le consentement,\r\n3) Imposer clairement l'envoi sans délai par messagerie des CGV développées sur support durable (pdf non modifiable) dans tous les cas (B to C et B to B), cette règle - actuellement inappliquée - ne se déduisant que de la combinaison de nombreux textes et de la jurisprudence européenne et nationale.",
        "created_at": "2015-10-07T17:50:51+0200",
        "updated_at": "2015-10-07T17:58:16+0200",
        "is_enabled": true,
        "votes_count": 0,
        "type": 0,
        "is_trashed": false,
        "author": {
          "username": "Pascal ALIX",
          "displayName": "Pascal ALIX",
          "uniqueId": "pascalalix",
          "isAdmin": false,
          "media": {
            "url": "/media/cache/default_avatar/default/0001/01/435_default_avatar.jpg"
          },
          "vip": false,
          "_links": {
            "profile": "https://www.republique-numerique.fr/profile/pascalalix",
            "settings": "https://www.republique-numerique.fr/profile/edit-profile"
          }
        },
        "_links": {
          "show": "https://www.republique-numerique.fr/consultations/projet-de-loi-numerique/consultation/consultation/opinions/section-1-recommande-electronique/encadrement-et-simplification-des-cgu-et-cgv#arg-2510",
          "edit": "https://www.republique-numerique.fr/consultations/projet-de-loi-numerique/consultation/consultation/opinions/section-1-recommande-electronique/encadrement-et-simplification-des-cgu-et-cgv/arguments/2510/edit",
          "report": "https://www.republique-numerique.fr/consultations/projet-de-loi-numerique/consultation/consultation/opinions/section-1-recommande-electronique/encadrement-et-simplification-des-cgu-et-cgv/arguments/2510/report"
        },
        "has_user_voted": false,
        "has_user_reported": false
      },
      {
        "isContribuable": false,
        "id": 749,
        "body": "Oui mais si obligatoire à tous les sites (français ou étranger) voulant effectuer du commerce en France",
        "created_at": "2015-09-28T08:06:43+0200",
        "updated_at": "2015-09-29T18:33:59+0200",
        "is_enabled": true,
        "votes_count": 2,
        "type": 0,
        "is_trashed": false,
        "author": {
          "username": "NADPERR",
          "displayName": "NADPERR",
          "uniqueId": "nadperr",
          "isAdmin": false,
          "media": {
            "url": "/media/cache/default_avatar/default/0001/01/154_default_avatar.jpg"
          },
          "vip": false,
          "_links": {
            "profile": "https://www.republique-numerique.fr/profile/nadperr",
            "settings": "https://www.republique-numerique.fr/profile/edit-profile"
          }
        },
        "_links": {
          "show": "https://www.republique-numerique.fr/consultations/projet-de-loi-numerique/consultation/consultation/opinions/section-1-recommande-electronique/encadrement-et-simplification-des-cgu-et-cgv#arg-749",
          "edit": "https://www.republique-numerique.fr/consultations/projet-de-loi-numerique/consultation/consultation/opinions/section-1-recommande-electronique/encadrement-et-simplification-des-cgu-et-cgv/arguments/749/edit",
          "report": "https://www.republique-numerique.fr/consultations/projet-de-loi-numerique/consultation/consultation/opinions/section-1-recommande-electronique/encadrement-et-simplification-des-cgu-et-cgv/arguments/749/report"
        },
        "has_user_voted": false,
        "has_user_reported": false
      },
      {
        "isContribuable": false,
        "id": 1305,
        "body": "Il serais bien que l'état fournisse un CGU et une CGV modèle ou de référence avec un non . ainsi un site indiquant qu'il applique la CGU de l'état ne nous obligerais plus à la relire pour faire notre achat. C'est un moyen de mettre en confiance un acheteur. Et je vous rappelle que presque personne moins de 1% lisent les CGU/CGV lorsqu'ils font un achat. ça permettrait de palier à ce problème",
        "created_at": "2015-09-29T17:13:30+0200",
        "updated_at": "2015-09-29T17:13:30+0200",
        "is_enabled": true,
        "votes_count": 5,
        "type": 1,
        "is_trashed": false,
        "author": {
          "username": "lacombe",
          "displayName": "lacombe",
          "uniqueId": "lacombe",
          "isAdmin": false,
          "media": {
            "url": "/media/cache/default_avatar/default/0001/01/310_default_avatar.png"
          },
          "vip": false,
          "_links": {
            "profile": "https://www.republique-numerique.fr/profile/lacombe",
            "settings": "https://www.republique-numerique.fr/profile/edit-profile"
          }
        },
        "_links": {
          "show": "https://www.republique-numerique.fr/consultations/projet-de-loi-numerique/consultation/consultation/opinions/section-1-recommande-electronique/encadrement-et-simplification-des-cgu-et-cgv#arg-1305",
          "edit": "https://www.republique-numerique.fr/consultations/projet-de-loi-numerique/consultation/consultation/opinions/section-1-recommande-electronique/encadrement-et-simplification-des-cgu-et-cgv/arguments/1305/edit",
          "report": "https://www.republique-numerique.fr/consultations/projet-de-loi-numerique/consultation/consultation/opinions/section-1-recommande-electronique/encadrement-et-simplification-des-cgu-et-cgv/arguments/1305/report"
        },
        "has_user_voted": false,
        "has_user_reported": false
      },
      {
        "isContribuable": false,
        "id": 1031,
        "body": "A l'article 1, la menace de coupure du site contrevient au principe de neutralité.\nPar ailleurs et comme déjà mentionné, la mesure paraît difficilement applicable aux sites situés hors de France (ce qui en fait un certain nombre, dont les plus gros).",
        "created_at": "2015-09-28T20:54:34+0200",
        "updated_at": "2015-09-28T20:54:34+0200",
        "is_enabled": true,
        "votes_count": 7,
        "type": 0,
        "is_trashed": false,
        "author": {
          "username": "Superchaton",
          "displayName": "Superchaton",
          "uniqueId": "superchaton",
          "isAdmin": false,
          "media": null,
          "vip": false,
          "_links": {
            "profile": "https://www.republique-numerique.fr/profile/superchaton",
            "settings": "https://www.republique-numerique.fr/profile/edit-profile"
          }
        },
        "_links": {
          "show": "https://www.republique-numerique.fr/consultations/projet-de-loi-numerique/consultation/consultation/opinions/section-1-recommande-electronique/encadrement-et-simplification-des-cgu-et-cgv#arg-1031",
          "edit": "https://www.republique-numerique.fr/consultations/projet-de-loi-numerique/consultation/consultation/opinions/section-1-recommande-electronique/encadrement-et-simplification-des-cgu-et-cgv/arguments/1031/edit",
          "report": "https://www.republique-numerique.fr/consultations/projet-de-loi-numerique/consultation/consultation/opinions/section-1-recommande-electronique/encadrement-et-simplification-des-cgu-et-cgv/arguments/1031/report"
        },
        "has_user_voted": false,
        "has_user_reported": false
      },
      {
        "isContribuable": false,
        "id": 548,
        "body": "Il faudrait que l'état fournisse des CGV type pour les cas d'usage standard afin de simplifier la vie des entreprises. Cela aurait aussi comme bénéfice de permettre au internaute de les identifier facilement. Un peu à la manière des licences Creative Common.",
        "created_at": "2015-09-27T15:01:11+0200",
        "updated_at": "2015-09-27T15:01:11+0200",
        "is_enabled": true,
        "votes_count": 7,
        "type": 1,
        "is_trashed": false,
        "author": {
          "username": "Julien Duponchelle",
          "displayName": "Julien Duponchelle",
          "uniqueId": "julienduponchelle",
          "isAdmin": false,
          "media": null,
          "vip": false,
          "_links": {
            "profile": "https://www.republique-numerique.fr/profile/julienduponchelle",
            "settings": "https://www.republique-numerique.fr/profile/edit-profile"
          }
        },
        "_links": {
          "show": "https://www.republique-numerique.fr/consultations/projet-de-loi-numerique/consultation/consultation/opinions/section-1-recommande-electronique/encadrement-et-simplification-des-cgu-et-cgv#arg-548",
          "edit": "https://www.republique-numerique.fr/consultations/projet-de-loi-numerique/consultation/consultation/opinions/section-1-recommande-electronique/encadrement-et-simplification-des-cgu-et-cgv/arguments/548/edit",
          "report": "https://www.republique-numerique.fr/consultations/projet-de-loi-numerique/consultation/consultation/opinions/section-1-recommande-electronique/encadrement-et-simplification-des-cgu-et-cgv/arguments/548/report"
        },
        "has_user_voted": false,
        "has_user_reported": false
      },
      {
        "isContribuable": false,
        "id": 382,
        "body": "Je suis tout à fait d'accord. Ces textes sont délibérément rédigé pour perdre le consommateur et faire passer des choses qui normalement ne devraient pas passer.\nLeur réduction au strict minimum aidera à leur compréhension, et garantira au consommateur leur compréhension complète",
        "created_at": "2015-09-27T04:09:22+0200",
        "updated_at": "2015-09-27T04:09:22+0200",
        "is_enabled": true,
        "votes_count": 3,
        "type": 1,
        "is_trashed": false,
        "author": {
          "username": "Grégory JULIEN",
          "displayName": "Grégory JULIEN",
          "uniqueId": "gregoryjulien",
          "isAdmin": false,
          "media": null,
          "vip": false,
          "_links": {
            "profile": "https://www.republique-numerique.fr/profile/gregoryjulien",
            "settings": "https://www.republique-numerique.fr/profile/edit-profile"
          }
        },
        "_links": {
          "show": "https://www.republique-numerique.fr/consultations/projet-de-loi-numerique/consultation/consultation/opinions/section-1-recommande-electronique/encadrement-et-simplification-des-cgu-et-cgv#arg-382",
          "edit": "https://www.republique-numerique.fr/consultations/projet-de-loi-numerique/consultation/consultation/opinions/section-1-recommande-electronique/encadrement-et-simplification-des-cgu-et-cgv/arguments/382/edit",
          "report": "https://www.republique-numerique.fr/consultations/projet-de-loi-numerique/consultation/consultation/opinions/section-1-recommande-electronique/encadrement-et-simplification-des-cgu-et-cgv/arguments/382/report"
        },
        "has_user_voted": false,
        "has_user_reported": false
      },
      {
        "isContribuable": false,
        "id": 288,
        "body": "Il devrait y avoir un résumé de 10 lignes maximum en début qui résume les grandes lignes développées plus bas. Ces lignes devront indiquer si nos données sont collectées, si elles sont vendues à des tiers, quel type de droit d'auteur sur nos données, etc...",
        "created_at": "2015-09-26T23:15:42+0200",
        "updated_at": "2015-09-26T23:15:42+0200",
        "is_enabled": true,
        "votes_count": 7,
        "type": 1,
        "is_trashed": false,
        "author": {
          "username": "Jeanne Varasco",
          "displayName": "Jeanne Varasco",
          "uniqueId": "jeannevarasco",
          "isAdmin": false,
          "media": {
            "url": "/media/cache/default_avatar/default/0001/01/139_default_avatar.jpg"
          },
          "vip": false,
          "_links": {
            "profile": "https://www.republique-numerique.fr/profile/jeannevarasco",
            "settings": "https://www.republique-numerique.fr/profile/edit-profile"
          }
        },
        "_links": {
          "show": "https://www.republique-numerique.fr/consultations/projet-de-loi-numerique/consultation/consultation/opinions/section-1-recommande-electronique/encadrement-et-simplification-des-cgu-et-cgv#arg-288",
          "edit": "https://www.republique-numerique.fr/consultations/projet-de-loi-numerique/consultation/consultation/opinions/section-1-recommande-electronique/encadrement-et-simplification-des-cgu-et-cgv/arguments/288/edit",
          "report": "https://www.republique-numerique.fr/consultations/projet-de-loi-numerique/consultation/consultation/opinions/section-1-recommande-electronique/encadrement-et-simplification-des-cgu-et-cgv/arguments/288/report"
        },
        "has_user_voted": false,
        "has_user_reported": false
      },
      {
        "isContribuable": false,
        "id": 238,
        "body": "Je suis pour cette simplification des CGV. Cependant, cette loi n'affectera que les sites hébergés en France. Le fait de proposer des CGV en français est alors, je pense, déjà la norme.",
        "created_at": "2015-09-26T20:10:44+0200",
        "updated_at": "2015-09-26T20:10:44+0200",
        "is_enabled": true,
        "votes_count": 3,
        "type": 0,
        "is_trashed": false,
        "author": {
          "username": "Gaël Rousseau",
          "displayName": "Gaël Rousseau",
          "uniqueId": "gaelrousseau",
          "isAdmin": false,
          "media": null,
          "vip": false,
          "_links": {
            "profile": "https://www.republique-numerique.fr/profile/gaelrousseau",
            "settings": "https://www.republique-numerique.fr/profile/edit-profile"
          }
        },
        "_links": {
          "show": "https://www.republique-numerique.fr/consultations/projet-de-loi-numerique/consultation/consultation/opinions/section-1-recommande-electronique/encadrement-et-simplification-des-cgu-et-cgv#arg-238",
          "edit": "https://www.republique-numerique.fr/consultations/projet-de-loi-numerique/consultation/consultation/opinions/section-1-recommande-electronique/encadrement-et-simplification-des-cgu-et-cgv/arguments/238/edit",
          "report": "https://www.republique-numerique.fr/consultations/projet-de-loi-numerique/consultation/consultation/opinions/section-1-recommande-electronique/encadrement-et-simplification-des-cgu-et-cgv/arguments/238/report"
        },
        "has_user_voted": false,
        "has_user_reported": false
      }
    ],
    "modals": [],
    "votes": [
      {
        "user": {
          "username": "Timothé LUCIUS",
          "displayName": "Timothé LUCIUS",
          "uniqueId": "timothelucius",
          "isAdmin": false,
          "media": null,
          "vip": false,
          "_links": {
            "profile": "https://www.republique-numerique.fr/profile/timothelucius",
            "settings": "https://www.republique-numerique.fr/profile/edit-profile"
          }
        }
      },
      {
        "user": {
          "username": "Patrice S.",
          "displayName": "Patrice S.",
          "uniqueId": "patrices",
          "isAdmin": false,
          "media": {
            "url": "/media/cache/default_avatar/default/0001/01/177_default_avatar.png"
          },
          "vip": false,
          "_links": {
            "profile": "https://www.republique-numerique.fr/profile/patrices",
            "settings": "https://www.republique-numerique.fr/profile/edit-profile"
          }
        }
      },
      {
        "user": {
          "username": "Paul",
          "displayName": "Paul",
          "uniqueId": "paul",
          "isAdmin": false,
          "media": null,
          "vip": false,
          "_links": {
            "profile": "https://www.republique-numerique.fr/profile/paul",
            "settings": "https://www.republique-numerique.fr/profile/edit-profile"
          }
        }
      },
      {
        "user": {
          "username": "Bernard Desmyter",
          "displayName": "Bernard Desmyter",
          "uniqueId": "bernarddesmyter",
          "isAdmin": false,
          "media": null,
          "vip": false,
          "_links": {
            "profile": "https://www.republique-numerique.fr/profile/bernarddesmyter",
            "settings": "https://www.republique-numerique.fr/profile/edit-profile"
          }
        }
      },
      {
        "user": {
          "username": "Jeanne Varasco",
          "displayName": "Jeanne Varasco",
          "uniqueId": "jeannevarasco",
          "isAdmin": false,
          "media": {
            "url": "/media/cache/default_avatar/default/0001/01/139_default_avatar.jpg"
          },
          "vip": false,
          "_links": {
            "profile": "https://www.republique-numerique.fr/profile/jeannevarasco",
            "settings": "https://www.republique-numerique.fr/profile/edit-profile"
          }
        }
      }
    ],
    "appendices": [
      {
        "body": "<p>Les CGV et CGU sont tr&egrave;s souvent incompr&eacute;hensibles, abusives et/ou avec des annexes en anglais.&nbsp;</p>\r\n\r\n<p>Elles sont de plus tr&egrave;s longues, si bien, que tr&egrave;s peu d&#39;utilisateurs les lisent. Certains exploitants les allongent volontairement afin de les rendrent encore plus opaques.&nbsp;</p>\r\n\r\n<p>Enfin, certaines obligent le packaging et les exploitant de plateforme rendent l&#39;acceptation des nouvelles CGV obligatoires pour continuer &agrave; utiliser le service.</p>\r\n\r\n<p>Certaines id&eacute;es sont peut-&ecirc;tre d&eacute;j&agrave; dans la loi.&nbsp;</p>",
        "type": {
          "title": "Explication de l'article"
        }
      }
    ],
    "ranking": 71,
    "is_trashed": false,
    "title": "Encadrement et simplification des CGU et CGV.",
    "votes_nok": 6,
    "votes_ok": 146,
    "votes_mitige": 14,
    "_links": {
      "show": "https://www.republique-numerique.fr/consultations/projet-de-loi-numerique/consultation/consultation/opinions/section-1-recommande-electronique/encadrement-et-simplification-des-cgu-et-cgv",
      "edit": "https://www.republique-numerique.fr/consultations/projet-de-loi-numerique/consultation/consultation/opinions/section-1-recommande-electronique/encadrement-et-simplification-des-cgu-et-cgv/edit",
      "report": "https://www.republique-numerique.fr/consultations/projet-de-loi-numerique/consultation/consultation/opinions/section-1-recommande-electronique/encadrement-et-simplification-des-cgu-et-cgv/report",
      "type": "https://www.republique-numerique.fr/consultations/projet-de-loi-numerique/consultation/consultation/opinions/section-1-recommande-electronique"
    },
    "user_vote": null,
    "has_user_reported": false
  },
  "rankingThreshold": null,
  "opinionTerm": 1
}