{
  "version": {
    "isContribuable": false,
    "votes_total": 5,
    "arguments_yes_count": 0,
    "arguments_no_count": 0,
    "id": 166,
    "body": "<p>I. Apr&egrave;s l&rsquo;article 10 de la m&ecirc;me loi, il est r&eacute;tabli un article 11, ainsi r&eacute;dig&eacute;&nbsp;:</p>\r\n\r\n<p>&laquo;&nbsp;Art. 11&nbsp;-&nbsp;Les administrations mentionn&eacute;es &agrave; l&rsquo;article 1er sont tenues de satisfaire aux demandes de transmission des informations publiques pr&eacute;sent&eacute;es par une autre administration mentionn&eacute;e &agrave; l&rsquo;article 1er. Cette obligation ne concerne pas les informations publiques contenues dans les documents mentionn&eacute;s &agrave; l&rsquo;article 6, sans pr&eacute;judice des dispositions du III de cet article et du I de l&rsquo;article 16A de la loi n&deg;&nbsp;2000-321 du 12 avril 2000.</p>\r\n\r\n<p>&laquo;&nbsp;Cet &eacute;change d&rsquo;informations ne constitue pas une r&eacute;utilisation au sens du pr&eacute;sent chapitre.&nbsp;&raquo;</p>\r\n\r\n<p>II. Le premier alin&eacute;a de l&rsquo;article 13 de la m&ecirc;me loi est supprim&eacute;.</p>\r\n\r\n<p>III. Le premier alin&eacute;a de l&rsquo;article 17 de la m&ecirc;me loi est compl&eacute;t&eacute; par la phrase suivante&nbsp;: &laquo;&nbsp;Elles publient chaque ann&eacute;e une version mise &agrave; jour de ce r&eacute;pertoire.&nbsp;&raquo;</p>\r\n\r\n<p>IV. Au troisi&egrave;me alin&eacute;a de l&rsquo;article 20 de la m&ecirc;me loi, apr&egrave;s les mots &laquo;&nbsp;refus de communication&nbsp;&raquo; sont ins&eacute;r&eacute;s les mots &laquo;&nbsp;ou un refus de diffusion&nbsp;&raquo;.</p>\r\n\r\n<p>V. Au dernier alin&eacute;a de l&rsquo;article 23 de la m&ecirc;me loi, apr&egrave;s les mots &laquo;&nbsp;d&eacute;lib&eacute;rer en formation restreinte&nbsp;&raquo; sont ins&eacute;r&eacute;s les mots&nbsp;&laquo;&nbsp;ou d&eacute;l&eacute;guer &agrave; son pr&eacute;sident l&rsquo;exercice de certaines de ses attributions&nbsp;&raquo;.</p>",
    "comment": "<p>Toutes donn&eacute;es &agrave; carat&egrave;res personnel ne doit pas &ecirc;tre diffus&eacute;.</p>\n\n<p>Quelque soit l&#39;oganisme public ou priv&eacute;</p>",
    "author": {
      "username": "Delinard Franck",
      "displayName": "Delinard Franck",
      "uniqueId": "delinardfranck",
      "isAdmin": false,
      "media": null,
      "vip": false,
      "_links": {
        "profile": "https://www.republique-numerique.fr/profile/delinardfranck",
        "settings": "https://www.republique-numerique.fr/profile/edit-profile"
      }
    },
    "arguments": [],
    "sources": [],
    "parent": {
      "isContribuable": false,
      "id": 63,
      "body": "<p>I. Apr&egrave;s l&rsquo;article 10 de la m&ecirc;me loi, il est r&eacute;tabli un article 11, ainsi r&eacute;dig&eacute;&nbsp;:</p>\r\n\r\n<p>&laquo;&nbsp;Art. 11&nbsp;-&nbsp;Les administrations mentionn&eacute;es &agrave; l&rsquo;article 1er sont tenues de satisfaire aux demandes de transmission des informations publiques pr&eacute;sent&eacute;es par une autre administration mentionn&eacute;e &agrave; l&rsquo;article 1er. Cette obligation ne concerne pas les informations publiques contenues dans les documents mentionn&eacute;s &agrave; l&rsquo;article 6, sans pr&eacute;judice des dispositions du III de cet article et du I de l&rsquo;article 16A de la loi n&deg;&nbsp;2000-321 du 12 avril 2000.</p>\r\n\r\n<p>&laquo;&nbsp;Cet &eacute;change d&rsquo;informations ne constitue pas une r&eacute;utilisation au sens du pr&eacute;sent chapitre.&nbsp;&raquo;</p>\r\n\r\n<p>II. Le premier alin&eacute;a de l&rsquo;article 13 de la m&ecirc;me loi est supprim&eacute;.</p>\r\n\r\n<p>III. Le premier alin&eacute;a de l&rsquo;article 17 de la m&ecirc;me loi est compl&eacute;t&eacute; par la phrase suivante&nbsp;: &laquo;&nbsp;Elles publient chaque ann&eacute;e une version mise &agrave; jour de ce r&eacute;pertoire.&nbsp;&raquo;</p>\r\n\r\n<p>IV. Au troisi&egrave;me alin&eacute;a de l&rsquo;article 20 de la m&ecirc;me loi, apr&egrave;s les mots &laquo;&nbsp;refus de communication&nbsp;&raquo; sont ins&eacute;r&eacute;s les mots &laquo;&nbsp;ou un refus de diffusion&nbsp;&raquo;.</p>\r\n\r\n<p>V. Au dernier alin&eacute;a de l&rsquo;article 23 de la m&ecirc;me loi, apr&egrave;s les mots &laquo;&nbsp;d&eacute;lib&eacute;rer en formation restreinte&nbsp;&raquo; sont ins&eacute;r&eacute;s les mots&nbsp;&laquo;&nbsp;ou d&eacute;l&eacute;guer &agrave; son pr&eacute;sident l&rsquo;exercice de certaines de ses attributions&nbsp;&raquo;.</p>",
      "type": {
        "id": 86,
        "title": "Section 1",
        "subtitle": "Ouverture des données publiques",
        "voteWidgetType": 2,
        "votesHelpText": "Pensez-vous que cette proposition permet d'atteindre les objectifs présentés dans l’explication de l’article ?",
        "commentSystem": 2,
        "color": "blue",
        "versionable": true,
        "sourceable": true,
        "votesThreshold": null,
        "votesThresholdHelpText": null
      },
      "modals": [
        {
          "key": "article 11",
          "before": "<p>Par dérogation au présent chapitre, les conditions dans lesquelles les informations peuvent être réutilisées sont fixées, le cas échéant, par les administrations mentionnées aux a et b du présent article lorsqu'elles figurent dans des documents produits ou reçus par :<br>a) Des établissements et institutions d'enseignement et de recherche ;<br>b) Des établissements, organismes ou services culturels.</p>",
          "after": "<p>Les administrations mentionnées à l’article 1er sont tenues de satisfaire aux demandes de transmission des informations publiques présentées par une autre administration mentionnée à l’article 1er. Cette obligation ne concerne pas les informations publiques contenues dans les documents mentionnés à l’article 6, sans préjudice des dispositions du III de cet article et du I de l’article 16A de la loi n° 2000-321 du 12 avril 2000.</p><p>Cet échange d’informations ne constitue pas une réutilisation au sens du présent chapitre.</p>",
          "title": "Article 11 de la loi n°78-753 du 17 juillet 1978"
        },
        {
          "key": "article 13",
          "before": "<p>Les informations publiques comportant des données à caractère personnel peuvent faire l'objet d'une réutilisation soit lorsque la personne intéressée y a consenti, soit si l'autorité détentrice est en mesure de les rendre anonymes ou, à défaut d'anonymisation, si une disposition législative ou réglementaire le permet.</p><p>La réutilisation d'informations publiques comportant des données à caractère personnel est subordonnée au respect des dispositions de la loi n° 78-17 du 6 janvier 1978 relative à l'informatique, aux fichiers et aux libertés</p>",
          "after": "<p>La réutilisation d'informations publiques comportant des données à caractère personnel est subordonnée au respect des dispositions de la loi n° 78-17 du 6 janvier 1978 relative à l'informatique, aux fichiers et aux libertés</p>",
          "title": "Article 13 de la loi n°78-753 du 17 juillet 1978"
        },
        {
          "key": "article 17",
          "before": "<p>Les administrations qui produisent ou détiennent des informations publiques tiennent à la disposition des usagers un répertoire des principaux documents dans lesquels ces informations figurent.</p><p>Les conditions de réutilisation des informations publiques, ainsi que les bases de calcul retenues pour la fixation du montant des redevances, sont communiquées, par les administrations qui ont produit ou détiennent ces informations, à toute personne qui en fait la demande.</p>",
          "after": "<p>Les administrations qui produisent ou détiennent des informations publiques tiennent à la disposition des usagers un répertoire des principaux documents dans lesquels ces informations figurent. Elles publient chaque année une version mise à jour de ce répertoire.</p><p>Les conditions de réutilisation des informations publiques, ainsi que les bases de calcul retenues pour la fixation du montant des redevances, sont communiquées, par les administrations qui ont produit ou détiennent ces informations, à toute personne qui en fait la demande.</p>",
          "title": "Article 17 de la loi n° 78-753 du 17 juillet 1978"
        },
        {
          "key": "article 20",
          "before": "<p>La commission d'accès aux documents administratifs est une autorité administrative indépendante.</p><p>Elle est chargée de veiller au respect de la liberté d'accès aux documents administratifs et aux archives publiques ainsi qu'à l'application du chapitre II relatif à la réutilisation des informations publiques dans les conditions prévues par le présent titre et par le titre Ier du livre II du code du patrimoine.</p><p>Elle émet des avis lorsqu'elle est saisie par une personne à qui est opposé un refus de communication d'un document administratif en application du chapitre Ier, un refus de consultation ou de communication des documents d'archives publiques, à l'exception des documents mentionnés au c de l'article L. 211-4 du code du patrimoine et des actes et documents produits ou reçus par les assemblées parlementaires, ou une décision défavorable en matière de réutilisation d'informations publiques.</p><p>La saisine pour avis de la commission est un préalable obligatoire à l'exercice d'un recours contentieux.</p>",
          "after": "<p>La commission d'accès aux documents administratifs est une autorité administrative indépendante.</p><p>Elle est chargée de veiller au respect de la liberté d'accès aux documents administratifs et aux archives publiques ainsi qu'à l'application du chapitre II relatif à la réutilisation des informations publiques dans les conditions prévues par le présent titre et par le titre Ier du livre II du code du patrimoine.</p><p>Elle émet des avis lorsqu'elle est saisie par une personne à qui est opposé un refus de communication ou un refus de diffusion d'un document administratif en application du chapitre Ier, un refus de consultation ou de communication des documents d'archives publiques, à l'exception des documents mentionnés au c de l'article L. 211-4 du code du patrimoine et des actes et documents produits ou reçus par les assemblées parlementaires, ou une décision défavorable en matière de réutilisation d'informations publiques.</p><p>La saisine pour avis de la commission est un préalable obligatoire à l'exercice d'un recours contentieux.</p>",
          "title": "Article 20 de la loi n°78-753 du 17 juillet 1978 "
        },
        {
          "key": "article 23",
          "before": "<p>...</p><p>Un décret en Conseil d'Etat détermine les modalités de fonctionnement de la commission. Il fixe notamment les cas et les conditions dans lesquels la commission peut délibérer en formation restreinte.</p>",
          "after": "<p>...</p><p>Un décret en Conseil d'Etat détermine les modalités de fonctionnement de la commission. Il fixe notamment les cas et les conditions dans lesquels la commission peut délibérer en formation restreinte ou déléguer à son président l’exercice de certaines de ses attributions.</p>",
          "title": "Article 23 de la loi n°78-753 du 17 juillet 1978"
        }
      ],
      "appendices": [
        {
          "body": "<p><strong>Premier Objectif :</strong> donner aux organismes publics un droit d&rsquo;obtenir les documents administratifs des autres personnes publiques.</p>\r\n\r\n<p><strong>Explication :</strong> aujourd&rsquo;hui le droit d&rsquo;acc&egrave;s pr&eacute;vu par la loi CADA est r&eacute;serv&eacute; aux personnes priv&eacute;es : un organisme public ne peut pas s&rsquo;en pr&eacute;valoir pour demander un document administratif. Cela cr&eacute;e des situations paradoxales : quand une commune veut demander un document &agrave; l&rsquo;Etat, le maire peut le faire en tant que personne priv&eacute;e mais pas en tant que maire. L&rsquo;article cr&eacute;e donc une obligation pour les administrations de r&eacute;pondre aux demandes de transmission d&rsquo;informations des autres personnes morales publiques.</p>\r\n\r\n<p><strong>Exemple :</strong> certaines donn&eacute;es agricoles poss&eacute;d&eacute;es par l&rsquo;Etat (comme le registre parcellaire graphique), dont les syndicats intercommunaux ont besoin pour diminuer les pollutions agricoles, devront &ecirc;tre mises &agrave; disposition.</p>\r\n\r\n<p><strong>Deuxi&egrave;me Objectif :</strong> simplifier et faciliter la r&eacute;utilisation des informations publiques qui concernent des donn&eacute;es personnelles ne portant pas atteinte &agrave; la vie priv&eacute;e.</p>\r\n\r\n<p><strong>Explication :</strong> aujourd&rsquo;hui, la r&eacute;utilisation des informations publiques comportant des donn&eacute;es personnelles est interdite sauf exception (elle n&rsquo;est possible qu&rsquo;en cas de consentement des int&eacute;ress&eacute;s, d&rsquo;anonymisation ou d&rsquo;autorisation l&eacute;gislative ou r&eacute;glementaire expresse). Cette interdiction s&rsquo;applique m&ecirc;me quand les donn&eacute;es ont &eacute;t&eacute; publi&eacute;es et ne pr&eacute;sentent aucun danger d&rsquo;atteinte &agrave; la vie priv&eacute;e. L&rsquo;article propose donc de simplifier les r&egrave;gles pour faciliter cette r&eacute;utilisation, tout en conservant un r&eacute;gime tr&egrave;s protecteur: d&eacute;sormais la protection des donn&eacute;es personnelles contenues dans les informations publiques sera garantie par la loi &laquo; Informatique et libert&eacute;s &raquo; du 6 janvier 1978 (qui constitue un cadre tr&egrave;s exigeant et couvre tous les risques d&rsquo;atteinte r&eacute;elle &agrave; la vie priv&eacute;e).</p>\r\n\r\n<p><strong>Exemple :</strong> l&rsquo;annuaire des m&eacute;decins publi&eacute; par l&rsquo;Assurance maladie, disponible en ligne, qu&rsquo;il est aujourd&rsquo;hui interdit de r&eacute;utiliser pour proposer une application de cartographie des m&eacute;decins avec leurs cat&eacute;gories de tarifs.</p>",
          "type": {
            "title": "Explication de l'article"
          }
        }
      ],
      "title": "Article 3 - Droit d’accès des organismes publics aux données publiques & de réutilisation d’informations comportant des données personnelles déjà publiées",
      "_links": {
        "show": "https://www.republique-numerique.fr/consultations/projet-de-loi-numerique/consultation/consultation/opinions/section-1-ouverture-des-donnees-publiques-1/article-3-dispositions-diverses",
        "edit": "https://www.republique-numerique.fr/consultations/projet-de-loi-numerique/consultation/consultation/opinions/section-1-ouverture-des-donnees-publiques-1/article-3-dispositions-diverses/edit",
        "report": "https://www.republique-numerique.fr/consultations/projet-de-loi-numerique/consultation/consultation/opinions/section-1-ouverture-des-donnees-publiques-1/article-3-dispositions-diverses/report",
        "type": "https://www.republique-numerique.fr/consultations/projet-de-loi-numerique/consultation/consultation/opinions/section-1-ouverture-des-donnees-publiques-1"
      },
      "user_vote": null,
      "has_user_reported": false
    },
    "sources_count": 0,
    "arguments_count": 0,
    "votes": [
      {
        "user": {
          "username": "François Briat",
          "displayName": "François Briat",
          "uniqueId": "francoisbriat",
          "isAdmin": false,
          "media": {
            "url": "/media/cache/default_avatar/default/0001/01/243_default_avatar.jpg"
          },
          "vip": false,
          "_links": {
            "profile": "https://www.republique-numerique.fr/profile/francoisbriat",
            "settings": "https://www.republique-numerique.fr/profile/edit-profile"
          }
        },
        "value": -1
      },
      {
        "user": {
          "username": "Eric Poisse",
          "displayName": "Eric Poisse",
          "uniqueId": "ericpoisse",
          "isAdmin": false,
          "media": null,
          "vip": false,
          "_links": {
            "profile": "https://www.republique-numerique.fr/profile/ericpoisse",
            "settings": "https://www.republique-numerique.fr/profile/edit-profile"
          }
        },
        "value": -1
      },
      {
        "user": {
          "username": "Vincent Reverdy",
          "displayName": "Vincent Reverdy",
          "uniqueId": "vincentreverdy",
          "isAdmin": false,
          "media": {
            "url": "/media/cache/default_avatar/default/0001/01/268_default_avatar.jpg"
          },
          "vip": false,
          "_links": {
            "profile": "https://www.republique-numerique.fr/profile/vincentreverdy",
            "settings": "https://www.republique-numerique.fr/profile/edit-profile"
          }
        },
        "value": 0
      },
      {
        "user": {
          "username": "Yann De Damany",
          "displayName": "Yann De Damany",
          "uniqueId": "yanndedamany",
          "isAdmin": false,
          "media": null,
          "vip": false,
          "_links": {
            "profile": "https://www.republique-numerique.fr/profile/yanndedamany",
            "settings": "https://www.republique-numerique.fr/profile/edit-profile"
          }
        },
        "value": -1
      },
      {
        "user": {
          "username": "Jeanne Varasco",
          "displayName": "Jeanne Varasco",
          "uniqueId": "jeannevarasco",
          "isAdmin": false,
          "media": {
            "url": "/media/cache/default_avatar/default/0001/01/139_default_avatar.jpg"
          },
          "vip": false,
          "_links": {
            "profile": "https://www.republique-numerique.fr/profile/jeannevarasco",
            "settings": "https://www.republique-numerique.fr/profile/edit-profile"
          }
        },
        "value": -1
      }
    ],
    "updated_at": "2015-09-26T21:16:56+0200",
    "ranking": 1201,
    "is_trashed": false,
    "title": "faire attention à ce texte de loi",
    "slug": "faire-attention-a-ce-texte-de-loi",
    "created_at": "2015-09-26T21:16:56+0200",
    "votes_nok": 4,
    "votes_ok": 0,
    "votes_mitige": 1,
    "_links": {
      "show": "https://www.republique-numerique.fr/consultations/projet-de-loi-numerique/consultation/consultation/opinions/section-1-ouverture-des-donnees-publiques-1/article-3-dispositions-diverses/versions/faire-attention-a-ce-texte-de-loi",
      "report": "https://www.republique-numerique.fr/consultations/projet-de-loi-numerique/consultation/consultation/opinions/section-1-ouverture-des-donnees-publiques-1/article-3-dispositions-diverses/versions/faire-attention-a-ce-texte-de-loi/report"
    },
    "user_vote": null,
    "has_user_reported": false
  },
  "rankingThreshold": null,
  "opinionTerm": 1
}