{
  "version": {
    "isContribuable": false,
    "votes_total": 4,
    "arguments_yes_count": 0,
    "arguments_no_count": 0,
    "id": 224,
    "body": "<p>I. Apr&egrave;s l&rsquo;article 10 de la m&ecirc;me loi, il est r&eacute;tabli un article 11, ainsi r&eacute;dig&eacute;&nbsp;:</p>\r\n\r\n<p>&laquo;&nbsp;Art. 11&nbsp;-&nbsp;Les administrations mentionn&eacute;es &agrave; l&rsquo;article 1er sont tenues de satisfaire aux demandes de transmission des informations publiques pr&eacute;sent&eacute;es par une autre administration mentionn&eacute;e &agrave; l&rsquo;article 1er. Cette obligation ne concerne pas les informations publiques contenues dans les documents mentionn&eacute;s &agrave; l&rsquo;article 6, sans pr&eacute;judice des dispositions du III de cet article et du I de l&rsquo;article 16A de la loi n&deg;&nbsp;2000-321 du 12 avril 2000.</p>\r\n\r\n<p>&laquo;&nbsp;Cet &eacute;change d&rsquo;informations ne constitue pas une r&eacute;utilisation au sens du pr&eacute;sent chapitre.&nbsp;&raquo;</p>\r\n\r\n<p>II. Le premier alin&eacute;a de l&rsquo;article 13 de la m&ecirc;me loi est supprim&eacute;.</p>\r\n\r\n<p>III. Le premier alin&eacute;a de l&rsquo;article 17 de la m&ecirc;me loi est compl&eacute;t&eacute; par la phrase suivante&nbsp;: &laquo;&nbsp;Elles publient chaque ann&eacute;e une version mise &agrave; jour de ce r&eacute;pertoire.&nbsp;&raquo;</p>\r\n\r\n<p>IV. Au troisi&egrave;me alin&eacute;a de l&rsquo;article 20 de la m&ecirc;me loi, apr&egrave;s les mots &laquo;&nbsp;refus de communication&nbsp;&raquo; sont ins&eacute;r&eacute;s les mots &laquo;&nbsp;ou un refus de diffusion&nbsp;&raquo;.</p>\r\n\r\n<p>V. Au dernier alin&eacute;a de l&rsquo;article 23 de la m&ecirc;me loi, apr&egrave;s les mots &laquo;&nbsp;d&eacute;lib&eacute;rer en formation restreinte&nbsp;&raquo; sont ins&eacute;r&eacute;s les mots&nbsp;&laquo;&nbsp;ou d&eacute;l&eacute;guer &agrave; son pr&eacute;sident l&rsquo;exercice de certaines de ses attributions&nbsp;&raquo;.</p>",
    "comment": "<p>Il y a d&eacute;multiplication des services de tout type . Au nom des principes de coh&eacute;rence et d&#39;eficacit&eacute;.</p>\n\n<p>Il est propos&eacute; de cr&eacute;er un seul organisme : ind&eacute;pendant, s&eacute;par&eacute;, &eacute;lu, contr&ocirc;l&eacute; par l&#39;interm&eacute;diaire constitutionnel, qui traitera &eacute;galement toutes les donn&eacute;es pour tous les interlocuteurs quels qu&#39;ils soient.</p>\n\n<p>La probl&eacute;matique de cette loi est mal pos&eacute;e</p>\n\n<p>Se reporter &agrave; <a _src=\"http://richardnowak.blog.lemonde.fr/2015/07/13/libre-ue-5-2/\" class=\"external-link\" href=\"http://richardnowak.blog.lemonde.fr/2015/07/13/libre-ue-5-2/\">http://richardnowak.blog.lemonde.fr/2015/07/13/libre-ue-5-2/</a>&nbsp; pour comprendre que l&#39;&eacute;galit&eacute; de traitement, ne peut d&eacute;ouler que d&#39;une structure la m&ecirc;me pour tous, que cela soient administration, Gouvernement, Pr&eacute;sidence, assembl&eacute;es, Pouvoir judiciaire et surtout citoyens. L&#39;action du gouvernement, impliqu&eacute; en tant que partie dans cette d&eacute;marche d&#39;information n&#39;est pas rigoureuse, par rapport &agrave; la D&eacute;claration des droits de l&#39;homme et du citoyen de 1789 notamment son pr&eacute;ambule.</p>\n\n<p>&quot;Les Repr&eacute;sentants du Peuple Fran&ccedil;ais, constitu&eacute;s en Assembl&eacute;e Nationale, consid&eacute;rant que l&#39;ignorance, l&#39;oubli ou le m&eacute;pris des droits de l&#39;Homme sont les seules causes des malheurs publics et de la corruption des Gouvernements, ont r&eacute;solu d&#39;exposer, dans une D&eacute;claration solennelle, les droits naturels, inali&eacute;nables et sacr&eacute;s de l&#39;Homme, afin que cette D&eacute;claration, constamment pr&eacute;sente &agrave; tous les Membres du corps social, leur rappelle sans cesse leurs droits et leurs devoirs ; afin que les actes du pouvoir l&eacute;gislatif, et ceux du pouvoir ex&eacute;cutif, pouvant &ecirc;tre &agrave; chaque instant compar&eacute;s avec le but de toute institution politique, en soient plus respect&eacute;s; afin que les r&eacute;clamations des citoyens, fond&eacute;es d&eacute;sormais sur des principes simples et incontestables, tournent toujours au maintien de la Constitution et au bonheur de tous.&quot;</p>\n\n<p>&nbsp;</p>\n\n<p>Force est de constater que la r&eacute;ponse &agrave; l&#39;ignorance ne figure pas dans le pr&eacute;ambule.</p>\n\n<p>Je propose donc de commencer par : &quot;D&eacute;clarer solennellement que l&#39;information est la r&eacute;ponse &agrave; l&#39;ignorance.&quot;</p>\n\n<p>Puis d&eacute;finir un Pouvoir informatif ternaire compos&eacute; de trois branches : &quot;datas&quot;, m&eacute;moire, &eacute;ducation.</p>\n\n<p>Logiquement s&eacute;parer les pouvoirs conform&eacute;ment &agrave; : D&eacute;claration des Droits de l&#39;Homme et du Citoyen de 1789 Art. 16. -</p>\n\n<p>Toute Soci&eacute;t&eacute; dans laquelle la garantie des Droits n&#39;est pas assur&eacute;e, ni la s&eacute;paration des Pouvoirs d&eacute;termin&eacute;e, n&#39;a point de Constitution.</p>\n\n<p>Tout l&#39;&eacute;difice n&eacute; de la R&eacute;volution fran&ccedil;aise, et confort&eacute; ensuite, doit logiquement &ecirc;tre remis sur le m&eacute;tier.</p>\n\n<p>Ensuite d&eacute;finir un &quot;Pouvoir Informatif&quot;</p>\n\n<p>Ensuite et seulement ensuite une loi organique sur l&#39;administration et son r&ocirc;le dans l&#39;&eacute;tat pourra logiquement &ecirc;tre propos&eacute;e.</p>\n\n<p>Le gouvernement en proposant une loi de type holacratique ne remettant pas celle ci en perspective avec l&#39;ensemble de l&#39;&eacute;difice existant, manque son but : servir le citoyen. Plus grave ajoute &agrave; l&#39;empilement l&eacute;gislatif de plus de 10 000 textes depuis le d&eacute;but de la V&egrave;me r&eacute;publique, sans apporter de &quot;r&eacute;ponse quand au maintien du bonheur de tous&quot;.</p>",
    "author": {
      "username": "Richard NOWAK",
      "displayName": "Richard NOWAK",
      "uniqueId": "richardnowak",
      "isAdmin": false,
      "media": {
        "url": "/media/cache/default_avatar/default/0001/01/165_default_avatar.jpg"
      },
      "vip": false,
      "_links": {
        "profile": "https://www.republique-numerique.fr/profile/richardnowak",
        "settings": "https://www.republique-numerique.fr/profile/edit-profile"
      }
    },
    "arguments": [],
    "sources": [],
    "parent": {
      "isContribuable": false,
      "id": 63,
      "body": "<p>I. Apr&egrave;s l&rsquo;article 10 de la m&ecirc;me loi, il est r&eacute;tabli un article 11, ainsi r&eacute;dig&eacute;&nbsp;:</p>\r\n\r\n<p>&laquo;&nbsp;Art. 11&nbsp;-&nbsp;Les administrations mentionn&eacute;es &agrave; l&rsquo;article 1er sont tenues de satisfaire aux demandes de transmission des informations publiques pr&eacute;sent&eacute;es par une autre administration mentionn&eacute;e &agrave; l&rsquo;article 1er. Cette obligation ne concerne pas les informations publiques contenues dans les documents mentionn&eacute;s &agrave; l&rsquo;article 6, sans pr&eacute;judice des dispositions du III de cet article et du I de l&rsquo;article 16A de la loi n&deg;&nbsp;2000-321 du 12 avril 2000.</p>\r\n\r\n<p>&laquo;&nbsp;Cet &eacute;change d&rsquo;informations ne constitue pas une r&eacute;utilisation au sens du pr&eacute;sent chapitre.&nbsp;&raquo;</p>\r\n\r\n<p>II. Le premier alin&eacute;a de l&rsquo;article 13 de la m&ecirc;me loi est supprim&eacute;.</p>\r\n\r\n<p>III. Le premier alin&eacute;a de l&rsquo;article 17 de la m&ecirc;me loi est compl&eacute;t&eacute; par la phrase suivante&nbsp;: &laquo;&nbsp;Elles publient chaque ann&eacute;e une version mise &agrave; jour de ce r&eacute;pertoire.&nbsp;&raquo;</p>\r\n\r\n<p>IV. Au troisi&egrave;me alin&eacute;a de l&rsquo;article 20 de la m&ecirc;me loi, apr&egrave;s les mots &laquo;&nbsp;refus de communication&nbsp;&raquo; sont ins&eacute;r&eacute;s les mots &laquo;&nbsp;ou un refus de diffusion&nbsp;&raquo;.</p>\r\n\r\n<p>V. Au dernier alin&eacute;a de l&rsquo;article 23 de la m&ecirc;me loi, apr&egrave;s les mots &laquo;&nbsp;d&eacute;lib&eacute;rer en formation restreinte&nbsp;&raquo; sont ins&eacute;r&eacute;s les mots&nbsp;&laquo;&nbsp;ou d&eacute;l&eacute;guer &agrave; son pr&eacute;sident l&rsquo;exercice de certaines de ses attributions&nbsp;&raquo;.</p>",
      "type": {
        "id": 86,
        "title": "Section 1",
        "subtitle": "Ouverture des données publiques",
        "voteWidgetType": 2,
        "votesHelpText": "Pensez-vous que cette proposition permet d'atteindre les objectifs présentés dans l’explication de l’article ?",
        "commentSystem": 2,
        "color": "blue",
        "versionable": true,
        "sourceable": true,
        "votesThreshold": null,
        "votesThresholdHelpText": null
      },
      "modals": [
        {
          "key": "article 11",
          "before": "<p>Par dérogation au présent chapitre, les conditions dans lesquelles les informations peuvent être réutilisées sont fixées, le cas échéant, par les administrations mentionnées aux a et b du présent article lorsqu'elles figurent dans des documents produits ou reçus par :<br>a) Des établissements et institutions d'enseignement et de recherche ;<br>b) Des établissements, organismes ou services culturels.</p>",
          "after": "<p>Les administrations mentionnées à l’article 1er sont tenues de satisfaire aux demandes de transmission des informations publiques présentées par une autre administration mentionnée à l’article 1er. Cette obligation ne concerne pas les informations publiques contenues dans les documents mentionnés à l’article 6, sans préjudice des dispositions du III de cet article et du I de l’article 16A de la loi n° 2000-321 du 12 avril 2000.</p><p>Cet échange d’informations ne constitue pas une réutilisation au sens du présent chapitre.</p>",
          "title": "Article 11 de la loi n°78-753 du 17 juillet 1978"
        },
        {
          "key": "article 13",
          "before": "<p>Les informations publiques comportant des données à caractère personnel peuvent faire l'objet d'une réutilisation soit lorsque la personne intéressée y a consenti, soit si l'autorité détentrice est en mesure de les rendre anonymes ou, à défaut d'anonymisation, si une disposition législative ou réglementaire le permet.</p><p>La réutilisation d'informations publiques comportant des données à caractère personnel est subordonnée au respect des dispositions de la loi n° 78-17 du 6 janvier 1978 relative à l'informatique, aux fichiers et aux libertés</p>",
          "after": "<p>La réutilisation d'informations publiques comportant des données à caractère personnel est subordonnée au respect des dispositions de la loi n° 78-17 du 6 janvier 1978 relative à l'informatique, aux fichiers et aux libertés</p>",
          "title": "Article 13 de la loi n°78-753 du 17 juillet 1978"
        },
        {
          "key": "article 17",
          "before": "<p>Les administrations qui produisent ou détiennent des informations publiques tiennent à la disposition des usagers un répertoire des principaux documents dans lesquels ces informations figurent.</p><p>Les conditions de réutilisation des informations publiques, ainsi que les bases de calcul retenues pour la fixation du montant des redevances, sont communiquées, par les administrations qui ont produit ou détiennent ces informations, à toute personne qui en fait la demande.</p>",
          "after": "<p>Les administrations qui produisent ou détiennent des informations publiques tiennent à la disposition des usagers un répertoire des principaux documents dans lesquels ces informations figurent. Elles publient chaque année une version mise à jour de ce répertoire.</p><p>Les conditions de réutilisation des informations publiques, ainsi que les bases de calcul retenues pour la fixation du montant des redevances, sont communiquées, par les administrations qui ont produit ou détiennent ces informations, à toute personne qui en fait la demande.</p>",
          "title": "Article 17 de la loi n° 78-753 du 17 juillet 1978"
        },
        {
          "key": "article 20",
          "before": "<p>La commission d'accès aux documents administratifs est une autorité administrative indépendante.</p><p>Elle est chargée de veiller au respect de la liberté d'accès aux documents administratifs et aux archives publiques ainsi qu'à l'application du chapitre II relatif à la réutilisation des informations publiques dans les conditions prévues par le présent titre et par le titre Ier du livre II du code du patrimoine.</p><p>Elle émet des avis lorsqu'elle est saisie par une personne à qui est opposé un refus de communication d'un document administratif en application du chapitre Ier, un refus de consultation ou de communication des documents d'archives publiques, à l'exception des documents mentionnés au c de l'article L. 211-4 du code du patrimoine et des actes et documents produits ou reçus par les assemblées parlementaires, ou une décision défavorable en matière de réutilisation d'informations publiques.</p><p>La saisine pour avis de la commission est un préalable obligatoire à l'exercice d'un recours contentieux.</p>",
          "after": "<p>La commission d'accès aux documents administratifs est une autorité administrative indépendante.</p><p>Elle est chargée de veiller au respect de la liberté d'accès aux documents administratifs et aux archives publiques ainsi qu'à l'application du chapitre II relatif à la réutilisation des informations publiques dans les conditions prévues par le présent titre et par le titre Ier du livre II du code du patrimoine.</p><p>Elle émet des avis lorsqu'elle est saisie par une personne à qui est opposé un refus de communication ou un refus de diffusion d'un document administratif en application du chapitre Ier, un refus de consultation ou de communication des documents d'archives publiques, à l'exception des documents mentionnés au c de l'article L. 211-4 du code du patrimoine et des actes et documents produits ou reçus par les assemblées parlementaires, ou une décision défavorable en matière de réutilisation d'informations publiques.</p><p>La saisine pour avis de la commission est un préalable obligatoire à l'exercice d'un recours contentieux.</p>",
          "title": "Article 20 de la loi n°78-753 du 17 juillet 1978 "
        },
        {
          "key": "article 23",
          "before": "<p>...</p><p>Un décret en Conseil d'Etat détermine les modalités de fonctionnement de la commission. Il fixe notamment les cas et les conditions dans lesquels la commission peut délibérer en formation restreinte.</p>",
          "after": "<p>...</p><p>Un décret en Conseil d'Etat détermine les modalités de fonctionnement de la commission. Il fixe notamment les cas et les conditions dans lesquels la commission peut délibérer en formation restreinte ou déléguer à son président l’exercice de certaines de ses attributions.</p>",
          "title": "Article 23 de la loi n°78-753 du 17 juillet 1978"
        }
      ],
      "appendices": [
        {
          "body": "<p><strong>Premier Objectif :</strong> donner aux organismes publics un droit d&rsquo;obtenir les documents administratifs des autres personnes publiques.</p>\r\n\r\n<p><strong>Explication :</strong> aujourd&rsquo;hui le droit d&rsquo;acc&egrave;s pr&eacute;vu par la loi CADA est r&eacute;serv&eacute; aux personnes priv&eacute;es : un organisme public ne peut pas s&rsquo;en pr&eacute;valoir pour demander un document administratif. Cela cr&eacute;e des situations paradoxales : quand une commune veut demander un document &agrave; l&rsquo;Etat, le maire peut le faire en tant que personne priv&eacute;e mais pas en tant que maire. L&rsquo;article cr&eacute;e donc une obligation pour les administrations de r&eacute;pondre aux demandes de transmission d&rsquo;informations des autres personnes morales publiques.</p>\r\n\r\n<p><strong>Exemple :</strong> certaines donn&eacute;es agricoles poss&eacute;d&eacute;es par l&rsquo;Etat (comme le registre parcellaire graphique), dont les syndicats intercommunaux ont besoin pour diminuer les pollutions agricoles, devront &ecirc;tre mises &agrave; disposition.</p>\r\n\r\n<p><strong>Deuxi&egrave;me Objectif :</strong> simplifier et faciliter la r&eacute;utilisation des informations publiques qui concernent des donn&eacute;es personnelles ne portant pas atteinte &agrave; la vie priv&eacute;e.</p>\r\n\r\n<p><strong>Explication :</strong> aujourd&rsquo;hui, la r&eacute;utilisation des informations publiques comportant des donn&eacute;es personnelles est interdite sauf exception (elle n&rsquo;est possible qu&rsquo;en cas de consentement des int&eacute;ress&eacute;s, d&rsquo;anonymisation ou d&rsquo;autorisation l&eacute;gislative ou r&eacute;glementaire expresse). Cette interdiction s&rsquo;applique m&ecirc;me quand les donn&eacute;es ont &eacute;t&eacute; publi&eacute;es et ne pr&eacute;sentent aucun danger d&rsquo;atteinte &agrave; la vie priv&eacute;e. L&rsquo;article propose donc de simplifier les r&egrave;gles pour faciliter cette r&eacute;utilisation, tout en conservant un r&eacute;gime tr&egrave;s protecteur: d&eacute;sormais la protection des donn&eacute;es personnelles contenues dans les informations publiques sera garantie par la loi &laquo; Informatique et libert&eacute;s &raquo; du 6 janvier 1978 (qui constitue un cadre tr&egrave;s exigeant et couvre tous les risques d&rsquo;atteinte r&eacute;elle &agrave; la vie priv&eacute;e).</p>\r\n\r\n<p><strong>Exemple :</strong> l&rsquo;annuaire des m&eacute;decins publi&eacute; par l&rsquo;Assurance maladie, disponible en ligne, qu&rsquo;il est aujourd&rsquo;hui interdit de r&eacute;utiliser pour proposer une application de cartographie des m&eacute;decins avec leurs cat&eacute;gories de tarifs.</p>",
          "type": {
            "title": "Explication de l'article"
          }
        }
      ],
      "title": "Article 3 - Droit d’accès des organismes publics aux données publiques & de réutilisation d’informations comportant des données personnelles déjà publiées",
      "_links": {
        "show": "https://www.republique-numerique.fr/consultations/projet-de-loi-numerique/consultation/consultation/opinions/section-1-ouverture-des-donnees-publiques-1/article-3-dispositions-diverses",
        "edit": "https://www.republique-numerique.fr/consultations/projet-de-loi-numerique/consultation/consultation/opinions/section-1-ouverture-des-donnees-publiques-1/article-3-dispositions-diverses/edit",
        "report": "https://www.republique-numerique.fr/consultations/projet-de-loi-numerique/consultation/consultation/opinions/section-1-ouverture-des-donnees-publiques-1/article-3-dispositions-diverses/report",
        "type": "https://www.republique-numerique.fr/consultations/projet-de-loi-numerique/consultation/consultation/opinions/section-1-ouverture-des-donnees-publiques-1"
      },
      "user_vote": null,
      "has_user_reported": false
    },
    "sources_count": 0,
    "arguments_count": 0,
    "votes": [
      {
        "user": {
          "username": "Vincent Reverdy",
          "displayName": "Vincent Reverdy",
          "uniqueId": "vincentreverdy",
          "isAdmin": false,
          "media": {
            "url": "/media/cache/default_avatar/default/0001/01/268_default_avatar.jpg"
          },
          "vip": false,
          "_links": {
            "profile": "https://www.republique-numerique.fr/profile/vincentreverdy",
            "settings": "https://www.republique-numerique.fr/profile/edit-profile"
          }
        },
        "value": 0
      },
      {
        "user": {
          "username": "Nathan Patry",
          "displayName": "Nathan Patry",
          "uniqueId": "nathanpatry",
          "isAdmin": false,
          "media": null,
          "vip": false,
          "_links": {
            "profile": "https://www.republique-numerique.fr/profile/nathanpatry",
            "settings": "https://www.republique-numerique.fr/profile/edit-profile"
          }
        },
        "value": -1
      },
      {
        "user": {
          "username": "Yann De Damany",
          "displayName": "Yann De Damany",
          "uniqueId": "yanndedamany",
          "isAdmin": false,
          "media": null,
          "vip": false,
          "_links": {
            "profile": "https://www.republique-numerique.fr/profile/yanndedamany",
            "settings": "https://www.republique-numerique.fr/profile/edit-profile"
          }
        },
        "value": 0
      },
      {
        "user": {
          "username": "Jeanne Varasco",
          "displayName": "Jeanne Varasco",
          "uniqueId": "jeannevarasco",
          "isAdmin": false,
          "media": {
            "url": "/media/cache/default_avatar/default/0001/01/139_default_avatar.jpg"
          },
          "vip": false,
          "_links": {
            "profile": "https://www.republique-numerique.fr/profile/jeannevarasco",
            "settings": "https://www.republique-numerique.fr/profile/edit-profile"
          }
        },
        "value": -1
      }
    ],
    "updated_at": "2015-09-27T14:33:00+0200",
    "ranking": 1201,
    "is_trashed": false,
    "title": "inflation législative inutile",
    "slug": "inflation-legislative-inutile",
    "created_at": "2015-09-27T14:33:00+0200",
    "votes_nok": 2,
    "votes_ok": 0,
    "votes_mitige": 2,
    "_links": {
      "show": "https://www.republique-numerique.fr/consultations/projet-de-loi-numerique/consultation/consultation/opinions/section-1-ouverture-des-donnees-publiques-1/article-3-dispositions-diverses/versions/inflation-legislative-inutile",
      "report": "https://www.republique-numerique.fr/consultations/projet-de-loi-numerique/consultation/consultation/opinions/section-1-ouverture-des-donnees-publiques-1/article-3-dispositions-diverses/versions/inflation-legislative-inutile/report"
    },
    "user_vote": null,
    "has_user_reported": false
  },
  "rankingThreshold": null,
  "opinionTerm": 1
}