{
  "opinion": {
    "isContribuable": false,
    "votes_total": 6,
    "arguments_yes_count": 1,
    "arguments_no_count": 0,
    "id": 599,
    "created_at": "2015-10-14T11:13:47+0200",
    "updated_at": "2015-10-14T11:13:47+0200",
    "body": "<p>Etant donn&eacute; les co&ucirc;ts exhorbitants li&eacute;s &agrave; la consultation des articles scientifiques publi&eacute;s par les grands &eacute;diteurs, il serait tout &agrave; fait raisonnable&nbsp; de pouvoir consulter gratuitement&nbsp; les contributions des scientifiques - pour rappel aucun des auteurs ne per&ccedil;oit des droits relatifs &agrave; ses publications, c&#39;est m&ecirc;me l&#39;inverse puisqu&#39;il est demand&eacute; une contribution financi&egrave;re notamment pour la publication de figures couleurs...</p>",
    "versions_count": 0,
    "sources_count": 0,
    "arguments_count": 1,
    "author": {
      "username": "Stéphane Métens",
      "displayName": "Stéphane Métens",
      "uniqueId": "stephanemetens",
      "isAdmin": false,
      "media": null,
      "vip": false,
      "_links": {
        "profile": "https://www.republique-numerique.fr/profile/stephanemetens",
        "settings": "https://www.republique-numerique.fr/profile/edit-profile"
      }
    },
    "type": {
      "id": 95,
      "title": "Section 2",
      "subtitle": "Portabilité des données",
      "voteWidgetType": 2,
      "votesHelpText": "Pensez-vous que cette proposition permet d'atteindre les objectifs présentés dans l’explication de l’article ?",
      "commentSystem": 2,
      "color": "blue",
      "versionable": true,
      "sourceable": true,
      "votesThreshold": null,
      "votesThresholdHelpText": null
    },
    "sources": [],
    "arguments": [
      {
        "isContribuable": false,
        "id": 3935,
        "body": "Doublon",
        "created_at": "2015-10-14T16:15:55+0200",
        "updated_at": "2015-10-14T16:15:55+0200",
        "is_enabled": true,
        "votes_count": 0,
        "type": 1,
        "is_trashed": false,
        "author": {
          "username": "Jeanne Varasco",
          "displayName": "Jeanne Varasco",
          "uniqueId": "jeannevarasco",
          "isAdmin": false,
          "media": {
            "url": "/media/cache/default_avatar/default/0001/01/139_default_avatar.jpg"
          },
          "vip": false,
          "_links": {
            "profile": "https://www.republique-numerique.fr/profile/jeannevarasco",
            "settings": "https://www.republique-numerique.fr/profile/edit-profile"
          }
        },
        "_links": {
          "show": "https://www.republique-numerique.fr/consultations/projet-de-loi-numerique/consultation/consultation/opinions/section-2-portabilite-des-donnees/etre-favorable-a-l-acces-libre-aux-publications-scientifiques-de-plus-d-un-an#arg-3935",
          "edit": "https://www.republique-numerique.fr/consultations/projet-de-loi-numerique/consultation/consultation/opinions/section-2-portabilite-des-donnees/etre-favorable-a-l-acces-libre-aux-publications-scientifiques-de-plus-d-un-an/arguments/3935/edit",
          "report": "https://www.republique-numerique.fr/consultations/projet-de-loi-numerique/consultation/consultation/opinions/section-2-portabilite-des-donnees/etre-favorable-a-l-acces-libre-aux-publications-scientifiques-de-plus-d-un-an/arguments/3935/report"
        },
        "has_user_voted": false,
        "has_user_reported": false
      }
    ],
    "modals": [],
    "votes": [
      {
        "user": {
          "username": "François Pérez",
          "displayName": "François Pérez",
          "uniqueId": "francoisperez",
          "isAdmin": false,
          "media": null,
          "vip": false,
          "_links": {
            "profile": "https://www.republique-numerique.fr/profile/francoisperez",
            "settings": "https://www.republique-numerique.fr/profile/edit-profile"
          }
        }
      },
      {
        "user": {
          "username": "Jeanne Varasco",
          "displayName": "Jeanne Varasco",
          "uniqueId": "jeannevarasco",
          "isAdmin": false,
          "media": {
            "url": "/media/cache/default_avatar/default/0001/01/139_default_avatar.jpg"
          },
          "vip": false,
          "_links": {
            "profile": "https://www.republique-numerique.fr/profile/jeannevarasco",
            "settings": "https://www.republique-numerique.fr/profile/edit-profile"
          }
        }
      },
      {
        "user": {
          "username": "Alexis Jeandet",
          "displayName": "Alexis Jeandet",
          "uniqueId": "alexisjeandet",
          "isAdmin": false,
          "media": null,
          "vip": false,
          "_links": {
            "profile": "https://www.republique-numerique.fr/profile/alexisjeandet",
            "settings": "https://www.republique-numerique.fr/profile/edit-profile"
          }
        }
      },
      {
        "user": {
          "username": "Emilien",
          "displayName": "Emilien",
          "uniqueId": "emilien",
          "isAdmin": false,
          "media": null,
          "vip": false,
          "_links": {
            "profile": "https://www.republique-numerique.fr/profile/emilien",
            "settings": "https://www.republique-numerique.fr/profile/edit-profile"
          }
        }
      },
      {
        "user": {
          "username": "Gami",
          "displayName": "Gami",
          "uniqueId": "gami",
          "isAdmin": false,
          "media": null,
          "vip": false,
          "_links": {
            "profile": "https://www.republique-numerique.fr/profile/gami",
            "settings": "https://www.republique-numerique.fr/profile/edit-profile"
          }
        }
      }
    ],
    "appendices": [
      {
        "body": null,
        "type": {
          "title": "Explication de l'article"
        }
      }
    ],
    "ranking": 427,
    "is_trashed": false,
    "title": "Etre favorable à l'accès libre aux publications scientifiques de plus d'un an",
    "votes_nok": 0,
    "votes_ok": 6,
    "votes_mitige": 0,
    "_links": {
      "show": "https://www.republique-numerique.fr/consultations/projet-de-loi-numerique/consultation/consultation/opinions/section-2-portabilite-des-donnees/etre-favorable-a-l-acces-libre-aux-publications-scientifiques-de-plus-d-un-an",
      "edit": "https://www.republique-numerique.fr/consultations/projet-de-loi-numerique/consultation/consultation/opinions/section-2-portabilite-des-donnees/etre-favorable-a-l-acces-libre-aux-publications-scientifiques-de-plus-d-un-an/edit",
      "report": "https://www.republique-numerique.fr/consultations/projet-de-loi-numerique/consultation/consultation/opinions/section-2-portabilite-des-donnees/etre-favorable-a-l-acces-libre-aux-publications-scientifiques-de-plus-d-un-an/report",
      "type": "https://www.republique-numerique.fr/consultations/projet-de-loi-numerique/consultation/consultation/opinions/section-2-portabilite-des-donnees"
    },
    "user_vote": null,
    "has_user_reported": false
  },
  "rankingThreshold": null,
  "opinionTerm": 1
}