{
  "opinion": {
    "isContribuable": false,
    "votes_total": 69,
    "arguments_yes_count": 3,
    "arguments_no_count": 3,
    "id": 127,
    "created_at": "2015-09-26T17:59:13+0200",
    "updated_at": "2015-10-07T11:23:47+0200",
    "body": "<h4>Article 11.11.11.11</h4>\r\n\r\n<p>1&deg; &agrave; l&#39;alin&eacute;a 3 de n&#39;importe quel texte de n&#39;importe quel code, ajouter un record A &#39;11.11.11.11&#39;</p>\r\n\r\n<p>2&deg; Le fait pour un service de communication de r&eacute;pondre &agrave; une requ&ecirc;te de r&eacute;solution de nom par un r&eacute;sultat volontairement falsifi&eacute; est passible d&#39;une contravention de 7 milliards d&#39;euros assortie d&#39;une obligation de soins.</p>",
    "versions_count": 1,
    "sources_count": 0,
    "arguments_count": 6,
    "author": {
      "username": "Léon Zitroll",
      "displayName": "Léon Zitroll",
      "uniqueId": "leonzitroll",
      "isAdmin": false,
      "media": {
        "url": "/media/cache/default_avatar/default/0001/01/100_default_avatar.png"
      },
      "vip": false,
      "_links": {
        "profile": "https://www.republique-numerique.fr/profile/leonzitroll",
        "settings": "https://www.republique-numerique.fr/profile/edit-profile"
      }
    },
    "type": {
      "id": 94,
      "title": "Section 1",
      "subtitle": "Neutralité de l’internet",
      "voteWidgetType": 2,
      "votesHelpText": "Pensez-vous que cette proposition permet d'atteindre les objectifs présentés dans l’explication de l’article ?",
      "commentSystem": 2,
      "color": "blue",
      "versionable": true,
      "sourceable": true,
      "votesThreshold": null,
      "votesThresholdHelpText": null
    },
    "sources": [],
    "arguments": [
      {
        "isContribuable": false,
        "id": 5906,
        "body": "Troll! Et c'est bien dommage! La transparence du service de routage par le DNS permettrait d'éviter la censure partielle et inefficace et les techniques de propagandes via les sites miroirs",
        "created_at": "2015-10-18T16:48:11+0200",
        "updated_at": "2015-10-18T16:48:11+0200",
        "is_enabled": true,
        "votes_count": 0,
        "type": 0,
        "is_trashed": false,
        "author": {
          "username": "Constance de Quatrebarbes",
          "displayName": "Constance de Quatrebarbes",
          "uniqueId": "constancedequatrebarbes",
          "isAdmin": false,
          "media": null,
          "vip": false,
          "_links": {
            "profile": "https://www.republique-numerique.fr/profile/constancedequatrebarbes",
            "settings": "https://www.republique-numerique.fr/profile/edit-profile"
          }
        },
        "_links": {
          "show": "https://www.republique-numerique.fr/consultations/projet-de-loi-numerique/consultation/consultation/opinions/section-1-neutralite-de-l-internet/loyaute-du-dns#arg-5906",
          "edit": "https://www.republique-numerique.fr/consultations/projet-de-loi-numerique/consultation/consultation/opinions/section-1-neutralite-de-l-internet/loyaute-du-dns/arguments/5906/edit",
          "report": "https://www.republique-numerique.fr/consultations/projet-de-loi-numerique/consultation/consultation/opinions/section-1-neutralite-de-l-internet/loyaute-du-dns/arguments/5906/report"
        },
        "has_user_voted": false,
        "has_user_reported": false
      },
      {
        "isContribuable": false,
        "id": 5358,
        "body": "Vu la fond de la proposition, on se demande si l'utilisateur ne cherche simplement pas à s'amuser en publiant tout et n'importe quoi ici. C'est d'autant plus dommage que le sujet, et la problématique liée, sont intéressants.",
        "created_at": "2015-10-17T16:29:32+0200",
        "updated_at": "2015-10-17T16:30:24+0200",
        "is_enabled": true,
        "votes_count": 0,
        "type": 0,
        "is_trashed": false,
        "author": {
          "username": "Tanéléo",
          "displayName": "Tanéléo",
          "uniqueId": "taneleo",
          "isAdmin": false,
          "media": null,
          "vip": false,
          "_links": {
            "profile": "https://www.republique-numerique.fr/profile/taneleo",
            "settings": "https://www.republique-numerique.fr/profile/edit-profile"
          }
        },
        "_links": {
          "show": "https://www.republique-numerique.fr/consultations/projet-de-loi-numerique/consultation/consultation/opinions/section-1-neutralite-de-l-internet/loyaute-du-dns#arg-5358",
          "edit": "https://www.republique-numerique.fr/consultations/projet-de-loi-numerique/consultation/consultation/opinions/section-1-neutralite-de-l-internet/loyaute-du-dns/arguments/5358/edit",
          "report": "https://www.republique-numerique.fr/consultations/projet-de-loi-numerique/consultation/consultation/opinions/section-1-neutralite-de-l-internet/loyaute-du-dns/arguments/5358/report"
        },
        "has_user_voted": false,
        "has_user_reported": false
      },
      {
        "isContribuable": false,
        "id": 5354,
        "body": "Idem même si cela ressemble à un Troll dont les 7Md€ et l'obligation de soin, le fond y est et devrait me^me être sérieusement pris en compte et interdire les DNS menteurs.",
        "created_at": "2015-10-17T16:26:16+0200",
        "updated_at": "2015-10-17T16:26:16+0200",
        "is_enabled": true,
        "votes_count": 2,
        "type": 1,
        "is_trashed": false,
        "author": {
          "username": "MAU Joël",
          "displayName": "MAU Joël",
          "uniqueId": "maujoel",
          "isAdmin": false,
          "media": {
            "url": "/media/cache/default_avatar/default/0001/01/948_default_avatar.jpg"
          },
          "vip": false,
          "_links": {
            "profile": "https://www.republique-numerique.fr/profile/maujoel",
            "settings": "https://www.republique-numerique.fr/profile/edit-profile"
          }
        },
        "_links": {
          "show": "https://www.republique-numerique.fr/consultations/projet-de-loi-numerique/consultation/consultation/opinions/section-1-neutralite-de-l-internet/loyaute-du-dns#arg-5354",
          "edit": "https://www.republique-numerique.fr/consultations/projet-de-loi-numerique/consultation/consultation/opinions/section-1-neutralite-de-l-internet/loyaute-du-dns/arguments/5354/edit",
          "report": "https://www.republique-numerique.fr/consultations/projet-de-loi-numerique/consultation/consultation/opinions/section-1-neutralite-de-l-internet/loyaute-du-dns/arguments/5354/report"
        },
        "has_user_voted": false,
        "has_user_reported": false
      },
      {
        "isContribuable": false,
        "id": 2949,
        "body": "Bonne idée sur le fond mais ça doit rentrer dans le principe général de la neutralité du net qui correspond à tous les protocoles présent et à venir. Il ne faut pas créer de faille dans la loi en essayant en vain de lister de façon exhaustive toutes les atteintes à la neutralité.",
        "created_at": "2015-10-10T15:14:50+0200",
        "updated_at": "2015-10-10T15:14:50+0200",
        "is_enabled": true,
        "votes_count": 2,
        "type": 0,
        "is_trashed": false,
        "author": {
          "username": "Bernard Martinez",
          "displayName": "Bernard Martinez",
          "uniqueId": "bernardmartinez",
          "isAdmin": false,
          "media": null,
          "vip": false,
          "_links": {
            "profile": "https://www.republique-numerique.fr/profile/bernardmartinez",
            "settings": "https://www.republique-numerique.fr/profile/edit-profile"
          }
        },
        "_links": {
          "show": "https://www.republique-numerique.fr/consultations/projet-de-loi-numerique/consultation/consultation/opinions/section-1-neutralite-de-l-internet/loyaute-du-dns#arg-2949",
          "edit": "https://www.republique-numerique.fr/consultations/projet-de-loi-numerique/consultation/consultation/opinions/section-1-neutralite-de-l-internet/loyaute-du-dns/arguments/2949/edit",
          "report": "https://www.republique-numerique.fr/consultations/projet-de-loi-numerique/consultation/consultation/opinions/section-1-neutralite-de-l-internet/loyaute-du-dns/arguments/2949/report"
        },
        "has_user_voted": false,
        "has_user_reported": false
      },
      {
        "isContribuable": false,
        "id": 856,
        "body": "Énhaurme donc d'autant plus nécessaire!",
        "created_at": "2015-09-28T13:46:34+0200",
        "updated_at": "2015-09-28T13:46:34+0200",
        "is_enabled": true,
        "votes_count": 2,
        "type": 1,
        "is_trashed": false,
        "author": {
          "username": "Nat Makarevitch",
          "displayName": "Nat Makarevitch",
          "uniqueId": "natmakarevitch",
          "isAdmin": false,
          "media": {
            "url": "/media/cache/default_avatar/default/0001/01/223_default_avatar.jpg"
          },
          "vip": false,
          "_links": {
            "profile": "https://www.republique-numerique.fr/profile/natmakarevitch",
            "settings": "https://www.republique-numerique.fr/profile/edit-profile"
          }
        },
        "_links": {
          "show": "https://www.republique-numerique.fr/consultations/projet-de-loi-numerique/consultation/consultation/opinions/section-1-neutralite-de-l-internet/loyaute-du-dns#arg-856",
          "edit": "https://www.republique-numerique.fr/consultations/projet-de-loi-numerique/consultation/consultation/opinions/section-1-neutralite-de-l-internet/loyaute-du-dns/arguments/856/edit",
          "report": "https://www.republique-numerique.fr/consultations/projet-de-loi-numerique/consultation/consultation/opinions/section-1-neutralite-de-l-internet/loyaute-du-dns/arguments/856/report"
        },
        "has_user_voted": false,
        "has_user_reported": false
      },
      {
        "isContribuable": false,
        "id": 187,
        "body": "Même si la forme n'y est pas j’adhère sur le fond gentil troll.",
        "created_at": "2015-09-26T18:24:25+0200",
        "updated_at": "2015-09-26T18:24:25+0200",
        "is_enabled": true,
        "votes_count": 7,
        "type": 1,
        "is_trashed": false,
        "author": {
          "username": "Djan GICQUEL",
          "displayName": "Djan GICQUEL",
          "uniqueId": "djangicquel",
          "isAdmin": false,
          "media": {
            "url": "/media/cache/default_avatar/default/0001/01/122_default_avatar.jpg"
          },
          "vip": false,
          "_links": {
            "profile": "https://www.republique-numerique.fr/profile/djangicquel",
            "settings": "https://www.republique-numerique.fr/profile/edit-profile"
          }
        },
        "_links": {
          "show": "https://www.republique-numerique.fr/consultations/projet-de-loi-numerique/consultation/consultation/opinions/section-1-neutralite-de-l-internet/loyaute-du-dns#arg-187",
          "edit": "https://www.republique-numerique.fr/consultations/projet-de-loi-numerique/consultation/consultation/opinions/section-1-neutralite-de-l-internet/loyaute-du-dns/arguments/187/edit",
          "report": "https://www.republique-numerique.fr/consultations/projet-de-loi-numerique/consultation/consultation/opinions/section-1-neutralite-de-l-internet/loyaute-du-dns/arguments/187/report"
        },
        "has_user_voted": false,
        "has_user_reported": false
      }
    ],
    "modals": [],
    "votes": [
      {
        "user": {
          "username": "Djan GICQUEL",
          "displayName": "Djan GICQUEL",
          "uniqueId": "djangicquel",
          "isAdmin": false,
          "media": {
            "url": "/media/cache/default_avatar/default/0001/01/122_default_avatar.jpg"
          },
          "vip": false,
          "_links": {
            "profile": "https://www.republique-numerique.fr/profile/djangicquel",
            "settings": "https://www.republique-numerique.fr/profile/edit-profile"
          }
        }
      },
      {
        "user": {
          "username": "Léon Zitroll",
          "displayName": "Léon Zitroll",
          "uniqueId": "leonzitroll",
          "isAdmin": false,
          "media": {
            "url": "/media/cache/default_avatar/default/0001/01/100_default_avatar.png"
          },
          "vip": false,
          "_links": {
            "profile": "https://www.republique-numerique.fr/profile/leonzitroll",
            "settings": "https://www.republique-numerique.fr/profile/edit-profile"
          }
        }
      },
      {
        "user": {
          "username": "ROUX",
          "displayName": "ROUX",
          "uniqueId": "roux",
          "isAdmin": false,
          "media": null,
          "vip": false,
          "_links": {
            "profile": "https://www.republique-numerique.fr/profile/roux",
            "settings": "https://www.republique-numerique.fr/profile/edit-profile"
          }
        }
      },
      {
        "user": {
          "username": "Jeanne Varasco",
          "displayName": "Jeanne Varasco",
          "uniqueId": "jeannevarasco",
          "isAdmin": false,
          "media": {
            "url": "/media/cache/default_avatar/default/0001/01/139_default_avatar.jpg"
          },
          "vip": false,
          "_links": {
            "profile": "https://www.republique-numerique.fr/profile/jeannevarasco",
            "settings": "https://www.republique-numerique.fr/profile/edit-profile"
          }
        }
      },
      {
        "user": {
          "username": "Matthieu TROPEE",
          "displayName": "Matthieu TROPEE",
          "uniqueId": "matthieutropee",
          "isAdmin": false,
          "media": null,
          "vip": false,
          "_links": {
            "profile": "https://www.republique-numerique.fr/profile/matthieutropee",
            "settings": "https://www.republique-numerique.fr/profile/edit-profile"
          }
        }
      }
    ],
    "appendices": [
      {
        "body": "<p>Le DNS, Syst&egrave;me de Nom de Domaine - Domain Name System en angliche, est un service permettant la traduction de noms de domaines plus ou moins faciles &agrave; retenir par un &ecirc;tre humain en diff&eacute;rentes informations techniques, notamment en adresses IP. Il permet de localiser la R&eacute;publique Num&eacute;rique sans obligation pour le citoyen connect&eacute; de d&eacute;terminer par lui-m&ecirc;me qu&#39;il s&#39;agit en fait de `190.93.253.145` (cette information &eacute;tant en l&#39;occurrence gracieusement fournie par la notoirement tricolore Cloudflare). C&#39;est &agrave; ce titre un service d&#39;infrastructure central pour un fonctionnement loyal d&#39;Internet, qu&#39;il convient de prot&eacute;ger.</p>",
        "type": {
          "title": "Explication de l'article"
        }
      }
    ],
    "ranking": 146,
    "is_trashed": false,
    "title": "Loyauté du DNS",
    "votes_nok": 16,
    "votes_ok": 50,
    "votes_mitige": 3,
    "_links": {
      "show": "https://www.republique-numerique.fr/consultations/projet-de-loi-numerique/consultation/consultation/opinions/section-1-neutralite-de-l-internet/loyaute-du-dns",
      "edit": "https://www.republique-numerique.fr/consultations/projet-de-loi-numerique/consultation/consultation/opinions/section-1-neutralite-de-l-internet/loyaute-du-dns/edit",
      "report": "https://www.republique-numerique.fr/consultations/projet-de-loi-numerique/consultation/consultation/opinions/section-1-neutralite-de-l-internet/loyaute-du-dns/report",
      "type": "https://www.republique-numerique.fr/consultations/projet-de-loi-numerique/consultation/consultation/opinions/section-1-neutralite-de-l-internet"
    },
    "user_vote": null,
    "has_user_reported": false
  },
  "rankingThreshold": null,
  "opinionTerm": 1
}