{
  "version": {
    "isContribuable": false,
    "votes_total": 1,
    "arguments_yes_count": 2,
    "arguments_no_count": 0,
    "id": 1424,
    "body": "<p>Le vote par internet des sujets de pr&eacute;occupation des citoyens&nbsp;doit &ecirc;tre possible pour tous les citoyens fran&ccedil;ais, et consultable par le biais d&#39;un outil de gestion.</p>",
    "comment": "<p>Nous nous en remettons aux &eacute;lus pour voter nos lois, entre autre afin d&#39;eviter tout effet r&eacute;actionnaire du peuple, et pour nous en remettre entre les mains de representant que nous jugeons &agrave; meme d&#39;agir pour le mieux dans notre interet... enfin ..., dans l&#39;interet de la France.</p>\n\n<p>Ainsi, voter par internet pour elire nos representant pose de nombreux problemes, notamment de hacking.</p>\n\n<p>Par contre, voter pour des sujets de p&eacute;occupation, et pouvoir observer, quantifier, et lire la justification du vote effectu&eacute; par nos representants, serait une avanc&eacute;e majeure, permettrait de voir leur positionnement par rapport &agrave; leur id&eacute;es de campagne, &agrave; leur parti, et de faire un bilan statistique de leur action.</p>\n\n<p>Ainsi, indirectement, le vote aurait un impact sur les elections (suivantes), et rendrait plus lisible le paysage politique, sans risque d&#39;etre d&eacute;tourn&eacute; par un &quot;pirate&quot;, et il permettrait en outre un suivi,&nbsp;des notifications cibl&eacute;es en fonction de l&#39;interet de chaque&nbsp;citoyen pour tel ou tel sujet, une responsabilitation des &eacute;lus sur leurs engagements,&nbsp;une p&eacute;dagogie du citoyen quand aux r&eacute;alit&eacute;s qui lui &eacute;chappent selon les sujets, etc...</p>\n\n<p>De plus, le citoyen ne verrait pas son opinion diffus&eacute;e, au &quot;pire&quot; son interet pour tel ou tel sujet, mais pas sa position envers celui-ci.</p>",
    "author": {
      "username": "Jérôme B.",
      "displayName": "Jérôme B.",
      "uniqueId": "jeromeb",
      "isAdmin": false,
      "media": null,
      "vip": false,
      "_links": {
        "profile": "https://www.republique-numerique.fr/profile/jeromeb",
        "settings": "https://www.republique-numerique.fr/profile/edit-profile"
      }
    },
    "arguments": [
      {
        "isContribuable": false,
        "id": 6219,
        "body": "indirectement, le vote aurait un impact sur les elections (suivantes), et rendrait plus lisible le paysage politique, sans risque d'etre détourné par un \"pirate\", et il permettrait en outre un suivi, des notifications ciblées en fonction de l'interet de chaque citoyen pour tel ou tel sujet, une responsabilitation des élus sur leurs engagements, une pédagogie du citoyen quand aux réalités qui lui échappent selon les sujets, etc...\n\nDe plus, le citoyen ne verrait pas son opinion diffusée, au \"pire\" son interet pour tel ou tel sujet, mais pas sa position envers celui-ci.",
        "created_at": "2015-10-18T23:55:09+0200",
        "updated_at": "2015-10-18T23:55:09+0200",
        "is_enabled": true,
        "votes_count": 1,
        "type": 1,
        "is_trashed": false,
        "author": {
          "username": "Jérôme B.",
          "displayName": "Jérôme B.",
          "uniqueId": "jeromeb",
          "isAdmin": false,
          "media": null,
          "vip": false,
          "_links": {
            "profile": "https://www.republique-numerique.fr/profile/jeromeb",
            "settings": "https://www.republique-numerique.fr/profile/edit-profile"
          }
        },
        "_links": {
          "show": "https://www.republique-numerique.fr/consultations/projet-de-loi-numerique/consultation/consultation/opinions/section-1-ouverture-des-donnees-publiques-1/le-vote-par-internet/versions/vote-par-internet-des-sujets-de-preoccupation-des-citoyens#arg-6219",
          "edit": "https://www.republique-numerique.fr/consultations/projet-de-loi-numerique/consultation/consultation/opinions/section-1-ouverture-des-donnees-publiques-1/le-vote-par-internet/arguments/6219/edit",
          "report": "https://www.republique-numerique.fr/consultations/projet-de-loi-numerique/consultation/consultation/opinions/section-1-ouverture-des-donnees-publiques-1/le-vote-par-internet/arguments/6219/report"
        },
        "has_user_voted": false,
        "has_user_reported": false
      },
      {
        "isContribuable": false,
        "id": 6220,
        "body": "Les élus se positionneraient par rapport à des listes de préoccupations à défendre, et affirmeraient un positionnement visible de tous, permettant une meilleure lisibilité des programmes au moment des élections.",
        "created_at": "2015-10-18T23:57:04+0200",
        "updated_at": "2015-10-18T23:57:04+0200",
        "is_enabled": true,
        "votes_count": 1,
        "type": 1,
        "is_trashed": false,
        "author": {
          "username": "Jérôme B.",
          "displayName": "Jérôme B.",
          "uniqueId": "jeromeb",
          "isAdmin": false,
          "media": null,
          "vip": false,
          "_links": {
            "profile": "https://www.republique-numerique.fr/profile/jeromeb",
            "settings": "https://www.republique-numerique.fr/profile/edit-profile"
          }
        },
        "_links": {
          "show": "https://www.republique-numerique.fr/consultations/projet-de-loi-numerique/consultation/consultation/opinions/section-1-ouverture-des-donnees-publiques-1/le-vote-par-internet/versions/vote-par-internet-des-sujets-de-preoccupation-des-citoyens#arg-6220",
          "edit": "https://www.republique-numerique.fr/consultations/projet-de-loi-numerique/consultation/consultation/opinions/section-1-ouverture-des-donnees-publiques-1/le-vote-par-internet/arguments/6220/edit",
          "report": "https://www.republique-numerique.fr/consultations/projet-de-loi-numerique/consultation/consultation/opinions/section-1-ouverture-des-donnees-publiques-1/le-vote-par-internet/arguments/6220/report"
        },
        "has_user_voted": false,
        "has_user_reported": false
      }
    ],
    "sources": [],
    "parent": {
      "isContribuable": false,
      "id": 103,
      "body": "<p>Le vote par internet doit &ecirc;tre possible pour tous les citoyens fran&ccedil;ais.</p>",
      "type": {
        "id": 86,
        "title": "Section 1",
        "subtitle": "Ouverture des données publiques",
        "voteWidgetType": 2,
        "votesHelpText": "Pensez-vous que cette proposition permet d'atteindre les objectifs présentés dans l’explication de l’article ?",
        "commentSystem": 2,
        "color": "blue",
        "versionable": true,
        "sourceable": true,
        "votesThreshold": null,
        "votesThresholdHelpText": null
      },
      "modals": [],
      "appendices": [
        {
          "body": "<p>Le vote par internet, avanc&eacute;e majeure pour la d&eacute;mocratie et levier contre l&#39;abstentionnisme aux &eacute;lections, doit aussi s&#39;inscrire dans la Loi sur le num&eacute;rique.</p>",
          "type": {
            "title": "Explication de l'article"
          }
        }
      ],
      "title": "Le Vote par internet",
      "_links": {
        "show": "https://www.republique-numerique.fr/consultations/projet-de-loi-numerique/consultation/consultation/opinions/section-1-ouverture-des-donnees-publiques-1/le-vote-par-internet",
        "edit": "https://www.republique-numerique.fr/consultations/projet-de-loi-numerique/consultation/consultation/opinions/section-1-ouverture-des-donnees-publiques-1/le-vote-par-internet/edit",
        "report": "https://www.republique-numerique.fr/consultations/projet-de-loi-numerique/consultation/consultation/opinions/section-1-ouverture-des-donnees-publiques-1/le-vote-par-internet/report",
        "type": "https://www.republique-numerique.fr/consultations/projet-de-loi-numerique/consultation/consultation/opinions/section-1-ouverture-des-donnees-publiques-1"
      },
      "user_vote": null,
      "has_user_reported": false
    },
    "sources_count": 0,
    "arguments_count": 2,
    "votes": [
      {
        "user": {
          "username": "Jérôme B.",
          "displayName": "Jérôme B.",
          "uniqueId": "jeromeb",
          "isAdmin": false,
          "media": null,
          "vip": false,
          "_links": {
            "profile": "https://www.republique-numerique.fr/profile/jeromeb",
            "settings": "https://www.republique-numerique.fr/profile/edit-profile"
          }
        },
        "value": 1
      }
    ],
    "updated_at": "2015-10-18T23:53:50+0200",
    "ranking": 1028,
    "is_trashed": false,
    "title": "Vote par internet des sujets de préoccupation des citoyens",
    "slug": "vote-par-internet-des-sujets-de-preoccupation-des-citoyens",
    "created_at": "2015-10-18T23:53:50+0200",
    "votes_nok": 0,
    "votes_ok": 1,
    "votes_mitige": 0,
    "_links": {
      "show": "https://www.republique-numerique.fr/consultations/projet-de-loi-numerique/consultation/consultation/opinions/section-1-ouverture-des-donnees-publiques-1/le-vote-par-internet/versions/vote-par-internet-des-sujets-de-preoccupation-des-citoyens",
      "report": "https://www.republique-numerique.fr/consultations/projet-de-loi-numerique/consultation/consultation/opinions/section-1-ouverture-des-donnees-publiques-1/le-vote-par-internet/versions/vote-par-internet-des-sujets-de-preoccupation-des-citoyens/report"
    },
    "user_vote": null,
    "has_user_reported": false
  },
  "rankingThreshold": null,
  "opinionTerm": 1
}