{
  "version": {
    "isContribuable": false,
    "votes_total": 47,
    "arguments_yes_count": 0,
    "arguments_no_count": 2,
    "id": 344,
    "body": "<p>Le vote par internet doit &ecirc;tre possible pour tous les citoyens fran&ccedil;ais.</p>\n\n<p>Les logiciels traitant les votes par internet doivent &ecirc;tre rendus publics et audit&eacute;s afin de garantir la neutralit&eacute; du vote. Les citoyens doivent pouvoir assister &agrave; toutes les &eacute;tapes du traitement des donn&eacute;es et v&eacute;rifier leur int&eacute;grit&eacute;.</p>",
    "comment": "La transparence doit &ecirc;tre totale pour cet outil d&eacute;mocratique essentiel. Ainsi, ouvrir le code des logiciels permettant le vote est essentiel afin de lutter contre tout type de fraude.",
    "author": {
      "username": "Théo",
      "displayName": "Théo",
      "uniqueId": "theo",
      "isAdmin": false,
      "media": null,
      "vip": false,
      "_links": {
        "profile": "https://www.republique-numerique.fr/profile/theo",
        "settings": "https://www.republique-numerique.fr/profile/edit-profile"
      }
    },
    "arguments": [
      {
        "isContribuable": false,
        "id": 2273,
        "body": "L'ouverture du code n'est pas suffisante pour garantir la vérification des citoyens. De nombreuses failles resteraient possible malgré l'aspect logiciel libre d'un tel logiciel (et je suis un fervent défenseur du logiciel libre).",
        "created_at": "2015-10-05T15:35:45+0200",
        "updated_at": "2015-10-05T15:35:45+0200",
        "is_enabled": true,
        "votes_count": 7,
        "type": 0,
        "is_trashed": false,
        "author": {
          "username": "Arthur Lutz",
          "displayName": "Arthur Lutz",
          "uniqueId": "arthurlutz",
          "isAdmin": false,
          "media": null,
          "vip": false,
          "_links": {
            "profile": "https://www.republique-numerique.fr/profile/arthurlutz",
            "settings": "https://www.republique-numerique.fr/profile/edit-profile"
          }
        },
        "_links": {
          "show": "https://www.republique-numerique.fr/consultations/projet-de-loi-numerique/consultation/consultation/opinions/section-1-ouverture-des-donnees-publiques-1/le-vote-par-internet/versions/vote-par-internet-et-ouverture-du-code#arg-2273",
          "edit": "https://www.republique-numerique.fr/consultations/projet-de-loi-numerique/consultation/consultation/opinions/section-1-ouverture-des-donnees-publiques-1/le-vote-par-internet/arguments/2273/edit",
          "report": "https://www.republique-numerique.fr/consultations/projet-de-loi-numerique/consultation/consultation/opinions/section-1-ouverture-des-donnees-publiques-1/le-vote-par-internet/arguments/2273/report"
        },
        "has_user_voted": false,
        "has_user_reported": false
      },
      {
        "isContribuable": false,
        "id": 4753,
        "body": "Le vote secret garanti à toute personne ne pas être soumise à toute sorte d'influence ou de pression. Le numérique est par nature facilement falsifiable. L'abstention est un droit.",
        "created_at": "2015-10-16T14:57:53+0200",
        "updated_at": "2015-10-16T14:57:53+0200",
        "is_enabled": true,
        "votes_count": 2,
        "type": 0,
        "is_trashed": false,
        "author": {
          "username": "Thierry R.",
          "displayName": "Thierry R.",
          "uniqueId": "thierryr",
          "isAdmin": false,
          "media": null,
          "vip": false,
          "_links": {
            "profile": "https://www.republique-numerique.fr/profile/thierryr",
            "settings": "https://www.republique-numerique.fr/profile/edit-profile"
          }
        },
        "_links": {
          "show": "https://www.republique-numerique.fr/consultations/projet-de-loi-numerique/consultation/consultation/opinions/section-1-ouverture-des-donnees-publiques-1/le-vote-par-internet/versions/vote-par-internet-et-ouverture-du-code#arg-4753",
          "edit": "https://www.republique-numerique.fr/consultations/projet-de-loi-numerique/consultation/consultation/opinions/section-1-ouverture-des-donnees-publiques-1/le-vote-par-internet/arguments/4753/edit",
          "report": "https://www.republique-numerique.fr/consultations/projet-de-loi-numerique/consultation/consultation/opinions/section-1-ouverture-des-donnees-publiques-1/le-vote-par-internet/arguments/4753/report"
        },
        "has_user_voted": false,
        "has_user_reported": false
      }
    ],
    "sources": [],
    "parent": {
      "isContribuable": false,
      "id": 103,
      "body": "<p>Le vote par internet doit &ecirc;tre possible pour tous les citoyens fran&ccedil;ais.</p>",
      "type": {
        "id": 86,
        "title": "Section 1",
        "subtitle": "Ouverture des données publiques",
        "voteWidgetType": 2,
        "votesHelpText": "Pensez-vous que cette proposition permet d'atteindre les objectifs présentés dans l’explication de l’article ?",
        "commentSystem": 2,
        "color": "blue",
        "versionable": true,
        "sourceable": true,
        "votesThreshold": null,
        "votesThresholdHelpText": null
      },
      "modals": [],
      "appendices": [
        {
          "body": "<p>Le vote par internet, avanc&eacute;e majeure pour la d&eacute;mocratie et levier contre l&#39;abstentionnisme aux &eacute;lections, doit aussi s&#39;inscrire dans la Loi sur le num&eacute;rique.</p>",
          "type": {
            "title": "Explication de l'article"
          }
        }
      ],
      "title": "Le Vote par internet",
      "_links": {
        "show": "https://www.republique-numerique.fr/consultations/projet-de-loi-numerique/consultation/consultation/opinions/section-1-ouverture-des-donnees-publiques-1/le-vote-par-internet",
        "edit": "https://www.republique-numerique.fr/consultations/projet-de-loi-numerique/consultation/consultation/opinions/section-1-ouverture-des-donnees-publiques-1/le-vote-par-internet/edit",
        "report": "https://www.republique-numerique.fr/consultations/projet-de-loi-numerique/consultation/consultation/opinions/section-1-ouverture-des-donnees-publiques-1/le-vote-par-internet/report",
        "type": "https://www.republique-numerique.fr/consultations/projet-de-loi-numerique/consultation/consultation/opinions/section-1-ouverture-des-donnees-publiques-1"
      },
      "user_vote": null,
      "has_user_reported": false
    },
    "sources_count": 0,
    "arguments_count": 2,
    "votes": [
      {
        "user": {
          "username": "Théo",
          "displayName": "Théo",
          "uniqueId": "theo",
          "isAdmin": false,
          "media": null,
          "vip": false,
          "_links": {
            "profile": "https://www.republique-numerique.fr/profile/theo",
            "settings": "https://www.republique-numerique.fr/profile/edit-profile"
          }
        },
        "value": 1
      },
      {
        "user": {
          "username": "François Klein",
          "displayName": "François Klein",
          "uniqueId": "francoisklein",
          "isAdmin": false,
          "media": null,
          "vip": false,
          "_links": {
            "profile": "https://www.republique-numerique.fr/profile/francoisklein",
            "settings": "https://www.republique-numerique.fr/profile/edit-profile"
          }
        },
        "value": 1
      },
      {
        "user": {
          "username": "Vincent Caggiari",
          "displayName": "Vincent Caggiari",
          "uniqueId": "vincentcaggiari",
          "isAdmin": false,
          "media": {
            "url": "/media/cache/default_avatar/default/0001/01/280_default_avatar.jpg"
          },
          "vip": false,
          "_links": {
            "profile": "https://www.republique-numerique.fr/profile/vincentcaggiari",
            "settings": "https://www.republique-numerique.fr/profile/edit-profile"
          }
        },
        "value": 1
      },
      {
        "user": {
          "username": "François Briat",
          "displayName": "François Briat",
          "uniqueId": "francoisbriat",
          "isAdmin": false,
          "media": {
            "url": "/media/cache/default_avatar/default/0001/01/243_default_avatar.jpg"
          },
          "vip": false,
          "_links": {
            "profile": "https://www.republique-numerique.fr/profile/francoisbriat",
            "settings": "https://www.republique-numerique.fr/profile/edit-profile"
          }
        },
        "value": 1
      },
      {
        "user": {
          "username": "Adam Berrebi",
          "displayName": "Adam Berrebi",
          "uniqueId": "adamberrebi",
          "isAdmin": false,
          "media": null,
          "vip": false,
          "_links": {
            "profile": "https://www.republique-numerique.fr/profile/adamberrebi",
            "settings": "https://www.republique-numerique.fr/profile/edit-profile"
          }
        },
        "value": 1
      }
    ],
    "updated_at": "2015-09-28T20:03:08+0200",
    "ranking": 114,
    "is_trashed": false,
    "title": "Vote par internet et ouverture du code",
    "slug": "vote-par-internet-et-ouverture-du-code",
    "created_at": "2015-09-28T20:03:08+0200",
    "votes_nok": 3,
    "votes_ok": 43,
    "votes_mitige": 1,
    "_links": {
      "show": "https://www.republique-numerique.fr/consultations/projet-de-loi-numerique/consultation/consultation/opinions/section-1-ouverture-des-donnees-publiques-1/le-vote-par-internet/versions/vote-par-internet-et-ouverture-du-code",
      "report": "https://www.republique-numerique.fr/consultations/projet-de-loi-numerique/consultation/consultation/opinions/section-1-ouverture-des-donnees-publiques-1/le-vote-par-internet/versions/vote-par-internet-et-ouverture-du-code/report"
    },
    "user_vote": null,
    "has_user_reported": false
  },
  "rankingThreshold": null,
  "opinionTerm": 1
}