{
  "version": {
    "isContribuable": false,
    "votes_total": 124,
    "arguments_yes_count": 4,
    "arguments_no_count": 3,
    "id": 196,
    "body": "<p>Utiliser au maximum les logiciels libres (comme GNU/Linux) dans les &eacute;coles et les universit&eacute;s.</p>\n\n<p>Par le biais des programmes scolaires, encourager les &eacute;l&egrave;ves/&eacute;tudiants (notamment ceux en informatique mais pas que) &agrave; r&eacute;aliser des projets permettant d&#39;am&eacute;liorer les logiciels libres et le syst&egrave;me d&#39;exploitation qu&#39;ils utilisent.</p>",
    "comment": "Je ne pense pas qu&#39;il faille &ecirc;tre aussi nominatif, GNU/Linux n&#39;est qu&#39;un logiciel libre parmi d&#39;autres, et il existe la famille des BSD &eacute;galement",
    "author": {
      "username": "Nicolas K.",
      "displayName": "Nicolas K.",
      "uniqueId": "nicolask",
      "isAdmin": false,
      "media": null,
      "vip": false,
      "_links": {
        "profile": "https://www.republique-numerique.fr/profile/nicolask",
        "settings": "https://www.republique-numerique.fr/profile/edit-profile"
      }
    },
    "arguments": [
      {
        "isContribuable": false,
        "id": 447,
        "body": "Je ne vois pas d'objection à cette modification :)",
        "created_at": "2015-09-27T10:51:45+0200",
        "updated_at": "2015-09-27T10:51:45+0200",
        "is_enabled": true,
        "votes_count": 5,
        "type": 1,
        "is_trashed": false,
        "author": {
          "username": "Jonathan Crequer",
          "displayName": "Jonathan Crequer",
          "uniqueId": "jonathancrequer",
          "isAdmin": false,
          "media": null,
          "vip": false,
          "_links": {
            "profile": "https://www.republique-numerique.fr/profile/jonathancrequer",
            "settings": "https://www.republique-numerique.fr/profile/edit-profile"
          }
        },
        "_links": {
          "show": "https://www.republique-numerique.fr/consultations/projet-de-loi-numerique/consultation/consultation/opinions/section-2-service-public-de-la-donnee-1/utiliser-les-logiciels-libres-gnu-linux-dans-les-ecoles-et-les-universites/versions/gnu-linux-n-est-qu-un-logiciel-libre-parmi-d-autres#arg-447",
          "edit": "https://www.republique-numerique.fr/consultations/projet-de-loi-numerique/consultation/consultation/opinions/section-2-service-public-de-la-donnee-1/utiliser-les-logiciels-libres-gnu-linux-dans-les-ecoles-et-les-universites/arguments/447/edit",
          "report": "https://www.republique-numerique.fr/consultations/projet-de-loi-numerique/consultation/consultation/opinions/section-2-service-public-de-la-donnee-1/utiliser-les-logiciels-libres-gnu-linux-dans-les-ecoles-et-les-universites/arguments/447/report"
        },
        "has_user_voted": false,
        "has_user_reported": false
      },
      {
        "isContribuable": false,
        "id": 476,
        "body": "Pour cette modification, en revanche il serait intéressant d'uniformiser le système d'exploitation utilisé.",
        "created_at": "2015-09-27T11:45:16+0200",
        "updated_at": "2015-09-27T11:45:16+0200",
        "is_enabled": true,
        "votes_count": 8,
        "type": 1,
        "is_trashed": false,
        "author": {
          "username": "Vincent Manillier",
          "displayName": "Vincent Manillier",
          "uniqueId": "vincentmanillier",
          "isAdmin": false,
          "media": null,
          "vip": false,
          "_links": {
            "profile": "https://www.republique-numerique.fr/profile/vincentmanillier",
            "settings": "https://www.republique-numerique.fr/profile/edit-profile"
          }
        },
        "_links": {
          "show": "https://www.republique-numerique.fr/consultations/projet-de-loi-numerique/consultation/consultation/opinions/section-2-service-public-de-la-donnee-1/utiliser-les-logiciels-libres-gnu-linux-dans-les-ecoles-et-les-universites/versions/gnu-linux-n-est-qu-un-logiciel-libre-parmi-d-autres#arg-476",
          "edit": "https://www.republique-numerique.fr/consultations/projet-de-loi-numerique/consultation/consultation/opinions/section-2-service-public-de-la-donnee-1/utiliser-les-logiciels-libres-gnu-linux-dans-les-ecoles-et-les-universites/arguments/476/edit",
          "report": "https://www.republique-numerique.fr/consultations/projet-de-loi-numerique/consultation/consultation/opinions/section-2-service-public-de-la-donnee-1/utiliser-les-logiciels-libres-gnu-linux-dans-les-ecoles-et-les-universites/arguments/476/report"
        },
        "has_user_voted": false,
        "has_user_reported": false
      },
      {
        "isContribuable": false,
        "id": 1082,
        "body": "Tout à fait d'accord on parle de logiciels libres en général ce qui ne se limite pas qu'à GNU/Linux",
        "created_at": "2015-09-28T23:47:18+0200",
        "updated_at": "2015-09-28T23:47:18+0200",
        "is_enabled": true,
        "votes_count": 9,
        "type": 1,
        "is_trashed": false,
        "author": {
          "username": "Alexandre Vilay",
          "displayName": "Alexandre Vilay",
          "uniqueId": "alexandrevilay",
          "isAdmin": false,
          "media": null,
          "vip": false,
          "_links": {
            "profile": "https://www.republique-numerique.fr/profile/alexandrevilay",
            "settings": "https://www.republique-numerique.fr/profile/edit-profile"
          }
        },
        "_links": {
          "show": "https://www.republique-numerique.fr/consultations/projet-de-loi-numerique/consultation/consultation/opinions/section-2-service-public-de-la-donnee-1/utiliser-les-logiciels-libres-gnu-linux-dans-les-ecoles-et-les-universites/versions/gnu-linux-n-est-qu-un-logiciel-libre-parmi-d-autres#arg-1082",
          "edit": "https://www.republique-numerique.fr/consultations/projet-de-loi-numerique/consultation/consultation/opinions/section-2-service-public-de-la-donnee-1/utiliser-les-logiciels-libres-gnu-linux-dans-les-ecoles-et-les-universites/arguments/1082/edit",
          "report": "https://www.republique-numerique.fr/consultations/projet-de-loi-numerique/consultation/consultation/opinions/section-2-service-public-de-la-donnee-1/utiliser-les-logiciels-libres-gnu-linux-dans-les-ecoles-et-les-universites/arguments/1082/report"
        },
        "has_user_voted": false,
        "has_user_reported": false
      },
      {
        "isContribuable": false,
        "id": 1215,
        "body": "\"Utiliser au maximum les logiciels libres et les systèmes d'exploitation libres dans les écoles et les universités.\" est une formulation plus correcte",
        "created_at": "2015-09-29T13:01:37+0200",
        "updated_at": "2015-09-29T13:01:56+0200",
        "is_enabled": true,
        "votes_count": 17,
        "type": 0,
        "is_trashed": false,
        "author": {
          "username": "Anthony Rey",
          "displayName": "Anthony Rey",
          "uniqueId": "anthonyrey",
          "isAdmin": false,
          "media": null,
          "vip": false,
          "_links": {
            "profile": "https://www.republique-numerique.fr/profile/anthonyrey",
            "settings": "https://www.republique-numerique.fr/profile/edit-profile"
          }
        },
        "_links": {
          "show": "https://www.republique-numerique.fr/consultations/projet-de-loi-numerique/consultation/consultation/opinions/section-2-service-public-de-la-donnee-1/utiliser-les-logiciels-libres-gnu-linux-dans-les-ecoles-et-les-universites/versions/gnu-linux-n-est-qu-un-logiciel-libre-parmi-d-autres#arg-1215",
          "edit": "https://www.republique-numerique.fr/consultations/projet-de-loi-numerique/consultation/consultation/opinions/section-2-service-public-de-la-donnee-1/utiliser-les-logiciels-libres-gnu-linux-dans-les-ecoles-et-les-universites/arguments/1215/edit",
          "report": "https://www.republique-numerique.fr/consultations/projet-de-loi-numerique/consultation/consultation/opinions/section-2-service-public-de-la-donnee-1/utiliser-les-logiciels-libres-gnu-linux-dans-les-ecoles-et-les-universites/arguments/1215/report"
        },
        "has_user_voted": false,
        "has_user_reported": false
      },
      {
        "isContribuable": false,
        "id": 1531,
        "body": "gnu/linux n'est pas un logiciel mais uns systeme d'exploitation (Operting System) libre. (cf https://fr.wikipedia.org/wiki/GNU#GNU.2FLinux)",
        "created_at": "2015-09-30T14:17:00+0200",
        "updated_at": "2015-09-30T14:17:00+0200",
        "is_enabled": true,
        "votes_count": 6,
        "type": 0,
        "is_trashed": false,
        "author": {
          "username": "Vincent Mathae",
          "displayName": "Vincent Mathae",
          "uniqueId": "vincentmathae",
          "isAdmin": false,
          "media": null,
          "vip": false,
          "_links": {
            "profile": "https://www.republique-numerique.fr/profile/vincentmathae",
            "settings": "https://www.republique-numerique.fr/profile/edit-profile"
          }
        },
        "_links": {
          "show": "https://www.republique-numerique.fr/consultations/projet-de-loi-numerique/consultation/consultation/opinions/section-2-service-public-de-la-donnee-1/utiliser-les-logiciels-libres-gnu-linux-dans-les-ecoles-et-les-universites/versions/gnu-linux-n-est-qu-un-logiciel-libre-parmi-d-autres#arg-1531",
          "edit": "https://www.republique-numerique.fr/consultations/projet-de-loi-numerique/consultation/consultation/opinions/section-2-service-public-de-la-donnee-1/utiliser-les-logiciels-libres-gnu-linux-dans-les-ecoles-et-les-universites/arguments/1531/edit",
          "report": "https://www.republique-numerique.fr/consultations/projet-de-loi-numerique/consultation/consultation/opinions/section-2-service-public-de-la-donnee-1/utiliser-les-logiciels-libres-gnu-linux-dans-les-ecoles-et-les-universites/arguments/1531/report"
        },
        "has_user_voted": false,
        "has_user_reported": false
      },
      {
        "isContribuable": false,
        "id": 3262,
        "body": "J'irai même jusqu'à supprimer toute référence à GNU/Linux (même si j'en suis moi-même un utilisateur!).\n\nPour les même raison la description de la motivation ne devrait pas mentionner spécifiquement Microsoft. Parce que ce n'est pas une action contre une société particulière mais un principe général. D'ailleurs, il y aurait à dire sur beaucoup d'autres sociétés(Google, Skype, Mathworks, ...).",
        "created_at": "2015-10-12T10:53:53+0200",
        "updated_at": "2015-10-12T10:53:53+0200",
        "is_enabled": true,
        "votes_count": 10,
        "type": 1,
        "is_trashed": false,
        "author": {
          "username": "Nicolas M. Thiéry",
          "displayName": "Nicolas M. Thiéry",
          "uniqueId": "nicolasmthiery",
          "isAdmin": false,
          "media": null,
          "vip": false,
          "_links": {
            "profile": "https://www.republique-numerique.fr/profile/nicolasmthiery",
            "settings": "https://www.republique-numerique.fr/profile/edit-profile"
          }
        },
        "_links": {
          "show": "https://www.republique-numerique.fr/consultations/projet-de-loi-numerique/consultation/consultation/opinions/section-2-service-public-de-la-donnee-1/utiliser-les-logiciels-libres-gnu-linux-dans-les-ecoles-et-les-universites/versions/gnu-linux-n-est-qu-un-logiciel-libre-parmi-d-autres#arg-3262",
          "edit": "https://www.republique-numerique.fr/consultations/projet-de-loi-numerique/consultation/consultation/opinions/section-2-service-public-de-la-donnee-1/utiliser-les-logiciels-libres-gnu-linux-dans-les-ecoles-et-les-universites/arguments/3262/edit",
          "report": "https://www.republique-numerique.fr/consultations/projet-de-loi-numerique/consultation/consultation/opinions/section-2-service-public-de-la-donnee-1/utiliser-les-logiciels-libres-gnu-linux-dans-les-ecoles-et-les-universites/arguments/3262/report"
        },
        "has_user_voted": false,
        "has_user_reported": false
      },
      {
        "isContribuable": false,
        "id": 4703,
        "body": "Je suis d'accord avec l'explication de la modification. Mais elle ne répond pas aux objectifs présentés dans l'explication de l'article.",
        "created_at": "2015-10-16T14:15:43+0200",
        "updated_at": "2015-10-16T14:15:43+0200",
        "is_enabled": true,
        "votes_count": 1,
        "type": 0,
        "is_trashed": false,
        "author": {
          "username": "Julien Henry",
          "displayName": "Julien Henry",
          "uniqueId": "julienhenry",
          "isAdmin": false,
          "media": null,
          "vip": false,
          "_links": {
            "profile": "https://www.republique-numerique.fr/profile/julienhenry",
            "settings": "https://www.republique-numerique.fr/profile/edit-profile"
          }
        },
        "_links": {
          "show": "https://www.republique-numerique.fr/consultations/projet-de-loi-numerique/consultation/consultation/opinions/section-2-service-public-de-la-donnee-1/utiliser-les-logiciels-libres-gnu-linux-dans-les-ecoles-et-les-universites/versions/gnu-linux-n-est-qu-un-logiciel-libre-parmi-d-autres#arg-4703",
          "edit": "https://www.republique-numerique.fr/consultations/projet-de-loi-numerique/consultation/consultation/opinions/section-2-service-public-de-la-donnee-1/utiliser-les-logiciels-libres-gnu-linux-dans-les-ecoles-et-les-universites/arguments/4703/edit",
          "report": "https://www.republique-numerique.fr/consultations/projet-de-loi-numerique/consultation/consultation/opinions/section-2-service-public-de-la-donnee-1/utiliser-les-logiciels-libres-gnu-linux-dans-les-ecoles-et-les-universites/arguments/4703/report"
        },
        "has_user_voted": false,
        "has_user_reported": false
      }
    ],
    "sources": [],
    "parent": {
      "isContribuable": false,
      "id": 152,
      "body": "<p>Utiliser au maximum les logiciels libres et GNU/Linux dans les &eacute;coles et les universit&eacute;s.</p>\r\n\r\n<p>Par le biais des programmes scolaires, encourager les &eacute;l&egrave;ves/&eacute;tudiants (notamment ceux en informatique mais pas que) &agrave; r&eacute;aliser des projets permettant d&#39;am&eacute;liorer les logiciels libres et le syst&egrave;me d&#39;exploitation qu&#39;ils utilisent.</p>",
      "type": {
        "id": 87,
        "title": "Section 2",
        "subtitle": "Service public de la donnée",
        "voteWidgetType": 2,
        "votesHelpText": "Pensez-vous que cette proposition permet d'atteindre les objectifs présentés dans l’explication de l’article ?",
        "commentSystem": 2,
        "color": "blue",
        "versionable": true,
        "sourceable": true,
        "votesThreshold": null,
        "votesThresholdHelpText": null
      },
      "modals": [],
      "appendices": [
        {
          "body": "<p>La soci&eacute;t&eacute; Microsoft a depuis bien longtemps compris que plus les personnes auront &eacute;t&eacute; initi&eacute;es t&ocirc;t &agrave; son syst&egrave;me d&#39;exploitation et plus ils auront du mal &agrave; en changer (&agrave; cause notamment des habitudes qu&#39;ils auront pris dessus). C&#39;est pareil pour les logiciels.</p>\r\n\r\n<p>Nous aurions tout &agrave; int&eacute;r&ecirc;t &agrave; utiliser au maximum les logiciels libres et GNU/Linux dans les &eacute;coles et les universit&eacute;s afin notamment :</p>\r\n\r\n<ul>\r\n\t<li>Eviter de conditionner les &eacute;l&egrave;ves/&eacute;tudiants &agrave; des outils propri&eacute;taires</li>\r\n\t<li>De mieux prot&eacute;ger les donn&eacute;es personnelles</li>\r\n\t<li>De promouvoir le partage et la transparence</li>\r\n</ul>\r\n\r\n<p>En parall&egrave;le, il est tout &agrave; fait possible d&#39;inciter les &eacute;l&egrave;ves/&eacute;tudiants&nbsp;(notamment ceux en informatique mais pas que) &agrave; r&eacute;aliser des projets permettant d&#39;am&eacute;liorer les logiciels libres et le syst&egrave;me d&#39;exploitation qu&#39;ils utilisent afin que cela puisse profiter &agrave; tout le monde.</p>",
          "type": {
            "title": "Explication de l'article"
          }
        }
      ],
      "title": "Utiliser les logiciels libres & GNU/Linux dans les écoles et les universités",
      "_links": {
        "show": "https://www.republique-numerique.fr/consultations/projet-de-loi-numerique/consultation/consultation/opinions/section-2-service-public-de-la-donnee-1/utiliser-les-logiciels-libres-gnu-linux-dans-les-ecoles-et-les-universites",
        "edit": "https://www.republique-numerique.fr/consultations/projet-de-loi-numerique/consultation/consultation/opinions/section-2-service-public-de-la-donnee-1/utiliser-les-logiciels-libres-gnu-linux-dans-les-ecoles-et-les-universites/edit",
        "report": "https://www.republique-numerique.fr/consultations/projet-de-loi-numerique/consultation/consultation/opinions/section-2-service-public-de-la-donnee-1/utiliser-les-logiciels-libres-gnu-linux-dans-les-ecoles-et-les-universites/report",
        "type": "https://www.republique-numerique.fr/consultations/projet-de-loi-numerique/consultation/consultation/opinions/section-2-service-public-de-la-donnee-1"
      },
      "user_vote": null,
      "has_user_reported": false
    },
    "sources_count": 0,
    "arguments_count": 7,
    "votes": [
      {
        "user": {
          "username": "Jonathan Crequer",
          "displayName": "Jonathan Crequer",
          "uniqueId": "jonathancrequer",
          "isAdmin": false,
          "media": null,
          "vip": false,
          "_links": {
            "profile": "https://www.republique-numerique.fr/profile/jonathancrequer",
            "settings": "https://www.republique-numerique.fr/profile/edit-profile"
          }
        },
        "value": 1
      },
      {
        "user": {
          "username": "SPAHR Hugo",
          "displayName": "SPAHR Hugo",
          "uniqueId": "spahrhugo",
          "isAdmin": false,
          "media": {
            "url": "/media/cache/default_avatar/default/0001/01/89_default_avatar.jpg"
          },
          "vip": false,
          "_links": {
            "profile": "https://www.republique-numerique.fr/profile/spahrhugo",
            "settings": "https://www.republique-numerique.fr/profile/edit-profile"
          }
        },
        "value": 1
      },
      {
        "user": {
          "username": "Vincent Manillier",
          "displayName": "Vincent Manillier",
          "uniqueId": "vincentmanillier",
          "isAdmin": false,
          "media": null,
          "vip": false,
          "_links": {
            "profile": "https://www.republique-numerique.fr/profile/vincentmanillier",
            "settings": "https://www.republique-numerique.fr/profile/edit-profile"
          }
        },
        "value": 1
      },
      {
        "user": {
          "username": "Hugues Bernaud",
          "displayName": "Hugues Bernaud",
          "uniqueId": "huguesbernaud",
          "isAdmin": false,
          "media": null,
          "vip": false,
          "_links": {
            "profile": "https://www.republique-numerique.fr/profile/huguesbernaud",
            "settings": "https://www.republique-numerique.fr/profile/edit-profile"
          }
        },
        "value": 1
      },
      {
        "user": {
          "username": "Phil S.",
          "displayName": "Phil S.",
          "uniqueId": "phils",
          "isAdmin": false,
          "media": null,
          "vip": false,
          "_links": {
            "profile": "https://www.republique-numerique.fr/profile/phils",
            "settings": "https://www.republique-numerique.fr/profile/edit-profile"
          }
        },
        "value": 1
      }
    ],
    "updated_at": "2015-09-27T10:48:10+0200",
    "ranking": 41,
    "is_trashed": false,
    "title": "GNU/Linux n'est qu'un logiciel libre parmi d'autres",
    "slug": "gnu-linux-n-est-qu-un-logiciel-libre-parmi-d-autres",
    "created_at": "2015-09-27T10:48:10+0200",
    "votes_nok": 3,
    "votes_ok": 118,
    "votes_mitige": 3,
    "_links": {
      "show": "https://www.republique-numerique.fr/consultations/projet-de-loi-numerique/consultation/consultation/opinions/section-2-service-public-de-la-donnee-1/utiliser-les-logiciels-libres-gnu-linux-dans-les-ecoles-et-les-universites/versions/gnu-linux-n-est-qu-un-logiciel-libre-parmi-d-autres",
      "report": "https://www.republique-numerique.fr/consultations/projet-de-loi-numerique/consultation/consultation/opinions/section-2-service-public-de-la-donnee-1/utiliser-les-logiciels-libres-gnu-linux-dans-les-ecoles-et-les-universites/versions/gnu-linux-n-est-qu-un-logiciel-libre-parmi-d-autres/report"
    },
    "user_vote": null,
    "has_user_reported": false
  },
  "rankingThreshold": null,
  "opinionTerm": 1
}