{
  "version": {
    "isContribuable": false,
    "votes_total": 3,
    "arguments_yes_count": 0,
    "arguments_no_count": 0,
    "id": 1403,
    "body": "<p>Utiliser au maximum les logiciels et syst&egrave;mes d&#39;exploitation Libre dans les &eacute;coles et les universit&eacute;s.</p>\n\n<p>Par le biais des programmes scolaires, encourager les &eacute;l&egrave;ves/&eacute;tudiants (notamment ceux en informatique mais pas que) &agrave; r&eacute;aliser des projets permettant d&#39;am&eacute;liorer les logiciels libres et le syst&egrave;me d&#39;exploitation qu&#39;ils utilisent.</p>",
    "comment": "Il n&#39;y pas que GNU/Linux comme syst&egrave;me d&#39;exploition Libre, il en existe de diff&eacute;rent type. C&#39;est normal de les proposer au m&ecirc;me &laquo;niveau&raquo; que GNU/Linux.",
    "author": {
      "username": "HS-157",
      "displayName": "HS-157",
      "uniqueId": "hs157",
      "isAdmin": false,
      "media": null,
      "vip": false,
      "_links": {
        "profile": "https://www.republique-numerique.fr/profile/hs157",
        "settings": "https://www.republique-numerique.fr/profile/edit-profile"
      }
    },
    "arguments": [],
    "sources": [],
    "parent": {
      "isContribuable": false,
      "id": 152,
      "body": "<p>Utiliser au maximum les logiciels libres et GNU/Linux dans les &eacute;coles et les universit&eacute;s.</p>\r\n\r\n<p>Par le biais des programmes scolaires, encourager les &eacute;l&egrave;ves/&eacute;tudiants (notamment ceux en informatique mais pas que) &agrave; r&eacute;aliser des projets permettant d&#39;am&eacute;liorer les logiciels libres et le syst&egrave;me d&#39;exploitation qu&#39;ils utilisent.</p>",
      "type": {
        "id": 87,
        "title": "Section 2",
        "subtitle": "Service public de la donnée",
        "voteWidgetType": 2,
        "votesHelpText": "Pensez-vous que cette proposition permet d'atteindre les objectifs présentés dans l’explication de l’article ?",
        "commentSystem": 2,
        "color": "blue",
        "versionable": true,
        "sourceable": true,
        "votesThreshold": null,
        "votesThresholdHelpText": null
      },
      "modals": [],
      "appendices": [
        {
          "body": "<p>La soci&eacute;t&eacute; Microsoft a depuis bien longtemps compris que plus les personnes auront &eacute;t&eacute; initi&eacute;es t&ocirc;t &agrave; son syst&egrave;me d&#39;exploitation et plus ils auront du mal &agrave; en changer (&agrave; cause notamment des habitudes qu&#39;ils auront pris dessus). C&#39;est pareil pour les logiciels.</p>\r\n\r\n<p>Nous aurions tout &agrave; int&eacute;r&ecirc;t &agrave; utiliser au maximum les logiciels libres et GNU/Linux dans les &eacute;coles et les universit&eacute;s afin notamment :</p>\r\n\r\n<ul>\r\n\t<li>Eviter de conditionner les &eacute;l&egrave;ves/&eacute;tudiants &agrave; des outils propri&eacute;taires</li>\r\n\t<li>De mieux prot&eacute;ger les donn&eacute;es personnelles</li>\r\n\t<li>De promouvoir le partage et la transparence</li>\r\n</ul>\r\n\r\n<p>En parall&egrave;le, il est tout &agrave; fait possible d&#39;inciter les &eacute;l&egrave;ves/&eacute;tudiants&nbsp;(notamment ceux en informatique mais pas que) &agrave; r&eacute;aliser des projets permettant d&#39;am&eacute;liorer les logiciels libres et le syst&egrave;me d&#39;exploitation qu&#39;ils utilisent afin que cela puisse profiter &agrave; tout le monde.</p>",
          "type": {
            "title": "Explication de l'article"
          }
        }
      ],
      "title": "Utiliser les logiciels libres & GNU/Linux dans les écoles et les universités",
      "_links": {
        "show": "https://www.republique-numerique.fr/consultations/projet-de-loi-numerique/consultation/consultation/opinions/section-2-service-public-de-la-donnee-1/utiliser-les-logiciels-libres-gnu-linux-dans-les-ecoles-et-les-universites",
        "edit": "https://www.republique-numerique.fr/consultations/projet-de-loi-numerique/consultation/consultation/opinions/section-2-service-public-de-la-donnee-1/utiliser-les-logiciels-libres-gnu-linux-dans-les-ecoles-et-les-universites/edit",
        "report": "https://www.republique-numerique.fr/consultations/projet-de-loi-numerique/consultation/consultation/opinions/section-2-service-public-de-la-donnee-1/utiliser-les-logiciels-libres-gnu-linux-dans-les-ecoles-et-les-universites/report",
        "type": "https://www.republique-numerique.fr/consultations/projet-de-loi-numerique/consultation/consultation/opinions/section-2-service-public-de-la-donnee-1"
      },
      "user_vote": null,
      "has_user_reported": false
    },
    "sources_count": 0,
    "arguments_count": 0,
    "votes": [
      {
        "user": {
          "username": "HS-157",
          "displayName": "HS-157",
          "uniqueId": "hs157",
          "isAdmin": false,
          "media": null,
          "vip": false,
          "_links": {
            "profile": "https://www.republique-numerique.fr/profile/hs157",
            "settings": "https://www.republique-numerique.fr/profile/edit-profile"
          }
        },
        "value": 1
      },
      {
        "user": {
          "username": "glucas",
          "displayName": "glucas",
          "uniqueId": "glucas",
          "isAdmin": false,
          "media": null,
          "vip": false,
          "_links": {
            "profile": "https://www.republique-numerique.fr/profile/glucas",
            "settings": "https://www.republique-numerique.fr/profile/edit-profile"
          }
        },
        "value": 1
      },
      {
        "user": {
          "username": "Ahronovitz",
          "displayName": "Ahronovitz",
          "uniqueId": "ahronovitz",
          "isAdmin": false,
          "media": null,
          "vip": false,
          "_links": {
            "profile": "https://www.republique-numerique.fr/profile/ahronovitz",
            "settings": "https://www.republique-numerique.fr/profile/edit-profile"
          }
        },
        "value": 1
      }
    ],
    "updated_at": "2015-10-18T21:32:59+0200",
    "ranking": 777,
    "is_trashed": false,
    "title": "Utiliser les logiciels & systèmes d'exploitation Libre dans les écoles et les universités",
    "slug": "utiliser-les-logiciels-systemes-d-exploitation-libre-dans-les-ecoles-et-les-universites",
    "created_at": "2015-10-18T21:32:59+0200",
    "votes_nok": 0,
    "votes_ok": 3,
    "votes_mitige": 0,
    "_links": {
      "show": "https://www.republique-numerique.fr/consultations/projet-de-loi-numerique/consultation/consultation/opinions/section-2-service-public-de-la-donnee-1/utiliser-les-logiciels-libres-gnu-linux-dans-les-ecoles-et-les-universites/versions/utiliser-les-logiciels-systemes-d-exploitation-libre-dans-les-ecoles-et-les-universites",
      "report": "https://www.republique-numerique.fr/consultations/projet-de-loi-numerique/consultation/consultation/opinions/section-2-service-public-de-la-donnee-1/utiliser-les-logiciels-libres-gnu-linux-dans-les-ecoles-et-les-universites/versions/utiliser-les-logiciels-systemes-d-exploitation-libre-dans-les-ecoles-et-les-universites/report"
    },
    "user_vote": null,
    "has_user_reported": false
  },
  "rankingThreshold": null,
  "opinionTerm": 1
}