{
  "version": {
    "isContribuable": false,
    "votes_total": 11,
    "arguments_yes_count": 1,
    "arguments_no_count": 2,
    "id": 1017,
    "body": "<p>Utiliser au maximum les logiciels libres et GNU/Linux dans les &eacute;coles et les universit&eacute;s.</p>\n\n<p>Par le biais des programmes scolaires, encourager les &eacute;l&egrave;ves/&eacute;tudiants (notamment ceux en informatique mais pas que) &agrave; r&eacute;aliser des projets permettant d&#39;am&eacute;liorer les logiciels libres et le syst&egrave;me d&#39;exploitation qu&#39;ils utilisent</p>",
    "comment": "<p>Il y a peut de monde qui soit au courant de cela mais en dehors de l&#39;os et des divers logiciel qui orbite autour de celui-ci, il y a la couche inferieur electronique dont la totaliter du codes des puces qui la compose (firmewares/BIOS etc...) sont fermer/sous licence proprietaires donc non libre.</p>\n\n<p>C&#39;est un vrai fl&eacute;o dans la compatibiliter, securiter du materiel vendu dans le monde du logiciel libre.</p>\n\n<p>Il y a d&#39;allieur divers preuvent indiquant des interception de donner voir le controle total d&#39;un appareil a distance</p>\n\n<p>voici un example:</p>\n\n<p><a _src=\"http://www.dailykos.com/story/2015/02/17/1364910/-Breaking-Kaspersky-Exposes-NSA-s-Worldwide-Backdoor-Hacking-of-Virtually-All-Hard-Drive-Firmware\" class=\"external-link\" href=\"http://www.dailykos.com/story/2015/02/17/1364910/-Breaking-Kaspersky-Exposes-NSA-s-Worldwide-Backdoor-Hacking-of-Virtually-All-Hard-Drive-Firmware\">http://www.dailykos.com/story/2015/02/17/1364910/-Breaking-Kaspersky-Exposes-NSA-s-Worldwide-Backdoor-Hacking-of-Virtually-All-Hard-Drive-Firmware</a></p>\n\n<p>Il n&#39;y a que deux ordinateur modern au monde qui on etait entierement retro ing&eacute;nierer pour le monde du libre le librebootx200 et le x60.</p>\n\n<p>Le fait que nous ne pouvont pas etudier ou modifier du code materiel est une ab&eacute;ration en soit tant au niveau &eacute;thique tant niveau t&eacute;chnique.</p>\n\n<p>Cela permettrait aussi de lutter contre l&#39;obsolescence programm&eacute;e.</p>\n\n<p>Etant donner que le firmwares/Bios etc...&nbsp; est en soit un programme il est normale qu&#39;ils soit libre.</p>\n\n<p>&nbsp;</p>\n\n<p>Rappel de Qu&#39;est-ce que le logiciel libre (voir: <a _src=\"https://www.gnu.org/)\" class=\"external-link\" href=\"https://www.gnu.org/)\">https://www.gnu.org/)</a>&nbsp; pour plus d&#39;info</p>\n\n<ul><li>la libert&eacute; d&#39;ex&eacute;cuter le programme comme il le souhaite, pour n&#39;importe quel usage (libert&eacute;&nbsp;0)&nbsp;;</li>\n<li>la libert&eacute; d&#39;&eacute;tudier le fonctionnement du programme et de l&#39;adapter &agrave; ses besoins (libert&eacute;&nbsp;1) &ndash;&nbsp;une condition pr&eacute;alable est d&#39;acc&eacute;der au code source&nbsp;;</li>\n<li>la libert&eacute; d&#39;en redistribuer des copies pour aider les autres (libert&eacute;&nbsp;2)&nbsp;;</li>\n<li>la libert&eacute; d&#39;am&eacute;liorer le programme et de rendre publiques ses am&eacute;liorations pour que toute la communaut&eacute; en b&eacute;n&eacute;ficie (libert&eacute;&nbsp;3) &ndash;&nbsp;une condition pr&eacute;alable est d&#39;acc&eacute;der au code source.</li>\n</ul>",
    "author": {
      "username": "BERNARD Loïc",
      "displayName": "BERNARD Loïc",
      "uniqueId": "bernardloic",
      "isAdmin": false,
      "media": {
        "url": "/media/cache/default_avatar/default/0001/01/805_default_avatar.jpg"
      },
      "vip": false,
      "_links": {
        "profile": "https://www.republique-numerique.fr/profile/bernardloic",
        "settings": "https://www.republique-numerique.fr/profile/edit-profile"
      }
    },
    "arguments": [
      {
        "isContribuable": false,
        "id": 4744,
        "body": "Le texte n'a pas été modifié (si ce n'est qu'il lui manque maintenant un point…)…",
        "created_at": "2015-10-16T14:51:16+0200",
        "updated_at": "2015-10-16T14:51:16+0200",
        "is_enabled": true,
        "votes_count": 2,
        "type": 0,
        "is_trashed": false,
        "author": {
          "username": "Julien Henry",
          "displayName": "Julien Henry",
          "uniqueId": "julienhenry",
          "isAdmin": false,
          "media": null,
          "vip": false,
          "_links": {
            "profile": "https://www.republique-numerique.fr/profile/julienhenry",
            "settings": "https://www.republique-numerique.fr/profile/edit-profile"
          }
        },
        "_links": {
          "show": "https://www.republique-numerique.fr/consultations/projet-de-loi-numerique/consultation/consultation/opinions/section-2-service-public-de-la-donnee-1/utiliser-les-logiciels-libres-gnu-linux-dans-les-ecoles-et-les-universites/versions/proposer-du-materiel-libre#arg-4744",
          "edit": "https://www.republique-numerique.fr/consultations/projet-de-loi-numerique/consultation/consultation/opinions/section-2-service-public-de-la-donnee-1/utiliser-les-logiciels-libres-gnu-linux-dans-les-ecoles-et-les-universites/arguments/4744/edit",
          "report": "https://www.republique-numerique.fr/consultations/projet-de-loi-numerique/consultation/consultation/opinions/section-2-service-public-de-la-donnee-1/utiliser-les-logiciels-libres-gnu-linux-dans-les-ecoles-et-les-universites/arguments/4744/report"
        },
        "has_user_voted": false,
        "has_user_reported": false
      },
      {
        "isContribuable": false,
        "id": 5025,
        "body": "Julien Henry\nPensent vous que des gens le fassent volontairement ?\nS'ils font des fautes c'est par ce qu'ils ne le savent pas.\n\nD'allieur le faite d’être contre un argument sous prétexte de faute orthographique est absurde. (sinon je comprends pourquoi vous faites cela pour la conservation de langue du patrimoine et évite la dégénérescence linguistique).\n\nPour terminer auriez-vous dit à une personne qui bégaye que ces propos sont incohérents, juste parce qu'il est obligé de se répéter ? (bon évidement si on ne comprend pas ce qu'il dit)",
        "created_at": "2015-10-16T20:46:24+0200",
        "updated_at": "2015-10-16T20:46:24+0200",
        "is_enabled": true,
        "votes_count": 3,
        "type": 1,
        "is_trashed": false,
        "author": {
          "username": "BERNARD Loïc",
          "displayName": "BERNARD Loïc",
          "uniqueId": "bernardloic",
          "isAdmin": false,
          "media": {
            "url": "/media/cache/default_avatar/default/0001/01/805_default_avatar.jpg"
          },
          "vip": false,
          "_links": {
            "profile": "https://www.republique-numerique.fr/profile/bernardloic",
            "settings": "https://www.republique-numerique.fr/profile/edit-profile"
          }
        },
        "_links": {
          "show": "https://www.republique-numerique.fr/consultations/projet-de-loi-numerique/consultation/consultation/opinions/section-2-service-public-de-la-donnee-1/utiliser-les-logiciels-libres-gnu-linux-dans-les-ecoles-et-les-universites/versions/proposer-du-materiel-libre#arg-5025",
          "edit": "https://www.republique-numerique.fr/consultations/projet-de-loi-numerique/consultation/consultation/opinions/section-2-service-public-de-la-donnee-1/utiliser-les-logiciels-libres-gnu-linux-dans-les-ecoles-et-les-universites/arguments/5025/edit",
          "report": "https://www.republique-numerique.fr/consultations/projet-de-loi-numerique/consultation/consultation/opinions/section-2-service-public-de-la-donnee-1/utiliser-les-logiciels-libres-gnu-linux-dans-les-ecoles-et-les-universites/arguments/5025/report"
        },
        "has_user_voted": false,
        "has_user_reported": false
      },
      {
        "isContribuable": false,
        "id": 5829,
        "body": "@Loïc Bernard, relisez le petit prince de St Exupéry: l'histoire du savant. Vous y verrez que si l'on dit la même chose avec un habit non convenu (fautes d'orthographes nombreuses), on a tout de suite moins de crédibilité, même si je ne m'arrêtes pas à cela: je pense qu'il y a un gros problème de non-rabâchage des règles de grammaire et d'orthographe du CE2 à la 3ème.\nConcernant votre volonté de libérer le BIOS, je ne crois pas que cela est fait pour ennuyer les gens mais surtout pour des raisons de garantie. Comment garantir un appareil, si quelqu'un fait griller un lecteur de CD, par exemple, parce qu'il est allé bidouiller dans le BIOS sans en avoir les capacités ? Par contre, on pourrait demander aux compagnies d'ouvrir leurs BIOS pour les seuls informaticiens qui en aient véritablement besoin.",
        "created_at": "2015-10-18T14:27:30+0200",
        "updated_at": "2015-10-18T14:27:30+0200",
        "is_enabled": true,
        "votes_count": 1,
        "type": 0,
        "is_trashed": false,
        "author": {
          "username": "Jeanne Varasco",
          "displayName": "Jeanne Varasco",
          "uniqueId": "jeannevarasco",
          "isAdmin": false,
          "media": {
            "url": "/media/cache/default_avatar/default/0001/01/139_default_avatar.jpg"
          },
          "vip": false,
          "_links": {
            "profile": "https://www.republique-numerique.fr/profile/jeannevarasco",
            "settings": "https://www.republique-numerique.fr/profile/edit-profile"
          }
        },
        "_links": {
          "show": "https://www.republique-numerique.fr/consultations/projet-de-loi-numerique/consultation/consultation/opinions/section-2-service-public-de-la-donnee-1/utiliser-les-logiciels-libres-gnu-linux-dans-les-ecoles-et-les-universites/versions/proposer-du-materiel-libre#arg-5829",
          "edit": "https://www.republique-numerique.fr/consultations/projet-de-loi-numerique/consultation/consultation/opinions/section-2-service-public-de-la-donnee-1/utiliser-les-logiciels-libres-gnu-linux-dans-les-ecoles-et-les-universites/arguments/5829/edit",
          "report": "https://www.republique-numerique.fr/consultations/projet-de-loi-numerique/consultation/consultation/opinions/section-2-service-public-de-la-donnee-1/utiliser-les-logiciels-libres-gnu-linux-dans-les-ecoles-et-les-universites/arguments/5829/report"
        },
        "has_user_voted": false,
        "has_user_reported": false
      }
    ],
    "sources": [],
    "parent": {
      "isContribuable": false,
      "id": 152,
      "body": "<p>Utiliser au maximum les logiciels libres et GNU/Linux dans les &eacute;coles et les universit&eacute;s.</p>\r\n\r\n<p>Par le biais des programmes scolaires, encourager les &eacute;l&egrave;ves/&eacute;tudiants (notamment ceux en informatique mais pas que) &agrave; r&eacute;aliser des projets permettant d&#39;am&eacute;liorer les logiciels libres et le syst&egrave;me d&#39;exploitation qu&#39;ils utilisent.</p>",
      "type": {
        "id": 87,
        "title": "Section 2",
        "subtitle": "Service public de la donnée",
        "voteWidgetType": 2,
        "votesHelpText": "Pensez-vous que cette proposition permet d'atteindre les objectifs présentés dans l’explication de l’article ?",
        "commentSystem": 2,
        "color": "blue",
        "versionable": true,
        "sourceable": true,
        "votesThreshold": null,
        "votesThresholdHelpText": null
      },
      "modals": [],
      "appendices": [
        {
          "body": "<p>La soci&eacute;t&eacute; Microsoft a depuis bien longtemps compris que plus les personnes auront &eacute;t&eacute; initi&eacute;es t&ocirc;t &agrave; son syst&egrave;me d&#39;exploitation et plus ils auront du mal &agrave; en changer (&agrave; cause notamment des habitudes qu&#39;ils auront pris dessus). C&#39;est pareil pour les logiciels.</p>\r\n\r\n<p>Nous aurions tout &agrave; int&eacute;r&ecirc;t &agrave; utiliser au maximum les logiciels libres et GNU/Linux dans les &eacute;coles et les universit&eacute;s afin notamment :</p>\r\n\r\n<ul>\r\n\t<li>Eviter de conditionner les &eacute;l&egrave;ves/&eacute;tudiants &agrave; des outils propri&eacute;taires</li>\r\n\t<li>De mieux prot&eacute;ger les donn&eacute;es personnelles</li>\r\n\t<li>De promouvoir le partage et la transparence</li>\r\n</ul>\r\n\r\n<p>En parall&egrave;le, il est tout &agrave; fait possible d&#39;inciter les &eacute;l&egrave;ves/&eacute;tudiants&nbsp;(notamment ceux en informatique mais pas que) &agrave; r&eacute;aliser des projets permettant d&#39;am&eacute;liorer les logiciels libres et le syst&egrave;me d&#39;exploitation qu&#39;ils utilisent afin que cela puisse profiter &agrave; tout le monde.</p>",
          "type": {
            "title": "Explication de l'article"
          }
        }
      ],
      "title": "Utiliser les logiciels libres & GNU/Linux dans les écoles et les universités",
      "_links": {
        "show": "https://www.republique-numerique.fr/consultations/projet-de-loi-numerique/consultation/consultation/opinions/section-2-service-public-de-la-donnee-1/utiliser-les-logiciels-libres-gnu-linux-dans-les-ecoles-et-les-universites",
        "edit": "https://www.republique-numerique.fr/consultations/projet-de-loi-numerique/consultation/consultation/opinions/section-2-service-public-de-la-donnee-1/utiliser-les-logiciels-libres-gnu-linux-dans-les-ecoles-et-les-universites/edit",
        "report": "https://www.republique-numerique.fr/consultations/projet-de-loi-numerique/consultation/consultation/opinions/section-2-service-public-de-la-donnee-1/utiliser-les-logiciels-libres-gnu-linux-dans-les-ecoles-et-les-universites/report",
        "type": "https://www.republique-numerique.fr/consultations/projet-de-loi-numerique/consultation/consultation/opinions/section-2-service-public-de-la-donnee-1"
      },
      "user_vote": null,
      "has_user_reported": false
    },
    "sources_count": 0,
    "arguments_count": 3,
    "votes": [
      {
        "user": {
          "username": "momb",
          "displayName": "momb",
          "uniqueId": "momb",
          "isAdmin": false,
          "media": null,
          "vip": false,
          "_links": {
            "profile": "https://www.republique-numerique.fr/profile/momb",
            "settings": "https://www.republique-numerique.fr/profile/edit-profile"
          }
        },
        "value": 1
      },
      {
        "user": {
          "username": "DESPONTIN",
          "displayName": "DESPONTIN",
          "uniqueId": "despontin",
          "isAdmin": false,
          "media": null,
          "vip": false,
          "_links": {
            "profile": "https://www.republique-numerique.fr/profile/despontin",
            "settings": "https://www.republique-numerique.fr/profile/edit-profile"
          }
        },
        "value": 1
      },
      {
        "user": {
          "username": "Maillard",
          "displayName": "Maillard",
          "uniqueId": "maillard2",
          "isAdmin": false,
          "media": null,
          "vip": false,
          "_links": {
            "profile": "https://www.republique-numerique.fr/profile/maillard2",
            "settings": "https://www.republique-numerique.fr/profile/edit-profile"
          }
        },
        "value": 1
      },
      {
        "user": {
          "username": "pierre jocelyn andre",
          "displayName": "pierre jocelyn andre",
          "uniqueId": "pierrejocelynandre",
          "isAdmin": false,
          "media": null,
          "vip": false,
          "_links": {
            "profile": "https://www.republique-numerique.fr/profile/pierrejocelynandre",
            "settings": "https://www.republique-numerique.fr/profile/edit-profile"
          }
        },
        "value": 1
      },
      {
        "user": {
          "username": "Julien Henry",
          "displayName": "Julien Henry",
          "uniqueId": "julienhenry",
          "isAdmin": false,
          "media": null,
          "vip": false,
          "_links": {
            "profile": "https://www.republique-numerique.fr/profile/julienhenry",
            "settings": "https://www.republique-numerique.fr/profile/edit-profile"
          }
        },
        "value": 0
      }
    ],
    "updated_at": "2015-10-15T09:29:52+0200",
    "ranking": 439,
    "is_trashed": false,
    "title": "Proposer du matériel avec un code machine ouvert/libre",
    "slug": "proposer-du-materiel-libre",
    "created_at": "2015-10-15T09:05:44+0200",
    "votes_nok": 0,
    "votes_ok": 9,
    "votes_mitige": 2,
    "_links": {
      "show": "https://www.republique-numerique.fr/consultations/projet-de-loi-numerique/consultation/consultation/opinions/section-2-service-public-de-la-donnee-1/utiliser-les-logiciels-libres-gnu-linux-dans-les-ecoles-et-les-universites/versions/proposer-du-materiel-libre",
      "report": "https://www.republique-numerique.fr/consultations/projet-de-loi-numerique/consultation/consultation/opinions/section-2-service-public-de-la-donnee-1/utiliser-les-logiciels-libres-gnu-linux-dans-les-ecoles-et-les-universites/versions/proposer-du-materiel-libre/report"
    },
    "user_vote": null,
    "has_user_reported": false
  },
  "rankingThreshold": null,
  "opinionTerm": 1
}