{
  "version": {
    "isContribuable": false,
    "votes_total": 37,
    "arguments_yes_count": 4,
    "arguments_no_count": 5,
    "id": 592,
    "body": "<p>Utiliser quand ils sont &eacute;quivalents les logiciels libres et GNU/Linux dans les &eacute;coles et les universit&eacute;s.</p>\n\n<p>Par le biais des programmes scolaires, encourager les &eacute;l&egrave;ves/&eacute;tudiants (notamment ceux en informatique mais pas que) &agrave; r&eacute;aliser des projets permettant d&#39;am&eacute;liorer les logiciels libres et le syst&egrave;me d&#39;exploitation qu&#39;ils utilisent.</p>",
    "comment": "Il y a un risque dans les universit&eacute;s de se mettre &agrave; utiliser des ersatz gratuits (ce qui fait bien entendu faire des &eacute;conomie) mais qui ne sont pas &agrave; la hauteur, je le dis en connaissance de cause...Gimp n&#39;a rien &agrave; voir avec Photoshop, pareil pour Indesign qui n&#39;est pas remplacable, etc...",
    "author": {
      "username": "Lionel Barbe",
      "displayName": "Lionel Barbe",
      "uniqueId": "lionelbarbe",
      "isAdmin": false,
      "media": null,
      "vip": false,
      "_links": {
        "profile": "https://www.republique-numerique.fr/profile/lionelbarbe",
        "settings": "https://www.republique-numerique.fr/profile/edit-profile"
      }
    },
    "arguments": [
      {
        "isContribuable": false,
        "id": 2167,
        "body": "Certains logiciels utilisés dans les domaines techniques et scientifiques ne trouvent pas systématiquement leurs équivalents libres. Peut-être serait-il donc appréciable de laisser à l'instituteur le choix du système d'exploitation.",
        "created_at": "2015-10-04T14:00:05+0200",
        "updated_at": "2015-10-04T14:00:05+0200",
        "is_enabled": true,
        "votes_count": 3,
        "type": 1,
        "is_trashed": false,
        "author": {
          "username": "Thibault Armengaud",
          "displayName": "Thibault Armengaud",
          "uniqueId": "thibaultarmengaud",
          "isAdmin": false,
          "media": null,
          "vip": false,
          "_links": {
            "profile": "https://www.republique-numerique.fr/profile/thibaultarmengaud",
            "settings": "https://www.republique-numerique.fr/profile/edit-profile"
          }
        },
        "_links": {
          "show": "https://www.republique-numerique.fr/consultations/projet-de-loi-numerique/consultation/consultation/opinions/section-2-service-public-de-la-donnee-1/utiliser-les-logiciels-libres-gnu-linux-dans-les-ecoles-et-les-universites/versions/attention-a-ne-pas-reduire-les-competences-des-etudiants-en-millieu-professionnel#arg-2167",
          "edit": "https://www.republique-numerique.fr/consultations/projet-de-loi-numerique/consultation/consultation/opinions/section-2-service-public-de-la-donnee-1/utiliser-les-logiciels-libres-gnu-linux-dans-les-ecoles-et-les-universites/arguments/2167/edit",
          "report": "https://www.republique-numerique.fr/consultations/projet-de-loi-numerique/consultation/consultation/opinions/section-2-service-public-de-la-donnee-1/utiliser-les-logiciels-libres-gnu-linux-dans-les-ecoles-et-les-universites/arguments/2167/report"
        },
        "has_user_voted": false,
        "has_user_reported": false
      },
      {
        "isContribuable": false,
        "id": 2310,
        "body": "Les logiciels libres sont génériques et préparent très bien aussi aux variantes privées.",
        "created_at": "2015-10-05T20:29:06+0200",
        "updated_at": "2015-10-05T20:29:06+0200",
        "is_enabled": true,
        "votes_count": 2,
        "type": 1,
        "is_trashed": false,
        "author": {
          "username": "Alain Mille",
          "displayName": "Alain Mille",
          "uniqueId": "alainmille",
          "isAdmin": false,
          "media": null,
          "vip": false,
          "_links": {
            "profile": "https://www.republique-numerique.fr/profile/alainmille",
            "settings": "https://www.republique-numerique.fr/profile/edit-profile"
          }
        },
        "_links": {
          "show": "https://www.republique-numerique.fr/consultations/projet-de-loi-numerique/consultation/consultation/opinions/section-2-service-public-de-la-donnee-1/utiliser-les-logiciels-libres-gnu-linux-dans-les-ecoles-et-les-universites/versions/attention-a-ne-pas-reduire-les-competences-des-etudiants-en-millieu-professionnel#arg-2310",
          "edit": "https://www.republique-numerique.fr/consultations/projet-de-loi-numerique/consultation/consultation/opinions/section-2-service-public-de-la-donnee-1/utiliser-les-logiciels-libres-gnu-linux-dans-les-ecoles-et-les-universites/arguments/2310/edit",
          "report": "https://www.republique-numerique.fr/consultations/projet-de-loi-numerique/consultation/consultation/opinions/section-2-service-public-de-la-donnee-1/utiliser-les-logiciels-libres-gnu-linux-dans-les-ecoles-et-les-universites/arguments/2310/report"
        },
        "has_user_voted": false,
        "has_user_reported": false
      },
      {
        "isContribuable": false,
        "id": 2523,
        "body": "L'école française devrait enseigner l'utilisation des logiciels les plus usités sur les différents marchés, propriétaires ou non. Le propriétaire n'étant pas toujours capable de faire ce que fait le libre, et inversement. Il existe de nombreux besoins non couverts par les logiciels libres. Ceci est d'autant plus vrai pour les étudiants en informatique. Empêcher les étudiants d'apprendre à utiliser un logiciel très demandé par les entreprises pourrait dévaluer la valeur professionnelle des jaunes auprès des entreprises.",
        "created_at": "2015-10-07T18:37:00+0200",
        "updated_at": "2015-10-07T18:37:00+0200",
        "is_enabled": true,
        "votes_count": 0,
        "type": 1,
        "is_trashed": false,
        "author": {
          "username": "Claude BOUYER",
          "displayName": "Claude BOUYER",
          "uniqueId": "claudebouyer",
          "isAdmin": false,
          "media": null,
          "vip": false,
          "_links": {
            "profile": "https://www.republique-numerique.fr/profile/claudebouyer",
            "settings": "https://www.republique-numerique.fr/profile/edit-profile"
          }
        },
        "_links": {
          "show": "https://www.republique-numerique.fr/consultations/projet-de-loi-numerique/consultation/consultation/opinions/section-2-service-public-de-la-donnee-1/utiliser-les-logiciels-libres-gnu-linux-dans-les-ecoles-et-les-universites/versions/attention-a-ne-pas-reduire-les-competences-des-etudiants-en-millieu-professionnel#arg-2523",
          "edit": "https://www.republique-numerique.fr/consultations/projet-de-loi-numerique/consultation/consultation/opinions/section-2-service-public-de-la-donnee-1/utiliser-les-logiciels-libres-gnu-linux-dans-les-ecoles-et-les-universites/arguments/2523/edit",
          "report": "https://www.republique-numerique.fr/consultations/projet-de-loi-numerique/consultation/consultation/opinions/section-2-service-public-de-la-donnee-1/utiliser-les-logiciels-libres-gnu-linux-dans-les-ecoles-et-les-universites/arguments/2523/report"
        },
        "has_user_voted": false,
        "has_user_reported": false
      },
      {
        "isContribuable": false,
        "id": 2575,
        "body": "L'apprentissage sur du libre orientera les citoyens vers le collaboratif et à terme la création de logiciel bien plus performant car répondant aux exigences de chacun. L'etat éctuel du logiciel libre (en général) est aussi dû à son faible poids dans le marché global. Il faudra un temps d'adaptation mais à terme c'est plus profitable. ",
        "created_at": "2015-10-07T21:30:58+0200",
        "updated_at": "2015-10-07T21:30:58+0200",
        "is_enabled": true,
        "votes_count": 6,
        "type": 0,
        "is_trashed": false,
        "author": {
          "username": "Mathieu Sutter",
          "displayName": "Mathieu Sutter",
          "uniqueId": "mathieusutter",
          "isAdmin": false,
          "media": null,
          "vip": false,
          "_links": {
            "profile": "https://www.republique-numerique.fr/profile/mathieusutter",
            "settings": "https://www.republique-numerique.fr/profile/edit-profile"
          }
        },
        "_links": {
          "show": "https://www.republique-numerique.fr/consultations/projet-de-loi-numerique/consultation/consultation/opinions/section-2-service-public-de-la-donnee-1/utiliser-les-logiciels-libres-gnu-linux-dans-les-ecoles-et-les-universites/versions/attention-a-ne-pas-reduire-les-competences-des-etudiants-en-millieu-professionnel#arg-2575",
          "edit": "https://www.republique-numerique.fr/consultations/projet-de-loi-numerique/consultation/consultation/opinions/section-2-service-public-de-la-donnee-1/utiliser-les-logiciels-libres-gnu-linux-dans-les-ecoles-et-les-universites/arguments/2575/edit",
          "report": "https://www.republique-numerique.fr/consultations/projet-de-loi-numerique/consultation/consultation/opinions/section-2-service-public-de-la-donnee-1/utiliser-les-logiciels-libres-gnu-linux-dans-les-ecoles-et-les-universites/arguments/2575/report"
        },
        "has_user_voted": false,
        "has_user_reported": false
      },
      {
        "isContribuable": false,
        "id": 2864,
        "body": "Il faut arrêter de penser formation généraliste sur un logiciel particulier. La formation à l'outil de travail particulier doit être assuré par l'employeur qu'il soit libre ou non. L'adaptabilité est la clé et la formation continue est faite pour ça. Les savoir de base sont transposables et ne devraient pas être enseignés sur des logiciels privateurs,l'utilisation de logiciels libres et la diversité qu'ils offrent permet de développer cette adaptabilité. ",
        "created_at": "2015-10-09T22:41:46+0200",
        "updated_at": "2015-10-09T22:41:46+0200",
        "is_enabled": true,
        "votes_count": 7,
        "type": 0,
        "is_trashed": false,
        "author": {
          "username": "François-Xavier Eon",
          "displayName": "François-Xavier Eon",
          "uniqueId": "francoisxaviereon",
          "isAdmin": false,
          "media": null,
          "vip": false,
          "_links": {
            "profile": "https://www.republique-numerique.fr/profile/francoisxaviereon",
            "settings": "https://www.republique-numerique.fr/profile/edit-profile"
          }
        },
        "_links": {
          "show": "https://www.republique-numerique.fr/consultations/projet-de-loi-numerique/consultation/consultation/opinions/section-2-service-public-de-la-donnee-1/utiliser-les-logiciels-libres-gnu-linux-dans-les-ecoles-et-les-universites/versions/attention-a-ne-pas-reduire-les-competences-des-etudiants-en-millieu-professionnel#arg-2864",
          "edit": "https://www.republique-numerique.fr/consultations/projet-de-loi-numerique/consultation/consultation/opinions/section-2-service-public-de-la-donnee-1/utiliser-les-logiciels-libres-gnu-linux-dans-les-ecoles-et-les-universites/arguments/2864/edit",
          "report": "https://www.republique-numerique.fr/consultations/projet-de-loi-numerique/consultation/consultation/opinions/section-2-service-public-de-la-donnee-1/utiliser-les-logiciels-libres-gnu-linux-dans-les-ecoles-et-les-universites/arguments/2864/report"
        },
        "has_user_voted": false,
        "has_user_reported": false
      },
      {
        "isContribuable": false,
        "id": 3509,
        "body": "Les situations dans monde professionnel ne sont ni blanches, ni noires. Je travaille avec une plateforme logicielle libre (Drupal) et les développeurs plébiscitent le Macintosh comme plateforme de développement et Linux comme plateforme d'exploitation.\nLa formation des élèves doit se faire vers les situations qu'ils rencontreront le plus souvent. Le choix d'un logiciel libre doit se faire au cas par cas en fonction du contexte.",
        "created_at": "2015-10-13T10:58:14+0200",
        "updated_at": "2015-10-13T10:58:14+0200",
        "is_enabled": true,
        "votes_count": 0,
        "type": 1,
        "is_trashed": false,
        "author": {
          "username": "Pascal LEGRIS",
          "displayName": "Pascal LEGRIS",
          "uniqueId": "pascallegris",
          "isAdmin": false,
          "media": null,
          "vip": false,
          "_links": {
            "profile": "https://www.republique-numerique.fr/profile/pascallegris",
            "settings": "https://www.republique-numerique.fr/profile/edit-profile"
          }
        },
        "_links": {
          "show": "https://www.republique-numerique.fr/consultations/projet-de-loi-numerique/consultation/consultation/opinions/section-2-service-public-de-la-donnee-1/utiliser-les-logiciels-libres-gnu-linux-dans-les-ecoles-et-les-universites/versions/attention-a-ne-pas-reduire-les-competences-des-etudiants-en-millieu-professionnel#arg-3509",
          "edit": "https://www.republique-numerique.fr/consultations/projet-de-loi-numerique/consultation/consultation/opinions/section-2-service-public-de-la-donnee-1/utiliser-les-logiciels-libres-gnu-linux-dans-les-ecoles-et-les-universites/arguments/3509/edit",
          "report": "https://www.republique-numerique.fr/consultations/projet-de-loi-numerique/consultation/consultation/opinions/section-2-service-public-de-la-donnee-1/utiliser-les-logiciels-libres-gnu-linux-dans-les-ecoles-et-les-universites/arguments/3509/report"
        },
        "has_user_voted": false,
        "has_user_reported": false
      },
      {
        "isContribuable": false,
        "id": 3525,
        "body": "De plus en plus les logiciels libres tendent à s'imposer. En effet, ils ne sont soumis à l'achat d'une licence onéreuse. Les avancées dans les langages de programmation et dans les méthodes de conception permettent aujourd'hui à des logiciels libres de concurrencer leurs équivalents propriétaires. \nSi l'accent est mis, durant les études, sur les logiciels libres, les étudiants devenus salariés seront plus à même de proposer des solutions libres dans leurs entreprises plutôt que d'aller vers la solution propriétaire.\nAujourd'hui, dans les facs, les IUT, les grandes écoles, on voit un lobby énorme d'entreprises du secteur numérique afin d'imposer aux étudiants, aux professeurs, l'utilisation de leurs technologie (on peut citer le programme MSDNAA de Microsoft par exemple).\nIl faut sortir de ce paradigme !",
        "created_at": "2015-10-13T11:18:27+0200",
        "updated_at": "2015-10-13T11:18:27+0200",
        "is_enabled": true,
        "votes_count": 6,
        "type": 0,
        "is_trashed": false,
        "author": {
          "username": "Clément VIEL",
          "displayName": "Clément VIEL",
          "uniqueId": "clementviel",
          "isAdmin": false,
          "media": null,
          "vip": false,
          "_links": {
            "profile": "https://www.republique-numerique.fr/profile/clementviel",
            "settings": "https://www.republique-numerique.fr/profile/edit-profile"
          }
        },
        "_links": {
          "show": "https://www.republique-numerique.fr/consultations/projet-de-loi-numerique/consultation/consultation/opinions/section-2-service-public-de-la-donnee-1/utiliser-les-logiciels-libres-gnu-linux-dans-les-ecoles-et-les-universites/versions/attention-a-ne-pas-reduire-les-competences-des-etudiants-en-millieu-professionnel#arg-3525",
          "edit": "https://www.republique-numerique.fr/consultations/projet-de-loi-numerique/consultation/consultation/opinions/section-2-service-public-de-la-donnee-1/utiliser-les-logiciels-libres-gnu-linux-dans-les-ecoles-et-les-universites/arguments/3525/edit",
          "report": "https://www.republique-numerique.fr/consultations/projet-de-loi-numerique/consultation/consultation/opinions/section-2-service-public-de-la-donnee-1/utiliser-les-logiciels-libres-gnu-linux-dans-les-ecoles-et-les-universites/arguments/3525/report"
        },
        "has_user_voted": false,
        "has_user_reported": false
      },
      {
        "isContribuable": false,
        "id": 4029,
        "body": "Qui déterminera l'équivalence ? Selon quels critères ?\nJe trouve que Gimp et Scribus sont de bons logiciels, et ils sont beaucoup moins lourds que les produits d'Adobe. Leur grand avantage est qu'on peut les améliorer sans demander la permission. Si les acteurs publics et privés déportaient leurs dépenses de plus en plus gourmandes de licences logicielles vers l'amélioration des logiciels libres, ceux-ci seraient encore meilleurs.",
        "created_at": "2015-10-14T18:56:56+0200",
        "updated_at": "2015-10-14T18:56:56+0200",
        "is_enabled": true,
        "votes_count": 2,
        "type": 0,
        "is_trashed": false,
        "author": {
          "username": "François Seguin",
          "displayName": "François Seguin",
          "uniqueId": "francoisseguin",
          "isAdmin": false,
          "media": null,
          "vip": false,
          "_links": {
            "profile": "https://www.republique-numerique.fr/profile/francoisseguin",
            "settings": "https://www.republique-numerique.fr/profile/edit-profile"
          }
        },
        "_links": {
          "show": "https://www.republique-numerique.fr/consultations/projet-de-loi-numerique/consultation/consultation/opinions/section-2-service-public-de-la-donnee-1/utiliser-les-logiciels-libres-gnu-linux-dans-les-ecoles-et-les-universites/versions/attention-a-ne-pas-reduire-les-competences-des-etudiants-en-millieu-professionnel#arg-4029",
          "edit": "https://www.republique-numerique.fr/consultations/projet-de-loi-numerique/consultation/consultation/opinions/section-2-service-public-de-la-donnee-1/utiliser-les-logiciels-libres-gnu-linux-dans-les-ecoles-et-les-universites/arguments/4029/edit",
          "report": "https://www.republique-numerique.fr/consultations/projet-de-loi-numerique/consultation/consultation/opinions/section-2-service-public-de-la-donnee-1/utiliser-les-logiciels-libres-gnu-linux-dans-les-ecoles-et-les-universites/arguments/4029/report"
        },
        "has_user_voted": false,
        "has_user_reported": false
      },
      {
        "isContribuable": false,
        "id": 4728,
        "body": "Équivalents à quoi ? Et ça ne répons plus aux objectifs présentés dans l'explication de l'article.",
        "created_at": "2015-10-16T14:36:10+0200",
        "updated_at": "2015-10-16T14:36:10+0200",
        "is_enabled": true,
        "votes_count": 1,
        "type": 0,
        "is_trashed": false,
        "author": {
          "username": "Julien Henry",
          "displayName": "Julien Henry",
          "uniqueId": "julienhenry",
          "isAdmin": false,
          "media": null,
          "vip": false,
          "_links": {
            "profile": "https://www.republique-numerique.fr/profile/julienhenry",
            "settings": "https://www.republique-numerique.fr/profile/edit-profile"
          }
        },
        "_links": {
          "show": "https://www.republique-numerique.fr/consultations/projet-de-loi-numerique/consultation/consultation/opinions/section-2-service-public-de-la-donnee-1/utiliser-les-logiciels-libres-gnu-linux-dans-les-ecoles-et-les-universites/versions/attention-a-ne-pas-reduire-les-competences-des-etudiants-en-millieu-professionnel#arg-4728",
          "edit": "https://www.republique-numerique.fr/consultations/projet-de-loi-numerique/consultation/consultation/opinions/section-2-service-public-de-la-donnee-1/utiliser-les-logiciels-libres-gnu-linux-dans-les-ecoles-et-les-universites/arguments/4728/edit",
          "report": "https://www.republique-numerique.fr/consultations/projet-de-loi-numerique/consultation/consultation/opinions/section-2-service-public-de-la-donnee-1/utiliser-les-logiciels-libres-gnu-linux-dans-les-ecoles-et-les-universites/arguments/4728/report"
        },
        "has_user_voted": false,
        "has_user_reported": false
      }
    ],
    "sources": [],
    "parent": {
      "isContribuable": false,
      "id": 152,
      "body": "<p>Utiliser au maximum les logiciels libres et GNU/Linux dans les &eacute;coles et les universit&eacute;s.</p>\r\n\r\n<p>Par le biais des programmes scolaires, encourager les &eacute;l&egrave;ves/&eacute;tudiants (notamment ceux en informatique mais pas que) &agrave; r&eacute;aliser des projets permettant d&#39;am&eacute;liorer les logiciels libres et le syst&egrave;me d&#39;exploitation qu&#39;ils utilisent.</p>",
      "type": {
        "id": 87,
        "title": "Section 2",
        "subtitle": "Service public de la donnée",
        "voteWidgetType": 2,
        "votesHelpText": "Pensez-vous que cette proposition permet d'atteindre les objectifs présentés dans l’explication de l’article ?",
        "commentSystem": 2,
        "color": "blue",
        "versionable": true,
        "sourceable": true,
        "votesThreshold": null,
        "votesThresholdHelpText": null
      },
      "modals": [],
      "appendices": [
        {
          "body": "<p>La soci&eacute;t&eacute; Microsoft a depuis bien longtemps compris que plus les personnes auront &eacute;t&eacute; initi&eacute;es t&ocirc;t &agrave; son syst&egrave;me d&#39;exploitation et plus ils auront du mal &agrave; en changer (&agrave; cause notamment des habitudes qu&#39;ils auront pris dessus). C&#39;est pareil pour les logiciels.</p>\r\n\r\n<p>Nous aurions tout &agrave; int&eacute;r&ecirc;t &agrave; utiliser au maximum les logiciels libres et GNU/Linux dans les &eacute;coles et les universit&eacute;s afin notamment :</p>\r\n\r\n<ul>\r\n\t<li>Eviter de conditionner les &eacute;l&egrave;ves/&eacute;tudiants &agrave; des outils propri&eacute;taires</li>\r\n\t<li>De mieux prot&eacute;ger les donn&eacute;es personnelles</li>\r\n\t<li>De promouvoir le partage et la transparence</li>\r\n</ul>\r\n\r\n<p>En parall&egrave;le, il est tout &agrave; fait possible d&#39;inciter les &eacute;l&egrave;ves/&eacute;tudiants&nbsp;(notamment ceux en informatique mais pas que) &agrave; r&eacute;aliser des projets permettant d&#39;am&eacute;liorer les logiciels libres et le syst&egrave;me d&#39;exploitation qu&#39;ils utilisent afin que cela puisse profiter &agrave; tout le monde.</p>",
          "type": {
            "title": "Explication de l'article"
          }
        }
      ],
      "title": "Utiliser les logiciels libres & GNU/Linux dans les écoles et les universités",
      "_links": {
        "show": "https://www.republique-numerique.fr/consultations/projet-de-loi-numerique/consultation/consultation/opinions/section-2-service-public-de-la-donnee-1/utiliser-les-logiciels-libres-gnu-linux-dans-les-ecoles-et-les-universites",
        "edit": "https://www.republique-numerique.fr/consultations/projet-de-loi-numerique/consultation/consultation/opinions/section-2-service-public-de-la-donnee-1/utiliser-les-logiciels-libres-gnu-linux-dans-les-ecoles-et-les-universites/edit",
        "report": "https://www.republique-numerique.fr/consultations/projet-de-loi-numerique/consultation/consultation/opinions/section-2-service-public-de-la-donnee-1/utiliser-les-logiciels-libres-gnu-linux-dans-les-ecoles-et-les-universites/report",
        "type": "https://www.republique-numerique.fr/consultations/projet-de-loi-numerique/consultation/consultation/opinions/section-2-service-public-de-la-donnee-1"
      },
      "user_vote": null,
      "has_user_reported": false
    },
    "sources_count": 0,
    "arguments_count": 9,
    "votes": [
      {
        "user": {
          "username": "Thibault Armengaud",
          "displayName": "Thibault Armengaud",
          "uniqueId": "thibaultarmengaud",
          "isAdmin": false,
          "media": null,
          "vip": false,
          "_links": {
            "profile": "https://www.republique-numerique.fr/profile/thibaultarmengaud",
            "settings": "https://www.republique-numerique.fr/profile/edit-profile"
          }
        },
        "value": 1
      },
      {
        "user": {
          "username": "Léonard Michelet",
          "displayName": "Léonard Michelet",
          "uniqueId": "leonardmichelet",
          "isAdmin": false,
          "media": null,
          "vip": false,
          "_links": {
            "profile": "https://www.republique-numerique.fr/profile/leonardmichelet",
            "settings": "https://www.republique-numerique.fr/profile/edit-profile"
          }
        },
        "value": -1
      },
      {
        "user": {
          "username": "Alain Mille",
          "displayName": "Alain Mille",
          "uniqueId": "alainmille",
          "isAdmin": false,
          "media": null,
          "vip": false,
          "_links": {
            "profile": "https://www.republique-numerique.fr/profile/alainmille",
            "settings": "https://www.republique-numerique.fr/profile/edit-profile"
          }
        },
        "value": -1
      },
      {
        "user": {
          "username": "Xavier Combelle",
          "displayName": "Xavier Combelle",
          "uniqueId": "xaviercombelle",
          "isAdmin": false,
          "media": null,
          "vip": false,
          "_links": {
            "profile": "https://www.republique-numerique.fr/profile/xaviercombelle",
            "settings": "https://www.republique-numerique.fr/profile/edit-profile"
          }
        },
        "value": -1
      },
      {
        "user": {
          "username": "Pascal Bocquillon",
          "displayName": "Pascal Bocquillon",
          "uniqueId": "pascalbocquillon",
          "isAdmin": false,
          "media": {
            "url": "/media/cache/default_avatar/default/0001/01/423_default_avatar.jpg"
          },
          "vip": false,
          "_links": {
            "profile": "https://www.republique-numerique.fr/profile/pascalbocquillon",
            "settings": "https://www.republique-numerique.fr/profile/edit-profile"
          }
        },
        "value": -1
      }
    ],
    "updated_at": "2015-10-03T19:22:15+0200",
    "ranking": 405,
    "is_trashed": false,
    "title": "Attention à ne pas réduire les compétences des étudiants en millieu professionnel",
    "slug": "attention-a-ne-pas-reduire-les-competences-des-etudiants-en-millieu-professionnel",
    "created_at": "2015-10-03T19:22:15+0200",
    "votes_nok": 25,
    "votes_ok": 10,
    "votes_mitige": 2,
    "_links": {
      "show": "https://www.republique-numerique.fr/consultations/projet-de-loi-numerique/consultation/consultation/opinions/section-2-service-public-de-la-donnee-1/utiliser-les-logiciels-libres-gnu-linux-dans-les-ecoles-et-les-universites/versions/attention-a-ne-pas-reduire-les-competences-des-etudiants-en-millieu-professionnel",
      "report": "https://www.republique-numerique.fr/consultations/projet-de-loi-numerique/consultation/consultation/opinions/section-2-service-public-de-la-donnee-1/utiliser-les-logiciels-libres-gnu-linux-dans-les-ecoles-et-les-universites/versions/attention-a-ne-pas-reduire-les-competences-des-etudiants-en-millieu-professionnel/report"
    },
    "user_vote": null,
    "has_user_reported": false
  },
  "rankingThreshold": null,
  "opinionTerm": 1
}