{
  "version": {
    "isContribuable": false,
    "votes_total": 9,
    "arguments_yes_count": 0,
    "arguments_no_count": 2,
    "id": 1007,
    "body": "<p>Utiliser au maximum les logiciels libres et GNU/Linux dans les &eacute;coles et les universit&eacute;s.</p>\r\n\r\n<p>Par le biais des programmes scolaires, encourager les &eacute;l&egrave;ves/&eacute;tudiants (notamment ceux en informatique mais pas que) &agrave; r&eacute;aliser des projets permettant d&#39;am&eacute;liorer les logiciels libres et le syst&egrave;me d&#39;exploitation qu&#39;ils utilisent.</p>",
    "comment": "<p>La question de l OS est une question d&#39;hier.&nbsp; J habite aux US et les ecoles (des villes aisees) sont &quot;google&quot; ou &quot;apple&quot; ou &quot;microsoft&quot; mais du poste de travail aux soutions cloud. Il est bien plus facile de migrer une ecole entiere chez Google (partage de document, publication web des travaux scolaires, collaboration, construction de quizz avec google forms etc etc etc).</p>\n\n<p>&nbsp;</p>\n\n<p>Les dominants de demain c est les leaders du Cloud et l OS n est qu&#39;une toute petite partie de la question.</p>\n\n<p>Je n&#39;ai pas de proposition mais une question: quid de Amazon, Google et Facebook et Apple?</p>\n\n<p>Merci.</p>\n\n<p>&nbsp;</p>",
    "author": {
      "username": "Dominique Lahaix",
      "displayName": "Dominique Lahaix",
      "uniqueId": "dominiquelahaix",
      "isAdmin": false,
      "media": null,
      "vip": false,
      "_links": {
        "profile": "https://www.republique-numerique.fr/profile/dominiquelahaix",
        "settings": "https://www.republique-numerique.fr/profile/edit-profile"
      }
    },
    "arguments": [
      {
        "isContribuable": false,
        "id": 4119,
        "body": "Le faite que les américain soit assez bête pour sacrifier leur liberté d'utilisateur/consommateur est un assez bonne exemple du chemin que nous devons emprunter.\nLe monde du libre est sur le long terme, lorsque l'on veut calculer financièrement les coûts on le fait au long terme et non au cour terme.\nUn logiciel propriétaire aura toujours un revenue financier moindre au cour terme puisque quasiment tout le monde a était lobotomiser a les utiliser.\nMais au long terme c'est une autre histoire, le principe du monde libre c'est d'avoir le contrôle de sa machine sans y être restreint et le partage de la connaissance, il y a certes le coût de la formation et des suivi d'utilisateur au début mais après une fois que cela est fait il n'y en a plus tout simplement (ou très peut) les utilisateur former peuvent former d'autres utilisateur sans contraintes.\nEt je ne parle même pas des possibilité d'adaptation du logiciel a l’utilisateur du fait que le code soit lisible.",
        "created_at": "2015-10-15T09:41:44+0200",
        "updated_at": "2015-10-15T09:41:44+0200",
        "is_enabled": true,
        "votes_count": 4,
        "type": 0,
        "is_trashed": false,
        "author": {
          "username": "BERNARD Loïc",
          "displayName": "BERNARD Loïc",
          "uniqueId": "bernardloic",
          "isAdmin": false,
          "media": {
            "url": "/media/cache/default_avatar/default/0001/01/805_default_avatar.jpg"
          },
          "vip": false,
          "_links": {
            "profile": "https://www.republique-numerique.fr/profile/bernardloic",
            "settings": "https://www.republique-numerique.fr/profile/edit-profile"
          }
        },
        "_links": {
          "show": "https://www.republique-numerique.fr/consultations/projet-de-loi-numerique/consultation/consultation/opinions/section-2-service-public-de-la-donnee-1/utiliser-les-logiciels-libres-gnu-linux-dans-les-ecoles-et-les-universites/versions/question-et-on-fait-quoi-pour-amazon-google-apple-et-facebook#arg-4119",
          "edit": "https://www.republique-numerique.fr/consultations/projet-de-loi-numerique/consultation/consultation/opinions/section-2-service-public-de-la-donnee-1/utiliser-les-logiciels-libres-gnu-linux-dans-les-ecoles-et-les-universites/arguments/4119/edit",
          "report": "https://www.republique-numerique.fr/consultations/projet-de-loi-numerique/consultation/consultation/opinions/section-2-service-public-de-la-donnee-1/utiliser-les-logiciels-libres-gnu-linux-dans-les-ecoles-et-les-universites/arguments/4119/report"
        },
        "has_user_voted": false,
        "has_user_reported": false
      },
      {
        "isContribuable": false,
        "id": 4743,
        "body": "Le texte n'a pas été modifié…",
        "created_at": "2015-10-16T14:50:06+0200",
        "updated_at": "2015-10-16T14:50:06+0200",
        "is_enabled": true,
        "votes_count": 2,
        "type": 0,
        "is_trashed": false,
        "author": {
          "username": "Julien Henry",
          "displayName": "Julien Henry",
          "uniqueId": "julienhenry",
          "isAdmin": false,
          "media": null,
          "vip": false,
          "_links": {
            "profile": "https://www.republique-numerique.fr/profile/julienhenry",
            "settings": "https://www.republique-numerique.fr/profile/edit-profile"
          }
        },
        "_links": {
          "show": "https://www.republique-numerique.fr/consultations/projet-de-loi-numerique/consultation/consultation/opinions/section-2-service-public-de-la-donnee-1/utiliser-les-logiciels-libres-gnu-linux-dans-les-ecoles-et-les-universites/versions/question-et-on-fait-quoi-pour-amazon-google-apple-et-facebook#arg-4743",
          "edit": "https://www.republique-numerique.fr/consultations/projet-de-loi-numerique/consultation/consultation/opinions/section-2-service-public-de-la-donnee-1/utiliser-les-logiciels-libres-gnu-linux-dans-les-ecoles-et-les-universites/arguments/4743/edit",
          "report": "https://www.republique-numerique.fr/consultations/projet-de-loi-numerique/consultation/consultation/opinions/section-2-service-public-de-la-donnee-1/utiliser-les-logiciels-libres-gnu-linux-dans-les-ecoles-et-les-universites/arguments/4743/report"
        },
        "has_user_voted": false,
        "has_user_reported": false
      }
    ],
    "sources": [],
    "parent": {
      "isContribuable": false,
      "id": 152,
      "body": "<p>Utiliser au maximum les logiciels libres et GNU/Linux dans les &eacute;coles et les universit&eacute;s.</p>\r\n\r\n<p>Par le biais des programmes scolaires, encourager les &eacute;l&egrave;ves/&eacute;tudiants (notamment ceux en informatique mais pas que) &agrave; r&eacute;aliser des projets permettant d&#39;am&eacute;liorer les logiciels libres et le syst&egrave;me d&#39;exploitation qu&#39;ils utilisent.</p>",
      "type": {
        "id": 87,
        "title": "Section 2",
        "subtitle": "Service public de la donnée",
        "voteWidgetType": 2,
        "votesHelpText": "Pensez-vous que cette proposition permet d'atteindre les objectifs présentés dans l’explication de l’article ?",
        "commentSystem": 2,
        "color": "blue",
        "versionable": true,
        "sourceable": true,
        "votesThreshold": null,
        "votesThresholdHelpText": null
      },
      "modals": [],
      "appendices": [
        {
          "body": "<p>La soci&eacute;t&eacute; Microsoft a depuis bien longtemps compris que plus les personnes auront &eacute;t&eacute; initi&eacute;es t&ocirc;t &agrave; son syst&egrave;me d&#39;exploitation et plus ils auront du mal &agrave; en changer (&agrave; cause notamment des habitudes qu&#39;ils auront pris dessus). C&#39;est pareil pour les logiciels.</p>\r\n\r\n<p>Nous aurions tout &agrave; int&eacute;r&ecirc;t &agrave; utiliser au maximum les logiciels libres et GNU/Linux dans les &eacute;coles et les universit&eacute;s afin notamment :</p>\r\n\r\n<ul>\r\n\t<li>Eviter de conditionner les &eacute;l&egrave;ves/&eacute;tudiants &agrave; des outils propri&eacute;taires</li>\r\n\t<li>De mieux prot&eacute;ger les donn&eacute;es personnelles</li>\r\n\t<li>De promouvoir le partage et la transparence</li>\r\n</ul>\r\n\r\n<p>En parall&egrave;le, il est tout &agrave; fait possible d&#39;inciter les &eacute;l&egrave;ves/&eacute;tudiants&nbsp;(notamment ceux en informatique mais pas que) &agrave; r&eacute;aliser des projets permettant d&#39;am&eacute;liorer les logiciels libres et le syst&egrave;me d&#39;exploitation qu&#39;ils utilisent afin que cela puisse profiter &agrave; tout le monde.</p>",
          "type": {
            "title": "Explication de l'article"
          }
        }
      ],
      "title": "Utiliser les logiciels libres & GNU/Linux dans les écoles et les universités",
      "_links": {
        "show": "https://www.republique-numerique.fr/consultations/projet-de-loi-numerique/consultation/consultation/opinions/section-2-service-public-de-la-donnee-1/utiliser-les-logiciels-libres-gnu-linux-dans-les-ecoles-et-les-universites",
        "edit": "https://www.republique-numerique.fr/consultations/projet-de-loi-numerique/consultation/consultation/opinions/section-2-service-public-de-la-donnee-1/utiliser-les-logiciels-libres-gnu-linux-dans-les-ecoles-et-les-universites/edit",
        "report": "https://www.republique-numerique.fr/consultations/projet-de-loi-numerique/consultation/consultation/opinions/section-2-service-public-de-la-donnee-1/utiliser-les-logiciels-libres-gnu-linux-dans-les-ecoles-et-les-universites/report",
        "type": "https://www.republique-numerique.fr/consultations/projet-de-loi-numerique/consultation/consultation/opinions/section-2-service-public-de-la-donnee-1"
      },
      "user_vote": null,
      "has_user_reported": false
    },
    "sources_count": 0,
    "arguments_count": 2,
    "votes": [
      {
        "user": {
          "username": "BERNARD Loïc",
          "displayName": "BERNARD Loïc",
          "uniqueId": "bernardloic",
          "isAdmin": false,
          "media": {
            "url": "/media/cache/default_avatar/default/0001/01/805_default_avatar.jpg"
          },
          "vip": false,
          "_links": {
            "profile": "https://www.republique-numerique.fr/profile/bernardloic",
            "settings": "https://www.republique-numerique.fr/profile/edit-profile"
          }
        },
        "value": -1
      },
      {
        "user": {
          "username": "Amadou Ndiaye",
          "displayName": "Amadou Ndiaye",
          "uniqueId": "amadoundiaye",
          "isAdmin": false,
          "media": null,
          "vip": false,
          "_links": {
            "profile": "https://www.republique-numerique.fr/profile/amadoundiaye",
            "settings": "https://www.republique-numerique.fr/profile/edit-profile"
          }
        },
        "value": -1
      },
      {
        "user": {
          "username": "J.P. Coeffic",
          "displayName": "J.P. Coeffic",
          "uniqueId": "jpcoeffic",
          "isAdmin": false,
          "media": null,
          "vip": false,
          "_links": {
            "profile": "https://www.republique-numerique.fr/profile/jpcoeffic",
            "settings": "https://www.republique-numerique.fr/profile/edit-profile"
          }
        },
        "value": -1
      },
      {
        "user": {
          "username": "Julien Henry",
          "displayName": "Julien Henry",
          "uniqueId": "julienhenry",
          "isAdmin": false,
          "media": null,
          "vip": false,
          "_links": {
            "profile": "https://www.republique-numerique.fr/profile/julienhenry",
            "settings": "https://www.republique-numerique.fr/profile/edit-profile"
          }
        },
        "value": 0
      },
      {
        "user": {
          "username": "Leonard de Haro",
          "displayName": "Leonard de Haro",
          "uniqueId": "leonarddeharo",
          "isAdmin": false,
          "media": null,
          "vip": false,
          "_links": {
            "profile": "https://www.republique-numerique.fr/profile/leonarddeharo",
            "settings": "https://www.republique-numerique.fr/profile/edit-profile"
          }
        },
        "value": -1
      }
    ],
    "updated_at": "2015-10-15T02:58:21+0200",
    "ranking": 1028,
    "is_trashed": false,
    "title": "Question: Et on fait quoi pour Amazon, Google , Apple et Facebook?",
    "slug": "question-et-on-fait-quoi-pour-amazon-google-apple-et-facebook",
    "created_at": "2015-10-15T02:58:21+0200",
    "votes_nok": 7,
    "votes_ok": 1,
    "votes_mitige": 1,
    "_links": {
      "show": "https://www.republique-numerique.fr/consultations/projet-de-loi-numerique/consultation/consultation/opinions/section-2-service-public-de-la-donnee-1/utiliser-les-logiciels-libres-gnu-linux-dans-les-ecoles-et-les-universites/versions/question-et-on-fait-quoi-pour-amazon-google-apple-et-facebook",
      "report": "https://www.republique-numerique.fr/consultations/projet-de-loi-numerique/consultation/consultation/opinions/section-2-service-public-de-la-donnee-1/utiliser-les-logiciels-libres-gnu-linux-dans-les-ecoles-et-les-universites/versions/question-et-on-fait-quoi-pour-amazon-google-apple-et-facebook/report"
    },
    "user_vote": null,
    "has_user_reported": false
  },
  "rankingThreshold": null,
  "opinionTerm": 1
}