{
  "version": {
    "isContribuable": false,
    "votes_total": 3,
    "arguments_yes_count": 0,
    "arguments_no_count": 0,
    "id": 1209,
    "body": "<p>L&rsquo;article L. 111-5-1 du code de la consommation est ainsi modifi&eacute;&nbsp;:</p>\n\n<p>I. Le premier alin&eacute;a est remplac&eacute; par les alin&eacute;as suivants&nbsp;:</p>\n\n<p>&laquo;&nbsp;Sans pr&eacute;judice des obligations pr&eacute;vues la loi n&deg; 2004575 du 21 juin 2004 pour la confiance dans l&rsquo;&eacute;conomie num&eacute;rique&nbsp;:</p>\n\n<p>1&deg; Sont qualifi&eacute;es de plateformes en ligne, au sens du pr&eacute;sent article, les services de communication au public en ligne consistant &agrave; classer ou r&eacute;f&eacute;rencer des contenus, biens ou services, propos&eacute;s ou mis en ligne par des tiers sous leur ma&icirc;trise &eacute;ditoriale ou par d&#39;autres plateformes en ligne, ou &agrave; mettre en relation par voie &eacute;lectronique, plusieurs parties en vue de la vente d&#39;un bien, de la fourniture d&#39;un service, y compris &agrave; titre non r&eacute;mun&eacute;r&eacute;, ou de l&#39;&eacute;change ou du partage d&#39;un bien ou d&#39;un service.<s> Sont qualifi&eacute;es de plateformes en ligne les personnes exer&ccedil;ant cette activit&eacute; &agrave; titre professionnel. </s></p>\n\n<p>Ne sont pas qualifi&eacute;es [d&#39;op&eacute;rateurs] de plateformes en ligne, les personnes qui &eacute;ditent un service de communication au public en ligne.<br />\n&nbsp;</p>\n\n<p>&laquo;&nbsp;2&deg; Toute plateforme en ligne est tenue de d&eacute;livrer une information loyale, claire et transparente sur les conditions g&eacute;n&eacute;rales d&rsquo;utilisation du service d&rsquo;interm&eacute;diation qu&rsquo;elle propose et sur les modalit&eacute;s de r&eacute;f&eacute;rencement, de classement et de d&eacute;r&eacute;f&eacute;rencement des contenus, biens ou services auxquels ce service permet d&rsquo;acc&eacute;der. Elle fait notamment appara&icirc;tre clairement l&rsquo;existence ou non d&rsquo;une relation contractuelle ou de liens capitalistiques avec les personnes r&eacute;f&eacute;renc&eacute;es ; l&rsquo;existence ou non d&rsquo;une r&eacute;mun&eacute;ration par les personnes r&eacute;f&eacute;renc&eacute;es et, le cas &eacute;ch&eacute;ant, l&rsquo;impact de celle-ci sur le classement des contenus, biens ou services propos&eacute;s.</p>\n\n<p>II. Aux deuxi&egrave;me et troisi&egrave;me alin&eacute;as, les mots &laquo;&nbsp;la personne mentionn&eacute;e au premier alin&eacute;a du pr&eacute;sent article est &eacute;galement tenue&nbsp;&raquo; sont remplac&eacute;s par &laquo;&nbsp;l&rsquo;op&eacute;rateur de la plateforme en ligne est &eacute;galement tenu&nbsp;&raquo;.</p>\n\n<p><strong>Article 13 bis - Principe de loyaut&eacute; des plateformes dans le cadre de leurs relations B to B</strong></p>\n\n<p><br />\nSont qualifi&eacute;es de plateformes dominantes, les plateformes qui exercent une influence d&eacute;terminante sur un march&eacute; donn&eacute;.</p>\n\n<p>1&deg; Toute plateforme en ligne dominante est tenue &agrave; une obligation g&eacute;n&eacute;rale de loyaut&eacute; envers les utilisateurs, non professionnels ou professionnels, notamment en ne favorisant pas ses propres services ou les services d&rsquo;autres entit&eacute;s qu&rsquo;elle contr&ocirc;le directement ou indirectement.</p>\n\n<p>2&deg; Aucune plateforme en ligne ne peut obliger un tiers proposant des solutions logicielles ou des appareils de communications &eacute;lectroniques, &agrave; utiliser, de fa&ccedil;on exclusive, ladite plateforme en vue d&rsquo;acc&eacute;der &agrave; un service en ligne.<br />\nL&rsquo;Autorit&eacute; administrative veille au respect de&nbsp; l&rsquo;application des obligations d&eacute;finies au pr&eacute;sent article.&emsp;<br />\n&nbsp;</p>\n\n<p>&nbsp;</p>",
    "comment": "<p><strong>R&eacute;dig&eacute; comme tel, l&#39;article peut s&#39;av&eacute;rer nuisible au sujets de droits qu&#39;il entend d&eacute;fendre</strong><br />\n<br />\nLa d&eacute;finition des plateformes en ligne est trop englobante en ce sens qu&rsquo;elle&nbsp; concerne une majorit&eacute; d&rsquo;acteurs du digital aux r&ocirc;les parfois bien diff&eacute;rents et qu&rsquo;elle les oblige &agrave; adopter un seul et m&ecirc;me comportement aupr&egrave;s des consommateurs.</p>\n\n<p>De plus on oublie de dire dans la d&eacute;finition que les plateformes en lignes peuvent r&eacute;f&eacute;rencer d&rsquo;autres plateformes en ligne, ce qui porte &agrave; croire qu&rsquo;il n&rsquo;existe aucune hi&eacute;rarchie ni aucunes interactions entre ces derni&egrave;res.</p>\n\n<p>Par ailleurs cette d&eacute;finition des plateformes manque de clart&eacute; et il est difficile de d&eacute;finir ce que sont et ne sont pas les plateformes en ligne. Ainsi CCM milite pour l&rsquo;introduction d&rsquo;un r&eacute;gime d&rsquo;exception explicitant clairement les acteurs qui &eacute;chappent &agrave; cette d&eacute;finition. Les &eacute;diteurs de services de communication au public en ligne sont en l&rsquo;occurrence d&eacute;j&agrave; assujettis &agrave; divers textes du code de la consommation dont l&#39;article L121-1 sur les pratiques commerciales d&eacute;loyales.</p>\n\n<p>Enfin, selon CCM il appara&icirc;t &eacute;vident qu&rsquo;il est n&eacute;cessaire de distinguer dans la loi les plateformes qui ont un effet structurant sur l&rsquo;&eacute;conomie et l&rsquo;architecture du r&eacute;seau Internet, des autres.</p>\n\n<p>Concernant le retrait du passage sur la&nbsp; limitation de l&rsquo;imp&eacute;ratif de loyaut&eacute; aux seuls professionnels, nous pensons qu&rsquo;elle est injustifi&eacute;e car l&rsquo;essor des relations Consumer to Consumer m&eacute;rite d&rsquo;&ecirc;tre consid&eacute;r&eacute;e. Nous ne voyons pas ce qui justifie le fait que de n&rsquo;&ecirc;tre pas professionnel permettrait de ne pas se comporter de fa&ccedil;on loyale alors m&ecirc;me que l&rsquo;on&nbsp; mod&egrave;re une plateforme en ligne.<br />\n&nbsp;</p>\n\n<p><strong>Proposition d&#39;ajout d&#39;un 13bis relatif aux relations Business to Business</strong></p>\n\n<p>CCM estime que le principe de loyaut&eacute; ne peut en aucun cas &ecirc;tre effectif si l&rsquo;on n&rsquo;y soumet pas les relations B2B. Car c&rsquo;est justement l&agrave; que les entreprises sont le plus souvent susceptibles de se comporter de mani&egrave;re d&eacute;loyale. Or, ces pratiques distordent fortement la concurrence et donc le dynamisme du secteur tout entier.</p>\n\n<p>De plus m&ecirc;me s&rsquo;il sera tenu &agrave; faire &eacute;tat des liens capitalistiques qui unissent le r&eacute;f&eacute;ren&ccedil;ant et le r&eacute;f&eacute;renc&eacute;, rien n&rsquo;emp&ecirc;chera une plateforme de p&eacute;naliser plus fortement d&rsquo;autres acteurs, sans le mentionner au consommateur cette fois, afin de contrebalancer les effets de cette nouvelle contrainte.<br />\nDans ces conditions, on comprend ais&eacute;ment que des acteurs comme les&nbsp; &laquo; gatekeepers &raquo;, qui sont des plateformes incontournables pour acc&eacute;der &agrave; certains contenus et qui plus est en situation de position dominante vis-&agrave;-vis des autres players, seront peu g&ecirc;n&eacute;s par des dispositions uniquement ax&eacute;es vers le consommateur puisqu&rsquo;ils pourront contrecarrer les effets n&eacute;gatifs de leurs obligations de loyaut&eacute; envers les consommateurs en se comportant de fa&ccedil;on d&eacute;loyale &agrave; l&rsquo;&eacute;gard des utilisateurs professionnels. Cela est d&rsquo;autant plus alarmant que ces entreprises b&eacute;n&eacute;ficieront d&rsquo;une pr&eacute;somption l&eacute;gale de loyaut&eacute; de la part des consommateurs alors m&ecirc;me qu&rsquo;elles nuiront gravement au dynamisme du secteur, et p&eacute;naliseront donc, en dernier lieu, le consommateur. Par cons&eacute;quent, il appara&icirc;t n&eacute;cessaire r&eacute;guler cet &eacute;tat de fait en mentionnant dans la loi l&rsquo;existence de ces plateformes dominantes afin de pouvoir les contraindre l&eacute;galement &agrave; respecter plus d&rsquo;imp&eacute;ratifs en mati&egrave;re de loyaut&eacute;.</p>\n\n<p>Enfin CCM pense bon de demander l&rsquo;interdiction des accords d&rsquo;exclusivit&eacute; entre les plateformes en lignes et des tiers proposant des solutions logiciels ou appareils de communication afin d&rsquo;assurer une v&eacute;ritable loyaut&eacute; &agrave; l&rsquo;&eacute;gard du consommateur ainsi que des professionnels. En effet de telles pratiques profitent en fait aux plateformes dominantes qui par-l&agrave; renforcent leur position de &laquo; gatekeeper &raquo;, ce qui n&rsquo;est pas souhaitable.&nbsp; CCM propose donc&nbsp; l&rsquo;ajout d&rsquo;un alin&eacute;a suppl&eacute;mentaire :</p>\n\n<p>Ainsi CCM propose qu&rsquo;un article 13 bis concernant la loyaut&eacute; dans les&nbsp; relations Business to Business (B2B) soit consacr&eacute; car c&rsquo;est avant tout cette notion qui fait d&eacute;faut dans ce projet de loi.<br />\n&nbsp;</p>",
    "author": {
      "username": "CCM Benchmark",
      "displayName": "CCM Benchmark",
      "uniqueId": "ccmbenchmark",
      "isAdmin": false,
      "media": {
        "url": "/media/cache/default_avatar/default/0001/01/881_default_avatar.jpg"
      },
      "vip": false,
      "_links": {
        "profile": "https://www.republique-numerique.fr/profile/ccmbenchmark",
        "settings": "https://www.republique-numerique.fr/profile/edit-profile"
      }
    },
    "arguments": [],
    "sources": [],
    "parent": {
      "isContribuable": false,
      "id": 73,
      "body": "<p>L&rsquo;article L. 111-5-1 du code de la consommation est ainsi modifi&eacute;&nbsp;:</p>\r\n\r\n<p>I. Le premier alin&eacute;a est remplac&eacute; par les alin&eacute;as suivants&nbsp;:</p>\r\n\r\n<p>&laquo;&nbsp;Sans pr&eacute;judice des obligations pr&eacute;vues la loi n&deg; 2004575 du 21 juin 2004 pour la confiance dans l&rsquo;&eacute;conomie num&eacute;rique&nbsp;:</p>\r\n\r\n<p>1&deg; Sont qualifi&eacute;es de plateformes en ligne, au sens du pr&eacute;sent article, les activit&eacute;s consistant &agrave; classer ou r&eacute;f&eacute;rencer des contenus, biens ou services propos&eacute;s ou mis en ligne par des tiers, ou de mettre en relation, par voie &eacute;lectronique, plusieurs parties en vue de la vente d&rsquo;un bien, de la fourniture d&rsquo;un service, y compris &agrave; titre non r&eacute;mun&eacute;r&eacute;, ou de l&rsquo;&eacute;change ou du partage d&rsquo;un bien ou d&rsquo;un service. Sont qualifi&eacute;es de plateformes en ligne les personnes exer&ccedil;ant cette activit&eacute; &agrave; titre professionnel.</p>\r\n\r\n<p>&laquo;&nbsp;2&deg; Toute plateforme en ligne est tenue de d&eacute;livrer une information loyale, claire et transparente sur les conditions g&eacute;n&eacute;rales d&rsquo;utilisation du service d&rsquo;interm&eacute;diation qu&rsquo;elle propose et sur les modalit&eacute;s de r&eacute;f&eacute;rencement, de classement et de d&eacute;r&eacute;f&eacute;rencement des contenus, biens ou services auxquels ce service permet d&rsquo;acc&eacute;der. Elle fait notamment appara&icirc;tre clairement l&rsquo;existence ou non d&rsquo;une relation contractuelle ou de liens capitalistiques avec les personnes r&eacute;f&eacute;renc&eacute;es ; l&rsquo;existence ou non d&rsquo;une r&eacute;mun&eacute;ration par les personnes r&eacute;f&eacute;renc&eacute;es et, le cas &eacute;ch&eacute;ant, l&rsquo;impact de celle-ci sur le classement des contenus, biens ou services propos&eacute;s.</p>\r\n\r\n<p>II. Aux deuxi&egrave;me et troisi&egrave;me alin&eacute;as, les mots &laquo;&nbsp;la personne mentionn&eacute;e au premier alin&eacute;a du pr&eacute;sent article est &eacute;galement tenue&nbsp;&raquo; sont remplac&eacute;s par &laquo;&nbsp;l&rsquo;op&eacute;rateur de la plateforme en ligne est &eacute;galement tenu&nbsp;&raquo;.</p>",
      "type": {
        "id": 96,
        "title": "Section 3",
        "subtitle": "Loyauté des plateformes",
        "voteWidgetType": 2,
        "votesHelpText": "Pensez-vous que cette proposition permet d'atteindre les objectifs présentés dans l’explication de l’article ?",
        "commentSystem": 2,
        "color": "blue",
        "versionable": true,
        "sourceable": true,
        "votesThreshold": null,
        "votesThresholdHelpText": null
      },
      "modals": [
        {
          "key": "article L. 111-5-1",
          "before": "<p>« Sans préjudice des obligations d'information prévues à l' article 19 de la loi n° 2004-575 du 21 juin 2004 pour la confiance dans l'économie numérique, toute personne dont l'activité consiste à mettre en relation, par voie électronique, plusieurs parties en vue de la vente d'un bien, de la fourniture d'un service ou de l'échange ou du partage d'un bien ou d'un service est tenue de délivrer une information loyale, claire et transparente sur les conditions générales d'utilisation du service d'intermédiation et sur les modalités de référencement, de classement et de déréférencement des offres mises en ligne.</p><p>Lorsque seuls des consommateurs ou des non-professionnels sont mis en relation, la personne mentionnée au premier alinéa du présent article est également tenue de fournir une information loyale, claire et transparente sur la qualité de l'annonceur et les droits et obligations des parties en matière civile et fiscale.</p><p>Lorsque des professionnels, vendeurs ou prestataires de services sont mis en relation avec des consommateurs, la personne mentionnée au premier alinéa du présent article est également tenue de mettre à leur disposition un espace leur permettant de communiquer aux consommateurs les informations prévues à l'article L. 121-17.</p><p>Le contenu de ces informations et leurs modalités de communication sont fixés par décret. »</p>",
          "after": "<p>« Sans préjudice des dispositions de la loi n° 2004-575 du 21 juin 2004 pour la confiance dans l’économie numérique :</p><p>1° Sont qualifiées de plateformes en ligne, au sens du présent article, les activités consistant à classer ou référencer des contenus, biens ou services proposés ou mis en ligne par des tiers, ou de mettre en relation, par voie électronique, plusieurs parties en vue de la vente d’un bien, de la fourniture d’un service, y compris à titre non rémunéré, ou de l’échange ou du partage d’un bien ou d’un service. Sont qualifiées de plateformes en ligne les personnes exerçant cette activité à titre professionnel.</p><p>2° Toute plateforme en ligne est tenue de délivrer une information loyale, claire et transparente sur les conditions générales d’utilisation du service d’intermédiation qu’elle propose et sur les modalités de référencement, de classement et de déréférencement des contenus, biens ou services auxquels ce service permet d’accéder. Elle fait notamment apparaître clairement l’existence ou non d’une relation contractuelle ou de liens capitalistiques avec les personnes référencées ; l’existence ou non d’une rémunération par les personnes référencées et, le cas échéant, l’impact de celle-ci sur le classement des contenus, biens ou services proposés.</p><p>Lorsque seuls des consommateurs ou des non-professionnels sont mis en relation, l’opérateur de la plateforme en ligne est également tenu  de fournir une information loyale, claire et transparente sur la qualité de l'annonceur et les droits et obligations des parties en matière civile et fiscale.</p><p>Lorsque des professionnels, vendeurs ou prestataires de services sont mis en relation avec des consommateurs, l’opérateur de la plateforme en ligne est également tenu de mettre à leur disposition un espace leur permettant de communiquer aux consommateurs les informations prévues à l'article L. 121-17.</p><p>Le contenu de ces informations et leurs modalités de communication sont fixés par décret. »</p>",
          "title": "Article L111-5-1 du code de la consommation"
        }
      ],
      "appendices": [
        {
          "body": "<p><strong>Objectif :</strong>Introduire un principe de loyaut&eacute; aux plateformes vis-&agrave;-vis des consommateurs</p>\r\n\r\n<p><strong>Explication :</strong> Comme les op&eacute;rateurs t&eacute;l&eacute;coms, les principales plateformes num&eacute;riques (moteurs de recherche, r&eacute;seaux sociaux, magasin d&rsquo;applications, sites de mise en relation) sont des acteurs essentiels pour l&rsquo;&eacute;conomie num&eacute;rique mais &eacute;galement pour l&rsquo;exercice de la libert&eacute; d&rsquo;expression ou de la libre concurrence. En d&eacute;pit de la complexit&eacute; de leurs technologies, de leurs mod&egrave;les &eacute;conomiques et de l&rsquo;importance de leurs services dans le quotidien des Fran&ccedil;ais, elles font l&rsquo;objet d&rsquo;une r&eacute;glementation tr&egrave;s g&eacute;n&eacute;rale.<br />\r\nLe projet de loi impose &agrave; ces acteurs une obligation de loyaut&eacute; &agrave; destination des consommateurs. Cette obligation concerne leurs conditions g&eacute;n&eacute;rales d&rsquo;utilisation, ou encore leurs modalit&eacute;s de r&eacute;f&eacute;rencement, de classement et de d&eacute;r&eacute;f&eacute;rencement des offres mises en ligne. Ainsi, les plateformes devront faire appara&icirc;tre clairement l&rsquo;existence &eacute;ventuelle d&rsquo;une relation contractuelle ou de liens capitalistiques avec les personnes r&eacute;f&eacute;renc&eacute;es, l&rsquo;existence &eacute;ventuelle d&rsquo;une r&eacute;mun&eacute;ration des personnes r&eacute;f&eacute;renc&eacute;es et le cas &eacute;ch&eacute;ant l&rsquo;impact de celle-ci sur le classement des contenus et des services.</p>\r\n\r\n<p><strong>Exemple :</strong> un site de voyage devra indiquer clairement si les offres propos&eacute;es en premier sont dues &agrave; un paiement par la compagnie a&eacute;rienne.</p>",
          "type": {
            "title": "Explication de l'article"
          }
        }
      ],
      "title": "Article 13 - Principe de loyauté des plateformes en lignes",
      "_links": {
        "show": "https://www.republique-numerique.fr/consultations/projet-de-loi-numerique/consultation/consultation/opinions/section-3-loyaute-des-plateformes/article-13-principe-de-loyaute-vis-a-vis-des-consommateurs",
        "edit": "https://www.republique-numerique.fr/consultations/projet-de-loi-numerique/consultation/consultation/opinions/section-3-loyaute-des-plateformes/article-13-principe-de-loyaute-vis-a-vis-des-consommateurs/edit",
        "report": "https://www.republique-numerique.fr/consultations/projet-de-loi-numerique/consultation/consultation/opinions/section-3-loyaute-des-plateformes/article-13-principe-de-loyaute-vis-a-vis-des-consommateurs/report",
        "type": "https://www.republique-numerique.fr/consultations/projet-de-loi-numerique/consultation/consultation/opinions/section-3-loyaute-des-plateformes"
      },
      "user_vote": null,
      "has_user_reported": false
    },
    "sources_count": 0,
    "arguments_count": 0,
    "votes": [
      {
        "user": {
          "username": "CCM Benchmark",
          "displayName": "CCM Benchmark",
          "uniqueId": "ccmbenchmark",
          "isAdmin": false,
          "media": {
            "url": "/media/cache/default_avatar/default/0001/01/881_default_avatar.jpg"
          },
          "vip": false,
          "_links": {
            "profile": "https://www.republique-numerique.fr/profile/ccmbenchmark",
            "settings": "https://www.republique-numerique.fr/profile/edit-profile"
          }
        },
        "value": 1
      },
      {
        "user": {
          "username": "Jean-Sébastien Mariez",
          "displayName": "Jean-Sébastien Mariez",
          "uniqueId": "jeansebastienmariez",
          "isAdmin": false,
          "media": null,
          "vip": false,
          "_links": {
            "profile": "https://www.republique-numerique.fr/profile/jeansebastienmariez",
            "settings": "https://www.republique-numerique.fr/profile/edit-profile"
          }
        },
        "value": 0
      },
      {
        "user": {
          "username": "Jeanne Varasco",
          "displayName": "Jeanne Varasco",
          "uniqueId": "jeannevarasco",
          "isAdmin": false,
          "media": {
            "url": "/media/cache/default_avatar/default/0001/01/139_default_avatar.jpg"
          },
          "vip": false,
          "_links": {
            "profile": "https://www.republique-numerique.fr/profile/jeannevarasco",
            "settings": "https://www.republique-numerique.fr/profile/edit-profile"
          }
        },
        "value": 0
      }
    ],
    "updated_at": "2015-10-16T17:10:47+0200",
    "ranking": 1028,
    "is_trashed": false,
    "title": "Modification de la définition et agrandissement du champ du principe par l'ajout d'un article 13 bis",
    "slug": "modification-de-la-definition-et-agrandissement-du-champ-du-principe-par-l-ajout-d-un-article-13-bis",
    "created_at": "2015-10-16T17:10:47+0200",
    "votes_nok": 0,
    "votes_ok": 1,
    "votes_mitige": 2,
    "_links": {
      "show": "https://www.republique-numerique.fr/consultations/projet-de-loi-numerique/consultation/consultation/opinions/section-3-loyaute-des-plateformes/article-13-principe-de-loyaute-vis-a-vis-des-consommateurs/versions/modification-de-la-definition-et-agrandissement-du-champ-du-principe-par-l-ajout-d-un-article-13-bis",
      "report": "https://www.republique-numerique.fr/consultations/projet-de-loi-numerique/consultation/consultation/opinions/section-3-loyaute-des-plateformes/article-13-principe-de-loyaute-vis-a-vis-des-consommateurs/versions/modification-de-la-definition-et-agrandissement-du-champ-du-principe-par-l-ajout-d-un-article-13-bis/report"
    },
    "user_vote": null,
    "has_user_reported": false
  },
  "rankingThreshold": null,
  "opinionTerm": 1
}