{
  "version": {
    "isContribuable": false,
    "votes_total": 19,
    "arguments_yes_count": 0,
    "arguments_no_count": 1,
    "id": 919,
    "body": "<p>A d&eacute;finir</p>",
    "comment": "<p class=\"MsoNormal\" style=\"text-align: justify;\"><span style=\"color:#002060\">Les plateformes n&rsquo;ayant ni la facult&eacute; technique, ni l&rsquo;obligation l&eacute;gale de v&eacute;rifier le statut de leurs utilisateurs, l&rsquo;id&eacute;e est d&rsquo;instaurer un syst&egrave;me de notification permettant aux internautes de contribuer &agrave; l&rsquo;identification des utilisateurs ayant une activit&eacute; professionnelle et qui ne sont pas r&eacute;pertori&eacute;s comme tel sur la plateforme.<o:p></o:p></span></p>\n\n<p class=\"MsoNormal\" style=\"text-align: justify;\"><span style=\"color:#002060\">Cette notification pourrait &ecirc;tre calqu&eacute;e sur le mod&egrave;le de la LCEN en mati&egrave;re de signalement de contenu illicite&nbsp;: d&egrave;s lors qu&rsquo;un utilisateur en identifie un autre comme professionnel, il peut envoyer une notification &agrave; la plateforme pour le signaler. D&egrave;s lors, cette derni&egrave;re devra instruire la notification de l&rsquo;internaute et v&eacute;rifier la qualit&eacute; de professionnel de l&rsquo;utilisateur signal&eacute;. S&rsquo;il s&rsquo;av&egrave;re que l&rsquo;utilisateur est en effet &laquo;&nbsp;professionnel&nbsp;&raquo;, la plateforme aurait l&rsquo;obligation de le faire appara&icirc;tre comme tel.<o:p></o:p></span></p>",
    "author": {
      "username": "UFC - Que Choisir",
      "displayName": "UFC - Que Choisir",
      "uniqueId": "ufcquechoisir",
      "isAdmin": false,
      "media": {
        "url": "/media/cache/default_avatar/default/0001/01/632_default_avatar.jpg"
      },
      "vip": false,
      "_links": {
        "profile": "https://www.republique-numerique.fr/profile/ufcquechoisir",
        "settings": "https://www.republique-numerique.fr/profile/edit-profile"
      }
    },
    "arguments": [
      {
        "isContribuable": false,
        "id": 3932,
        "body": "En théorie cela paraît une bonne suggestion, en pratique on sait déjà ce que ça peut donner : des dérapages et peu de qualitatif.",
        "created_at": "2015-10-14T16:05:59+0200",
        "updated_at": "2015-10-14T16:05:59+0200",
        "is_enabled": true,
        "votes_count": 1,
        "type": 0,
        "is_trashed": false,
        "author": {
          "username": "Isabelle Dutailly",
          "displayName": "Isabelle Dutailly",
          "uniqueId": "isabelledutailly",
          "isAdmin": false,
          "media": null,
          "vip": false,
          "_links": {
            "profile": "https://www.republique-numerique.fr/profile/isabelledutailly",
            "settings": "https://www.republique-numerique.fr/profile/edit-profile"
          }
        },
        "_links": {
          "show": "https://www.republique-numerique.fr/consultations/projet-de-loi-numerique/consultation/consultation/opinions/section-3-loyaute-des-plateformes/article-13-principe-de-loyaute-vis-a-vis-des-consommateurs/versions/permettre-aux-internautes-de-signaler-la-qualite-de-professionnel-d-un-utilisateur-de-la-plateforme#arg-3932",
          "edit": "https://www.republique-numerique.fr/consultations/projet-de-loi-numerique/consultation/consultation/opinions/section-3-loyaute-des-plateformes/article-13-principe-de-loyaute-vis-a-vis-des-consommateurs/arguments/3932/edit",
          "report": "https://www.republique-numerique.fr/consultations/projet-de-loi-numerique/consultation/consultation/opinions/section-3-loyaute-des-plateformes/article-13-principe-de-loyaute-vis-a-vis-des-consommateurs/arguments/3932/report"
        },
        "has_user_voted": false,
        "has_user_reported": false
      }
    ],
    "sources": [],
    "parent": {
      "isContribuable": false,
      "id": 73,
      "body": "<p>L&rsquo;article L. 111-5-1 du code de la consommation est ainsi modifi&eacute;&nbsp;:</p>\r\n\r\n<p>I. Le premier alin&eacute;a est remplac&eacute; par les alin&eacute;as suivants&nbsp;:</p>\r\n\r\n<p>&laquo;&nbsp;Sans pr&eacute;judice des obligations pr&eacute;vues la loi n&deg; 2004575 du 21 juin 2004 pour la confiance dans l&rsquo;&eacute;conomie num&eacute;rique&nbsp;:</p>\r\n\r\n<p>1&deg; Sont qualifi&eacute;es de plateformes en ligne, au sens du pr&eacute;sent article, les activit&eacute;s consistant &agrave; classer ou r&eacute;f&eacute;rencer des contenus, biens ou services propos&eacute;s ou mis en ligne par des tiers, ou de mettre en relation, par voie &eacute;lectronique, plusieurs parties en vue de la vente d&rsquo;un bien, de la fourniture d&rsquo;un service, y compris &agrave; titre non r&eacute;mun&eacute;r&eacute;, ou de l&rsquo;&eacute;change ou du partage d&rsquo;un bien ou d&rsquo;un service. Sont qualifi&eacute;es de plateformes en ligne les personnes exer&ccedil;ant cette activit&eacute; &agrave; titre professionnel.</p>\r\n\r\n<p>&laquo;&nbsp;2&deg; Toute plateforme en ligne est tenue de d&eacute;livrer une information loyale, claire et transparente sur les conditions g&eacute;n&eacute;rales d&rsquo;utilisation du service d&rsquo;interm&eacute;diation qu&rsquo;elle propose et sur les modalit&eacute;s de r&eacute;f&eacute;rencement, de classement et de d&eacute;r&eacute;f&eacute;rencement des contenus, biens ou services auxquels ce service permet d&rsquo;acc&eacute;der. Elle fait notamment appara&icirc;tre clairement l&rsquo;existence ou non d&rsquo;une relation contractuelle ou de liens capitalistiques avec les personnes r&eacute;f&eacute;renc&eacute;es ; l&rsquo;existence ou non d&rsquo;une r&eacute;mun&eacute;ration par les personnes r&eacute;f&eacute;renc&eacute;es et, le cas &eacute;ch&eacute;ant, l&rsquo;impact de celle-ci sur le classement des contenus, biens ou services propos&eacute;s.</p>\r\n\r\n<p>II. Aux deuxi&egrave;me et troisi&egrave;me alin&eacute;as, les mots &laquo;&nbsp;la personne mentionn&eacute;e au premier alin&eacute;a du pr&eacute;sent article est &eacute;galement tenue&nbsp;&raquo; sont remplac&eacute;s par &laquo;&nbsp;l&rsquo;op&eacute;rateur de la plateforme en ligne est &eacute;galement tenu&nbsp;&raquo;.</p>",
      "type": {
        "id": 96,
        "title": "Section 3",
        "subtitle": "Loyauté des plateformes",
        "voteWidgetType": 2,
        "votesHelpText": "Pensez-vous que cette proposition permet d'atteindre les objectifs présentés dans l’explication de l’article ?",
        "commentSystem": 2,
        "color": "blue",
        "versionable": true,
        "sourceable": true,
        "votesThreshold": null,
        "votesThresholdHelpText": null
      },
      "modals": [
        {
          "key": "article L. 111-5-1",
          "before": "<p>« Sans préjudice des obligations d'information prévues à l' article 19 de la loi n° 2004-575 du 21 juin 2004 pour la confiance dans l'économie numérique, toute personne dont l'activité consiste à mettre en relation, par voie électronique, plusieurs parties en vue de la vente d'un bien, de la fourniture d'un service ou de l'échange ou du partage d'un bien ou d'un service est tenue de délivrer une information loyale, claire et transparente sur les conditions générales d'utilisation du service d'intermédiation et sur les modalités de référencement, de classement et de déréférencement des offres mises en ligne.</p><p>Lorsque seuls des consommateurs ou des non-professionnels sont mis en relation, la personne mentionnée au premier alinéa du présent article est également tenue de fournir une information loyale, claire et transparente sur la qualité de l'annonceur et les droits et obligations des parties en matière civile et fiscale.</p><p>Lorsque des professionnels, vendeurs ou prestataires de services sont mis en relation avec des consommateurs, la personne mentionnée au premier alinéa du présent article est également tenue de mettre à leur disposition un espace leur permettant de communiquer aux consommateurs les informations prévues à l'article L. 121-17.</p><p>Le contenu de ces informations et leurs modalités de communication sont fixés par décret. »</p>",
          "after": "<p>« Sans préjudice des dispositions de la loi n° 2004-575 du 21 juin 2004 pour la confiance dans l’économie numérique :</p><p>1° Sont qualifiées de plateformes en ligne, au sens du présent article, les activités consistant à classer ou référencer des contenus, biens ou services proposés ou mis en ligne par des tiers, ou de mettre en relation, par voie électronique, plusieurs parties en vue de la vente d’un bien, de la fourniture d’un service, y compris à titre non rémunéré, ou de l’échange ou du partage d’un bien ou d’un service. Sont qualifiées de plateformes en ligne les personnes exerçant cette activité à titre professionnel.</p><p>2° Toute plateforme en ligne est tenue de délivrer une information loyale, claire et transparente sur les conditions générales d’utilisation du service d’intermédiation qu’elle propose et sur les modalités de référencement, de classement et de déréférencement des contenus, biens ou services auxquels ce service permet d’accéder. Elle fait notamment apparaître clairement l’existence ou non d’une relation contractuelle ou de liens capitalistiques avec les personnes référencées ; l’existence ou non d’une rémunération par les personnes référencées et, le cas échéant, l’impact de celle-ci sur le classement des contenus, biens ou services proposés.</p><p>Lorsque seuls des consommateurs ou des non-professionnels sont mis en relation, l’opérateur de la plateforme en ligne est également tenu  de fournir une information loyale, claire et transparente sur la qualité de l'annonceur et les droits et obligations des parties en matière civile et fiscale.</p><p>Lorsque des professionnels, vendeurs ou prestataires de services sont mis en relation avec des consommateurs, l’opérateur de la plateforme en ligne est également tenu de mettre à leur disposition un espace leur permettant de communiquer aux consommateurs les informations prévues à l'article L. 121-17.</p><p>Le contenu de ces informations et leurs modalités de communication sont fixés par décret. »</p>",
          "title": "Article L111-5-1 du code de la consommation"
        }
      ],
      "appendices": [
        {
          "body": "<p><strong>Objectif :</strong>Introduire un principe de loyaut&eacute; aux plateformes vis-&agrave;-vis des consommateurs</p>\r\n\r\n<p><strong>Explication :</strong> Comme les op&eacute;rateurs t&eacute;l&eacute;coms, les principales plateformes num&eacute;riques (moteurs de recherche, r&eacute;seaux sociaux, magasin d&rsquo;applications, sites de mise en relation) sont des acteurs essentiels pour l&rsquo;&eacute;conomie num&eacute;rique mais &eacute;galement pour l&rsquo;exercice de la libert&eacute; d&rsquo;expression ou de la libre concurrence. En d&eacute;pit de la complexit&eacute; de leurs technologies, de leurs mod&egrave;les &eacute;conomiques et de l&rsquo;importance de leurs services dans le quotidien des Fran&ccedil;ais, elles font l&rsquo;objet d&rsquo;une r&eacute;glementation tr&egrave;s g&eacute;n&eacute;rale.<br />\r\nLe projet de loi impose &agrave; ces acteurs une obligation de loyaut&eacute; &agrave; destination des consommateurs. Cette obligation concerne leurs conditions g&eacute;n&eacute;rales d&rsquo;utilisation, ou encore leurs modalit&eacute;s de r&eacute;f&eacute;rencement, de classement et de d&eacute;r&eacute;f&eacute;rencement des offres mises en ligne. Ainsi, les plateformes devront faire appara&icirc;tre clairement l&rsquo;existence &eacute;ventuelle d&rsquo;une relation contractuelle ou de liens capitalistiques avec les personnes r&eacute;f&eacute;renc&eacute;es, l&rsquo;existence &eacute;ventuelle d&rsquo;une r&eacute;mun&eacute;ration des personnes r&eacute;f&eacute;renc&eacute;es et le cas &eacute;ch&eacute;ant l&rsquo;impact de celle-ci sur le classement des contenus et des services.</p>\r\n\r\n<p><strong>Exemple :</strong> un site de voyage devra indiquer clairement si les offres propos&eacute;es en premier sont dues &agrave; un paiement par la compagnie a&eacute;rienne.</p>",
          "type": {
            "title": "Explication de l'article"
          }
        }
      ],
      "title": "Article 13 - Principe de loyauté des plateformes en lignes",
      "_links": {
        "show": "https://www.republique-numerique.fr/consultations/projet-de-loi-numerique/consultation/consultation/opinions/section-3-loyaute-des-plateformes/article-13-principe-de-loyaute-vis-a-vis-des-consommateurs",
        "edit": "https://www.republique-numerique.fr/consultations/projet-de-loi-numerique/consultation/consultation/opinions/section-3-loyaute-des-plateformes/article-13-principe-de-loyaute-vis-a-vis-des-consommateurs/edit",
        "report": "https://www.republique-numerique.fr/consultations/projet-de-loi-numerique/consultation/consultation/opinions/section-3-loyaute-des-plateformes/article-13-principe-de-loyaute-vis-a-vis-des-consommateurs/report",
        "type": "https://www.republique-numerique.fr/consultations/projet-de-loi-numerique/consultation/consultation/opinions/section-3-loyaute-des-plateformes"
      },
      "user_vote": null,
      "has_user_reported": false
    },
    "sources_count": 0,
    "arguments_count": 1,
    "votes": [
      {
        "user": {
          "username": "Greg schwe",
          "displayName": "Greg schwe",
          "uniqueId": "gregschwe",
          "isAdmin": false,
          "media": null,
          "vip": false,
          "_links": {
            "profile": "https://www.republique-numerique.fr/profile/gregschwe",
            "settings": "https://www.republique-numerique.fr/profile/edit-profile"
          }
        },
        "value": 1
      },
      {
        "user": {
          "username": "Baptiste M",
          "displayName": "Baptiste M",
          "uniqueId": "baptistem",
          "isAdmin": false,
          "media": null,
          "vip": false,
          "_links": {
            "profile": "https://www.republique-numerique.fr/profile/baptistem",
            "settings": "https://www.republique-numerique.fr/profile/edit-profile"
          }
        },
        "value": 0
      },
      {
        "user": {
          "username": "Publius",
          "displayName": "Publius",
          "uniqueId": "publius",
          "isAdmin": false,
          "media": null,
          "vip": false,
          "_links": {
            "profile": "https://www.republique-numerique.fr/profile/publius",
            "settings": "https://www.republique-numerique.fr/profile/edit-profile"
          }
        },
        "value": -1
      },
      {
        "user": {
          "username": "Sébastien Hut",
          "displayName": "Sébastien Hut",
          "uniqueId": "sebastienhut",
          "isAdmin": false,
          "media": null,
          "vip": false,
          "_links": {
            "profile": "https://www.republique-numerique.fr/profile/sebastienhut",
            "settings": "https://www.republique-numerique.fr/profile/edit-profile"
          }
        },
        "value": 0
      },
      {
        "user": {
          "username": "Isabelle Dutailly",
          "displayName": "Isabelle Dutailly",
          "uniqueId": "isabelledutailly",
          "isAdmin": false,
          "media": null,
          "vip": false,
          "_links": {
            "profile": "https://www.republique-numerique.fr/profile/isabelledutailly",
            "settings": "https://www.republique-numerique.fr/profile/edit-profile"
          }
        },
        "value": -1
      }
    ],
    "updated_at": "2015-10-13T19:08:15+0200",
    "ranking": 379,
    "is_trashed": false,
    "title": "Permettre aux internautes de signaler la qualité de professionnel d’un utilisateur de la plateforme",
    "slug": "permettre-aux-internautes-de-signaler-la-qualite-de-professionnel-d-un-utilisateur-de-la-plateforme",
    "created_at": "2015-10-13T19:07:27+0200",
    "votes_nok": 2,
    "votes_ok": 11,
    "votes_mitige": 6,
    "_links": {
      "show": "https://www.republique-numerique.fr/consultations/projet-de-loi-numerique/consultation/consultation/opinions/section-3-loyaute-des-plateformes/article-13-principe-de-loyaute-vis-a-vis-des-consommateurs/versions/permettre-aux-internautes-de-signaler-la-qualite-de-professionnel-d-un-utilisateur-de-la-plateforme",
      "report": "https://www.republique-numerique.fr/consultations/projet-de-loi-numerique/consultation/consultation/opinions/section-3-loyaute-des-plateformes/article-13-principe-de-loyaute-vis-a-vis-des-consommateurs/versions/permettre-aux-internautes-de-signaler-la-qualite-de-professionnel-d-un-utilisateur-de-la-plateforme/report"
    },
    "user_vote": null,
    "has_user_reported": false
  },
  "rankingThreshold": null,
  "opinionTerm": 1
}