{
  "version": {
    "isContribuable": false,
    "votes_total": 3,
    "arguments_yes_count": 0,
    "arguments_no_count": 0,
    "id": 1368,
    "body": "<p>Tous les services de l&#39;&eacute;tat offert au citoyens sous forme de service au guichet (carte grise ...)&nbsp;doivent avoir leur &eacute;quivalent via un parcours <s>digital</s> num&eacute;rique.</p>",
    "comment": "Le terme digital, comme aussi rappel&eacute; par d&#39;autres, est un anglicisme, cf acad&eacute;mie fran&ccedil;aise http://www.academie-francaise.fr/digital",
    "author": {
      "username": "MAU Joël",
      "displayName": "MAU Joël",
      "uniqueId": "maujoel",
      "isAdmin": false,
      "media": {
        "url": "/media/cache/default_avatar/default/0001/01/948_default_avatar.jpg"
      },
      "vip": false,
      "_links": {
        "profile": "https://www.republique-numerique.fr/profile/maujoel",
        "settings": "https://www.republique-numerique.fr/profile/edit-profile"
      }
    },
    "arguments": [],
    "sources": [],
    "parent": {
      "isContribuable": false,
      "id": 141,
      "body": "<p>Tous les services de l&#39;&eacute;tat offert au citoyens sous forme de service au guichet (carte grise ...)&nbsp;doivent avoir leur &eacute;quivalent via un parcours digital.</p>",
      "type": {
        "id": 86,
        "title": "Section 1",
        "subtitle": "Ouverture des données publiques",
        "voteWidgetType": 2,
        "votesHelpText": "Pensez-vous que cette proposition permet d'atteindre les objectifs présentés dans l’explication de l’article ?",
        "commentSystem": 2,
        "color": "blue",
        "versionable": true,
        "sourceable": true,
        "votesThreshold": null,
        "votesThresholdHelpText": null
      },
      "modals": [],
      "appendices": [
        {
          "body": "<p>La digitialisation du secteur priv&eacute; est en cours, le secteur publique doit aussi avanc&eacute; plus vite sur le sujet.</p>",
          "type": {
            "title": "Explication de l'article"
          }
        }
      ],
      "title": "Digitalisation de l'appareil d'état",
      "_links": {
        "show": "https://www.republique-numerique.fr/consultations/projet-de-loi-numerique/consultation/consultation/opinions/section-1-ouverture-des-donnees-publiques-1/digitalisation-de-l-appareil-d-etat",
        "edit": "https://www.republique-numerique.fr/consultations/projet-de-loi-numerique/consultation/consultation/opinions/section-1-ouverture-des-donnees-publiques-1/digitalisation-de-l-appareil-d-etat/edit",
        "report": "https://www.republique-numerique.fr/consultations/projet-de-loi-numerique/consultation/consultation/opinions/section-1-ouverture-des-donnees-publiques-1/digitalisation-de-l-appareil-d-etat/report",
        "type": "https://www.republique-numerique.fr/consultations/projet-de-loi-numerique/consultation/consultation/opinions/section-1-ouverture-des-donnees-publiques-1"
      },
      "user_vote": null,
      "has_user_reported": false
    },
    "sources_count": 0,
    "arguments_count": 0,
    "votes": [
      {
        "user": {
          "username": "MAU Joël",
          "displayName": "MAU Joël",
          "uniqueId": "maujoel",
          "isAdmin": false,
          "media": {
            "url": "/media/cache/default_avatar/default/0001/01/948_default_avatar.jpg"
          },
          "vip": false,
          "_links": {
            "profile": "https://www.republique-numerique.fr/profile/maujoel",
            "settings": "https://www.republique-numerique.fr/profile/edit-profile"
          }
        },
        "value": 1
      },
      {
        "user": {
          "username": "Jeanne Varasco",
          "displayName": "Jeanne Varasco",
          "uniqueId": "jeannevarasco",
          "isAdmin": false,
          "media": {
            "url": "/media/cache/default_avatar/default/0001/01/139_default_avatar.jpg"
          },
          "vip": false,
          "_links": {
            "profile": "https://www.republique-numerique.fr/profile/jeannevarasco",
            "settings": "https://www.republique-numerique.fr/profile/edit-profile"
          }
        },
        "value": 1
      },
      {
        "user": {
          "username": "Vincent Reverdy",
          "displayName": "Vincent Reverdy",
          "uniqueId": "vincentreverdy",
          "isAdmin": false,
          "media": {
            "url": "/media/cache/default_avatar/default/0001/01/268_default_avatar.jpg"
          },
          "vip": false,
          "_links": {
            "profile": "https://www.republique-numerique.fr/profile/vincentreverdy",
            "settings": "https://www.republique-numerique.fr/profile/edit-profile"
          }
        },
        "value": 1
      }
    ],
    "updated_at": "2015-10-18T18:24:29+0200",
    "ranking": 777,
    "is_trashed": false,
    "title": "Parler de \"numérisation\" et non de digitalisation",
    "slug": "parler-de-numerisation-et-non-de-digitalisation",
    "created_at": "2015-10-18T18:24:29+0200",
    "votes_nok": 0,
    "votes_ok": 3,
    "votes_mitige": 0,
    "_links": {
      "show": "https://www.republique-numerique.fr/consultations/projet-de-loi-numerique/consultation/consultation/opinions/section-1-ouverture-des-donnees-publiques-1/digitalisation-de-l-appareil-d-etat/versions/parler-de-numerisation-et-non-de-digitalisation",
      "report": "https://www.republique-numerique.fr/consultations/projet-de-loi-numerique/consultation/consultation/opinions/section-1-ouverture-des-donnees-publiques-1/digitalisation-de-l-appareil-d-etat/versions/parler-de-numerisation-et-non-de-digitalisation/report"
    },
    "user_vote": null,
    "has_user_reported": false
  },
  "rankingThreshold": null,
  "opinionTerm": 1
}