{
  "version": {
    "isContribuable": false,
    "votes_total": 1,
    "arguments_yes_count": 1,
    "arguments_no_count": 0,
    "id": 931,
    "body": "<h2><u>1. D&eacute;finition</u></h2>\n\n<p>&nbsp;</p>\n\n<p>&nbsp;&nbsp;&nbsp;&nbsp;&nbsp;&nbsp;&nbsp;&nbsp;&nbsp; &nbsp;L&#39;acteur collaboratif est un individu qui, du fait de son activit&eacute; particuli&egrave;re, se doit d&#39;&ecirc;tre prot&eacute;g&eacute; et distingu&eacute; du professionnel mais peut pour autant, de par sa participation active &agrave; des activit&eacute;s commerciales, se voir imposer des obligations et prendre sa part de responsabilit&eacute;s n&eacute;es de son activit&eacute;. De mani&egrave;re g&eacute;n&eacute;rale, <strong>nous pouvons le d&eacute;finir comme : une personne physique contractant avec une ou plusieurs autres en cr&eacute;ant un rapport d&#39;obligations d&#39;ordre &eacute;conomique en dehors de toute activit&eacute; commerciale et salariale, par le biais d&#39;une plateforme num&eacute;rique de mise en relation.</strong></p>\n\n<p>&nbsp;</p>\n\n<p>Sa caract&eacute;ristique de personne physique exclut donc toute personne morale &agrave; quelques titres que ce soit, association, soci&eacute;t&eacute; ou autres.</p>\n\n<p>&nbsp;</p>\n\n<p>Il s&#39;agit ensuite de d&eacute;finir son activit&eacute;. <strong>L&#39;activit&eacute; de l&#39;acteur collaboratif est une activit&eacute; non professionnelle et accessoire de fourniture de biens et de services &agrave; titre gratuit ou on&eacute;reux.</strong></p>\n\n<p>&nbsp;</p>\n\n<p>Il est entendu par &laquo; non professionnelle &raquo; que cette derni&egrave;re s&#39;exerce <strong>hors de quelques cadres commerciaux.</strong> De la m&ecirc;me fa&ccedil;on, il est entendu par &laquo; accessoire &raquo; que cette derni&egrave;re ne s&#39;inscrit qu&#39;<strong>en compl&eacute;ment d&#39;un autre revenu</strong> et ne peut &ecirc;tre source principale de revenus.</p>\n\n<p>&nbsp;</p>\n\n<p>Le fait d&#39;entrer dans le cadre de ce statut exclut donc <em>de facto</em> la possibilit&eacute; d&#39;&ecirc;tre qualifi&eacute; pour cette m&ecirc;me activit&eacute; de consommateur ou de professionnel.</p>\n\n<p>&nbsp;</p>\n\n<h2><u>2. Distinction avec le professionnel</u><u> </u></h2>\n\n<p>&nbsp;</p>\n\n<p>Du fait de son activit&eacute;, l&#39;acteur collaboratif peut notamment &ecirc;tre amen&eacute; &agrave; faire des actes de commerces, sans pour autant se voir qualifi&eacute; de commer&ccedil;ant. Ainsi, il s&#39;agit dans un premier temps de <strong>d&eacute;finir les actes de commerces qui pourraient relever de l&#39;activit&eacute; de l&#39;acteur collaboratif et ceux n&#39;entrant pas dans le champ contractuel de son activit&eacute;.</strong></p>\n\n<p>&nbsp;</p>\n\n<p>Les actes r&eacute;put&eacute;s de commerce par la loi sont d&eacute;finis &agrave; l&#39;article L.110-1 du Code de commerce.</p>\n\n<p>&nbsp;</p>\n\n<p><strong>L&#39;acteur collaboratif peut &agrave; travers son activit&eacute;, louer, vendre et partager des biens ou des services.</strong></p>\n\n<p>&nbsp;</p>\n\n<p>Ainsi peut-on estimer que rel&egrave;ve de son activit&eacute; &laquo; Toute entreprise de location de meuble &raquo;, pr&eacute;vu &agrave; l&#39;alin&eacute;a 4 de l&#39;article L.110-1. De m&ecirc;me, s&#39;apparente &agrave; une activit&eacute; de l&#39;acteur collaboratif, &laquo; Toute entreprise [&hellip;] de transport par terre ou par eau &raquo; pr&eacute;vu &agrave; l&#39;alin&eacute;a 5 du m&ecirc;me article.</p>\n\n<p><strong>L&#39;usage r&eacute;p&eacute;t&eacute; de ces actes de la part de l&#39;acteur collaboratif n&rsquo;entra&icirc;nerait donc pas de requalification en commer&ccedil;ant de fait.</strong></p>\n\n<p>&nbsp;</p>\n\n<p>De plus, il est important de distinguer les r&eacute;mun&eacute;rations pour avoir une s&eacute;paration avec le milieu professionnel.</p>\n\n<p>&nbsp;</p>\n\n<h2><u>3. Distinction parmi les r&eacute;mun&eacute;rations</u><u> </u></h2>\n\n<p>&nbsp;</p>\n\n<p>L&#39;acteur collaboratif en tant que non-professionnel peut obtenir <strong>3 formes de r&eacute;mun&eacute;ration :</strong></p>\n\n<p>&nbsp;</p>\n\n<ul><li><p>r&eacute;mun&eacute;ration correspondant &agrave; une <strong>participation aux frais ;</strong></p>\n</li>\n<li><p>r&eacute;mun&eacute;ration correspondant &agrave; un<strong> b&eacute;n&eacute;fice</strong> ;</p>\n</li>\n<li><p>r&eacute;mun&eacute;ration <strong>en nature ou par un &eacute;change de service.</strong></p>\n</li>\n</ul>\n\n<p>&nbsp;</p>\n\n<p>L&#39;int&eacute;r&ecirc;t de cette distinction est d&#39;encadrer les revenus et la fiscalit&eacute; issus de ces derniers.</p>\n\n<p>&nbsp;</p>\n\n<p>Le principe est l&#39;imposition d&#39;un revenu net. Il ne peut y avoir de revenus imposables lorsque le produit compense une charge non d&eacute;ductible. Ainsi, <strong>lorsque la r&eacute;mun&eacute;ration ne correspond qu&#39;&agrave; une participation aux frais</strong> telle que dans le cas du covoiturage, aucun revenu n&#39;est r&eacute;alis&eacute; : <strong>le droit fiscal ne s&#39;applique pas.</strong></p>\n\n<p>&nbsp;</p>\n\n<p>En revanche, le droit fiscal peut s&#39;appliquer lorsque des b&eacute;n&eacute;fices sont tir&eacute;s d&#39;une activit&eacute; exerc&eacute;e dans le cadre de l&#39;&eacute;conomie collaborative et participative. Pour autant, <strong>l&#39;objectif &eacute;tant de garantir la p&eacute;rennit&eacute; de ce nouveau mod&egrave;le &eacute;conomique</strong>, nous ne souhaitons pas voir une taxation s&#39;appliquer &agrave; tous les revenus. Ainsi, nous souhaiterions la mise en place d&#39;un seuil au-del&agrave; duquel les b&eacute;n&eacute;fices tir&eacute;s de l&#39;activit&eacute; de l&#39;acteur collaboratif doivent &ecirc;tre d&eacute;clar&eacute;s, sur le mod&egrave;le du syst&egrave;me de l&#39;autoentrepreneur.</p>\n\n<p>&nbsp;</p>\n\n<p>Pour rappel, l&#39;autoentrepreneur peut opter pour un r&eacute;gime de pr&eacute;l&egrave;vement obligatoire qui lui permet de payer l&rsquo;imp&ocirc;t sur le revenu au fur et &agrave; mesure de ses encaissements. Le montant de l&rsquo;imp&ocirc;t ne pouvant alors &ecirc;tre d&eacute;termin&eacute; sur un chiffre net annuel, il est alors d&eacute;termin&eacute; par application d&#39;un certain pourcentage sur le montant du chiffre d&#39;affaire r&eacute;alis&eacute; sur la p&eacute;riode.</p>\n\n<p>&nbsp;</p>\n\n<p>Dans le cas de l&#39;acteur collaboratif, nous proposons de pr&eacute;voir un r&eacute;gime de pr&eacute;l&egrave;vement obligatoire par application d&#39;un pourcentage sur le montant du chiffre d&#39;affaire r&eacute;alis&eacute; au cours d&#39;une ann&eacute;e d&egrave;s lors qu&#39;il est sup&eacute;rieur &agrave; 5000 &euro; (seuil propos&eacute; par le groupe de travail du S&eacute;nat dans le rapport &laquo; L&rsquo;&Eacute;CONOMIE COLLABORATIVE : PROPOSITIONS POUR UNE FISCALIT&Eacute; SIMPLE, JUSTE ET EFFICACE &raquo;). <strong>Autrement dit, nous proposons d&#39;exon&eacute;rer l&#39;acteur collaboratif jusqu&#39;&agrave; 5000 &euro;.</strong></p>\n\n<p>&nbsp;</p>\n\n<h3><em>Encourager les &eacute;changes en nature et de services</em></h3>\n\n<p>&nbsp;</p>\n\n<p>Enfin, nous souhaitons<strong> encadrer et non interdire les r&eacute;mun&eacute;rations en nature</strong> et par des &eacute;changes de services puisque ces derni&egrave;res correspondent &agrave;<strong> l&#39;esprit m&ecirc;me de partage</strong> qui anime l&#39;&eacute;conomie collaborative.</p>\n\n<p>&nbsp;</p>\n\n<p>Afin de permettre &agrave; ces r&eacute;mun&eacute;rations d&#39;exister tout en &eacute;vitant le risque de donations d&eacute;guis&eacute;es, <strong>nous proposons deux mesures</strong> :</p>\n\n<ol><li><p>Une interdiction du paiement en nature par tout bien autre que consomptibles par le premier usage ;</p>\n</li>\n<li><p>L&rsquo;interdiction d&#39;un paiement par un bien ou un service ayant une valeur excessivement d&eacute;raisonnable. Notion &agrave; rapprocher de celle de &laquo; raisonnable &raquo; telle qu&#39;employ&eacute;e par le Code civil notamment aux articles 601 et 1728.</p>\n</li>\n</ol>\n\n<p>&nbsp;</p>\n\n<h2><u>4. Concurrence d&eacute;loyale</u></h2>\n\n<p>&nbsp;</p>\n\n<p>La distinction entre r&eacute;mun&eacute;ration correspondant &agrave; une participation aux frais et r&eacute;mun&eacute;ration correspondant &agrave; un b&eacute;n&eacute;fice trouve aussi sa justification dans le cadre du droit de la concurrence.</p>\n\n<p>&nbsp;</p>\n\n<p>En effet,<strong> la cour de cassation a consid&eacute;r&eacute; dans un arr&ecirc;t du 12 mars 2013 que le covoiturage ne constituait pas une pratique d&eacute;loyale</strong> d&egrave;s lors que le transport se faisait &agrave; titre b&eacute;n&eacute;vole et que l&#39;indemnisation n&#39;&eacute;tait pas sup&eacute;rieure aux frais induits par l&#39;utilisation du v&eacute;hicule et du transport.</p>\n\n<p>&nbsp;</p>\n\n<p>Par un raisonnement analogue, nous estimons que le caract&egrave;re de concurrence d&eacute;loyale ne peut &ecirc;tre retenu pour toute activit&eacute; de l&#39;acteur collaboratif d&egrave;s lors que cette derni&egrave;re est &agrave; titre b&eacute;n&eacute;vole et que l&#39;indemnisation n&#39;est pas sup&eacute;rieure aux frais qu&#39;induit l&#39;activit&eacute;.</p>\n\n<p>&nbsp;</p>\n\n<p>Afin de prot&eacute;ger l&#39;acteur collaboratif d&#39;une action en concurrence d&eacute;loyale, nous plaidons aussi pour un am&eacute;nagement du droit &agrave; cet &eacute;gard, en instaurant un seuil de revenus (nous sugg&eacute;rons 10 000 &euro;) annuels au-del&agrave; duquel l&#39;activit&eacute; ne peut plus correspondre &agrave; une simple activit&eacute; accessoire. Sous ce seuil,<strong> le statut d&rsquo;acteur collaboratif s&rsquo;applique pleinement et le contributeur est prot&eacute;g&eacute; des actions en concurrence d&eacute;loyale</strong> dans les conditions d&eacute;crites ci-dessus. Au-del&agrave;, l&rsquo;activit&eacute; n&rsquo;est plus consid&eacute;r&eacute;e comme secondaire.</p>\n\n<p>&nbsp;</p>\n\n<h2><u>5. Protections face aux risques induits par l&#39;activit&eacute;</u></h2>\n\n<p>&nbsp;</p>\n\n<p>De par son activit&eacute;, l&rsquo;acteur collaboratif s&rsquo;expose &agrave; diff&eacute;rents risques. Nous en d&eacute;gageons 3 principaux qui doivent &ecirc;tre pris en compte :</p>\n\n<p>&nbsp;</p>\n\n<ul><li><p>le risque li&eacute; &agrave; son activit&eacute; <strong>face &agrave; la plateforme ;</strong></p>\n</li>\n<li><p>le risque li&eacute; &agrave; son activit&eacute; <strong>face &agrave; un autre acteur collaboratif ;</strong></p>\n</li>\n<li><p>le risque li&eacute; &agrave; son activit&eacute; <strong>face aux assureurs.</strong></p>\n</li>\n</ul>\n\n<p>&nbsp;</p>\n\n<h3><em>Quelles r&eacute;ponses peuvent &ecirc;tre apport&eacute;es du point de vue l&eacute;gal ?</em></h3>\n\n<p>&nbsp;</p>\n\n<p>Les plateformes num&eacute;riques sont indispensables &agrave; l&#39;&eacute;conomie num&eacute;rique. Agissant comme des professionnels, il nous semble n&eacute;cessaire de <strong>prot&eacute;ger l&#39;acteur collaboratif en imposant &agrave; ces derni&egrave;res un devoir d&#39;information.</strong></p>\n\n<p>&nbsp;</p>\n\n<p>Le droit doit non seulement imposer aux plateformes une r&eacute;daction claire, concise et facilement accessible de ses conditions d&#39;utilisation mais aussi attirer l&#39;attention par une obligation de conseil sur les risques li&eacute;s &agrave; l&#39;activit&eacute;, &agrave; la responsabilit&eacute; de la plateforme dans ces activit&eacute;s et aux recours possibles ainsi que le droit applicable &agrave; ces derni&egrave;res.</p>\n\n<p>&nbsp;</p>\n\n<p>Concernant les risques li&eacute;s &agrave; l&#39;activit&eacute; face &agrave; un autre acteur collaboratif, nous consid&eacute;rons que le droit commun &agrave; travers les responsabilit&eacute;s contractuelles et d&eacute;lictuelles joue parfaitement son r&ocirc;le et qu&#39;il n&#39;est pas opportun de cr&eacute;er un nouveau r&eacute;gime de responsabilit&eacute;. L&rsquo;acteur collaboratif n&rsquo;&eacute;tant pas un commer&ccedil;ant, il prend de ce fait sa part de responsabilit&eacute; comme pr&eacute;vu par le droit en cas d&rsquo;inex&eacute;cution ou mauvaise ex&eacute;cution de son obligation contractuelle.</p>\n\n<p>&nbsp;</p>\n\n<p>Enfin, <strong>concernant les assurances</strong>, nous proposons de ne pas sp&eacute;cialement modifier les r&egrave;gles en vigueur mais <strong>rappeler et souligner les responsabilit&eacute;s incombant &agrave; l&#39;acteur collaboratif comme &agrave; l&#39;assureur.</strong></p>\n\n<p>&nbsp;</p>\n\n<p>L&#39;assureur &eacute;tant un professionnel qui propose des contrats d&#39;adh&eacute;sion, il nous semble important de maintenir les obligations &agrave; la charge de ce dernier. Ainsi, nous pensons que <strong>l&#39;assureur doit demander de mani&egrave;re explicite &agrave; son assur&eacute; s&rsquo;il pratique une activit&eacute; collaborative dans le cadre de l&#39;assurance propos&eacute;e.</strong> L&#39;assureur ne pourra en aucun cas reprocher &agrave; l&#39;acteur collaboratif l&#39;absence d&#39;information &agrave; ce sujet. En revanche, dans le cas o&ugrave; l&#39;assureur en a express&eacute;ment fait la demande et que le particulier a r&eacute;pondu par la n&eacute;gative, la charge de l&#39;information p&egrave;se alors sur ce dernier en cas de modification de son statut ; c&#39;est-&agrave;-dire s&rsquo;il vient &agrave; &eacute;voluer en passant du statut de consommateur &agrave; celui d&#39;acteur collaboratif.</p>\n\n<p>&nbsp;</p>\n\n<p>Je propose d&#39;interdire purement et simplement les b&eacute;n&eacute;fices pour ce type d&#39;activit&eacute;, seuls les participations aux frais seraient autoris&eacute;es. Lorsque quelqu&#39;un se livre &agrave; ce type d&#39;activit&eacute; dans un but d&#39;en faire un revenu, f&ucirc;t-il secondaire, cela me para&icirc;t une d&eacute;rive, une d&eacute;tournement du statut.</p>",
    "comment": "Je propose d&#39;interdire purement et simplement les b&eacute;n&eacute;fices pour ce type d&#39;activit&eacute;, seuls les participations aux frais seraient autoris&eacute;es. Lorsque quelqu&#39;un se livre &agrave; ce type d&#39;activit&eacute; dans un but d&#39;en faire un revenu, f&ucirc;t-il secondaire, cela me para&icirc;t une d&eacute;rive, une d&eacute;tournement du statut.",
    "author": {
      "username": "Christian MOYON",
      "displayName": "Christian MOYON",
      "uniqueId": "christianmoyon",
      "isAdmin": false,
      "media": null,
      "vip": false,
      "_links": {
        "profile": "https://www.republique-numerique.fr/profile/christianmoyon",
        "settings": "https://www.republique-numerique.fr/profile/edit-profile"
      }
    },
    "arguments": [
      {
        "isContribuable": false,
        "id": 4725,
        "body": "Dans le cas où l'activité dégage des bénéfices, le statut d'auto-entrepreneur et les dispositifs types chèques emplois-services me paraissent suffisamment adaptés. Ils sont déjà souvent détournés par des employeurs pour éviter le paiement de charges sociales et le statut proposé dans l'article d'origine me paraît être la porte ouverte à d'autres détournements au détriment de la sécurité financière du travailleur. je pense que ce statut doit donc être strictement encadré.",
        "created_at": "2015-10-16T14:32:50+0200",
        "updated_at": "2015-10-16T14:32:50+0200",
        "is_enabled": true,
        "votes_count": 0,
        "type": 1,
        "is_trashed": false,
        "author": {
          "username": "Charlotte Récapet",
          "displayName": "Charlotte Récapet",
          "uniqueId": "charlotterecapet",
          "isAdmin": false,
          "media": null,
          "vip": false,
          "_links": {
            "profile": "https://www.republique-numerique.fr/profile/charlotterecapet",
            "settings": "https://www.republique-numerique.fr/profile/edit-profile"
          }
        },
        "_links": {
          "show": "https://www.republique-numerique.fr/consultations/projet-de-loi-numerique/consultation/consultation/opinions/section-4-information-des-consommateurs/creation-d-un-statut-de-l-acteur-collaboratif/versions/benefice-interdit-pour-ce-type-d-activite#arg-4725",
          "edit": "https://www.republique-numerique.fr/consultations/projet-de-loi-numerique/consultation/consultation/opinions/section-4-information-des-consommateurs/creation-d-un-statut-de-l-acteur-collaboratif/arguments/4725/edit",
          "report": "https://www.republique-numerique.fr/consultations/projet-de-loi-numerique/consultation/consultation/opinions/section-4-information-des-consommateurs/creation-d-un-statut-de-l-acteur-collaboratif/arguments/4725/report"
        },
        "has_user_voted": false,
        "has_user_reported": false
      }
    ],
    "sources": [],
    "parent": {
      "isContribuable": false,
      "id": 99,
      "body": "<h2><u>1. D&eacute;finition</u></h2>\r\n\r\n<p>&nbsp;</p>\r\n\r\n<p>&nbsp;&nbsp;&nbsp;&nbsp;&nbsp;&nbsp;&nbsp;&nbsp;&nbsp; &nbsp;L&#39;acteur collaboratif est un individu qui, du fait de son activit&eacute; particuli&egrave;re, se doit d&#39;&ecirc;tre prot&eacute;g&eacute; et distingu&eacute; du professionnel mais peut pour autant, de par sa participation active &agrave; des activit&eacute;s commerciales, se voir imposer des obligations et prendre sa part de responsabilit&eacute;s n&eacute;es de son activit&eacute;. De mani&egrave;re g&eacute;n&eacute;rale, <strong>nous pouvons le d&eacute;finir comme : une personne physique contractant avec une ou plusieurs autres en cr&eacute;ant un rapport d&#39;obligations d&#39;ordre &eacute;conomique en dehors de toute activit&eacute; commerciale et salariale, par le biais d&#39;une plateforme num&eacute;rique de mise en relation.</strong></p>\r\n\r\n<p>&nbsp;</p>\r\n\r\n<p>Sa caract&eacute;ristique de personne physique exclut donc toute personne morale &agrave; quelques titres que ce soit, association, soci&eacute;t&eacute; ou autres.</p>\r\n\r\n<p>&nbsp;</p>\r\n\r\n<p>Il s&#39;agit ensuite de d&eacute;finir son activit&eacute;. <strong>L&#39;activit&eacute; de l&#39;acteur collaboratif est une activit&eacute; non professionnelle et accessoire de fourniture de biens et de services &agrave; titre gratuit ou on&eacute;reux.</strong></p>\r\n\r\n<p>&nbsp;</p>\r\n\r\n<p>Il est entendu par &laquo; non professionnelle &raquo; que cette derni&egrave;re s&#39;exerce <strong>hors de quelques cadres commerciaux.</strong> De la m&ecirc;me fa&ccedil;on, il est entendu par &laquo; accessoire &raquo; que cette derni&egrave;re ne s&#39;inscrit qu&#39;<strong>en compl&eacute;ment d&#39;un autre revenu</strong> et ne peut &ecirc;tre source principale de revenus.</p>\r\n\r\n<p>&nbsp;</p>\r\n\r\n<p>Le fait d&#39;entrer dans le cadre de ce statut exclut donc <em>de facto</em> la possibilit&eacute; d&#39;&ecirc;tre qualifi&eacute; pour cette m&ecirc;me activit&eacute; de consommateur ou de professionnel.</p>\r\n\r\n<p>&nbsp;</p>\r\n\r\n<h2><u>2. Distinction avec le professionnel</u><u> </u></h2>\r\n\r\n<p>&nbsp;</p>\r\n\r\n<p>Du fait de son activit&eacute;, l&#39;acteur collaboratif peut notamment &ecirc;tre amen&eacute; &agrave; faire des actes de commerces, sans pour autant se voir qualifi&eacute; de commer&ccedil;ant. Ainsi, il s&#39;agit dans un premier temps de <strong>d&eacute;finir les actes de commerces qui pourraient relever de l&#39;activit&eacute; de l&#39;acteur collaboratif et ceux n&#39;entrant pas dans le champ contractuel de son activit&eacute;.</strong></p>\r\n\r\n<p>&nbsp;</p>\r\n\r\n<p>Les actes r&eacute;put&eacute;s de commerce par la loi sont d&eacute;finis &agrave; l&#39;article L.110-1 du Code de commerce.</p>\r\n\r\n<p>&nbsp;</p>\r\n\r\n<p><strong>L&#39;acteur collaboratif peut &agrave; travers son activit&eacute;, louer, vendre et partager des biens ou des services.</strong></p>\r\n\r\n<p>&nbsp;</p>\r\n\r\n<p>Ainsi peut-on estimer que rel&egrave;ve de son activit&eacute; &laquo; Toute entreprise de location de meuble &raquo;, pr&eacute;vu &agrave; l&#39;alin&eacute;a 4 de l&#39;article L.110-1. De m&ecirc;me, s&#39;apparente &agrave; une activit&eacute; de l&#39;acteur collaboratif, &laquo; Toute entreprise [&hellip;] de transport par terre ou par eau &raquo; pr&eacute;vu &agrave; l&#39;alin&eacute;a 5 du m&ecirc;me article.</p>\r\n\r\n<p><strong>L&#39;usage r&eacute;p&eacute;t&eacute; de ces actes de la part de l&#39;acteur collaboratif n&rsquo;entra&icirc;nerait donc pas de requalification en commer&ccedil;ant de fait.</strong></p>\r\n\r\n<p>&nbsp;</p>\r\n\r\n<p>De plus, il est important de distinguer les r&eacute;mun&eacute;rations pour avoir une s&eacute;paration avec le milieu professionnel.</p>\r\n\r\n<p>&nbsp;</p>\r\n\r\n<h2><u>3. Distinction parmi les r&eacute;mun&eacute;rations</u><u> </u></h2>\r\n\r\n<p>&nbsp;</p>\r\n\r\n<p>L&#39;acteur collaboratif en tant que non-professionnel peut obtenir <strong>3 formes de r&eacute;mun&eacute;ration :</strong></p>\r\n\r\n<p>&nbsp;</p>\r\n\r\n<ul>\r\n\t<li>\r\n\t<p>r&eacute;mun&eacute;ration correspondant &agrave; une <strong>participation aux frais ;</strong></p>\r\n\t</li>\r\n\t<li>\r\n\t<p>r&eacute;mun&eacute;ration correspondant &agrave; un<strong> b&eacute;n&eacute;fice</strong> ;</p>\r\n\t</li>\r\n\t<li>\r\n\t<p>r&eacute;mun&eacute;ration <strong>en nature ou par un &eacute;change de service.</strong></p>\r\n\t</li>\r\n</ul>\r\n\r\n<p>&nbsp;</p>\r\n\r\n<p>L&#39;int&eacute;r&ecirc;t de cette distinction est d&#39;encadrer les revenus et la fiscalit&eacute; issus de ces derniers.</p>\r\n\r\n<p>&nbsp;</p>\r\n\r\n<p>Le principe est l&#39;imposition d&#39;un revenu net. Il ne peut y avoir de revenus imposables lorsque le produit compense une charge non d&eacute;ductible. Ainsi, <strong>lorsque la r&eacute;mun&eacute;ration ne correspond qu&#39;&agrave; une participation aux frais</strong> telle que dans le cas du covoiturage, aucun revenu n&#39;est r&eacute;alis&eacute; : <strong>le droit fiscal ne s&#39;applique pas.</strong></p>\r\n\r\n<p>&nbsp;</p>\r\n\r\n<p>En revanche, le droit fiscal peut s&#39;appliquer lorsque des b&eacute;n&eacute;fices sont tir&eacute;s d&#39;une activit&eacute; exerc&eacute;e dans le cadre de l&#39;&eacute;conomie collaborative et participative. Pour autant, <strong>l&#39;objectif &eacute;tant de garantir la p&eacute;rennit&eacute; de ce nouveau mod&egrave;le &eacute;conomique</strong>, nous ne souhaitons pas voir une taxation s&#39;appliquer &agrave; tous les revenus. Ainsi, nous souhaiterions la mise en place d&#39;un seuil au-del&agrave; duquel les b&eacute;n&eacute;fices tir&eacute;s de l&#39;activit&eacute; de l&#39;acteur collaboratif doivent &ecirc;tre d&eacute;clar&eacute;s, sur le mod&egrave;le du syst&egrave;me de l&#39;autoentrepreneur.</p>\r\n\r\n<p>&nbsp;</p>\r\n\r\n<p>Pour rappel, l&#39;autoentrepreneur peut opter pour un r&eacute;gime de pr&eacute;l&egrave;vement obligatoire qui lui permet de payer l&rsquo;imp&ocirc;t sur le revenu au fur et &agrave; mesure de ses encaissements. Le montant de l&rsquo;imp&ocirc;t ne pouvant alors &ecirc;tre d&eacute;termin&eacute; sur un chiffre net annuel, il est alors d&eacute;termin&eacute; par application d&#39;un certain pourcentage sur le montant du chiffre d&#39;affaire r&eacute;alis&eacute; sur la p&eacute;riode.</p>\r\n\r\n<p>&nbsp;</p>\r\n\r\n<p>Dans le cas de l&#39;acteur collaboratif, nous proposons de pr&eacute;voir un r&eacute;gime de pr&eacute;l&egrave;vement obligatoire par application d&#39;un pourcentage sur le montant du chiffre d&#39;affaire r&eacute;alis&eacute; au cours d&#39;une ann&eacute;e d&egrave;s lors qu&#39;il est sup&eacute;rieur &agrave; 5000 &euro; (seuil propos&eacute; par le groupe de travail du S&eacute;nat dans le rapport &laquo; L&rsquo;&Eacute;CONOMIE COLLABORATIVE : PROPOSITIONS POUR UNE FISCALIT&Eacute; SIMPLE, JUSTE ET EFFICACE &raquo;). <strong>Autrement dit, nous proposons d&#39;exon&eacute;rer l&#39;acteur collaboratif jusqu&#39;&agrave; 5000 &euro;.</strong></p>\r\n\r\n<p>&nbsp;</p>\r\n\r\n<h3><em>Encourager les &eacute;changes en nature et de services</em></h3>\r\n\r\n<p>&nbsp;</p>\r\n\r\n<p>Enfin, nous souhaitons<strong> encadrer et non interdire les r&eacute;mun&eacute;rations en nature</strong> et par des &eacute;changes de services puisque ces derni&egrave;res correspondent &agrave;<strong> l&#39;esprit m&ecirc;me de partage</strong> qui anime l&#39;&eacute;conomie collaborative.</p>\r\n\r\n<p>&nbsp;</p>\r\n\r\n<p>Afin de permettre &agrave; ces r&eacute;mun&eacute;rations d&#39;exister tout en &eacute;vitant le risque de donations d&eacute;guis&eacute;es, <strong>nous proposons deux mesures</strong> :</p>\r\n\r\n<ol>\r\n\t<li>\r\n\t<p>Une interdiction du paiement en nature par tout bien autre que consomptibles par le premier usage ;</p>\r\n\t</li>\r\n\t<li>\r\n\t<p>L&rsquo;interdiction d&#39;un paiement par un bien ou un service ayant une valeur excessivement d&eacute;raisonnable. Notion &agrave; rapprocher de celle de &laquo; raisonnable &raquo; telle qu&#39;employ&eacute;e par le Code civil notamment aux articles 601 et 1728.</p>\r\n\t</li>\r\n</ol>\r\n\r\n<p>&nbsp;</p>\r\n\r\n<h2><u>4. Concurrence d&eacute;loyale</u></h2>\r\n\r\n<p>&nbsp;</p>\r\n\r\n<p>La distinction entre r&eacute;mun&eacute;ration correspondant &agrave; une participation aux frais et r&eacute;mun&eacute;ration correspondant &agrave; un b&eacute;n&eacute;fice trouve aussi sa justification dans le cadre du droit de la concurrence.</p>\r\n\r\n<p>&nbsp;</p>\r\n\r\n<p>En effet,<strong> la cour de cassation a consid&eacute;r&eacute; dans un arr&ecirc;t du 12 mars 2013 que le covoiturage ne constituait pas une pratique d&eacute;loyale</strong> d&egrave;s lors que le transport se faisait &agrave; titre b&eacute;n&eacute;vole et que l&#39;indemnisation n&#39;&eacute;tait pas sup&eacute;rieure aux frais induits par l&#39;utilisation du v&eacute;hicule et du transport.</p>\r\n\r\n<p>&nbsp;</p>\r\n\r\n<p>Par un raisonnement analogue, nous estimons que le caract&egrave;re de concurrence d&eacute;loyale ne peut &ecirc;tre retenu pour toute activit&eacute; de l&#39;acteur collaboratif d&egrave;s lors que cette derni&egrave;re est &agrave; titre b&eacute;n&eacute;vole et que l&#39;indemnisation n&#39;est pas sup&eacute;rieure aux frais qu&#39;induit l&#39;activit&eacute;.</p>\r\n\r\n<p>&nbsp;</p>\r\n\r\n<p>Afin de prot&eacute;ger l&#39;acteur collaboratif d&#39;une action en concurrence d&eacute;loyale, nous plaidons aussi pour un am&eacute;nagement du droit &agrave; cet &eacute;gard, en instaurant un seuil de revenus (nous sugg&eacute;rons 10 000 &euro;) annuels au-del&agrave; duquel l&#39;activit&eacute; ne peut plus correspondre &agrave; une simple activit&eacute; accessoire. Sous ce seuil,<strong> le statut d&rsquo;acteur collaboratif s&rsquo;applique pleinement et le contributeur est prot&eacute;g&eacute; des actions en concurrence d&eacute;loyale</strong> dans les conditions d&eacute;crites ci-dessus. Au-del&agrave;, l&rsquo;activit&eacute; n&rsquo;est plus consid&eacute;r&eacute;e comme secondaire.</p>\r\n\r\n<p>&nbsp;</p>\r\n\r\n<h2><u>5. Protections face aux risques induits par l&#39;activit&eacute;</u></h2>\r\n\r\n<p>&nbsp;</p>\r\n\r\n<p>De par son activit&eacute;, l&rsquo;acteur collaboratif s&rsquo;expose &agrave; diff&eacute;rents risques. Nous en d&eacute;gageons 3 principaux qui doivent &ecirc;tre pris en compte :</p>\r\n\r\n<p>&nbsp;</p>\r\n\r\n<ul>\r\n\t<li>\r\n\t<p>le risque li&eacute; &agrave; son activit&eacute; <strong>face &agrave; la plateforme ;</strong></p>\r\n\t</li>\r\n\t<li>\r\n\t<p>le risque li&eacute; &agrave; son activit&eacute; <strong>face &agrave; un autre acteur collaboratif ;</strong></p>\r\n\t</li>\r\n\t<li>\r\n\t<p>le risque li&eacute; &agrave; son activit&eacute; <strong>face aux assureurs.</strong></p>\r\n\t</li>\r\n</ul>\r\n\r\n<p>&nbsp;</p>\r\n\r\n<h3><em>Quelles r&eacute;ponses peuvent &ecirc;tre apport&eacute;es du point de vue l&eacute;gal ?</em></h3>\r\n\r\n<p>&nbsp;</p>\r\n\r\n<p>Les plateformes num&eacute;riques sont indispensables &agrave; l&#39;&eacute;conomie num&eacute;rique. Agissant comme des professionnels, il nous semble n&eacute;cessaire de <strong>prot&eacute;ger l&#39;acteur collaboratif en imposant &agrave; ces derni&egrave;res un devoir d&#39;information.</strong></p>\r\n\r\n<p>&nbsp;</p>\r\n\r\n<p>Le droit doit non seulement imposer aux plateformes une r&eacute;daction claire, concise et facilement accessible de ses conditions d&#39;utilisation mais aussi attirer l&#39;attention par une obligation de conseil sur les risques li&eacute;s &agrave; l&#39;activit&eacute;, &agrave; la responsabilit&eacute; de la plateforme dans ces activit&eacute;s et aux recours possibles ainsi que le droit applicable &agrave; ces derni&egrave;res.</p>\r\n\r\n<p>&nbsp;</p>\r\n\r\n<p>Concernant les risques li&eacute;s &agrave; l&#39;activit&eacute; face &agrave; un autre acteur collaboratif, nous consid&eacute;rons que le droit commun &agrave; travers les responsabilit&eacute;s contractuelles et d&eacute;lictuelles joue parfaitement son r&ocirc;le et qu&#39;il n&#39;est pas opportun de cr&eacute;er un nouveau r&eacute;gime de responsabilit&eacute;. L&rsquo;acteur collaboratif n&rsquo;&eacute;tant pas un commer&ccedil;ant, il prend de ce fait sa part de responsabilit&eacute; comme pr&eacute;vu par le droit en cas d&rsquo;inex&eacute;cution ou mauvaise ex&eacute;cution de son obligation contractuelle.</p>\r\n\r\n<p>&nbsp;</p>\r\n\r\n<p>Enfin, <strong>concernant les assurances</strong>, nous proposons de ne pas sp&eacute;cialement modifier les r&egrave;gles en vigueur mais <strong>rappeler et souligner les responsabilit&eacute;s incombant &agrave; l&#39;acteur collaboratif comme &agrave; l&#39;assureur.</strong></p>\r\n\r\n<p>&nbsp;</p>\r\n\r\n<p>L&#39;assureur &eacute;tant un professionnel qui propose des contrats d&#39;adh&eacute;sion, il nous semble important de maintenir les obligations &agrave; la charge de ce dernier. Ainsi, nous pensons que <strong>l&#39;assureur doit demander de mani&egrave;re explicite &agrave; son assur&eacute; s&rsquo;il pratique une activit&eacute; collaborative dans le cadre de l&#39;assurance propos&eacute;e.</strong> L&#39;assureur ne pourra en aucun cas reprocher &agrave; l&#39;acteur collaboratif l&#39;absence d&#39;information &agrave; ce sujet. En revanche, dans le cas o&ugrave; l&#39;assureur en a express&eacute;ment fait la demande et que le particulier a r&eacute;pondu par la n&eacute;gative, la charge de l&#39;information p&egrave;se alors sur ce dernier en cas de modification de son statut ; c&#39;est-&agrave;-dire s&rsquo;il vient &agrave; &eacute;voluer en passant du statut de consommateur &agrave; celui d&#39;acteur collaboratif.</p>",
      "type": {
        "id": 97,
        "title": "Section 4",
        "subtitle": "Information des consommateurs",
        "voteWidgetType": 2,
        "votesHelpText": "Pensez-vous que cette proposition permet d'atteindre les objectifs présentés dans l’explication de l’article ?",
        "commentSystem": 2,
        "color": "blue",
        "versionable": true,
        "sourceable": true,
        "votesThreshold": null,
        "votesThresholdHelpText": null
      },
      "modals": [],
      "appendices": [
        {
          "body": "<h1><u>Cr&eacute;ation d&#39;un statut de l&#39;acteur collaboratif</u></h1>\r\n\r\n<p>&nbsp;</p>\r\n\r\n<p><a href=\"http://www.lemonde.fr/idees/article/2015/09/25/pour-la-creation-d-un-statut-d-acteur-collaboratif_4771790_3232.html\" style=\"text-decoration: none;\"><u>Dans un tribune diffus&eacute;e par Le Monde que nous vous invitons &agrave; lire</u></a>, nous expliquons pourquoi il nous semble indispensable d&#39;<strong>encourager l&#39;&eacute;conomie du partage</strong>, qui repose sur des particuliers s&#39;&eacute;changeant biens et services sans que ceci ne constitue leur activit&eacute; principale, en proposant un statut d&eacute;finissant leurs droits, le cadre dans lequel ils &eacute;voluent, les prot&eacute;geant du flou et des risques li&eacute;es &agrave; cette activit&eacute; secondaire &ndash; le tout afin de p&eacute;renniser les compagnies du partage face aux &quot;Uber-mastodontes&quot;.</p>\r\n\r\n<p>&nbsp;</p>\r\n\r\n<h2><strong>Descriptif d&eacute;taill&eacute; des mesures envisag&eacute;es</strong></h2>\r\n\r\n<p>&nbsp;</p>\r\n\r\n<p>La cr&eacute;ation d&#39;un statut d&#39;acteur collaboratif doit selon nous s&#39;int&eacute;grer dans le mouvement de protection du droit du consommateur et pour cela,&nbsp;<strong>trouverait ais&eacute;ment sa place dans le code du droit de la consommation.</strong>&nbsp;Pour autant, ce nouveau statut ne cr&eacute;e pas un nouveau consommateur mais un nouvel acteur &eacute;conomique dans le cadre tr&egrave;s particulier de l&#39;&eacute;conomie num&eacute;rique.</p>\r\n\r\n<p>Ce choix de restreindre le champ d&#39;application de ce dernier &agrave; l&#39;activit&eacute; num&eacute;rique est guid&eacute; par le caract&egrave;re particulier de l&#39;&eacute;conomie num&eacute;rique o&ugrave;&nbsp;<strong>la d&eacute;mat&eacute;rialisation des interm&eacute;diaires (plateformes) fait peser un risque suppl&eacute;mentaire sur les usagers de cette derni&egrave;re</strong>. L&#39;information est plus difficile &agrave; obtenir, le recours en justice moins &eacute;vident,&nbsp;<strong>les responsabilit&eacute;s rarement partag&eacute;es.</strong></p>",
          "type": {
            "title": "Explication de l'article"
          }
        }
      ],
      "title": "Création d'un statut de l'acteur collaboratif",
      "_links": {
        "show": "https://www.republique-numerique.fr/consultations/projet-de-loi-numerique/consultation/consultation/opinions/section-4-information-des-consommateurs/creation-d-un-statut-de-l-acteur-collaboratif",
        "edit": "https://www.republique-numerique.fr/consultations/projet-de-loi-numerique/consultation/consultation/opinions/section-4-information-des-consommateurs/creation-d-un-statut-de-l-acteur-collaboratif/edit",
        "report": "https://www.republique-numerique.fr/consultations/projet-de-loi-numerique/consultation/consultation/opinions/section-4-information-des-consommateurs/creation-d-un-statut-de-l-acteur-collaboratif/report",
        "type": "https://www.republique-numerique.fr/consultations/projet-de-loi-numerique/consultation/consultation/opinions/section-4-information-des-consommateurs"
      },
      "user_vote": null,
      "has_user_reported": false
    },
    "sources_count": 0,
    "arguments_count": 1,
    "votes": [
      {
        "user": {
          "username": "Charlotte Récapet",
          "displayName": "Charlotte Récapet",
          "uniqueId": "charlotterecapet",
          "isAdmin": false,
          "media": null,
          "vip": false,
          "_links": {
            "profile": "https://www.republique-numerique.fr/profile/charlotterecapet",
            "settings": "https://www.republique-numerique.fr/profile/edit-profile"
          }
        },
        "value": 1
      }
    ],
    "updated_at": "2015-10-13T19:40:13+0200",
    "ranking": 1028,
    "is_trashed": false,
    "title": "Bénéfice interdit pour ce type d'activité",
    "slug": "benefice-interdit-pour-ce-type-d-activite",
    "created_at": "2015-10-13T19:40:13+0200",
    "votes_nok": 0,
    "votes_ok": 1,
    "votes_mitige": 0,
    "_links": {
      "show": "https://www.republique-numerique.fr/consultations/projet-de-loi-numerique/consultation/consultation/opinions/section-4-information-des-consommateurs/creation-d-un-statut-de-l-acteur-collaboratif/versions/benefice-interdit-pour-ce-type-d-activite",
      "report": "https://www.republique-numerique.fr/consultations/projet-de-loi-numerique/consultation/consultation/opinions/section-4-information-des-consommateurs/creation-d-un-statut-de-l-acteur-collaboratif/versions/benefice-interdit-pour-ce-type-d-activite/report"
    },
    "user_vote": null,
    "has_user_reported": false
  },
  "rankingThreshold": null,
  "opinionTerm": 1
}