{
  "opinion": {
    "isContribuable": false,
    "votes_total": 59,
    "arguments_yes_count": 5,
    "arguments_no_count": 1,
    "id": 345,
    "created_at": "2015-09-30T12:17:25+0200",
    "updated_at": "2015-09-30T12:17:25+0200",
    "body": "<p>Actuellement, il est possible de trouver sur le march&eacute;, des ordinateurs sous Windows ou Mac.</p>\r\n\r\n<p>L&#39;id&eacute;e serait, afin d&#39;ouvrir la concurence et l&#39;int&eacute;rop&eacute;rabilit&eacute;, :</p>\r\n\r\n<p>1) <u>D&#39;encourager les constructeurs d&#39;ordinateurs &agrave; fournir aux grand distributeurs</u> :</p>\r\n\r\n<p>&nbsp;- <strong>Des ordinateurs sans syst&egrave;me d&#39;exploitation</strong> et ainsi permettre &agrave; ceux qui le souhaitent d&#39;installer ce qu&#39;ils veulent (GNU/Linux, BSD, Windows (n&#39;importe quelle version) : <strong>le consommateur ne paierait donc que le prix du mat&eacute;riel.</strong></p>\r\n\r\n<p>&nbsp;- <strong>Des ordinateurs avec une distribution pr&eacute;install&eacute;e</strong> (vu qu&#39;on est en France, pourquoi pas Mage&iuml;a qui est fran&ccedil;aise, mais ce n&#39;est qu&#39;un exemple, ne nous arr&ecirc;tons pas au nom de la distribution) : <strong>le consommateur ne paierait donc que le prix du mat&eacute;riel sauf dans le cas de certaines distribution orient&eacute; pour le monde professionel comme RedHat par exemple.</strong></p>\r\n\r\n<p>2)<u> D&#39;interdir aux constructeurs la vente d&#39;ordinateurs qui contiennent des traceurs</u> (c.f le cas Lenovo par exemple) et ainsi garantir un peu plus la sauvegarde de la vie priv&eacute;e des utilisateurs.</p>\r\n\r\n<p>3) <u>D&#39;autoriser sans contrainte la r&eacute;installation des ordinateurs</u>. Par contrainte on peut citer par exemple&nbsp; les garanties vendeur ou constructeur.</p>",
    "versions_count": 1,
    "sources_count": 0,
    "arguments_count": 6,
    "author": {
      "username": "JCF",
      "displayName": "JCF",
      "uniqueId": "jcf",
      "isAdmin": false,
      "media": null,
      "vip": false,
      "_links": {
        "profile": "https://www.republique-numerique.fr/profile/jcf",
        "settings": "https://www.republique-numerique.fr/profile/edit-profile"
      }
    },
    "type": {
      "id": 90,
      "title": "Section 1",
      "subtitle": "Les Communs",
      "voteWidgetType": 2,
      "votesHelpText": "Pensez-vous que cette proposition permet d'atteindre les objectifs présentés dans l’explication de l’article ?",
      "commentSystem": 2,
      "color": "blue",
      "versionable": true,
      "sourceable": true,
      "votesThreshold": null,
      "votesThresholdHelpText": null
    },
    "sources": [],
    "arguments": [
      {
        "isContribuable": false,
        "id": 5447,
        "body": "En outre, l'open source, littéralement du code ouvert, permet une inspection collective, ce qui dissuade certains d'y glisser du code espion.",
        "created_at": "2015-10-17T18:15:12+0200",
        "updated_at": "2015-10-17T18:15:12+0200",
        "is_enabled": true,
        "votes_count": 1,
        "type": 1,
        "is_trashed": false,
        "author": {
          "username": "FairlySource",
          "displayName": "FairlySource",
          "uniqueId": "fairlysource",
          "isAdmin": false,
          "media": {
            "url": "/media/cache/default_avatar/default/0001/02/1012_default_avatar.jpg"
          },
          "vip": false,
          "_links": {
            "profile": "https://www.republique-numerique.fr/profile/fairlysource",
            "settings": "https://www.republique-numerique.fr/profile/edit-profile"
          }
        },
        "_links": {
          "show": "https://www.republique-numerique.fr/consultations/projet-de-loi-numerique/consultation/consultation/opinions/section-1-les-communs/proposer-des-ordinateurs-grand-public-propres-avec-systemes-gnu-linux-ou-sans-os-et-ouvert-a-la-reinstallation#arg-5447",
          "edit": "https://www.republique-numerique.fr/consultations/projet-de-loi-numerique/consultation/consultation/opinions/section-1-les-communs/proposer-des-ordinateurs-grand-public-propres-avec-systemes-gnu-linux-ou-sans-os-et-ouvert-a-la-reinstallation/arguments/5447/edit",
          "report": "https://www.republique-numerique.fr/consultations/projet-de-loi-numerique/consultation/consultation/opinions/section-1-les-communs/proposer-des-ordinateurs-grand-public-propres-avec-systemes-gnu-linux-ou-sans-os-et-ouvert-a-la-reinstallation/arguments/5447/report"
        },
        "has_user_voted": false,
        "has_user_reported": false
      },
      {
        "isContribuable": false,
        "id": 5334,
        "body": "Encore du prosélytisme en faveur du logiciel libre... Hors sujet.",
        "created_at": "2015-10-17T16:07:25+0200",
        "updated_at": "2015-10-17T16:07:25+0200",
        "is_enabled": true,
        "votes_count": 0,
        "type": 0,
        "is_trashed": false,
        "author": {
          "username": "Tanéléo",
          "displayName": "Tanéléo",
          "uniqueId": "taneleo",
          "isAdmin": false,
          "media": null,
          "vip": false,
          "_links": {
            "profile": "https://www.republique-numerique.fr/profile/taneleo",
            "settings": "https://www.republique-numerique.fr/profile/edit-profile"
          }
        },
        "_links": {
          "show": "https://www.republique-numerique.fr/consultations/projet-de-loi-numerique/consultation/consultation/opinions/section-1-les-communs/proposer-des-ordinateurs-grand-public-propres-avec-systemes-gnu-linux-ou-sans-os-et-ouvert-a-la-reinstallation#arg-5334",
          "edit": "https://www.republique-numerique.fr/consultations/projet-de-loi-numerique/consultation/consultation/opinions/section-1-les-communs/proposer-des-ordinateurs-grand-public-propres-avec-systemes-gnu-linux-ou-sans-os-et-ouvert-a-la-reinstallation/arguments/5334/edit",
          "report": "https://www.republique-numerique.fr/consultations/projet-de-loi-numerique/consultation/consultation/opinions/section-1-les-communs/proposer-des-ordinateurs-grand-public-propres-avec-systemes-gnu-linux-ou-sans-os-et-ouvert-a-la-reinstallation/arguments/5334/report"
        },
        "has_user_voted": false,
        "has_user_reported": false
      },
      {
        "isContribuable": false,
        "id": 3457,
        "body": "@Bernard Martinez. Ca existe déjà plus ou moins (pour ce que ça vaut) car les drivers génériques gèrent plutôt bien une grande partie du matériel graphique. Mais déjà il faudrait que les constructeurs fournissent des drivers dignes de ce nom pour les OS alternatifs avec la doc technique pour les développeurs qui pourront faire des drivers Libres. Mais à partir du moment où les OS alternatifs se démocratiseront de plus en plus, il y aura un effet boule-de-neige et les ressources suivront de plus en plus car les utilisateurs voudront utiliser leurs jeux/logiciels de DAO, (etc) préférés sur du GNU/Linux donc ils voudront que leurs matériel fonctionne parfaitement, donc ils voudront des drivers, c'est un nouveau marcher qui s'ouvre. Bref, ça devrait se faire tout seul",
        "created_at": "2015-10-13T08:16:13+0200",
        "updated_at": "2015-10-13T08:16:13+0200",
        "is_enabled": true,
        "votes_count": 0,
        "type": 1,
        "is_trashed": false,
        "author": {
          "username": "JCF",
          "displayName": "JCF",
          "uniqueId": "jcf",
          "isAdmin": false,
          "media": null,
          "vip": false,
          "_links": {
            "profile": "https://www.republique-numerique.fr/profile/jcf",
            "settings": "https://www.republique-numerique.fr/profile/edit-profile"
          }
        },
        "_links": {
          "show": "https://www.republique-numerique.fr/consultations/projet-de-loi-numerique/consultation/consultation/opinions/section-1-les-communs/proposer-des-ordinateurs-grand-public-propres-avec-systemes-gnu-linux-ou-sans-os-et-ouvert-a-la-reinstallation#arg-3457",
          "edit": "https://www.republique-numerique.fr/consultations/projet-de-loi-numerique/consultation/consultation/opinions/section-1-les-communs/proposer-des-ordinateurs-grand-public-propres-avec-systemes-gnu-linux-ou-sans-os-et-ouvert-a-la-reinstallation/arguments/3457/edit",
          "report": "https://www.republique-numerique.fr/consultations/projet-de-loi-numerique/consultation/consultation/opinions/section-1-les-communs/proposer-des-ordinateurs-grand-public-propres-avec-systemes-gnu-linux-ou-sans-os-et-ouvert-a-la-reinstallation/arguments/3457/report"
        },
        "has_user_voted": false,
        "has_user_reported": false
      },
      {
        "isContribuable": false,
        "id": 2849,
        "body": "Est-ce qu'il ne faudrait pas exiger la disponibilité de pilotes libres permettant au matériel de fonctionner à minima, sans effort autre que l'installation de l'OS ? (pour que cela soit applicable... car jamais NVidia ne fournira le code du pilote du dernier GPU...)",
        "created_at": "2015-10-09T21:25:56+0200",
        "updated_at": "2015-10-09T21:25:56+0200",
        "is_enabled": true,
        "votes_count": 1,
        "type": 1,
        "is_trashed": false,
        "author": {
          "username": "Bernard Martinez",
          "displayName": "Bernard Martinez",
          "uniqueId": "bernardmartinez",
          "isAdmin": false,
          "media": null,
          "vip": false,
          "_links": {
            "profile": "https://www.republique-numerique.fr/profile/bernardmartinez",
            "settings": "https://www.republique-numerique.fr/profile/edit-profile"
          }
        },
        "_links": {
          "show": "https://www.republique-numerique.fr/consultations/projet-de-loi-numerique/consultation/consultation/opinions/section-1-les-communs/proposer-des-ordinateurs-grand-public-propres-avec-systemes-gnu-linux-ou-sans-os-et-ouvert-a-la-reinstallation#arg-2849",
          "edit": "https://www.republique-numerique.fr/consultations/projet-de-loi-numerique/consultation/consultation/opinions/section-1-les-communs/proposer-des-ordinateurs-grand-public-propres-avec-systemes-gnu-linux-ou-sans-os-et-ouvert-a-la-reinstallation/arguments/2849/edit",
          "report": "https://www.republique-numerique.fr/consultations/projet-de-loi-numerique/consultation/consultation/opinions/section-1-les-communs/proposer-des-ordinateurs-grand-public-propres-avec-systemes-gnu-linux-ou-sans-os-et-ouvert-a-la-reinstallation/arguments/2849/report"
        },
        "has_user_voted": false,
        "has_user_reported": false
      },
      {
        "isContribuable": false,
        "id": 1787,
        "body": "@Jeanne, Je pense que vous faites référence à cet article (https://www.republique-numerique.fr/consultations/projet-de-loi-numerique/consultation/consultation/opinions/section-3-loyaute-des-plateformes/interdiction-de-la-vente-liee-ordinateur-systeme-d-exploitation), Ce n'est pas un doublon car je ne fais pas mention de la vente lié (même si je suis d'accord avec le fait que ça ne devrait pas exister) je vais en fait plus loin car en plus de proposer (comme pour l'article sus-mentionné) le fait d'avoir des ordinateur sans système je propose aussi d'en avoir avec des distribution GNU/Linux préinstallée MAIS AUSSI de disposer d'ordinateur qui sont exempts de traceurs et espions en tout genres cachés dans le BIOS, donc de garantir un peu plus de respect de la vie privée et de sécurité matériel.",
        "created_at": "2015-10-01T10:40:14+0200",
        "updated_at": "2015-10-01T10:40:14+0200",
        "is_enabled": true,
        "votes_count": 1,
        "type": 1,
        "is_trashed": false,
        "author": {
          "username": "JCF",
          "displayName": "JCF",
          "uniqueId": "jcf",
          "isAdmin": false,
          "media": null,
          "vip": false,
          "_links": {
            "profile": "https://www.republique-numerique.fr/profile/jcf",
            "settings": "https://www.republique-numerique.fr/profile/edit-profile"
          }
        },
        "_links": {
          "show": "https://www.republique-numerique.fr/consultations/projet-de-loi-numerique/consultation/consultation/opinions/section-1-les-communs/proposer-des-ordinateurs-grand-public-propres-avec-systemes-gnu-linux-ou-sans-os-et-ouvert-a-la-reinstallation#arg-1787",
          "edit": "https://www.republique-numerique.fr/consultations/projet-de-loi-numerique/consultation/consultation/opinions/section-1-les-communs/proposer-des-ordinateurs-grand-public-propres-avec-systemes-gnu-linux-ou-sans-os-et-ouvert-a-la-reinstallation/arguments/1787/edit",
          "report": "https://www.republique-numerique.fr/consultations/projet-de-loi-numerique/consultation/consultation/opinions/section-1-les-communs/proposer-des-ordinateurs-grand-public-propres-avec-systemes-gnu-linux-ou-sans-os-et-ouvert-a-la-reinstallation/arguments/1787/report"
        },
        "has_user_voted": false,
        "has_user_reported": false
      },
      {
        "isContribuable": false,
        "id": 1546,
        "body": "Doublon, a déjà été abordé par ailleurs",
        "created_at": "2015-09-30T14:59:49+0200",
        "updated_at": "2015-09-30T14:59:49+0200",
        "is_enabled": true,
        "votes_count": 2,
        "type": 1,
        "is_trashed": false,
        "author": {
          "username": "Jeanne Varasco",
          "displayName": "Jeanne Varasco",
          "uniqueId": "jeannevarasco",
          "isAdmin": false,
          "media": {
            "url": "/media/cache/default_avatar/default/0001/01/139_default_avatar.jpg"
          },
          "vip": false,
          "_links": {
            "profile": "https://www.republique-numerique.fr/profile/jeannevarasco",
            "settings": "https://www.republique-numerique.fr/profile/edit-profile"
          }
        },
        "_links": {
          "show": "https://www.republique-numerique.fr/consultations/projet-de-loi-numerique/consultation/consultation/opinions/section-1-les-communs/proposer-des-ordinateurs-grand-public-propres-avec-systemes-gnu-linux-ou-sans-os-et-ouvert-a-la-reinstallation#arg-1546",
          "edit": "https://www.republique-numerique.fr/consultations/projet-de-loi-numerique/consultation/consultation/opinions/section-1-les-communs/proposer-des-ordinateurs-grand-public-propres-avec-systemes-gnu-linux-ou-sans-os-et-ouvert-a-la-reinstallation/arguments/1546/edit",
          "report": "https://www.republique-numerique.fr/consultations/projet-de-loi-numerique/consultation/consultation/opinions/section-1-les-communs/proposer-des-ordinateurs-grand-public-propres-avec-systemes-gnu-linux-ou-sans-os-et-ouvert-a-la-reinstallation/arguments/1546/report"
        },
        "has_user_voted": false,
        "has_user_reported": false
      }
    ],
    "modals": [],
    "votes": [
      {
        "user": {
          "username": "JCF",
          "displayName": "JCF",
          "uniqueId": "jcf",
          "isAdmin": false,
          "media": null,
          "vip": false,
          "_links": {
            "profile": "https://www.republique-numerique.fr/profile/jcf",
            "settings": "https://www.republique-numerique.fr/profile/edit-profile"
          }
        }
      },
      {
        "user": {
          "username": "Jeanne Varasco",
          "displayName": "Jeanne Varasco",
          "uniqueId": "jeannevarasco",
          "isAdmin": false,
          "media": {
            "url": "/media/cache/default_avatar/default/0001/01/139_default_avatar.jpg"
          },
          "vip": false,
          "_links": {
            "profile": "https://www.republique-numerique.fr/profile/jeannevarasco",
            "settings": "https://www.republique-numerique.fr/profile/edit-profile"
          }
        }
      },
      {
        "user": {
          "username": "Estampe Timothé",
          "displayName": "Estampe Timothé",
          "uniqueId": "estampetimothe1",
          "isAdmin": false,
          "media": null,
          "vip": false,
          "_links": {
            "profile": "https://www.republique-numerique.fr/profile/estampetimothe1",
            "settings": "https://www.republique-numerique.fr/profile/edit-profile"
          }
        }
      },
      {
        "user": {
          "username": "Vincent Reverdy",
          "displayName": "Vincent Reverdy",
          "uniqueId": "vincentreverdy",
          "isAdmin": false,
          "media": {
            "url": "/media/cache/default_avatar/default/0001/01/268_default_avatar.jpg"
          },
          "vip": false,
          "_links": {
            "profile": "https://www.republique-numerique.fr/profile/vincentreverdy",
            "settings": "https://www.republique-numerique.fr/profile/edit-profile"
          }
        }
      },
      {
        "user": {
          "username": "kévin",
          "displayName": "kévin",
          "uniqueId": "kevin1",
          "isAdmin": false,
          "media": null,
          "vip": false,
          "_links": {
            "profile": "https://www.republique-numerique.fr/profile/kevin1",
            "settings": "https://www.republique-numerique.fr/profile/edit-profile"
          }
        }
      }
    ],
    "appendices": [
      {
        "body": null,
        "type": {
          "title": "Explication de l'article"
        }
      }
    ],
    "ranking": 143,
    "is_trashed": false,
    "title": "Proposer des ordinateurs grand-public \"propres\" avec Systèmes GNU/Linux ou sans OS et ouvert à la réinstallation",
    "votes_nok": 3,
    "votes_ok": 54,
    "votes_mitige": 2,
    "_links": {
      "show": "https://www.republique-numerique.fr/consultations/projet-de-loi-numerique/consultation/consultation/opinions/section-1-les-communs/proposer-des-ordinateurs-grand-public-propres-avec-systemes-gnu-linux-ou-sans-os-et-ouvert-a-la-reinstallation",
      "edit": "https://www.republique-numerique.fr/consultations/projet-de-loi-numerique/consultation/consultation/opinions/section-1-les-communs/proposer-des-ordinateurs-grand-public-propres-avec-systemes-gnu-linux-ou-sans-os-et-ouvert-a-la-reinstallation/edit",
      "report": "https://www.republique-numerique.fr/consultations/projet-de-loi-numerique/consultation/consultation/opinions/section-1-les-communs/proposer-des-ordinateurs-grand-public-propres-avec-systemes-gnu-linux-ou-sans-os-et-ouvert-a-la-reinstallation/report",
      "type": "https://www.republique-numerique.fr/consultations/projet-de-loi-numerique/consultation/consultation/opinions/section-1-les-communs"
    },
    "user_vote": null,
    "has_user_reported": false
  },
  "rankingThreshold": null,
  "opinionTerm": 1
}