{
  "version": {
    "isContribuable": false,
    "votes_total": 9,
    "arguments_yes_count": 0,
    "arguments_no_count": 1,
    "id": 605,
    "body": "<p>Toute personne devrait pouvoir b&eacute;n&eacute;ficier d&#39;un acc&egrave;s direct aux services num&eacute;riques en Mairie. Cet acc&egrave;s devrait &ecirc;tre libre et continue.</p>\n\n<p>Toute personne devrait avoir la possibilit&eacute; de suivre une formation en Mairie pour ma&icirc;triser les outils num&eacute;riques.</p>\n\n<p>WIFI OBLIGATOIRE EN MAISON DE RETRAITE DANS CAHIER DES CHARGES.</p>\n\n<p>&nbsp;</p>",
    "comment": null,
    "author": {
      "username": "BERNARD",
      "displayName": "BERNARD",
      "uniqueId": "bernard",
      "isAdmin": false,
      "media": null,
      "vip": false,
      "_links": {
        "profile": "https://www.republique-numerique.fr/profile/bernard",
        "settings": "https://www.republique-numerique.fr/profile/edit-profile"
      }
    },
    "arguments": [
      {
        "isContribuable": false,
        "id": 5854,
        "body": "C'est moins grave que dans les maternelles mais le principe de précaution nous interdit de décréter le wifi partout ! En quoi est-ce un immense service ? un réseau filaire n'est-il pas suffisant pour le moment ? Ca fait moins \"branché\" (Miterrand aurait dit \"cablé\") mais ça fonctionne.",
        "created_at": "2015-10-18T15:09:47+0200",
        "updated_at": "2015-10-18T15:09:47+0200",
        "is_enabled": true,
        "votes_count": 0,
        "type": 0,
        "is_trashed": false,
        "author": {
          "username": "BASTIDE",
          "displayName": "BASTIDE",
          "uniqueId": "bastide",
          "isAdmin": false,
          "media": null,
          "vip": false,
          "_links": {
            "profile": "https://www.republique-numerique.fr/profile/bastide",
            "settings": "https://www.republique-numerique.fr/profile/edit-profile"
          }
        },
        "_links": {
          "show": "https://www.republique-numerique.fr/consultations/projet-de-loi-numerique/consultation/consultation/opinions/section-1-accessibilite-des-personnes-handicapees-aux-services-telephoniques/acces-aux-personnes-isolees-et-agees/versions/wifi-obligatoire-en-maison-de-retraite-dans-cahier-des-charges#arg-5854",
          "edit": "https://www.republique-numerique.fr/consultations/projet-de-loi-numerique/consultation/consultation/opinions/section-1-accessibilite-des-personnes-handicapees-aux-services-telephoniques/acces-aux-personnes-isolees-et-agees/arguments/5854/edit",
          "report": "https://www.republique-numerique.fr/consultations/projet-de-loi-numerique/consultation/consultation/opinions/section-1-accessibilite-des-personnes-handicapees-aux-services-telephoniques/acces-aux-personnes-isolees-et-agees/arguments/5854/report"
        },
        "has_user_voted": false,
        "has_user_reported": false
      }
    ],
    "sources": [],
    "parent": {
      "isContribuable": false,
      "id": 97,
      "body": "<p>Toute personne devrait pouvoir b&eacute;n&eacute;ficier d&#39;un acc&egrave;s direct aux services num&eacute;riques en Mairie. Cet acc&egrave;s devrait &ecirc;tre libre et continue.</p>\r\n\r\n<p>Toute personne devrait avoir la possibilit&eacute; de suivre une formation en Mairie pour ma&icirc;triser les outils num&eacute;riques.</p>",
      "type": {
        "id": 109,
        "title": "Section 1",
        "subtitle": "Accessibilité des personnes handicapées aux services téléphoniques",
        "voteWidgetType": 2,
        "votesHelpText": "Pensez-vous que cette proposition permet d'atteindre les objectifs présentés dans l’explication de l’article ?",
        "commentSystem": 2,
        "color": "blue",
        "versionable": true,
        "sourceable": true,
        "votesThreshold": null,
        "votesThresholdHelpText": null
      },
      "modals": [],
      "appendices": [
        {
          "body": "<p>L&#39;acc&egrave;s direct permettrait de favoriser l&#39;int&eacute;gration des personnes isol&eacute;es et en situation pr&eacute;caire.</p>\r\n\r\n<p>L&#39;acc&egrave;s continue permettrait un acc&egrave;s &eacute;quitable entre tous les citoyens.</p>\r\n\r\n<p>La formation &eacute;largirait l&#39;utilisation du num&eacute;rique</p>\r\n\r\n<p>&nbsp;</p>",
          "type": {
            "title": "Explication de l'article"
          }
        }
      ],
      "title": "Accès aux personnes isolées et âgées",
      "_links": {
        "show": "https://www.republique-numerique.fr/consultations/projet-de-loi-numerique/consultation/consultation/opinions/section-1-accessibilite-des-personnes-handicapees-aux-services-telephoniques/acces-aux-personnes-isolees-et-agees",
        "edit": "https://www.republique-numerique.fr/consultations/projet-de-loi-numerique/consultation/consultation/opinions/section-1-accessibilite-des-personnes-handicapees-aux-services-telephoniques/acces-aux-personnes-isolees-et-agees/edit",
        "report": "https://www.republique-numerique.fr/consultations/projet-de-loi-numerique/consultation/consultation/opinions/section-1-accessibilite-des-personnes-handicapees-aux-services-telephoniques/acces-aux-personnes-isolees-et-agees/report",
        "type": "https://www.republique-numerique.fr/consultations/projet-de-loi-numerique/consultation/consultation/opinions/section-1-accessibilite-des-personnes-handicapees-aux-services-telephoniques"
      },
      "user_vote": null,
      "has_user_reported": false
    },
    "sources_count": 0,
    "arguments_count": 1,
    "votes": [
      {
        "user": {
          "username": "Michel Marsault",
          "displayName": "Michel Marsault",
          "uniqueId": "michelmarsault",
          "isAdmin": false,
          "media": null,
          "vip": false,
          "_links": {
            "profile": "https://www.republique-numerique.fr/profile/michelmarsault",
            "settings": "https://www.republique-numerique.fr/profile/edit-profile"
          }
        },
        "value": 1
      },
      {
        "user": {
          "username": "Emmanuel Haguet",
          "displayName": "Emmanuel Haguet",
          "uniqueId": "emmanuelhaguet",
          "isAdmin": false,
          "media": null,
          "vip": false,
          "_links": {
            "profile": "https://www.republique-numerique.fr/profile/emmanuelhaguet",
            "settings": "https://www.republique-numerique.fr/profile/edit-profile"
          }
        },
        "value": -1
      },
      {
        "user": {
          "username": "BOURSIN",
          "displayName": "BOURSIN",
          "uniqueId": "boursin",
          "isAdmin": false,
          "media": null,
          "vip": false,
          "_links": {
            "profile": "https://www.republique-numerique.fr/profile/boursin",
            "settings": "https://www.republique-numerique.fr/profile/edit-profile"
          }
        },
        "value": 1
      },
      {
        "user": {
          "username": "Gladieux Dominique",
          "displayName": "Gladieux Dominique",
          "uniqueId": "gladieuxdominique",
          "isAdmin": false,
          "media": null,
          "vip": false,
          "_links": {
            "profile": "https://www.republique-numerique.fr/profile/gladieuxdominique",
            "settings": "https://www.republique-numerique.fr/profile/edit-profile"
          }
        },
        "value": 1
      },
      {
        "user": {
          "username": "Martine MARICHAL",
          "displayName": "Martine MARICHAL",
          "uniqueId": "martinemarichal",
          "isAdmin": false,
          "media": null,
          "vip": false,
          "_links": {
            "profile": "https://www.republique-numerique.fr/profile/martinemarichal",
            "settings": "https://www.republique-numerique.fr/profile/edit-profile"
          }
        },
        "value": 1
      }
    ],
    "updated_at": "2015-10-04T17:55:27+0200",
    "ranking": 624,
    "is_trashed": false,
    "title": "WIFI OBLIGATOIRE EN MAISON DE RETRAITE DANS CAHIER DES CHARGES.",
    "slug": "wifi-obligatoire-en-maison-de-retraite-dans-cahier-des-charges",
    "created_at": "2015-10-04T17:55:27+0200",
    "votes_nok": 2,
    "votes_ok": 5,
    "votes_mitige": 2,
    "_links": {
      "show": "https://www.republique-numerique.fr/consultations/projet-de-loi-numerique/consultation/consultation/opinions/section-1-accessibilite-des-personnes-handicapees-aux-services-telephoniques/acces-aux-personnes-isolees-et-agees/versions/wifi-obligatoire-en-maison-de-retraite-dans-cahier-des-charges",
      "report": "https://www.republique-numerique.fr/consultations/projet-de-loi-numerique/consultation/consultation/opinions/section-1-accessibilite-des-personnes-handicapees-aux-services-telephoniques/acces-aux-personnes-isolees-et-agees/versions/wifi-obligatoire-en-maison-de-retraite-dans-cahier-des-charges/report"
    },
    "user_vote": null,
    "has_user_reported": false
  },
  "rankingThreshold": null,
  "opinionTerm": 1
}