{
  "opinion": {
    "isContribuable": false,
    "votes_total": 70,
    "arguments_yes_count": 3,
    "arguments_no_count": 2,
    "id": 234,
    "created_at": "2015-09-28T11:49:30+0200",
    "updated_at": "2015-09-28T11:49:30+0200",
    "body": "<p>Int&eacute;grer au sein de la &quot;Loi&quot; un glossaire des termes complexes de l&eacute;gistique et/ou tout autre terme juridique, fiscal ou &eacute;conomique pour clarifier la loi et en permettre un acc&egrave;s &eacute;clair&eacute; pour tous les citoyens</p>",
    "versions_count": 0,
    "sources_count": 0,
    "arguments_count": 5,
    "author": {
      "username": "Sabine ICHAÏ",
      "displayName": "Sabine ICHAÏ",
      "uniqueId": "sabineichai",
      "isAdmin": false,
      "media": null,
      "vip": false,
      "_links": {
        "profile": "https://www.republique-numerique.fr/profile/sabineichai",
        "settings": "https://www.republique-numerique.fr/profile/edit-profile"
      }
    },
    "type": {
      "id": 86,
      "title": "Section 1",
      "subtitle": "Ouverture des données publiques",
      "voteWidgetType": 2,
      "votesHelpText": "Pensez-vous que cette proposition permet d'atteindre les objectifs présentés dans l’explication de l’article ?",
      "commentSystem": 2,
      "color": "blue",
      "versionable": true,
      "sourceable": true,
      "votesThreshold": null,
      "votesThresholdHelpText": null
    },
    "sources": [],
    "arguments": [
      {
        "isContribuable": false,
        "id": 6122,
        "body": "L'un des premiers progrès des textes de Loi française consisterait à supprimer l'usage de l'expression « et/ou » inutile d'une part, puisque « et », « ou » et « ou bien » sont amplement suffisant pour exprimer toutes les formes de combinaison logique. Cette expression est à éviter surtout parce que personne ne sait si « et/ou » doit se lire comme « ou » ou bien comme « et », et que les 2 sont logiquement inconciliables.<br>L'expression écrite « et/ou » est un croche-patte à la lecture. D'ailleurs personne ne sait la formuler à voix haute. Cf. http://www.druide.com/enquetes/la-pseudo-conjonction-etou .",
        "created_at": "2015-10-18T22:15:49+0200",
        "updated_at": "2015-10-18T22:16:56+0200",
        "is_enabled": true,
        "votes_count": 0,
        "type": 0,
        "is_trashed": false,
        "author": {
          "username": "daniel Azuelos",
          "displayName": "daniel Azuelos",
          "uniqueId": "danielazuelos",
          "isAdmin": false,
          "media": {
            "url": "/media/cache/default_avatar/default/0001/01/952_default_avatar.jpg"
          },
          "vip": false,
          "_links": {
            "profile": "https://www.republique-numerique.fr/profile/danielazuelos",
            "settings": "https://www.republique-numerique.fr/profile/edit-profile"
          }
        },
        "_links": {
          "show": "https://www.republique-numerique.fr/consultations/projet-de-loi-numerique/consultation/consultation/opinions/section-1-ouverture-des-donnees-publiques-1/accessibilite-des-textes-legilatifs-et-reglementaires#arg-6122",
          "edit": "https://www.republique-numerique.fr/consultations/projet-de-loi-numerique/consultation/consultation/opinions/section-1-ouverture-des-donnees-publiques-1/accessibilite-des-textes-legilatifs-et-reglementaires/arguments/6122/edit",
          "report": "https://www.republique-numerique.fr/consultations/projet-de-loi-numerique/consultation/consultation/opinions/section-1-ouverture-des-donnees-publiques-1/accessibilite-des-textes-legilatifs-et-reglementaires/arguments/6122/report"
        },
        "has_user_voted": false,
        "has_user_reported": false
      },
      {
        "isContribuable": false,
        "id": 5266,
        "body": "Malheureusement, cela ne permettra pas un meilleur accès au droit et une meilleure compréhension des lois. Pour cela il faut aujourd'hui faire au moins 3 ou 4 ans d'études de droit...",
        "created_at": "2015-10-17T15:01:45+0200",
        "updated_at": "2015-10-17T15:01:45+0200",
        "is_enabled": true,
        "votes_count": 0,
        "type": 0,
        "is_trashed": false,
        "author": {
          "username": "Tanéléo",
          "displayName": "Tanéléo",
          "uniqueId": "taneleo",
          "isAdmin": false,
          "media": null,
          "vip": false,
          "_links": {
            "profile": "https://www.republique-numerique.fr/profile/taneleo",
            "settings": "https://www.republique-numerique.fr/profile/edit-profile"
          }
        },
        "_links": {
          "show": "https://www.republique-numerique.fr/consultations/projet-de-loi-numerique/consultation/consultation/opinions/section-1-ouverture-des-donnees-publiques-1/accessibilite-des-textes-legilatifs-et-reglementaires#arg-5266",
          "edit": "https://www.republique-numerique.fr/consultations/projet-de-loi-numerique/consultation/consultation/opinions/section-1-ouverture-des-donnees-publiques-1/accessibilite-des-textes-legilatifs-et-reglementaires/arguments/5266/edit",
          "report": "https://www.republique-numerique.fr/consultations/projet-de-loi-numerique/consultation/consultation/opinions/section-1-ouverture-des-donnees-publiques-1/accessibilite-des-textes-legilatifs-et-reglementaires/arguments/5266/report"
        },
        "has_user_voted": false,
        "has_user_reported": false
      },
      {
        "isContribuable": false,
        "id": 2047,
        "body": "Il faudrait également se diriger vers une réduction du nombre de textes de lois. Il y a tellement de textes (plus ou moins complexes) qu'il est difficile pour un citoyen lambda de s'y retrouver...",
        "created_at": "2015-10-02T20:57:09+0200",
        "updated_at": "2015-10-02T20:57:09+0200",
        "is_enabled": true,
        "votes_count": 4,
        "type": 1,
        "is_trashed": false,
        "author": {
          "username": "Jonathan Crequer",
          "displayName": "Jonathan Crequer",
          "uniqueId": "jonathancrequer",
          "isAdmin": false,
          "media": null,
          "vip": false,
          "_links": {
            "profile": "https://www.republique-numerique.fr/profile/jonathancrequer",
            "settings": "https://www.republique-numerique.fr/profile/edit-profile"
          }
        },
        "_links": {
          "show": "https://www.republique-numerique.fr/consultations/projet-de-loi-numerique/consultation/consultation/opinions/section-1-ouverture-des-donnees-publiques-1/accessibilite-des-textes-legilatifs-et-reglementaires#arg-2047",
          "edit": "https://www.republique-numerique.fr/consultations/projet-de-loi-numerique/consultation/consultation/opinions/section-1-ouverture-des-donnees-publiques-1/accessibilite-des-textes-legilatifs-et-reglementaires/arguments/2047/edit",
          "report": "https://www.republique-numerique.fr/consultations/projet-de-loi-numerique/consultation/consultation/opinions/section-1-ouverture-des-donnees-publiques-1/accessibilite-des-textes-legilatifs-et-reglementaires/arguments/2047/report"
        },
        "has_user_voted": false,
        "has_user_reported": false
      },
      {
        "isContribuable": false,
        "id": 1069,
        "body": "Le site \"service-public.fr\" va dans ce sens et il est relié à légifrance qui est plus technique. Mais en Suisse, les textes de lois sont beaucoup plus clairs pour Mr Tout-le-monde et donc on peut moins contourner la loi avec des avocats malins.",
        "created_at": "2015-09-28T23:10:40+0200",
        "updated_at": "2015-09-28T23:10:40+0200",
        "is_enabled": true,
        "votes_count": 5,
        "type": 1,
        "is_trashed": false,
        "author": {
          "username": "Jeanne Varasco",
          "displayName": "Jeanne Varasco",
          "uniqueId": "jeannevarasco",
          "isAdmin": false,
          "media": {
            "url": "/media/cache/default_avatar/default/0001/01/139_default_avatar.jpg"
          },
          "vip": false,
          "_links": {
            "profile": "https://www.republique-numerique.fr/profile/jeannevarasco",
            "settings": "https://www.republique-numerique.fr/profile/edit-profile"
          }
        },
        "_links": {
          "show": "https://www.republique-numerique.fr/consultations/projet-de-loi-numerique/consultation/consultation/opinions/section-1-ouverture-des-donnees-publiques-1/accessibilite-des-textes-legilatifs-et-reglementaires#arg-1069",
          "edit": "https://www.republique-numerique.fr/consultations/projet-de-loi-numerique/consultation/consultation/opinions/section-1-ouverture-des-donnees-publiques-1/accessibilite-des-textes-legilatifs-et-reglementaires/arguments/1069/edit",
          "report": "https://www.republique-numerique.fr/consultations/projet-de-loi-numerique/consultation/consultation/opinions/section-1-ouverture-des-donnees-publiques-1/accessibilite-des-textes-legilatifs-et-reglementaires/arguments/1069/report"
        },
        "has_user_voted": false,
        "has_user_reported": false
      },
      {
        "isContribuable": false,
        "id": 933,
        "body": "\"Nul n'est sensé ignorer la loi\"\nEncore faut-il la comprendre... xD",
        "created_at": "2015-09-28T15:58:34+0200",
        "updated_at": "2015-09-28T15:58:34+0200",
        "is_enabled": true,
        "votes_count": 4,
        "type": 1,
        "is_trashed": false,
        "author": {
          "username": "Valoo Wart",
          "displayName": "Valoo Wart",
          "uniqueId": "valoowart",
          "isAdmin": false,
          "media": null,
          "vip": false,
          "_links": {
            "profile": "https://www.republique-numerique.fr/profile/valoowart",
            "settings": "https://www.republique-numerique.fr/profile/edit-profile"
          }
        },
        "_links": {
          "show": "https://www.republique-numerique.fr/consultations/projet-de-loi-numerique/consultation/consultation/opinions/section-1-ouverture-des-donnees-publiques-1/accessibilite-des-textes-legilatifs-et-reglementaires#arg-933",
          "edit": "https://www.republique-numerique.fr/consultations/projet-de-loi-numerique/consultation/consultation/opinions/section-1-ouverture-des-donnees-publiques-1/accessibilite-des-textes-legilatifs-et-reglementaires/arguments/933/edit",
          "report": "https://www.republique-numerique.fr/consultations/projet-de-loi-numerique/consultation/consultation/opinions/section-1-ouverture-des-donnees-publiques-1/accessibilite-des-textes-legilatifs-et-reglementaires/arguments/933/report"
        },
        "has_user_voted": false,
        "has_user_reported": false
      }
    ],
    "modals": [],
    "votes": [
      {
        "user": {
          "username": "Brevard",
          "displayName": "Brevard",
          "uniqueId": "brevard",
          "isAdmin": false,
          "media": null,
          "vip": false,
          "_links": {
            "profile": "https://www.republique-numerique.fr/profile/brevard",
            "settings": "https://www.republique-numerique.fr/profile/edit-profile"
          }
        }
      },
      {
        "user": {
          "username": "Valoo Wart",
          "displayName": "Valoo Wart",
          "uniqueId": "valoowart",
          "isAdmin": false,
          "media": null,
          "vip": false,
          "_links": {
            "profile": "https://www.republique-numerique.fr/profile/valoowart",
            "settings": "https://www.republique-numerique.fr/profile/edit-profile"
          }
        }
      },
      {
        "user": {
          "username": "Jeanne Varasco",
          "displayName": "Jeanne Varasco",
          "uniqueId": "jeannevarasco",
          "isAdmin": false,
          "media": {
            "url": "/media/cache/default_avatar/default/0001/01/139_default_avatar.jpg"
          },
          "vip": false,
          "_links": {
            "profile": "https://www.republique-numerique.fr/profile/jeannevarasco",
            "settings": "https://www.republique-numerique.fr/profile/edit-profile"
          }
        }
      },
      {
        "user": {
          "username": "Vincent CLIPET",
          "displayName": "Vincent CLIPET",
          "uniqueId": "vincentclipet",
          "isAdmin": false,
          "media": null,
          "vip": false,
          "_links": {
            "profile": "https://www.republique-numerique.fr/profile/vincentclipet",
            "settings": "https://www.republique-numerique.fr/profile/edit-profile"
          }
        }
      },
      {
        "user": {
          "username": "Benjamin Rothan",
          "displayName": "Benjamin Rothan",
          "uniqueId": "benjaminrothan",
          "isAdmin": false,
          "media": null,
          "vip": false,
          "_links": {
            "profile": "https://www.republique-numerique.fr/profile/benjaminrothan",
            "settings": "https://www.republique-numerique.fr/profile/edit-profile"
          }
        }
      }
    ],
    "appendices": [
      {
        "body": null,
        "type": {
          "title": "Explication de l'article"
        }
      }
    ],
    "ranking": 125,
    "is_trashed": false,
    "title": "Accessibilité des textes légilatifs et réglementaires",
    "votes_nok": 2,
    "votes_ok": 68,
    "votes_mitige": 0,
    "_links": {
      "show": "https://www.republique-numerique.fr/consultations/projet-de-loi-numerique/consultation/consultation/opinions/section-1-ouverture-des-donnees-publiques-1/accessibilite-des-textes-legilatifs-et-reglementaires",
      "edit": "https://www.republique-numerique.fr/consultations/projet-de-loi-numerique/consultation/consultation/opinions/section-1-ouverture-des-donnees-publiques-1/accessibilite-des-textes-legilatifs-et-reglementaires/edit",
      "report": "https://www.republique-numerique.fr/consultations/projet-de-loi-numerique/consultation/consultation/opinions/section-1-ouverture-des-donnees-publiques-1/accessibilite-des-textes-legilatifs-et-reglementaires/report",
      "type": "https://www.republique-numerique.fr/consultations/projet-de-loi-numerique/consultation/consultation/opinions/section-1-ouverture-des-donnees-publiques-1"
    },
    "user_vote": null,
    "has_user_reported": false
  },
  "rankingThreshold": null,
  "opinionTerm": 1
}