{
  "version": {
    "isContribuable": false,
    "votes_total": 9,
    "arguments_yes_count": 2,
    "arguments_no_count": 1,
    "id": 203,
    "body": "<p>A l&rsquo;article 1er de la loi n&deg; 78-17 du 6 janvier 1978 relative &agrave; l&#39;informatique, aux fichiers et aux libert&eacute;s il est ajout&eacute; un alin&eacute;a ainsi r&eacute;dig&eacute;&nbsp;:</p>\n\n<p>&laquo;&nbsp;Toute personne dispose du droit de d&eacute;cider des usages qui sont faits de ses donn&eacute;es &agrave; caract&egrave;re personnel et de les contr&ocirc;ler, dans les conditions et limites fix&eacute;es par les lois et r&egrave;glements en vigueur.&nbsp;&raquo;</p>\n\n<p>SUPPRESSION PURE ET SIMPLE SI ABSENCE D EXPLICITATION DES ENJEUX REELS DE CETTE DISPOSITION</p>",
    "comment": "<p>Cette disposition se situe dans la droite ligne du mythe de l&#39;&quot;empowerment&quot; de la personne fich&eacute;e (voir rapport du forum de Davos de 2013 sur les donn&eacute;es personnelles + rapport 2014 du Conseil d&#39;Etat). Son objectif affich&eacute; est d&#39;accorder &agrave; l&#39;individu fich&eacute; une plus grande maitrise sur ses donn&eacute;es personnelles, en &eacute;tendant la port&eacute;e du consentement - d&eacute;j&agrave; existant depuis la directive 95/46 - au traitement de ses donn&eacute;es personnelles par un tiers.</p>\n\n<p>&nbsp;</p>\n\n<p>Cette proposition revient effectivement &agrave; donner &agrave; l&#39;individu plus de pouvoir. Notamment le pouvoir d&#39;accepter n&#39;importe quelle utilisation relative &agrave; ses donn&eacute;es personnelles par l&#39;acceptation d&#39;une clause noy&eacute;e dans un contrat d&#39;adh&eacute;sion ou au sein des lignes directrices de la politique d&#39;utilisation d&#39;un site. Tous documents que personne ne lit, surtout quand l&#39;acception en bloc de toutes ces clauses, le plus souvent techniques et incompr&eacute;hensibles du profane, conditionne l&#39;acc&egrave;s au site ou &agrave; la prestation de service.</p>\n\n<p>&nbsp;</p>\n\n<p>Cette proposition revient sciemment &agrave; instrumentaliser la faiblesse du libre-arbitre de tout un chacun sur des questions &eacute;minemment techniques, sujets sur lesquels, au regard de ce degr&eacute; de technicit&eacute;, l&#39;individu non sp&eacute;cialiste doit &ecirc;tre consid&eacute;r&eacute; comme un majeur incapable pour son propre bien. Le libre-arbitre est une fiction, et le mod&egrave;le de la rationalit&eacute; individuelle a &eacute;t&eacute; &agrave; juste titre critiqu&eacute; depuis plus de trente ans (voir travaux de l&#39;am&eacute;ricain Herbert Simon sur la rationalit&eacute; limit&eacute;e).</p>\n\n<p>&nbsp;</p>\n\n<p>Aujourd&#39;hui, la port&eacute;e du consentement au traitement des donn&eacute;es personnelles a une port&eacute;e limit&eacute;e, pour notre propre bien. Ce que le gouvernement propose, c&#39;est d&#39;en &eacute;tendre la port&eacute;e. Cela signifie que ce n&#39;est plus la loi n&deg;78-17 du janvier 1978 et la CNIL, autorit&eacute; de police administrative sp&eacute;ciale, qui se chargeront de prot&eacute;ger effectivement vos donn&eacute;es personnelles. Ce sera vous, n&#39;importe qui, pour peu qu&#39;il soit majeur (et encore). On le voit, la plus value en terme de savoir technique est incomparable. Idem pour la force de persuasion. On se gausse souvent du pouvoir qu&#39;a la CNIL de faire appliquer r&eacute;ellement la loi du 6 janvier 1978 &agrave; des g&eacute;ants du net, sans parler des entreprises lambda. Mais elle, au moins, elle dispose d&#39;un pouvoir de sanction administrative (jusqu&#39;&agrave; 100 000 euros d&#39;amende quand m&ecirc;me... Les seuils sont en cours de rehaussage dans le projet de r&eacute;glement de janvier 2012), de pouvoirs de mise en demeure, de contr&ocirc;le sur pi&egrave;ces et sur place... Et vous? Et tout un chacun? On a mieux &agrave; disposition pour prot&eacute;ger nos donn&eacute;es personnelles? S&eacute;rieusement?</p>\n\n<p>&nbsp;</p>\n\n<p>Ce que je dis ne fera plaisir &agrave; personne: ni &agrave; l&#39;auteur de ce projet qui n&#39;a pas eu le cran d&#39;admettre qu&#39;il aura m&eacute;caniquement pour effet une d&eacute;gradation de la jouissance de nos droits fondamentaux, ni &agrave; certains autres citoyens qui pourraient l&eacute;gitimement s&#39;emporter d&#39;&ecirc;tre trait&eacute;s ainsi de majeurs incapables sur ce sujet pr&eacute;cis. Mais de gr&acirc;ce, passez le c&ocirc;t&eacute; &eacute;pidermique de la&nbsp;chose et demandez-vous si vous-m&ecirc;me, le consentement que vous formulez d&eacute;j&agrave; au traitement de vos donn&eacute;es sur certains sites ou en signant certains contrats est parfaitement &eacute;clair&eacute;. Serez-vous pr&ecirc;ts &agrave; lire des lignes con&ccedil;ues pour &ecirc;tre r&eacute;barbatives relatives aux droits que vous aurez sur vos donn&eacute;es quand elles auront &eacute;t&eacute; d&eacute;localis&eacute;es dans un paradis des donn&eacute;es comme les Etats-Unis? Lirez-vous et comprendrez vous cette rugueuse litt&eacute;rature, quand cette lecture et cette r&eacute;flexion seront le seul obstacle &agrave; l&#39;acc&egrave;s imm&eacute;diat &agrave; un service, un contrat ou au surf sur un site internet?</p>\n\n<p>Si nous ne voulons pas nous trouver dans un far-west des donn&eacute;es personnelles, &agrave; l&#39;am&eacute;ricaine, il faut vigoureusement en appeler au retrait imm&eacute;diat de cette disposition.</p>",
    "author": {
      "username": "Nicolas Ochoa",
      "displayName": "Nicolas Ochoa",
      "uniqueId": "nicolasochoa",
      "isAdmin": false,
      "media": null,
      "vip": false,
      "_links": {
        "profile": "https://www.republique-numerique.fr/profile/nicolasochoa",
        "settings": "https://www.republique-numerique.fr/profile/edit-profile"
      }
    },
    "arguments": [
      {
        "isContribuable": false,
        "id": 671,
        "body": "Un contrat déloyal n'a aucune valeur légale; un contrat vous proposant de vendre vos enfants ou vos organes en noyant cela au milieu de pages de jargon technique n'aurait aucune valeur. Il suffit donc d'imposer des contrats loyaux, dont chaque clause engageant le signataire sur un point vital (la libre disposition de ses données, par exemple) serait à cocher à part, et pas seulement à la fin\nSi un site est obligé de vous dire clairement qu'il compte mettre une option sur votre vie privée, plus aucun ne le fera",
        "created_at": "2015-09-27T20:34:13+0200",
        "updated_at": "2015-09-27T20:34:13+0200",
        "is_enabled": true,
        "votes_count": 3,
        "type": 0,
        "is_trashed": false,
        "author": {
          "username": "Vincent Baptiste",
          "displayName": "Vincent Baptiste",
          "uniqueId": "vincentbaptiste",
          "isAdmin": false,
          "media": null,
          "vip": false,
          "_links": {
            "profile": "https://www.republique-numerique.fr/profile/vincentbaptiste",
            "settings": "https://www.republique-numerique.fr/profile/edit-profile"
          }
        },
        "_links": {
          "show": "https://www.republique-numerique.fr/consultations/projet-de-loi-numerique/consultation/consultation/opinions/section-1-protection-des-donnees-a-caractere-personnel/article-16-libre-disposition-de-ses-donnees-a-caractere-personnel/versions/la-realite-des-enjeux-de-cette-disposition-doit-etre-precisee#arg-671",
          "edit": "https://www.republique-numerique.fr/consultations/projet-de-loi-numerique/consultation/consultation/opinions/section-1-protection-des-donnees-a-caractere-personnel/article-16-libre-disposition-de-ses-donnees-a-caractere-personnel/arguments/671/edit",
          "report": "https://www.republique-numerique.fr/consultations/projet-de-loi-numerique/consultation/consultation/opinions/section-1-protection-des-donnees-a-caractere-personnel/article-16-libre-disposition-de-ses-donnees-a-caractere-personnel/arguments/671/report"
        },
        "has_user_voted": false,
        "has_user_reported": false
      },
      {
        "isContribuable": false,
        "id": 679,
        "body": "Votre argumentation est intéressante mais appelle deux critiques:\n\n1) Le caractère illégal d'un contrat implique, pour être découvert, qu'il y ait action devant une juridiction. En matière de contentieux judiciaire des traitements de données personnelles (hors saisine CNIL, action administrative), la personne fichée se retrouve dans une position aussi structurellement défavorisée qu'un consommateur l'est dans son rapport de consommation avec une entreprise. Inégalité des ressources monétaires et informationnelles entre les parties au contrat, contentieux de masse, très faible enjeux monétaire, méconnaissance des enjeux. Donc à peu près aucune chance qu'une personne fichée saisisse le juge judiciaire pour apprécier de la validité d'un contrat (pour mémoire, dans le système actuel, qui ne laisse pas la part belle au contrat pour organiser cela, la saisine de la CNIL est gratuite...).\n\n2) Singulariser le consentement de chaque clause, en lui dédiant par exemple un onglet spécifique, est une idée que je trouve intéressante mais malheureusement insuffisante. Cela garantit que la question des données sera vue (je ne dis pas \"lue\", et encore moins \"comprise\"...) par la personne fichée. Sauf qu'il est tout à fait loisible à l'entreprise qui propose ce contrat de subordonner sa prestation de service à l'acceptation de sa politique en la matière. C'est déjà le cas. Comment on fait quand ce sont Amazon, la SNCF ou d'autres acteurs incontournables qui font cela? On cesse de commander chez eux?",
        "created_at": "2015-09-27T21:09:35+0200",
        "updated_at": "2015-09-27T21:09:35+0200",
        "is_enabled": true,
        "votes_count": 0,
        "type": 1,
        "is_trashed": false,
        "author": {
          "username": "Nicolas Ochoa",
          "displayName": "Nicolas Ochoa",
          "uniqueId": "nicolasochoa",
          "isAdmin": false,
          "media": null,
          "vip": false,
          "_links": {
            "profile": "https://www.republique-numerique.fr/profile/nicolasochoa",
            "settings": "https://www.republique-numerique.fr/profile/edit-profile"
          }
        },
        "_links": {
          "show": "https://www.republique-numerique.fr/consultations/projet-de-loi-numerique/consultation/consultation/opinions/section-1-protection-des-donnees-a-caractere-personnel/article-16-libre-disposition-de-ses-donnees-a-caractere-personnel/versions/la-realite-des-enjeux-de-cette-disposition-doit-etre-precisee#arg-679",
          "edit": "https://www.republique-numerique.fr/consultations/projet-de-loi-numerique/consultation/consultation/opinions/section-1-protection-des-donnees-a-caractere-personnel/article-16-libre-disposition-de-ses-donnees-a-caractere-personnel/arguments/679/edit",
          "report": "https://www.republique-numerique.fr/consultations/projet-de-loi-numerique/consultation/consultation/opinions/section-1-protection-des-donnees-a-caractere-personnel/article-16-libre-disposition-de-ses-donnees-a-caractere-personnel/arguments/679/report"
        },
        "has_user_voted": false,
        "has_user_reported": false
      },
      {
        "isContribuable": false,
        "id": 680,
        "body": "Et une remarque, pour compléter mon argument précédent: \n\n2bis) D'ailleurs, votre remarque me fait penser qu'aux Etats-Unis, tout ou presque est contractualisé en la matière. Certaines entreprises prennent le parti d'arborer une politique de gestion des données personnelles respectueuse des droits fondamentaux de la personne fichée, genre greenwashing mais numérique. Pour autant, les résultats d'une telle \"incitation\" à la vertu pour les entreprises sont décriés par la plupart des auteurs américains eux mêmes, juristes ou économistes. Voir par exemple SCHWARTZ M. Paul, Property, « Privacy and Personal Data, Harvard Law Review », Vol. 117, n° 7 (May, 2004), pp. 2056-2128 ; ou 1150. RICKERT Benjamin, « Data Privacy and Institutionnal Decision Makers: A Study of U.S. And EU Approaches », Tilburg Foreign Law Review, Vol. 11, Issue 1 (2003-2004), p. 467.",
        "created_at": "2015-09-27T21:10:05+0200",
        "updated_at": "2015-09-27T21:10:05+0200",
        "is_enabled": true,
        "votes_count": 0,
        "type": 1,
        "is_trashed": false,
        "author": {
          "username": "Nicolas Ochoa",
          "displayName": "Nicolas Ochoa",
          "uniqueId": "nicolasochoa",
          "isAdmin": false,
          "media": null,
          "vip": false,
          "_links": {
            "profile": "https://www.republique-numerique.fr/profile/nicolasochoa",
            "settings": "https://www.republique-numerique.fr/profile/edit-profile"
          }
        },
        "_links": {
          "show": "https://www.republique-numerique.fr/consultations/projet-de-loi-numerique/consultation/consultation/opinions/section-1-protection-des-donnees-a-caractere-personnel/article-16-libre-disposition-de-ses-donnees-a-caractere-personnel/versions/la-realite-des-enjeux-de-cette-disposition-doit-etre-precisee#arg-680",
          "edit": "https://www.republique-numerique.fr/consultations/projet-de-loi-numerique/consultation/consultation/opinions/section-1-protection-des-donnees-a-caractere-personnel/article-16-libre-disposition-de-ses-donnees-a-caractere-personnel/arguments/680/edit",
          "report": "https://www.republique-numerique.fr/consultations/projet-de-loi-numerique/consultation/consultation/opinions/section-1-protection-des-donnees-a-caractere-personnel/article-16-libre-disposition-de-ses-donnees-a-caractere-personnel/arguments/680/report"
        },
        "has_user_voted": false,
        "has_user_reported": false
      }
    ],
    "sources": [],
    "parent": {
      "isContribuable": false,
      "id": 76,
      "body": "<p>A l&rsquo;article 1er de la loi n&deg; 78-17 du 6 janvier 1978 relative &agrave; l&#39;informatique, aux fichiers et aux libert&eacute;s il est ajout&eacute; un alin&eacute;a ainsi r&eacute;dig&eacute;&nbsp;:</p>\r\n\r\n<p>&laquo;&nbsp;Toute personne dispose du droit de d&eacute;cider des usages qui sont faits de ses donn&eacute;es &agrave; caract&egrave;re personnel et de les contr&ocirc;ler, dans les conditions et limites fix&eacute;es par les lois et r&egrave;glements en vigueur.&nbsp;&raquo;</p>",
      "type": {
        "id": 99,
        "title": "Section 1",
        "subtitle": "Protection des données à caractère personnel",
        "voteWidgetType": 2,
        "votesHelpText": "Pensez-vous que cette proposition permet d'atteindre les objectifs présentés dans l’explication de l’article ?",
        "commentSystem": 2,
        "color": "blue",
        "versionable": true,
        "sourceable": true,
        "votesThreshold": null,
        "votesThresholdHelpText": null
      },
      "modals": [
        {
          "key": "article 1er",
          "before": "<p>« L'informatique doit être au service de chaque citoyen. Son développement doit s'opérer dans le cadre de la coopération internationale. Elle ne doit porter atteinte ni à l'identité humaine, ni aux droits de l'homme, ni à la vie privée, ni aux libertés individuelles ou publiques. »</p>",
          "after": "<p>« L'informatique doit être au service de chaque citoyen. Son développement doit s'opérer dans le cadre de la coopération internationale. Elle ne doit porter atteinte ni à l'identité humaine, ni aux droits de l'homme, ni à la vie privée, ni aux libertés individuelles ou publiques. »</p><p>Toute personne dispose du droit de décider des usages qui sont faits de ses données à caractère personnel et de les contrôler, dans les conditions et limites fixées par les lois et règlements en vigueur.»</p>",
          "title": "Article 1 de la loi informatique et liberté (n° 78-17) du 17 janvier 1978"
        }
      ],
      "appendices": [
        {
          "body": "<p><strong>Objectif :</strong> affirmer le droit de chacun &agrave; la Libre disposition de ses donn&eacute;es &agrave; caract&egrave;re personnel</p>\r\n\r\n<p><strong>Explication :</strong> Alors que la quantit&eacute; de donn&eacute;es cro&icirc;t de mani&egrave;re exponentielle, il est essentiel que l&rsquo;individu puisse d&eacute;cider de la communication et de l&rsquo;utilisation des donn&eacute;es &agrave; caract&egrave;re personnel qui le concerne. Ce principe, recommand&eacute; parle Conseil d&rsquo;Etat, constitue une r&eacute;ponse d&rsquo;une grande ambition &agrave; la perte g&eacute;n&eacute;rale de ma&icirc;trise par les individus de leurs donn&eacute;es personnelles. Il ne constitue pas un ajout &agrave; la liste des droits d&eacute;j&agrave; reconnu par les textes existants (droit d&rsquo;acc&egrave;s, droit d&rsquo;opposition&hellip;) mais il donne sens &agrave; tous ces droits.<br />\r\nEnfin, ce choix permet de clarifier l&rsquo;absence de droit de propri&eacute;t&eacute; sur les donn&eacute;es, qui emporterait des risques sur la cession de ce droit et la marchandisation des donn&eacute;es personnelles. Il est donc pr&eacute;f&eacute;rable de cr&eacute;er un droit rattach&eacute; &agrave; la personne, c&rsquo;est-&agrave;-dire un droit de la personnalit&eacute;.</p>\r\n\r\n<p><strong>Exemple :</strong> Les CGU (conditions g&eacute;n&eacute;rales d&rsquo;utilisation) des sites internet qui affirment d&eacute;tenir un droit de propri&eacute;t&eacute; sur les donn&eacute;es mises en ligne par les utilisateurs pourront &ecirc;tre annul&eacute;es</p>",
          "type": {
            "title": "Explication de l'article"
          }
        }
      ],
      "title": "Article 16 - Libre disposition de ses données",
      "_links": {
        "show": "https://www.republique-numerique.fr/consultations/projet-de-loi-numerique/consultation/consultation/opinions/section-1-protection-des-donnees-a-caractere-personnel/article-16-libre-disposition-de-ses-donnees-a-caractere-personnel",
        "edit": "https://www.republique-numerique.fr/consultations/projet-de-loi-numerique/consultation/consultation/opinions/section-1-protection-des-donnees-a-caractere-personnel/article-16-libre-disposition-de-ses-donnees-a-caractere-personnel/edit",
        "report": "https://www.republique-numerique.fr/consultations/projet-de-loi-numerique/consultation/consultation/opinions/section-1-protection-des-donnees-a-caractere-personnel/article-16-libre-disposition-de-ses-donnees-a-caractere-personnel/report",
        "type": "https://www.republique-numerique.fr/consultations/projet-de-loi-numerique/consultation/consultation/opinions/section-1-protection-des-donnees-a-caractere-personnel"
      },
      "user_vote": null,
      "has_user_reported": false
    },
    "sources_count": 0,
    "arguments_count": 3,
    "votes": [
      {
        "user": {
          "username": "Vincent Baptiste",
          "displayName": "Vincent Baptiste",
          "uniqueId": "vincentbaptiste",
          "isAdmin": false,
          "media": null,
          "vip": false,
          "_links": {
            "profile": "https://www.republique-numerique.fr/profile/vincentbaptiste",
            "settings": "https://www.republique-numerique.fr/profile/edit-profile"
          }
        },
        "value": -1
      },
      {
        "user": {
          "username": "Monégier",
          "displayName": "Monégier",
          "uniqueId": "monegier",
          "isAdmin": false,
          "media": null,
          "vip": false,
          "_links": {
            "profile": "https://www.republique-numerique.fr/profile/monegier",
            "settings": "https://www.republique-numerique.fr/profile/edit-profile"
          }
        },
        "value": 1
      },
      {
        "user": {
          "username": "François Briat",
          "displayName": "François Briat",
          "uniqueId": "francoisbriat",
          "isAdmin": false,
          "media": {
            "url": "/media/cache/default_avatar/default/0001/01/243_default_avatar.jpg"
          },
          "vip": false,
          "_links": {
            "profile": "https://www.republique-numerique.fr/profile/francoisbriat",
            "settings": "https://www.republique-numerique.fr/profile/edit-profile"
          }
        },
        "value": -1
      },
      {
        "user": {
          "username": "VIGIER Frederic",
          "displayName": "VIGIER Frederic",
          "uniqueId": "vigierfrederic",
          "isAdmin": false,
          "media": null,
          "vip": false,
          "_links": {
            "profile": "https://www.republique-numerique.fr/profile/vigierfrederic",
            "settings": "https://www.republique-numerique.fr/profile/edit-profile"
          }
        },
        "value": -1
      },
      {
        "user": {
          "username": "Pierre",
          "displayName": "Pierre",
          "uniqueId": "pierre1",
          "isAdmin": false,
          "media": {
            "url": "/media/cache/default_avatar/default/0001/01/199_default_avatar.png"
          },
          "vip": false,
          "_links": {
            "profile": "https://www.republique-numerique.fr/profile/pierre1",
            "settings": "https://www.republique-numerique.fr/profile/edit-profile"
          }
        },
        "value": -1
      }
    ],
    "updated_at": "2015-09-27T12:03:52+0200",
    "ranking": 1028,
    "is_trashed": false,
    "title": "Cette disposition, sous couvert d'exalter le libre-arbitre de la personne, ne fait qu'instrumentaliser sa faiblesse. Elle doit être retirée.",
    "slug": "la-realite-des-enjeux-de-cette-disposition-doit-etre-precisee",
    "created_at": "2015-09-27T11:53:18+0200",
    "votes_nok": 5,
    "votes_ok": 1,
    "votes_mitige": 3,
    "_links": {
      "show": "https://www.republique-numerique.fr/consultations/projet-de-loi-numerique/consultation/consultation/opinions/section-1-protection-des-donnees-a-caractere-personnel/article-16-libre-disposition-de-ses-donnees-a-caractere-personnel/versions/la-realite-des-enjeux-de-cette-disposition-doit-etre-precisee",
      "report": "https://www.republique-numerique.fr/consultations/projet-de-loi-numerique/consultation/consultation/opinions/section-1-protection-des-donnees-a-caractere-personnel/article-16-libre-disposition-de-ses-donnees-a-caractere-personnel/versions/la-realite-des-enjeux-de-cette-disposition-doit-etre-precisee/report"
    },
    "user_vote": null,
    "has_user_reported": false
  },
  "rankingThreshold": null,
  "opinionTerm": 1
}