{
  "version": {
    "isContribuable": false,
    "votes_total": 1,
    "arguments_yes_count": 0,
    "arguments_no_count": 0,
    "id": 672,
    "body": "<p>A l&rsquo;article 1er de la loi n&deg; 78-17 du 6 janvier 1978 relative &agrave; l&#39;informatique, aux fichiers et aux libert&eacute;s il est ajout&eacute; un alin&eacute;a ainsi r&eacute;dig&eacute;&nbsp;:</p>\n\n<p>&laquo;&nbsp;Toute personne dispose du droit d&#39;&ecirc;tre inform&eacute;e des usages qui sont faits des donn&eacute;es &agrave; caract&egrave;re personnel qu&#39;il a accept&eacute; de partager et de qui les utilise afin de d&eacute;cider d&#39;en autoriser les usages qui sont faits et de les contr&ocirc;ler, dans les conditions et limites fix&eacute;es par les lois et r&egrave;glements en vigueur. Cette information et d&eacute;cision de la personne partageant ses donn&eacute;es doit se faire &agrave; chaque fois que la donn&eacute;e est utilis&eacute;e. &raquo;</p>\n\n<p>&nbsp;</p>\n\n<p>D&eacute;tailler ce que veut dire &agrave; caract&egrave;re personnel : cf CNIL</p>",
    "comment": "Les donn&eacute;es personnelles sont un bien de valeur. Les individu doivent savoir si elles ont accept&eacute;s de les partager, &agrave; qui et dans quelles conditions (usages de ces donn&eacute;es), et ce &agrave; chaque fois que la donn&eacute;es est utilis&eacute;e.",
    "author": {
      "username": "Damien Frésier",
      "displayName": "Damien Frésier",
      "uniqueId": "damienfresier",
      "isAdmin": false,
      "media": null,
      "vip": false,
      "_links": {
        "profile": "https://www.republique-numerique.fr/profile/damienfresier",
        "settings": "https://www.republique-numerique.fr/profile/edit-profile"
      }
    },
    "arguments": [],
    "sources": [],
    "parent": {
      "isContribuable": false,
      "id": 76,
      "body": "<p>A l&rsquo;article 1er de la loi n&deg; 78-17 du 6 janvier 1978 relative &agrave; l&#39;informatique, aux fichiers et aux libert&eacute;s il est ajout&eacute; un alin&eacute;a ainsi r&eacute;dig&eacute;&nbsp;:</p>\r\n\r\n<p>&laquo;&nbsp;Toute personne dispose du droit de d&eacute;cider des usages qui sont faits de ses donn&eacute;es &agrave; caract&egrave;re personnel et de les contr&ocirc;ler, dans les conditions et limites fix&eacute;es par les lois et r&egrave;glements en vigueur.&nbsp;&raquo;</p>",
      "type": {
        "id": 99,
        "title": "Section 1",
        "subtitle": "Protection des données à caractère personnel",
        "voteWidgetType": 2,
        "votesHelpText": "Pensez-vous que cette proposition permet d'atteindre les objectifs présentés dans l’explication de l’article ?",
        "commentSystem": 2,
        "color": "blue",
        "versionable": true,
        "sourceable": true,
        "votesThreshold": null,
        "votesThresholdHelpText": null
      },
      "modals": [
        {
          "key": "article 1er",
          "before": "<p>« L'informatique doit être au service de chaque citoyen. Son développement doit s'opérer dans le cadre de la coopération internationale. Elle ne doit porter atteinte ni à l'identité humaine, ni aux droits de l'homme, ni à la vie privée, ni aux libertés individuelles ou publiques. »</p>",
          "after": "<p>« L'informatique doit être au service de chaque citoyen. Son développement doit s'opérer dans le cadre de la coopération internationale. Elle ne doit porter atteinte ni à l'identité humaine, ni aux droits de l'homme, ni à la vie privée, ni aux libertés individuelles ou publiques. »</p><p>Toute personne dispose du droit de décider des usages qui sont faits de ses données à caractère personnel et de les contrôler, dans les conditions et limites fixées par les lois et règlements en vigueur.»</p>",
          "title": "Article 1 de la loi informatique et liberté (n° 78-17) du 17 janvier 1978"
        }
      ],
      "appendices": [
        {
          "body": "<p><strong>Objectif :</strong> affirmer le droit de chacun &agrave; la Libre disposition de ses donn&eacute;es &agrave; caract&egrave;re personnel</p>\r\n\r\n<p><strong>Explication :</strong> Alors que la quantit&eacute; de donn&eacute;es cro&icirc;t de mani&egrave;re exponentielle, il est essentiel que l&rsquo;individu puisse d&eacute;cider de la communication et de l&rsquo;utilisation des donn&eacute;es &agrave; caract&egrave;re personnel qui le concerne. Ce principe, recommand&eacute; parle Conseil d&rsquo;Etat, constitue une r&eacute;ponse d&rsquo;une grande ambition &agrave; la perte g&eacute;n&eacute;rale de ma&icirc;trise par les individus de leurs donn&eacute;es personnelles. Il ne constitue pas un ajout &agrave; la liste des droits d&eacute;j&agrave; reconnu par les textes existants (droit d&rsquo;acc&egrave;s, droit d&rsquo;opposition&hellip;) mais il donne sens &agrave; tous ces droits.<br />\r\nEnfin, ce choix permet de clarifier l&rsquo;absence de droit de propri&eacute;t&eacute; sur les donn&eacute;es, qui emporterait des risques sur la cession de ce droit et la marchandisation des donn&eacute;es personnelles. Il est donc pr&eacute;f&eacute;rable de cr&eacute;er un droit rattach&eacute; &agrave; la personne, c&rsquo;est-&agrave;-dire un droit de la personnalit&eacute;.</p>\r\n\r\n<p><strong>Exemple :</strong> Les CGU (conditions g&eacute;n&eacute;rales d&rsquo;utilisation) des sites internet qui affirment d&eacute;tenir un droit de propri&eacute;t&eacute; sur les donn&eacute;es mises en ligne par les utilisateurs pourront &ecirc;tre annul&eacute;es</p>",
          "type": {
            "title": "Explication de l'article"
          }
        }
      ],
      "title": "Article 16 - Libre disposition de ses données",
      "_links": {
        "show": "https://www.republique-numerique.fr/consultations/projet-de-loi-numerique/consultation/consultation/opinions/section-1-protection-des-donnees-a-caractere-personnel/article-16-libre-disposition-de-ses-donnees-a-caractere-personnel",
        "edit": "https://www.republique-numerique.fr/consultations/projet-de-loi-numerique/consultation/consultation/opinions/section-1-protection-des-donnees-a-caractere-personnel/article-16-libre-disposition-de-ses-donnees-a-caractere-personnel/edit",
        "report": "https://www.republique-numerique.fr/consultations/projet-de-loi-numerique/consultation/consultation/opinions/section-1-protection-des-donnees-a-caractere-personnel/article-16-libre-disposition-de-ses-donnees-a-caractere-personnel/report",
        "type": "https://www.republique-numerique.fr/consultations/projet-de-loi-numerique/consultation/consultation/opinions/section-1-protection-des-donnees-a-caractere-personnel"
      },
      "user_vote": null,
      "has_user_reported": false
    },
    "sources_count": 0,
    "arguments_count": 0,
    "votes": [
      {
        "user": {
          "username": "Vincent Reverdy",
          "displayName": "Vincent Reverdy",
          "uniqueId": "vincentreverdy",
          "isAdmin": false,
          "media": {
            "url": "/media/cache/default_avatar/default/0001/01/268_default_avatar.jpg"
          },
          "vip": false,
          "_links": {
            "profile": "https://www.republique-numerique.fr/profile/vincentreverdy",
            "settings": "https://www.republique-numerique.fr/profile/edit-profile"
          }
        },
        "value": 0
      }
    ],
    "updated_at": "2015-10-06T22:04:01+0200",
    "ranking": 1201,
    "is_trashed": false,
    "title": "information de l'utilisation",
    "slug": "information-de-l-utilisation",
    "created_at": "2015-10-06T22:04:01+0200",
    "votes_nok": 0,
    "votes_ok": 0,
    "votes_mitige": 1,
    "_links": {
      "show": "https://www.republique-numerique.fr/consultations/projet-de-loi-numerique/consultation/consultation/opinions/section-1-protection-des-donnees-a-caractere-personnel/article-16-libre-disposition-de-ses-donnees-a-caractere-personnel/versions/information-de-l-utilisation",
      "report": "https://www.republique-numerique.fr/consultations/projet-de-loi-numerique/consultation/consultation/opinions/section-1-protection-des-donnees-a-caractere-personnel/article-16-libre-disposition-de-ses-donnees-a-caractere-personnel/versions/information-de-l-utilisation/report"
    },
    "user_vote": null,
    "has_user_reported": false
  },
  "rankingThreshold": null,
  "opinionTerm": 1
}