{
  "version": {
    "isContribuable": false,
    "votes_total": 11,
    "arguments_yes_count": 0,
    "arguments_no_count": 0,
    "id": 1049,
    "body": "<p>A l&rsquo;article 1er de la loi n&deg; 78-17 du 6 janvier 1978 relative &agrave; l&#39;informatique, aux fichiers et aux libert&eacute;s il est ajout&eacute; un alin&eacute;a ainsi r&eacute;dig&eacute;&nbsp;:</p>\n\n<p>&laquo;&nbsp;Toute personne dispose <s>du droit de d&eacute;cider des usages qui sont faits de ses donn&eacute;es &agrave; caract&egrave;re personnel et de les contr&ocirc;ler, dans les conditions et limites fix&eacute;es par les lois et r&egrave;glements en vigueur</s>. &nbsp;de la souverainet&eacute; sur ses donn&eacute;es &agrave; caract&egrave;re personnel afin d&#39;en autoriser l&#39;usage et le contr&ocirc;le.&nbsp;</p>\n\n<p>Ce droit comprend notamment le droit de d&eacute;finir les r&egrave;gles d&#39;accession, d&#39;utilisation et d&#39;exploitation, sous r&eacute;serve des dispositions d&#39;ordre public.</p>\n\n<p>Ce droit comprend &eacute;galement la protection de l&#39;intimit&eacute; des personnes concern&eacute;es.&nbsp;&raquo;</p>",
    "comment": "Tel que r&eacute;dig&eacute;, l&rsquo;article 1er de la loi Informatique et libert&eacute;s offre une protection trop limit&eacute;e par rapport aux moyens technologiques qui permettent la cr&eacute;ation de copie virtuelle d&rsquo;un individu en prenant en compte les divers aspects de sa personnalit&eacute; &agrave; l&rsquo;aide de ce que l&rsquo;on appelle les &laquo; signaux faibles &raquo; sur internet.<br />\nGr&acirc;ce &agrave; des algorithmes puissants, les moteurs de recherche sont aujourd&rsquo;hui capables de d&eacute;tecter des signaux faibles sur internet comme des informations noy&eacute;es dans le flot des conversations sur les r&eacute;seaux sociaux, ou encore l&rsquo;ensemble des informations communiqu&eacute;es par les objets connect&eacute;s ; autant d&rsquo;informations qui permettent de connaitre la personnalit&eacute;, voire l&rsquo;identit&eacute; d&rsquo;un individu.&nbsp;<br />\nIl conviendrait donc de cr&eacute;er un droit g&eacute;n&eacute;ral permettant &agrave; chaque personne d&rsquo;exercer une souverainet&eacute; sur ses donn&eacute;es.",
    "author": {
      "username": "Alain Bensoussan",
      "displayName": "Alain Bensoussan",
      "uniqueId": "alainbensoussan",
      "isAdmin": false,
      "media": {
        "url": "/media/cache/default_avatar/default/0001/01/734_default_avatar.jpg"
      },
      "vip": false,
      "_links": {
        "profile": "https://www.republique-numerique.fr/profile/alainbensoussan",
        "settings": "https://www.republique-numerique.fr/profile/edit-profile"
      }
    },
    "arguments": [],
    "sources": [],
    "parent": {
      "isContribuable": false,
      "id": 76,
      "body": "<p>A l&rsquo;article 1er de la loi n&deg; 78-17 du 6 janvier 1978 relative &agrave; l&#39;informatique, aux fichiers et aux libert&eacute;s il est ajout&eacute; un alin&eacute;a ainsi r&eacute;dig&eacute;&nbsp;:</p>\r\n\r\n<p>&laquo;&nbsp;Toute personne dispose du droit de d&eacute;cider des usages qui sont faits de ses donn&eacute;es &agrave; caract&egrave;re personnel et de les contr&ocirc;ler, dans les conditions et limites fix&eacute;es par les lois et r&egrave;glements en vigueur.&nbsp;&raquo;</p>",
      "type": {
        "id": 99,
        "title": "Section 1",
        "subtitle": "Protection des données à caractère personnel",
        "voteWidgetType": 2,
        "votesHelpText": "Pensez-vous que cette proposition permet d'atteindre les objectifs présentés dans l’explication de l’article ?",
        "commentSystem": 2,
        "color": "blue",
        "versionable": true,
        "sourceable": true,
        "votesThreshold": null,
        "votesThresholdHelpText": null
      },
      "modals": [
        {
          "key": "article 1er",
          "before": "<p>« L'informatique doit être au service de chaque citoyen. Son développement doit s'opérer dans le cadre de la coopération internationale. Elle ne doit porter atteinte ni à l'identité humaine, ni aux droits de l'homme, ni à la vie privée, ni aux libertés individuelles ou publiques. »</p>",
          "after": "<p>« L'informatique doit être au service de chaque citoyen. Son développement doit s'opérer dans le cadre de la coopération internationale. Elle ne doit porter atteinte ni à l'identité humaine, ni aux droits de l'homme, ni à la vie privée, ni aux libertés individuelles ou publiques. »</p><p>Toute personne dispose du droit de décider des usages qui sont faits de ses données à caractère personnel et de les contrôler, dans les conditions et limites fixées par les lois et règlements en vigueur.»</p>",
          "title": "Article 1 de la loi informatique et liberté (n° 78-17) du 17 janvier 1978"
        }
      ],
      "appendices": [
        {
          "body": "<p><strong>Objectif :</strong> affirmer le droit de chacun &agrave; la Libre disposition de ses donn&eacute;es &agrave; caract&egrave;re personnel</p>\r\n\r\n<p><strong>Explication :</strong> Alors que la quantit&eacute; de donn&eacute;es cro&icirc;t de mani&egrave;re exponentielle, il est essentiel que l&rsquo;individu puisse d&eacute;cider de la communication et de l&rsquo;utilisation des donn&eacute;es &agrave; caract&egrave;re personnel qui le concerne. Ce principe, recommand&eacute; parle Conseil d&rsquo;Etat, constitue une r&eacute;ponse d&rsquo;une grande ambition &agrave; la perte g&eacute;n&eacute;rale de ma&icirc;trise par les individus de leurs donn&eacute;es personnelles. Il ne constitue pas un ajout &agrave; la liste des droits d&eacute;j&agrave; reconnu par les textes existants (droit d&rsquo;acc&egrave;s, droit d&rsquo;opposition&hellip;) mais il donne sens &agrave; tous ces droits.<br />\r\nEnfin, ce choix permet de clarifier l&rsquo;absence de droit de propri&eacute;t&eacute; sur les donn&eacute;es, qui emporterait des risques sur la cession de ce droit et la marchandisation des donn&eacute;es personnelles. Il est donc pr&eacute;f&eacute;rable de cr&eacute;er un droit rattach&eacute; &agrave; la personne, c&rsquo;est-&agrave;-dire un droit de la personnalit&eacute;.</p>\r\n\r\n<p><strong>Exemple :</strong> Les CGU (conditions g&eacute;n&eacute;rales d&rsquo;utilisation) des sites internet qui affirment d&eacute;tenir un droit de propri&eacute;t&eacute; sur les donn&eacute;es mises en ligne par les utilisateurs pourront &ecirc;tre annul&eacute;es</p>",
          "type": {
            "title": "Explication de l'article"
          }
        }
      ],
      "title": "Article 16 - Libre disposition de ses données",
      "_links": {
        "show": "https://www.republique-numerique.fr/consultations/projet-de-loi-numerique/consultation/consultation/opinions/section-1-protection-des-donnees-a-caractere-personnel/article-16-libre-disposition-de-ses-donnees-a-caractere-personnel",
        "edit": "https://www.republique-numerique.fr/consultations/projet-de-loi-numerique/consultation/consultation/opinions/section-1-protection-des-donnees-a-caractere-personnel/article-16-libre-disposition-de-ses-donnees-a-caractere-personnel/edit",
        "report": "https://www.republique-numerique.fr/consultations/projet-de-loi-numerique/consultation/consultation/opinions/section-1-protection-des-donnees-a-caractere-personnel/article-16-libre-disposition-de-ses-donnees-a-caractere-personnel/report",
        "type": "https://www.republique-numerique.fr/consultations/projet-de-loi-numerique/consultation/consultation/opinions/section-1-protection-des-donnees-a-caractere-personnel"
      },
      "user_vote": null,
      "has_user_reported": false
    },
    "sources_count": 0,
    "arguments_count": 0,
    "votes": [
      {
        "user": {
          "username": "Lenoir Sarah",
          "displayName": "Lenoir Sarah",
          "uniqueId": "lenoirsarah",
          "isAdmin": false,
          "media": null,
          "vip": false,
          "_links": {
            "profile": "https://www.republique-numerique.fr/profile/lenoirsarah",
            "settings": "https://www.republique-numerique.fr/profile/edit-profile"
          }
        },
        "value": 1
      },
      {
        "user": {
          "username": "Clémentine Hutin",
          "displayName": "Clémentine Hutin",
          "uniqueId": "clementinehutin",
          "isAdmin": false,
          "media": null,
          "vip": false,
          "_links": {
            "profile": "https://www.republique-numerique.fr/profile/clementinehutin",
            "settings": "https://www.republique-numerique.fr/profile/edit-profile"
          }
        },
        "value": 1
      },
      {
        "user": {
          "username": "Isabelle Pottier",
          "displayName": "Isabelle Pottier",
          "uniqueId": "isabellepottier",
          "isAdmin": false,
          "media": {
            "url": "/media/cache/default_avatar/default/0001/01/814_default_avatar.jpg"
          },
          "vip": false,
          "_links": {
            "profile": "https://www.republique-numerique.fr/profile/isabellepottier",
            "settings": "https://www.republique-numerique.fr/profile/edit-profile"
          }
        },
        "value": 1
      },
      {
        "user": {
          "username": "ultralucide",
          "displayName": "ultralucide",
          "uniqueId": "ultralucide",
          "isAdmin": false,
          "media": null,
          "vip": false,
          "_links": {
            "profile": "https://www.republique-numerique.fr/profile/ultralucide",
            "settings": "https://www.republique-numerique.fr/profile/edit-profile"
          }
        },
        "value": 1
      },
      {
        "user": {
          "username": "Duflot Jean-Luc",
          "displayName": "Duflot Jean-Luc",
          "uniqueId": "duflotjeanluc",
          "isAdmin": false,
          "media": null,
          "vip": false,
          "_links": {
            "profile": "https://www.republique-numerique.fr/profile/duflotjeanluc",
            "settings": "https://www.republique-numerique.fr/profile/edit-profile"
          }
        },
        "value": 1
      }
    ],
    "updated_at": "2015-10-15T15:14:28+0200",
    "ranking": 379,
    "is_trashed": false,
    "title": "Article 16 : Droit à la souveraineté sur ses données",
    "slug": "article-16-droit-a-la-souverainete-sur-ses-donnees",
    "created_at": "2015-10-15T15:14:28+0200",
    "votes_nok": 0,
    "votes_ok": 11,
    "votes_mitige": 0,
    "_links": {
      "show": "https://www.republique-numerique.fr/consultations/projet-de-loi-numerique/consultation/consultation/opinions/section-1-protection-des-donnees-a-caractere-personnel/article-16-libre-disposition-de-ses-donnees-a-caractere-personnel/versions/article-16-droit-a-la-souverainete-sur-ses-donnees",
      "report": "https://www.republique-numerique.fr/consultations/projet-de-loi-numerique/consultation/consultation/opinions/section-1-protection-des-donnees-a-caractere-personnel/article-16-libre-disposition-de-ses-donnees-a-caractere-personnel/versions/article-16-droit-a-la-souverainete-sur-ses-donnees/report"
    },
    "user_vote": null,
    "has_user_reported": false
  },
  "rankingThreshold": null,
  "opinionTerm": 1
}