{
  "version": {
    "isContribuable": false,
    "votes_total": 9,
    "arguments_yes_count": 1,
    "arguments_no_count": 2,
    "id": 313,
    "body": "<p>A l&rsquo;article 1er de la loi n&deg; 78-17 du 6 janvier 1978 relative &agrave; l&#39;informatique, aux fichiers et aux libert&eacute;s il est ajout&eacute; un alin&eacute;a ainsi r&eacute;dig&eacute;&nbsp;:</p>\n\n<p>&laquo;&nbsp;Toute personne dispose du droit de d&eacute;cider des usages qui sont faits de ses donn&eacute;es &agrave; caract&egrave;re personnel et de les contr&ocirc;ler, dans les conditions et limites fix&eacute;es par les lois et r&egrave;glements en vigueur.&nbsp;&raquo;</p>\n\n<p>---------------------------------------------------------------------------------------------------------------------------------------------------------</p>\n\n<p>&quot;L&#39;utilisation des donn&eacute;es personnelles ne pourra se faire qu&#39;avec l&#39;accord explicite de l&#39;utilisateur propri&eacute;taire, par la pr&eacute;sentation d&#39;une question simple. En cas d&#39;accord, l&#39;utilisateur des donn&eacute;es personnelles devra obligatoirement verser une r&eacute;num&eacute;ration adapt&eacute;e au propri&eacute;taire&quot;</p>\n\n<p>&quot; A tout moment le propri&eacute;taire des donn&eacute;es pourra interrompre cette autorisation sans p&eacute;nalit&eacute; d&#39;aucune sorte ni complication. En aucun cas un transfert de propri&eacute;t&eacute; des donn&eacute;es ne pourra &ecirc;tre pr&eacute;vu, le titulaire des donn&eacute;es restant l&#39;unique propri&eacute;taire de l&#39;ensemble de ses donn&eacute;es.&quot;</p>",
    "comment": "<p>Aujourd&#39;hui il est la plupart des cas impossible pour un utilisateur lambda de savoir si ses donn&eacute;es sont utilisables, c&#39;est l&#39;esprit de cet article de loi de contrer cela et c&#39;est bien, mais d&#39;un point de vue concret les dispositions&nbsp; prises par les entreprises exploitant nos donn&eacute;es (CGU, CGV de 10 pages) rendent les choses illisibles. d&#39;o&ugrave; la production d&#39;une question simple,explicite impos&eacute;e.</p>\n\n<p>Il faudrait cr&eacute;er m&ecirc;me un principe de &quot;miroir&quot; : quelque soit le domaine il doit &ecirc;tre possible de se d&eacute;sinscrire avec la m&ecirc;me facilit&eacute; (m&ecirc;me nombre de &quot;clics&quot; par exemple&quot;) que pour l&#39;inscription - et ce quelques soient les supports d&#39;inscription (ordi, tablette, t&eacute;l&eacute;vision....) - L&#39;id&eacute;e ici est que souvent on s&#39;inscrit en deux clics mais on doit se d&eacute;sinscrire avec une lettre recommand&eacute;e AR traitables dans les 6 mois... j&#39;exag&egrave;re &agrave; peine.</p>\n\n<p>Il faut que le fournisseur des donn&eacute;es personnelles, &agrave; partir du moment o&ugrave; il a donn&eacute; son accord explicite, soit r&eacute;num&eacute;r&eacute;. Ces donn&eacute;es sont de &quot;l&#39;or&quot; pour les entreprises aujourd&#39;hui et elles se r&eacute;num&egrave;rent entre elles pour leur obtention, aucune raison que l&#39;individu propri&eacute;taire des donn&eacute;es ne soit pas r&eacute;num&eacute;r&eacute; en fonction s&#39;il donne son accord.</p>",
    "author": {
      "username": "Bosc",
      "displayName": "Bosc",
      "uniqueId": "bosc",
      "isAdmin": false,
      "media": null,
      "vip": false,
      "_links": {
        "profile": "https://www.republique-numerique.fr/profile/bosc",
        "settings": "https://www.republique-numerique.fr/profile/edit-profile"
      }
    },
    "arguments": [
      {
        "isContribuable": false,
        "id": 1077,
        "body": "La rémunération systématique freinera le développement de services numériques.\n\nAu final les utilisateurs que nous sommes n'auront ni rémunérations complémentaires, ni services supplémentaires ",
        "created_at": "2015-09-28T23:28:53+0200",
        "updated_at": "2015-09-28T23:28:53+0200",
        "is_enabled": true,
        "votes_count": 0,
        "type": 0,
        "is_trashed": false,
        "author": {
          "username": "A. Badoche",
          "displayName": "A. Badoche",
          "uniqueId": "abadoche",
          "isAdmin": false,
          "media": null,
          "vip": false,
          "_links": {
            "profile": "https://www.republique-numerique.fr/profile/abadoche",
            "settings": "https://www.republique-numerique.fr/profile/edit-profile"
          }
        },
        "_links": {
          "show": "https://www.republique-numerique.fr/consultations/projet-de-loi-numerique/consultation/consultation/opinions/section-1-protection-des-donnees-a-caractere-personnel/article-16-libre-disposition-de-ses-donnees-a-caractere-personnel/versions/modalites-concretes-d-utilisation-des-donnees-personnelles-par-les-tiers#arg-1077",
          "edit": "https://www.republique-numerique.fr/consultations/projet-de-loi-numerique/consultation/consultation/opinions/section-1-protection-des-donnees-a-caractere-personnel/article-16-libre-disposition-de-ses-donnees-a-caractere-personnel/arguments/1077/edit",
          "report": "https://www.republique-numerique.fr/consultations/projet-de-loi-numerique/consultation/consultation/opinions/section-1-protection-des-donnees-a-caractere-personnel/article-16-libre-disposition-de-ses-donnees-a-caractere-personnel/arguments/1077/report"
        },
        "has_user_voted": false,
        "has_user_reported": false
      },
      {
        "isContribuable": false,
        "id": 1197,
        "body": "Je ne suis pas forcément pour car je considère personnellement que la patrimonialisation des données personnelles constitue une régression de la protection de nos droits et libertés en tant que personnes fichées. \r\n\r\nMais a minima, cette proposition a le mérite d'un certain humanisme en ne considérant pas la personne fichée comme une vache à lait, taillable et corvéable à merci. Ce que semble penser M. Badoche. \r\n\r\nTout doit-il être sacrifié sur l'autel de plus de services numériques? Sommes nous juste des consommateurs de service? Aux dernières nouvelles, heureusement non: le Code du commerce n'a pas encore remplacé ces obstacles irritants au développement des services numériques que sont la Constitution, la Déclaration des droits de l'homme et du citoyen, la Charte des droits fondamentaux de l'UE et la Convension européenne des droits de l'homme et des libertés fondamentales.",
        "created_at": "2015-09-29T12:02:36+0200",
        "updated_at": "2015-09-29T12:03:50+0200",
        "is_enabled": true,
        "votes_count": 1,
        "type": 1,
        "is_trashed": false,
        "author": {
          "username": "Nicolas Ochoa",
          "displayName": "Nicolas Ochoa",
          "uniqueId": "nicolasochoa",
          "isAdmin": false,
          "media": null,
          "vip": false,
          "_links": {
            "profile": "https://www.republique-numerique.fr/profile/nicolasochoa",
            "settings": "https://www.republique-numerique.fr/profile/edit-profile"
          }
        },
        "_links": {
          "show": "https://www.republique-numerique.fr/consultations/projet-de-loi-numerique/consultation/consultation/opinions/section-1-protection-des-donnees-a-caractere-personnel/article-16-libre-disposition-de-ses-donnees-a-caractere-personnel/versions/modalites-concretes-d-utilisation-des-donnees-personnelles-par-les-tiers#arg-1197",
          "edit": "https://www.republique-numerique.fr/consultations/projet-de-loi-numerique/consultation/consultation/opinions/section-1-protection-des-donnees-a-caractere-personnel/article-16-libre-disposition-de-ses-donnees-a-caractere-personnel/arguments/1197/edit",
          "report": "https://www.republique-numerique.fr/consultations/projet-de-loi-numerique/consultation/consultation/opinions/section-1-protection-des-donnees-a-caractere-personnel/article-16-libre-disposition-de-ses-donnees-a-caractere-personnel/arguments/1197/report"
        },
        "has_user_voted": false,
        "has_user_reported": false
      },
      {
        "isContribuable": false,
        "id": 1323,
        "body": "Au final les sociétés étrangères pourront se développer au détriment des notres !",
        "created_at": "2015-09-29T18:07:44+0200",
        "updated_at": "2015-09-29T18:07:44+0200",
        "is_enabled": true,
        "votes_count": 1,
        "type": 0,
        "is_trashed": false,
        "author": {
          "username": "lacombe",
          "displayName": "lacombe",
          "uniqueId": "lacombe",
          "isAdmin": false,
          "media": {
            "url": "/media/cache/default_avatar/default/0001/01/310_default_avatar.png"
          },
          "vip": false,
          "_links": {
            "profile": "https://www.republique-numerique.fr/profile/lacombe",
            "settings": "https://www.republique-numerique.fr/profile/edit-profile"
          }
        },
        "_links": {
          "show": "https://www.republique-numerique.fr/consultations/projet-de-loi-numerique/consultation/consultation/opinions/section-1-protection-des-donnees-a-caractere-personnel/article-16-libre-disposition-de-ses-donnees-a-caractere-personnel/versions/modalites-concretes-d-utilisation-des-donnees-personnelles-par-les-tiers#arg-1323",
          "edit": "https://www.republique-numerique.fr/consultations/projet-de-loi-numerique/consultation/consultation/opinions/section-1-protection-des-donnees-a-caractere-personnel/article-16-libre-disposition-de-ses-donnees-a-caractere-personnel/arguments/1323/edit",
          "report": "https://www.republique-numerique.fr/consultations/projet-de-loi-numerique/consultation/consultation/opinions/section-1-protection-des-donnees-a-caractere-personnel/article-16-libre-disposition-de-ses-donnees-a-caractere-personnel/arguments/1323/report"
        },
        "has_user_voted": false,
        "has_user_reported": false
      }
    ],
    "sources": [],
    "parent": {
      "isContribuable": false,
      "id": 76,
      "body": "<p>A l&rsquo;article 1er de la loi n&deg; 78-17 du 6 janvier 1978 relative &agrave; l&#39;informatique, aux fichiers et aux libert&eacute;s il est ajout&eacute; un alin&eacute;a ainsi r&eacute;dig&eacute;&nbsp;:</p>\r\n\r\n<p>&laquo;&nbsp;Toute personne dispose du droit de d&eacute;cider des usages qui sont faits de ses donn&eacute;es &agrave; caract&egrave;re personnel et de les contr&ocirc;ler, dans les conditions et limites fix&eacute;es par les lois et r&egrave;glements en vigueur.&nbsp;&raquo;</p>",
      "type": {
        "id": 99,
        "title": "Section 1",
        "subtitle": "Protection des données à caractère personnel",
        "voteWidgetType": 2,
        "votesHelpText": "Pensez-vous que cette proposition permet d'atteindre les objectifs présentés dans l’explication de l’article ?",
        "commentSystem": 2,
        "color": "blue",
        "versionable": true,
        "sourceable": true,
        "votesThreshold": null,
        "votesThresholdHelpText": null
      },
      "modals": [
        {
          "key": "article 1er",
          "before": "<p>« L'informatique doit être au service de chaque citoyen. Son développement doit s'opérer dans le cadre de la coopération internationale. Elle ne doit porter atteinte ni à l'identité humaine, ni aux droits de l'homme, ni à la vie privée, ni aux libertés individuelles ou publiques. »</p>",
          "after": "<p>« L'informatique doit être au service de chaque citoyen. Son développement doit s'opérer dans le cadre de la coopération internationale. Elle ne doit porter atteinte ni à l'identité humaine, ni aux droits de l'homme, ni à la vie privée, ni aux libertés individuelles ou publiques. »</p><p>Toute personne dispose du droit de décider des usages qui sont faits de ses données à caractère personnel et de les contrôler, dans les conditions et limites fixées par les lois et règlements en vigueur.»</p>",
          "title": "Article 1 de la loi informatique et liberté (n° 78-17) du 17 janvier 1978"
        }
      ],
      "appendices": [
        {
          "body": "<p><strong>Objectif :</strong> affirmer le droit de chacun &agrave; la Libre disposition de ses donn&eacute;es &agrave; caract&egrave;re personnel</p>\r\n\r\n<p><strong>Explication :</strong> Alors que la quantit&eacute; de donn&eacute;es cro&icirc;t de mani&egrave;re exponentielle, il est essentiel que l&rsquo;individu puisse d&eacute;cider de la communication et de l&rsquo;utilisation des donn&eacute;es &agrave; caract&egrave;re personnel qui le concerne. Ce principe, recommand&eacute; parle Conseil d&rsquo;Etat, constitue une r&eacute;ponse d&rsquo;une grande ambition &agrave; la perte g&eacute;n&eacute;rale de ma&icirc;trise par les individus de leurs donn&eacute;es personnelles. Il ne constitue pas un ajout &agrave; la liste des droits d&eacute;j&agrave; reconnu par les textes existants (droit d&rsquo;acc&egrave;s, droit d&rsquo;opposition&hellip;) mais il donne sens &agrave; tous ces droits.<br />\r\nEnfin, ce choix permet de clarifier l&rsquo;absence de droit de propri&eacute;t&eacute; sur les donn&eacute;es, qui emporterait des risques sur la cession de ce droit et la marchandisation des donn&eacute;es personnelles. Il est donc pr&eacute;f&eacute;rable de cr&eacute;er un droit rattach&eacute; &agrave; la personne, c&rsquo;est-&agrave;-dire un droit de la personnalit&eacute;.</p>\r\n\r\n<p><strong>Exemple :</strong> Les CGU (conditions g&eacute;n&eacute;rales d&rsquo;utilisation) des sites internet qui affirment d&eacute;tenir un droit de propri&eacute;t&eacute; sur les donn&eacute;es mises en ligne par les utilisateurs pourront &ecirc;tre annul&eacute;es</p>",
          "type": {
            "title": "Explication de l'article"
          }
        }
      ],
      "title": "Article 16 - Libre disposition de ses données",
      "_links": {
        "show": "https://www.republique-numerique.fr/consultations/projet-de-loi-numerique/consultation/consultation/opinions/section-1-protection-des-donnees-a-caractere-personnel/article-16-libre-disposition-de-ses-donnees-a-caractere-personnel",
        "edit": "https://www.republique-numerique.fr/consultations/projet-de-loi-numerique/consultation/consultation/opinions/section-1-protection-des-donnees-a-caractere-personnel/article-16-libre-disposition-de-ses-donnees-a-caractere-personnel/edit",
        "report": "https://www.republique-numerique.fr/consultations/projet-de-loi-numerique/consultation/consultation/opinions/section-1-protection-des-donnees-a-caractere-personnel/article-16-libre-disposition-de-ses-donnees-a-caractere-personnel/report",
        "type": "https://www.republique-numerique.fr/consultations/projet-de-loi-numerique/consultation/consultation/opinions/section-1-protection-des-donnees-a-caractere-personnel"
      },
      "user_vote": null,
      "has_user_reported": false
    },
    "sources_count": 0,
    "arguments_count": 3,
    "votes": [
      {
        "user": {
          "username": "A. Badoche",
          "displayName": "A. Badoche",
          "uniqueId": "abadoche",
          "isAdmin": false,
          "media": null,
          "vip": false,
          "_links": {
            "profile": "https://www.republique-numerique.fr/profile/abadoche",
            "settings": "https://www.republique-numerique.fr/profile/edit-profile"
          }
        },
        "value": -1
      },
      {
        "user": {
          "username": "Camille T",
          "displayName": "Camille T",
          "uniqueId": "camillet",
          "isAdmin": false,
          "media": null,
          "vip": false,
          "_links": {
            "profile": "https://www.republique-numerique.fr/profile/camillet",
            "settings": "https://www.republique-numerique.fr/profile/edit-profile"
          }
        },
        "value": -1
      },
      {
        "user": {
          "username": "Nicolas Ochoa",
          "displayName": "Nicolas Ochoa",
          "uniqueId": "nicolasochoa",
          "isAdmin": false,
          "media": null,
          "vip": false,
          "_links": {
            "profile": "https://www.republique-numerique.fr/profile/nicolasochoa",
            "settings": "https://www.republique-numerique.fr/profile/edit-profile"
          }
        },
        "value": 1
      },
      {
        "user": {
          "username": "François Briat",
          "displayName": "François Briat",
          "uniqueId": "francoisbriat",
          "isAdmin": false,
          "media": {
            "url": "/media/cache/default_avatar/default/0001/01/243_default_avatar.jpg"
          },
          "vip": false,
          "_links": {
            "profile": "https://www.republique-numerique.fr/profile/francoisbriat",
            "settings": "https://www.republique-numerique.fr/profile/edit-profile"
          }
        },
        "value": -1
      },
      {
        "user": {
          "username": "Lionel Frédéric Lebeau",
          "displayName": "Lionel Frédéric Lebeau",
          "uniqueId": "lionelfredericlebeau",
          "isAdmin": false,
          "media": null,
          "vip": false,
          "_links": {
            "profile": "https://www.republique-numerique.fr/profile/lionelfredericlebeau",
            "settings": "https://www.republique-numerique.fr/profile/edit-profile"
          }
        },
        "value": 0
      }
    ],
    "updated_at": "2015-09-28T13:51:31+0200",
    "ranking": 880,
    "is_trashed": false,
    "title": "Modalités concrètes d'utilisation des données personnelles par les tiers",
    "slug": "modalites-concretes-d-utilisation-des-donnees-personnelles-par-les-tiers",
    "created_at": "2015-09-28T13:51:31+0200",
    "votes_nok": 4,
    "votes_ok": 2,
    "votes_mitige": 3,
    "_links": {
      "show": "https://www.republique-numerique.fr/consultations/projet-de-loi-numerique/consultation/consultation/opinions/section-1-protection-des-donnees-a-caractere-personnel/article-16-libre-disposition-de-ses-donnees-a-caractere-personnel/versions/modalites-concretes-d-utilisation-des-donnees-personnelles-par-les-tiers",
      "report": "https://www.republique-numerique.fr/consultations/projet-de-loi-numerique/consultation/consultation/opinions/section-1-protection-des-donnees-a-caractere-personnel/article-16-libre-disposition-de-ses-donnees-a-caractere-personnel/versions/modalites-concretes-d-utilisation-des-donnees-personnelles-par-les-tiers/report"
    },
    "user_vote": null,
    "has_user_reported": false
  },
  "rankingThreshold": null,
  "opinionTerm": 1
}